# Blender v2.82 (sub 7) OBJ File: ''
# www.blender.org
mtllib Cont(25)-5-Scaled.mtl
o SciFi_Crate01_B.007_meshId9_name
v -1.153110 0.349790 -0.272980
v -1.269140 0.300290 -0.268260
v -1.113400 0.300290 -0.265850
v -0.179750 0.349790 -0.257900
v -0.692210 0.300290 -0.259320
v -0.185760 0.300290 -0.251480
v -0.711160 0.349790 -0.266130
v -0.866050 0.300290 -0.262020
v -0.012120 0.300290 -0.248850
v 0.002660 0.349790 -0.255070
v -0.893570 0.349790 -0.268960
v -0.110030 -0.895450 -0.220960
v 1.195260 -0.987250 -0.236950
v 1.194690 -0.895450 -0.200750
v -0.214620 -0.895450 -0.222580
v -0.109470 -0.987250 -0.257160
v -0.664380 -0.895450 -0.229550
v -0.214060 -0.987250 -0.258780
v -0.768970 -0.895450 -0.231170
v -0.663820 -0.987250 -0.265750
v -1.370370 -0.895450 -0.240490
v -0.768400 -0.987250 -0.267370
v -1.564010 0.238990 -0.480610
v -1.623930 0.184880 -0.290940
v -1.567180 0.238990 -0.276250
v -1.619030 0.184880 -0.607040
v -1.621070 0.184880 -0.475710
v -1.161010 0.349790 0.237140
v -1.276840 0.300290 0.228830
v -1.324420 0.349790 0.234610
v -0.187650 0.349790 0.252220
v -0.699910 0.300290 0.237770
v -0.719060 0.349790 0.243990
v -0.873750 0.300290 0.235080
v -0.901470 0.349790 0.241160
v -0.019820 0.300290 0.248360
v -0.005240 0.349790 0.255050
v -1.121100 0.300290 0.231240
v 1.187340 -0.987250 0.273870
v -0.116830 -0.895450 0.217460
v 1.187900 -0.895450 0.237670
v -0.117390 -0.987250 0.253660
v -0.221410 -0.895450 0.215840
v -0.221970 -0.987250 0.252040
v -0.671170 -0.895450 0.208870
v -0.671730 -0.987250 0.245070
v -0.775760 -0.895450 0.207250
v -0.776320 -0.987250 0.243450
v -1.377160 -0.895450 0.197940
v -1.632160 0.184880 0.240520
v -1.578150 0.238990 0.431950
v -1.574980 0.238990 0.227590
v -1.637060 0.184880 0.556620
v -1.580400 0.238990 0.577220
v -1.316520 0.349790 -0.275510
v -1.369810 -0.987250 -0.276680
v -1.561760 0.238990 -0.625890
v -0.193460 0.300290 0.245620
v -1.377720 -0.987250 0.234130
v -1.635020 0.184880 0.425280
v 1.135650 0.144700 -0.536400
v 1.135650 0.186500 -0.536400
v 1.106110 0.174250 -0.536860
v 1.139980 0.144700 -0.815410
v 1.110430 0.174250 -0.815860
v 1.139980 0.186500 -0.815410
v 1.139980 0.186500 -0.815410
v 1.106110 0.174250 -0.536860
v 1.135650 0.186500 -0.536400
v 1.093870 0.144700 -0.537040
v 1.098190 0.144700 -0.816050
v 1.110430 0.174250 -0.815860
v 1.093870 0.144700 -0.537040
v 1.106110 0.115150 -0.536860
v 1.110430 0.115150 -0.815860
v 1.098190 0.144700 -0.816050
v 1.135650 0.102910 -0.536400
v 1.139980 0.102910 -0.815410
v 1.165200 0.115150 -0.535940
v 1.169520 0.115150 -0.814950
v 1.139980 0.102910 -0.815410
v 1.165200 0.115150 -0.535940
v 1.135650 0.102910 -0.536400
v 1.177440 0.144700 -0.535750
v 1.181760 0.144700 -0.814760
v 1.169520 0.115150 -0.814950
v 1.177440 0.144700 -0.535750
v 1.165200 0.174250 -0.535940
v 1.169520 0.174250 -0.814950
v 1.181760 0.144700 -0.814760
v 1.165200 0.174250 -0.535940
v 1.169520 0.174250 -0.814950
v 1.202920 -0.987250 -0.731730
v 1.200620 -1.028650 -0.583090
v 1.200620 -0.987250 -0.583090
v -1.561760 -0.987250 -0.625890
v -1.362150 -0.987250 -0.771460
v -1.364450 -0.987250 -0.622830
v 1.203500 -0.292480 -0.769280
v 1.053570 -0.638010 -0.771330
v 1.053580 -0.243150 -0.771600
v -0.656150 0.294920 -0.760530
v -0.172080 0.331920 -0.753030
v -0.206400 0.294920 -0.753560
v 1.130240 0.019920 -0.435510
v 1.335540 -0.189020 -0.198570
v 1.339160 -0.189020 -0.432270
v 1.335540 -0.189020 -0.198570
v 1.392110 -0.573370 -0.197690
v 1.335540 -0.588140 -0.198570
v -1.571080 -0.895450 -0.024330
v -1.373770 -0.895450 -0.021280
v 1.335540 -0.588140 -0.198570
v 1.339160 -0.588140 -0.432270
v 1.335540 -0.588140 -0.198570
v 1.388720 -0.573370 0.021520
v 1.332140 -0.588140 0.020640
v 1.341460 -0.588140 -0.580910
v 1.382850 -0.967810 -0.580270
v 1.382850 -0.600260 -0.580270
v 0.802710 0.349790 -0.589260
v 0.008030 0.391190 -0.601570
v 0.008030 0.349790 -0.601570
v 1.341460 -0.189020 -0.580910
v 1.341460 -0.588140 -0.580910
v -1.559460 0.327750 -0.774520
v -1.312800 0.327750 -0.808250
v -1.313380 0.327750 -0.770710
v 1.178990 -0.026540 -0.583430
v -1.567680 -0.895450 -0.243540
v -1.567120 -0.987250 -0.279740
v 1.382850 -0.217040 -0.580270
v 1.341460 -0.189020 -0.580910
v -1.558880 0.391190 -0.812070
v -1.306860 0.391380 -0.807960
v 0.797340 0.349790 -0.242760
v 0.005730 0.349790 -0.452920
v 0.800410 0.349790 -0.440610
v 0.008030 0.349790 -0.601570
v 1.203500 -0.638010 -0.769280
v 1.385910 -0.967810 -0.766270
v 1.203500 -1.028650 -0.769280
v 0.747250 0.208940 -0.776340
v 0.999020 0.218320 -0.769840
v 0.887480 0.068690 -0.774170
v -1.559460 0.349790 -0.774530
v -1.558880 0.327750 -0.812070
v -1.559460 0.327750 -0.774520
v 0.746670 0.208940 -0.738800
v 0.886900 0.068690 -0.736630
v -1.561760 0.391190 -0.625890
v -1.558880 0.391190 -0.812070
v 1.332140 -0.895450 0.020640
v 1.191300 -0.895450 0.018460
v 1.386940 -0.599760 -0.765130
v 1.171580 -0.215440 -0.769770
v 1.212840 0.004470 -0.766530
v 1.356230 -0.138940 -0.764310
v 1.335540 -0.895450 -0.198570
v 1.200620 -0.987250 -0.583090
v 1.336100 -0.987250 -0.234770
v -1.446670 0.448660 -0.801170
v -1.212120 0.448840 -0.797350
v 0.819860 0.391190 -0.588990
v 0.999020 0.218320 -0.769840
v 0.823710 0.393640 -0.772560
v 1.212840 0.004470 -0.766530
v 1.350940 -0.139950 -0.580770
v 1.356230 -0.138940 -0.764310
v 1.063280 -0.107120 -0.771450
v 0.999020 0.218320 -0.769840
v 1.212840 0.004470 -0.766530
v 0.886900 0.068690 -0.736630
v 0.846230 -0.032660 -0.774810
v 0.845650 -0.032660 -0.737260
v 0.965170 0.187310 -0.586740
v 0.802710 0.349790 -0.589260
v 1.009320 0.140850 -0.437380
v 1.030500 0.115120 -0.143170
v 0.994440 0.216580 -0.586290
v 0.819860 0.391190 -0.588990
v 1.023990 0.155490 -0.438890
v 1.130240 0.019920 -0.435510
v 1.144900 0.034560 -0.437020
v 1.178990 -0.026540 -0.583430
v 1.130240 0.019920 -0.435510
v 0.965170 0.187310 -0.586740
v 1.009320 0.140850 -0.437380
v 0.994440 0.216580 -0.586290
v 1.208260 0.002740 -0.582980
v 0.845650 -0.032660 -0.737260
v 1.053580 -0.243150 -0.771600
v 1.052990 -0.243150 -0.734050
v 0.887480 0.068690 -0.774170
v 1.203500 -1.028650 -0.769280
v 1.322010 -1.028650 -0.581220
v 1.200620 -1.028650 -0.583090
v 1.178990 -0.026540 -0.583430
v 1.208260 0.002740 -0.582980
v 1.322010 -1.028650 -0.581220
v 1.341460 -0.987250 -0.580910
v 1.341460 -0.987250 -0.580910
v 1.336100 -0.987250 -0.234770
v 1.335540 -0.895450 -0.198570
v 1.202920 -0.987250 -0.731730
v 1.335540 -0.189020 -0.198570
v 1.156020 0.060420 -0.107580
v 1.392110 -0.174250 -0.197690
v 1.388720 -0.174250 0.021520
v 1.473930 -0.263540 -0.160560
v 1.149090 0.208390 -0.767320
v 1.198340 0.152830 -0.582930
v 1.202920 0.154560 -0.766490
v 0.999020 0.218320 -0.769840
v 1.144520 0.206660 -0.583770
v 1.212840 0.004470 -0.766530
v 1.208260 0.002740 -0.582980
v 1.052990 -0.243150 -0.734050
v 1.052990 -0.638010 -0.734050
v 1.063280 -0.107120 -0.771450
v 1.202920 -0.638010 -0.731730
v 1.473930 -0.484080 -0.160560
v 1.471090 -0.484080 0.022790
v 1.392110 -0.174250 -0.197690
v 1.473930 -0.484080 -0.160560
v 1.097500 0.045650 0.017010
v 1.099440 0.045650 -0.108460
v 1.332140 -0.895450 0.020640
v 1.003070 0.022970 -0.109520
v 1.099440 0.045650 -0.108460
v 0.937950 0.088620 -0.144610
v 0.707620 0.448660 -0.599140
v 0.010750 0.450270 -0.776880
v 0.008160 0.448660 -0.609980
v 0.711120 0.450880 -0.765390
v -1.309820 0.391190 -0.621980
v -1.449280 0.448660 -0.632550
v -1.561760 0.391190 -0.625890
v -1.141690 0.391620 -0.805150
v -1.068840 0.449050 -0.794900
v -1.313460 0.349790 -0.473360
v -1.561760 0.349790 -0.625890
v -1.564060 0.349790 -0.477240
v -1.567130 0.349790 -0.279390
v -1.155070 0.208940 -0.805810
v -1.155650 0.208940 -0.768270
v -1.311150 0.349790 -0.622000
v -1.561760 0.349790 -0.625890
v -0.885900 0.208940 -0.764090
v -0.885320 0.208940 -0.801630
v -0.885340 0.392300 -0.800460
v -0.885480 0.449660 -0.791410
v -1.144740 0.391190 -0.619430
v -1.214800 0.448660 -0.628920
v -1.150040 0.349790 -0.470830
v -1.311150 0.349790 -0.622000
v -1.147740 0.349790 -0.619470
v 1.003070 0.022970 -0.109520
v 1.001130 0.022970 0.015510
v 0.010890 0.392970 -0.785860
v 0.823710 0.393640 -0.772560
v -0.702930 0.392520 -0.797400
v -0.703070 0.449870 -0.788370
v -0.702900 0.331920 -0.798810
v 0.010330 0.208940 -0.750200
v -0.703490 0.331920 -0.761260
v -0.888200 0.391190 -0.615450
v -1.071610 0.448660 -0.626700
v -0.174250 0.448660 -0.612800
v -0.174380 0.391190 -0.604390
v -0.171660 0.450070 -0.779930
v -0.890510 0.349790 -0.466810
v -1.147740 0.349790 -0.619470
v -0.174380 0.349790 -0.604390
v -0.176690 0.349790 -0.455750
v -0.888200 0.349790 -0.615450
v -0.174380 0.349790 -0.604390
v -1.567230 0.300290 -0.272880
v -0.705790 0.349790 -0.612630
v -0.705790 0.391190 -0.612630
v -0.708090 0.349790 -0.463980
v -0.888200 0.349790 -0.615450
v -0.705790 0.349790 -0.612630
v -0.888070 0.448660 -0.623860
v -0.705660 0.448660 -0.621040
v -0.172080 0.331920 -0.753030
v 0.010910 0.208940 -0.787750
v -0.171500 0.331920 -0.790580
v -0.171520 0.392750 -0.788930
v -0.202750 0.129040 -0.988580
v -0.655350 -0.467390 -0.812280
v -0.652510 0.129040 -0.995550
v -0.098640 0.098140 -0.956710
v -0.101810 -0.485200 -0.751940
v -0.101410 -0.485200 -0.777470
v -0.737040 0.076480 -0.980700
v -0.202920 0.162650 -0.978000
v -0.101810 0.229700 -0.751940
v -0.098640 0.098140 -0.956710
v -0.655770 -0.486810 -0.785560
v -0.760740 -0.485200 -0.762150
v -0.760340 -0.485200 -0.787670
v -0.652680 0.162650 -0.984970
v -0.206400 0.294920 -0.753560
v -0.206010 -0.486810 -0.778590
v -0.656150 -0.486810 -0.760530
v -0.101810 -0.485200 -0.751940
v -0.206400 -0.486810 -0.753560
v -0.760740 0.229700 -0.762150
v -0.656150 0.294920 -0.760530
v -0.118730 0.076480 -0.971120
v -0.205590 -0.467390 -0.805310
v 0.725440 0.303450 0.011240
v -0.015970 0.300290 -0.000240
v 0.935380 0.088720 0.014500
v 0.731000 0.302790 -0.237270
v -1.272990 0.300290 -0.019710
v -1.571080 0.300290 -0.024330
v -1.117250 0.300290 -0.017300
v -0.869900 0.300290 -0.013470
v -0.189620 0.300290 -0.002930
v -0.696060 0.300290 -0.010780
v -0.101810 0.229700 -0.751940
v 0.010330 0.208940 -0.750200
v -0.703490 0.331920 -0.761260
v -0.760740 0.229700 -0.762150
v -0.885900 0.208940 -0.764090
v -0.101810 -0.485200 -0.751940
v -0.760740 -0.485200 -0.762150
v -0.104110 -0.987250 -0.603310
v -0.208700 -0.987250 -0.604930
v -0.658460 -0.987250 -0.611890
v -0.113430 -0.895450 -0.001750
v -0.218020 -0.895450 -0.003370
v -0.667780 -0.895450 -0.010340
v -0.772360 -0.895450 -0.011960
v 1.202920 -0.987250 -0.731730
v -0.101810 -0.987250 -0.751940
v -0.206400 -0.987250 -0.753560
v -0.763040 -0.987250 -0.613510
v -0.656150 -0.987250 -0.760530
v 1.052990 -0.638010 -0.734050
v -0.206400 -0.486810 -0.753560
v -0.656150 -0.486810 -0.760530
v -0.760740 -0.987250 -0.762150
v 1.052990 -0.243150 -0.734050
v 0.845650 -0.032660 -0.737260
v 0.746670 0.208940 -0.738800
v 0.886900 0.068690 -0.736630
v -1.155650 0.208940 -0.768270
v -1.313380 0.327750 -0.770710
v -1.559460 0.327750 -0.774520
v -1.559460 -0.987250 -0.774520
v -1.559460 0.327750 -0.774520
v -1.561760 0.349790 -0.625890
v -1.559460 0.349790 -0.774530
v -1.561760 0.327750 -0.625890
v -1.564060 0.349790 -0.477240
v -1.564060 0.327750 -0.477240
v -1.567130 0.349790 -0.279390
v -1.626680 0.184880 -0.113430
v -1.570220 0.238990 -0.079910
v -1.567120 -0.834150 -0.279980
v -1.623370 -0.868330 -0.327040
v -1.566560 -0.925960 -0.316170
v -1.626680 -0.785330 -0.113430
v -1.623880 -0.785330 -0.294310
v -1.567680 -0.895450 -0.243540
v -1.560320 -0.925960 -0.718950
v -1.561760 -0.987250 -0.625890
v -1.561760 -0.925960 -0.625890
v -1.567120 -0.987250 -0.279740
v -1.570220 -0.834150 -0.079910
v -1.571080 -0.895450 -0.024330
v -1.567230 0.300290 -0.272880
v -1.560320 0.238990 -0.718940
v -1.559460 -0.987250 -0.774520
v -1.571080 0.300290 -0.024330
v -1.617730 0.184880 -0.691180
v -1.619030 -0.868330 -0.607040
v -1.617730 -0.868330 -0.691180
v 1.365030 -1.010830 -0.580550
v 1.367970 -1.010830 -0.766670
v 1.365030 -1.010830 -0.580550
v 1.324900 -1.028650 -0.767400
v 1.388020 -0.216020 -0.763950
v 1.484530 -0.289630 -0.141370
v 1.471090 -0.263540 0.022790
v 1.481980 -0.289630 0.022960
v 1.473930 -0.263540 -0.160560
v 1.484530 -0.457990 -0.141370
v 1.481980 -0.457990 0.022960
v -0.739620 -0.466090 -0.813990
v -0.757570 0.098140 -0.966910
v -0.121310 -0.466090 -0.804410
v -0.757570 0.098140 -0.966910
v -0.737040 0.076480 -0.980700
v -0.760740 -0.485200 -0.762150
v -0.760740 0.229700 -0.762150
v 1.181980 -1.028650 0.620010
v 1.179680 -0.987250 0.768650
v 1.181980 -0.987250 0.620010
v -1.385390 -0.987250 0.728910
v -1.580400 -0.987250 0.577220
v -1.383090 -0.987250 0.580280
v 1.179100 -0.292480 0.806200
v 1.029180 -0.638010 0.803600
v 1.179100 -0.638010 0.806200
v -0.679400 0.294920 0.739850
v -0.195320 0.331920 0.747350
v -0.726730 0.331920 0.739120
v 1.116210 0.019920 0.470320
v 1.328740 -0.189020 0.239850
v 1.095550 0.045650 0.142470
v 1.385320 -0.573370 0.240730
v 1.328740 -0.189020 0.239850
v 1.328740 -0.588140 0.239850
v 1.328740 -0.588140 0.239850
v 1.325120 -0.189020 0.473550
v 1.325120 -0.588140 0.473550
v 1.328740 -0.588140 0.239850
v 1.322820 -0.588140 0.622200
v 1.364220 -0.967810 0.622840
v 1.322820 -0.987250 0.622200
v -0.010610 0.391190 0.601540
v 0.784070 0.349790 0.613850
v -0.010610 0.349790 0.601540
v 1.322820 -0.189020 0.622200
v 1.322820 -0.588140 0.622200
v -1.337210 0.327750 0.767220
v -1.582700 0.327750 0.725860
v -1.336630 0.327750 0.729670
v 1.160360 -0.026540 0.619680
v -1.574480 -0.895450 0.194880
v -1.575040 -0.987250 0.231080
v 1.364220 -0.217040 0.622840
v 1.322820 -0.189020 0.622200
v -1.583280 0.391190 0.763400
v -1.583280 0.327750 0.763400
v -0.008300 0.349790 0.452900
v 0.789440 0.349790 0.267360
v -0.010610 0.349790 0.601540
v 0.786370 0.349790 0.465210
v 1.361510 -0.967810 0.808840
v 1.179100 -1.028650 0.806200
v 0.974700 0.218320 0.800430
v 0.722850 0.208940 0.799130
v 0.863070 0.068690 0.801300
v -1.583280 0.327750 0.763400
v -1.582700 0.349790 0.725870
v -1.582700 0.327750 0.725860
v 0.723430 0.208940 0.761580
v 0.863660 0.068690 0.763750
v -1.580400 0.391190 0.577220
v -1.580400 0.349790 0.577220
v 1.362580 -0.599760 0.807740
v 1.147180 -0.215440 0.805700
v 1.188520 0.004470 0.803740
v 1.038870 -0.107120 0.804020
v 1.328740 -0.895450 0.239850
v 1.328180 -0.987250 0.276050
v 1.181980 -0.987250 0.620010
v -1.331260 0.391380 0.767110
v -1.470790 0.448660 0.755990
v 0.974700 0.218320 0.800430
v 0.801220 0.391190 0.614120
v 0.799390 0.393640 0.797710
v 1.188520 0.004470 0.803740
v 1.332300 -0.139950 0.622340
v 1.189630 0.002740 0.620130
v 1.038870 -0.107120 0.804020
v 0.974700 0.218320 0.800430
v 0.863070 0.068690 0.801300
v 0.863660 0.068690 0.763750
v 0.821820 -0.032660 0.800660
v 0.946540 0.187310 0.616370
v 0.784070 0.349790 0.613850
v 0.995290 0.140850 0.468440
v 1.025570 0.115120 0.175040
v 0.975810 0.216580 0.616820
v 0.946540 0.187310 0.616370
v 1.116210 0.019920 0.470320
v 1.009900 0.155490 0.470410
v 1.130820 0.034560 0.472280
v 1.160360 -0.026540 0.619680
v 1.189630 0.002740 0.620130
v 0.946540 0.187310 0.616370
v 0.995290 0.140850 0.468440
v 0.975810 0.216580 0.616820
v 1.029170 -0.243150 0.803870
v 0.822400 -0.032660 0.763110
v 1.029750 -0.243150 0.766330
v 1.303380 -1.028650 0.621890
v 1.179100 -1.028650 0.806200
v 1.181980 -1.028650 0.620010
v 1.160360 -0.026540 0.619680
v 1.303380 -1.028650 0.621890
v 1.322820 -0.987250 0.622200
v 1.328740 -0.895450 0.239850
v 1.328180 -0.987250 0.276050
v 1.179680 -0.987250 0.768650
v 1.179680 -0.638010 0.768650
v 1.328740 -0.189020 0.239850
v 1.152130 0.060420 0.143350
v 1.095550 0.045650 0.142470
v 1.468250 -0.263540 0.206150
v 1.385320 -0.174250 0.240730
v 1.124770 0.208390 0.802550
v 1.179710 0.152830 0.619780
v 1.125890 0.206660 0.618950
v 0.974700 0.218320 0.800430
v 0.975810 0.216580 0.616820
v 1.188520 0.004470 0.803740
v 1.189630 0.002740 0.620130
v 1.178600 0.154560 0.803390
v 1.188520 0.004470 0.803740
v 1.029750 -0.243150 0.766330
v 1.029750 -0.638010 0.766330
v 1.029170 -0.243150 0.803870
v 1.468250 -0.484080 0.206150
v 1.385320 -0.573370 0.240730
v 1.468250 -0.484080 0.206150
v 1.385320 -0.174250 0.240730
v 1.095550 0.045650 0.142470
v 1.154080 0.060420 0.017880
v 0.999200 0.022970 0.140550
v 0.933020 0.088620 0.173600
v -0.013320 0.450270 0.776850
v 0.688730 0.448660 0.620780
v -0.010740 0.448660 0.609950
v -1.583280 0.391190 0.763400
v 0.801220 0.391190 0.614120
v 0.687070 0.450880 0.787060
v -1.468180 0.448660 0.587370
v -1.328460 0.391190 0.581130
v -1.580400 0.391190 0.577220
v -1.236230 0.448840 0.759440
v -1.233700 0.448660 0.591010
v -1.166080 0.391620 0.769410
v -1.580400 0.349790 0.577220
v -1.327490 0.349790 0.432460
v -1.578100 0.349790 0.428580
v -1.575030 0.349790 0.230730
v -1.179480 0.208940 0.769660
v -1.178900 0.208940 0.732110
v -1.329790 0.349790 0.581110
v -1.580400 0.349790 0.577220
v -0.909140 0.208940 0.736290
v -0.909720 0.208940 0.773840
v -0.909710 0.392300 0.772670
v -1.092950 0.449050 0.761430
v -1.163380 0.391190 0.583680
v -1.090500 0.448660 0.593220
v -1.329790 0.349790 0.581110
v -1.164080 0.349790 0.434990
v -1.166380 0.349790 0.583640
v 0.999200 0.022970 0.140550
v -0.013460 0.392970 0.785830
v 0.799390 0.393640 0.797710
v -0.727290 0.392520 0.775250
v -0.909570 0.449660 0.763620
v -0.013490 0.208940 0.787720
v -0.727310 0.331920 0.776660
v -0.012910 0.208940 0.750180
v -0.726730 0.331920 0.739120
v -0.906840 0.391190 0.587660
v -0.193150 0.448660 0.607120
v -0.193020 0.391190 0.598710
v -0.906970 0.448660 0.596070
v -1.166380 0.349790 0.583640
v -0.904540 0.349790 0.439010
v -0.193020 0.349790 0.598710
v -0.190720 0.349790 0.450070
v -0.906840 0.349790 0.587660
v -0.193020 0.349790 0.598710
v -1.574930 0.300290 0.224210
v -0.724430 0.349790 0.590480
v -0.724430 0.391190 0.590480
v -0.722120 0.349790 0.441840
v -0.906840 0.349790 0.587660
v -0.724430 0.349790 0.590480
v -0.727150 0.449870 0.766230
v -0.724560 0.448660 0.598890
v -0.195740 0.450070 0.774250
v -0.195320 0.331920 0.747350
v -0.195900 0.331920 0.784900
v -0.195880 0.392750 0.783250
v -0.680200 -0.467390 0.791600
v -0.233280 0.129040 0.981840
v -0.683040 0.129040 0.974870
v -0.125050 -0.485200 0.748440
v -0.128220 0.098140 0.953200
v -0.125450 -0.485200 0.773960
v -0.767060 0.076480 0.957410
v -0.764480 -0.466090 0.790700
v -0.125050 0.229700 0.748440
v -0.233110 0.162650 0.971260
v -0.128220 0.098140 0.953200
v -0.783980 -0.485200 0.738230
v -0.679780 -0.486810 0.764880
v -0.784380 -0.485200 0.763760
v -0.229640 0.294920 0.746820
v -0.682870 0.162650 0.964290
v -0.679400 -0.486810 0.739850
v -0.230020 -0.486810 0.771850
v -0.125050 -0.485200 0.748440
v -0.125450 -0.485200 0.773960
v -0.783980 0.229700 0.738230
v -0.787150 0.098140 0.943000
v -0.148750 0.076480 0.966990
v -0.230440 -0.467390 0.798570
v -0.146170 -0.466090 0.800280
v 0.723300 0.302790 0.259810
v -0.125050 0.229700 0.748440
v -0.229640 0.294920 0.746820
v -0.783980 0.229700 0.738230
v -0.909140 0.208940 0.736290
v -0.125050 -0.485200 0.748440
v -0.012910 0.208940 0.750180
v -0.783980 -0.485200 0.738230
v -0.122750 -0.987250 0.599800
v -0.227330 -0.987250 0.598180
v -0.677090 -0.987250 0.591220
v 1.179680 -0.987250 0.768650
v -0.125050 -0.987250 0.748440
v -0.229640 -0.987250 0.746820
v -0.679400 -0.987250 0.739850
v -0.781680 -0.987250 0.589600
v 1.029750 -0.638010 0.766330
v 1.179680 -0.638010 0.768650
v -0.229640 -0.486810 0.746820
v -0.679400 -0.486810 0.739850
v -0.783980 -0.987250 0.738230
v 1.029750 -0.243150 0.766330
v 0.822400 -0.032660 0.763110
v 0.723430 0.208940 0.761580
v 0.863660 0.068690 0.763750
v -1.178900 0.208940 0.732110
v -1.336630 0.327750 0.729670
v -1.582700 0.327750 0.725860
v -1.580400 0.349790 0.577220
v -1.582700 0.327750 0.725860
v -1.582700 0.349790 0.725870
v -1.578100 0.349790 0.428580
v -1.580400 0.327750 0.577220
v -1.575030 0.349790 0.230730
v -1.578100 0.327750 0.428580
v -1.629410 0.184880 0.063010
v -1.571940 0.238990 0.031240
v -1.632720 -0.868330 0.276610
v -1.575040 -0.834150 0.231310
v -1.575600 -0.925960 0.267510
v -1.629410 -0.785330 0.063010
v -1.571940 -0.834150 0.031240
v -1.574480 -0.895450 0.194880
v -1.580400 -0.987250 0.577220
v -1.581840 -0.925960 0.670280
v -1.580400 -0.925960 0.577220
v -1.574930 0.300290 0.224210
v -1.582700 -0.987250 0.725860
v -1.581840 0.238990 0.670280
v -1.637060 -0.868330 0.556620
v -1.638360 0.184880 0.640750
v -1.632210 -0.785330 0.243890
v -1.638360 -0.868330 0.640750
v 1.346400 -1.010830 0.622560
v 1.343560 -1.010830 0.808690
v 1.300490 -1.028650 0.808070
v 1.346400 -1.010830 0.622560
v 1.300490 -1.028650 0.808070
v 1.331910 -0.138940 0.805960
v 1.363690 -0.216020 0.806590
v 1.479440 -0.289630 0.187300
v 1.479440 -0.457990 0.187300
v -0.787150 0.098140 0.943000
v -0.783980 -0.485200 0.738230
v -0.784380 -0.485200 0.763760
v 0.283190 0.450880 -0.746040
v 0.058400 0.735640 -0.655270
v 0.280930 0.448660 -0.632100
v -1.137310 0.448660 -0.654070
v -0.913620 0.735620 -0.741040
v -1.135520 0.448660 -0.769630
v 0.170780 0.506390 -0.637340
v 0.058400 0.735640 -0.655270
v 0.027980 0.677900 -0.652210
v -1.027200 0.506390 -0.655900
v -0.914710 0.735610 -0.670350
v -1.137310 0.448660 -0.654070
v 0.280930 0.448660 -0.632100
v -1.025460 0.506530 -0.763320
v 0.283190 0.450880 -0.746040
v -1.135520 0.448660 -0.769630
v 0.027980 0.677900 -0.652210
v 0.172930 0.508320 -0.743450
v 0.170780 0.506390 -0.637340
v 0.172930 0.508320 -0.743450
v 0.059780 0.736990 -0.724970
v -0.913620 0.735620 -0.741040
v -0.883060 0.678030 -0.744970
v -0.813030 0.715300 -0.667530
v -0.012890 0.773030 -0.658670
v -0.843390 0.773030 -0.671530
v -0.842380 0.773120 -0.736950
v -0.811830 0.715520 -0.740880
v -0.011610 0.774200 -0.723290
v -0.041830 0.716490 -0.728250
v -1.027200 0.506390 -0.655900
v -0.883060 0.678030 -0.744970
v -0.884350 0.677880 -0.666340
v -1.025460 0.506530 -0.763320
v -1.027200 0.506390 -0.655900
v 0.026830 0.762080 -0.657380
v 0.028130 0.763340 -0.723460
v 0.059780 0.736990 -0.724970
v -0.883120 0.762070 -0.671480
v -0.882080 0.762100 -0.738460
v -0.914710 0.735610 -0.670350
v -0.852760 0.704340 -0.667470
v -0.883120 0.762070 -0.671480
v -0.003600 0.704350 -0.654320
v -0.043320 0.715300 -0.655600
v -0.002090 0.705620 -0.728430
v 0.028130 0.763340 -0.723460
v -0.851530 0.704510 -0.742400
v -0.811830 0.715520 -0.740880
v -0.852760 0.704340 -0.667470
v -0.851530 0.704510 -0.742400
v 0.029570 0.679270 -0.729930
v -0.003600 0.704350 -0.654320
v -0.002090 0.705620 -0.728430
v -0.041830 0.716490 -0.728250
v -0.043320 0.715300 -0.655600
v -0.813030 0.715300 -0.667530
v 1.118500 0.144700 0.571330
v 1.088950 0.174250 0.570870
v 1.118500 0.186500 0.571330
v 1.114170 0.144700 0.850340
v 1.114170 0.186500 0.850340
v 1.084630 0.174250 0.849880
v 1.088950 0.174250 0.570870
v 1.114170 0.186500 0.850340
v 1.118500 0.186500 0.571330
v 1.076710 0.144700 0.570680
v 1.072390 0.144700 0.849690
v 1.076710 0.144700 0.570680
v 1.084630 0.174250 0.849880
v 1.088950 0.115150 0.570870
v 1.084630 0.115150 0.849880
v 1.072390 0.144700 0.849690
v 1.118500 0.102910 0.571330
v 1.114170 0.102910 0.850340
v 1.148040 0.115150 0.571790
v 1.143720 0.115150 0.850790
v 1.148040 0.115150 0.571790
v 1.114170 0.102910 0.850340
v 1.118500 0.102910 0.571330
v 1.160280 0.144700 0.571970
v 1.155960 0.144700 0.850980
v 1.160280 0.144700 0.571970
v 1.143720 0.115150 0.850790
v 1.148040 0.174250 0.571790
v 1.143720 0.174250 0.850790
v 1.148040 0.174250 0.571790
v 1.155960 0.144700 0.850980
v 1.143720 0.174250 0.850790
v 0.038080 0.735640 0.656780
v 0.259940 0.450880 0.754460
v 0.261220 0.448660 0.640510
v -0.936130 0.735620 0.712390
v -1.157020 0.448660 0.618540
v -1.158810 0.448660 0.734100
v 0.038080 0.735640 0.656780
v 0.150960 0.506390 0.642330
v 0.007760 0.677900 0.652780
v -1.047020 0.506390 0.623780
v -0.935040 0.735610 0.641700
v -0.904570 0.677880 0.638640
v -1.157020 0.448660 0.618540
v -1.048620 0.506530 0.731200
v 0.259940 0.450880 0.754460
v 0.149820 0.508320 0.748460
v 0.007760 0.677900 0.652780
v 0.149820 0.508320 0.748460
v 0.006940 0.679270 0.730510
v 0.037300 0.736990 0.726480
v 0.006940 0.679270 0.730510
v -0.936130 0.735620 0.712390
v -0.905710 0.678030 0.717270
v -0.833320 0.715300 0.642040
v -0.033290 0.773030 0.657960
v -0.063600 0.715300 0.653960
v -0.864800 0.773120 0.710510
v -0.863790 0.773030 0.645100
v -0.034010 0.774200 0.722600
v -0.834390 0.715520 0.715390
v -0.064370 0.716490 0.726620
v -1.047020 0.506390 0.623780
v -0.905710 0.678030 0.717270
v -1.048620 0.506530 0.731200
v 0.150960 0.506390 0.642330
v -1.048620 0.506530 0.731200
v 0.006450 0.762080 0.657910
v 0.037300 0.736990 0.726480
v 0.005710 0.763340 0.724000
v -0.903490 0.762070 0.643810
v -0.935040 0.735610 0.641700
v -0.904530 0.762100 0.710800
v -0.873020 0.704340 0.640750
v -0.903490 0.762070 0.643810
v -0.023870 0.704350 0.653900
v 0.006450 0.762080 0.657910
v -0.024650 0.705620 0.728020
v 0.005710 0.763340 0.724000
v -0.874120 0.704500 0.715680
v -0.904530 0.762100 0.710800
v -0.834390 0.715520 0.715390
v -0.873020 0.704340 0.640750
v -0.833320 0.715300 0.642040
v -0.874120 0.704500 0.715680
v -0.904570 0.677880 0.638640
v -0.023870 0.704350 0.653900
v -0.064370 0.716490 0.726620
v -0.024650 0.705620 0.728020
v -0.063600 0.715300 0.653960
v 1.203500 -1.028650 -0.769280
v 1.392110 -0.573370 -0.197690
v -1.558880 0.327750 -0.812070
v -1.561760 0.349790 -0.625890
v 1.341460 -0.987250 -0.580910
v 0.994440 0.216580 -0.586290
v 0.965170 0.187310 -0.586740
v 1.009320 0.140850 -0.437380
v 1.324900 -1.028650 -0.767400
v 1.099440 0.045650 -0.108460
v 0.994440 0.216580 -0.586290
v 1.052990 -0.638010 -0.734050
v 1.332140 -0.588140 0.020640
v -0.101810 0.229700 -0.751940
v -0.101410 -0.485200 -0.777470
v 1.001130 0.022970 0.015510
v 1.202920 -0.638010 -0.731730
v -0.760340 -0.485200 -0.787670
v -0.118730 0.076480 -0.971120
v 1.179100 -1.028650 0.806200
v -1.582700 -0.987250 0.725860
v 1.364220 -0.600260 0.622840
v 1.331910 -0.138940 0.805960
v 1.322820 -0.987250 0.622200
v 0.975810 0.216580 0.616820
v 0.822400 -0.032660 0.763110
v 0.995290 0.140850 0.468440
v 1.116210 0.019920 0.470320
v 1.029750 -0.638010 0.766330
v 1.468250 -0.263540 0.206150
v -0.125050 0.229700 0.748440
v -0.679400 0.294920 0.739850
v -0.229640 -0.486810 0.746820
v -1.575040 -0.987250 0.231080
v -0.767060 0.076480 0.957410
v -0.148750 0.076480 0.966990
v -0.783980 0.229700 0.738230
v -0.884350 0.677880 -0.666340
v 0.029570 0.679270 -0.729930
v -1.025460 0.506530 -0.763320
v 0.026830 0.762080 -0.657380
v -0.882080 0.762100 -0.738460
v 0.261220 0.448660 0.640510
v -1.158810 0.448660 0.734100
v -1.047020 0.506390 0.623780
vt 0.318594 0.641786
vt 0.329228 0.646368
vt 0.314940 0.646366
vt 0.229208 0.641955
vt 0.276287 0.646377
vt 0.229768 0.646527
vt 0.278030 0.641789
vt 0.292244 0.646366
vt 0.213896 0.646629
vt 0.212585 0.642213
vt 0.294778 0.641784
vt 0.217539 0.865091
vt 0.226460 0.983055
vt 0.217539 0.983055
vt 0.217539 0.855635
vt 0.226460 0.865091
vt 0.217539 0.814970
vt 0.226460 0.855635
vt 0.217539 0.805515
vt 0.226460 0.814970
vt 0.217539 0.751140
vt 0.226460 0.805515
vt 0.966149 0.882201
vt 0.948946 0.889657
vt 0.947173 0.882325
vt 0.977214 0.890147
vt 0.965348 0.889502
vt 0.318588 0.696552
vt 0.329225 0.691971
vt 0.333583 0.696552
vt 0.229165 0.696318
vt 0.276273 0.691943
vt 0.278013 0.696535
vt 0.292234 0.691963
vt 0.294768 0.696548
vt 0.213851 0.691607
vt 0.212520 0.696022
vt 0.314935 0.691970
vt 0.168978 0.983055
vt 0.177900 0.865091
vt 0.177900 0.983055
vt 0.168978 0.865091
vt 0.177900 0.855635
vt 0.168978 0.855635
vt 0.177900 0.814970
vt 0.168978 0.814970
vt 0.177900 0.805515
vt 0.168978 0.805515
vt 0.177900 0.751140
vt 0.896653 0.889657
vt 0.879449 0.882201
vt 0.898426 0.882325
vt 0.868384 0.890147
vt 0.865606 0.882952
vt 0.333585 0.641788
vt 0.226460 0.751140
vt 0.979992 0.882952
vt 0.229734 0.691743
vt 0.168978 0.751140
vt 0.880251 0.889502
vt 0.393293 0.726707
vt 0.391847 0.730197
vt 0.389802 0.728152
vt 0.393293 0.694500
vt 0.389802 0.693054
vt 0.391847 0.691009
vt 0.383172 0.697990
vt 0.386064 0.723216
vt 0.383172 0.723216
vt 0.389802 0.725261
vt 0.389802 0.695945
vt 0.386064 0.697990
vt 0.388956 0.723216
vt 0.391847 0.723216
vt 0.391847 0.697990
vt 0.388956 0.697990
vt 0.394739 0.723216
vt 0.394739 0.697990
vt 0.396783 0.725261
vt 0.396783 0.695945
vt 0.371606 0.697990
vt 0.374497 0.723216
vt 0.371606 0.723216
vt 0.396783 0.728152
vt 0.396783 0.693054
vt 0.374497 0.697990
vt 0.377389 0.723216
vt 0.394739 0.730197
vt 0.394739 0.691009
vt 0.377389 0.697990
vt 0.380281 0.723216
vt 0.380281 0.697990
vt 0.095847 0.234782
vt 0.083358 0.239484
vt 0.083041 0.235918
vt 0.257756 0.733300
vt 0.271194 0.751140
vt 0.257756 0.751140
vt 0.032614 0.173855
vt 0.012210 0.202374
vt 0.019980 0.167050
vt 0.387106 0.814971
vt 0.390451 0.858737
vt 0.387105 0.855635
vt 0.098690 0.626720
vt 0.074006 0.647571
vt 0.073760 0.627189
vt 0.390252 0.260456
vt 0.385136 0.225710
vt 0.390252 0.224375
vt 0.197719 0.733300
vt 0.197719 0.751140
vt 0.038807 0.646855
vt 0.039317 0.626637
vt 0.379993 0.217315
vt 0.360174 0.222602
vt 0.360174 0.217315
vt 0.067856 0.202612
vt 0.067192 0.235636
vt 0.064294 0.203836
vt 0.942006 0.568097
vt 0.951468 0.639643
vt 0.947711 0.639933
vt 0.073759 0.614512
vt 0.039617 0.613861
vt 0.991634 0.782928
vt 0.988967 0.759044
vt 0.992614 0.759780
vt 0.093029 0.614349
vt 0.217539 0.733300
vt 0.226460 0.733300
vt 0.064528 0.172561
vt 0.067793 0.169933
vt 0.982940 0.782769
vt 0.982555 0.758818
vt 0.139697 0.640060
vt 0.212393 0.623459
vt 0.139470 0.623103
vt 0.212439 0.609762
vt 0.026282 0.209667
vt 0.052258 0.237081
vt 0.040746 0.246611
vt 0.989241 0.567609
vt 0.980533 0.546150
vt 0.995087 0.549984
vt 0.975134 0.787901
vt 0.978662 0.789858
vt 0.975183 0.789943
vt 0.992721 0.568163
vt 0.998328 0.551045
vt 0.961268 0.784403
vt 0.978517 0.783981
vt 0.197719 0.995789
vt 0.197719 0.983055
vt 0.046695 0.204584
vt 0.030875 0.166474
vt 0.037655 0.147694
vt 0.048147 0.162249
vt 0.217539 0.995789
vt 0.257756 0.983055
vt 0.226460 0.995789
vt 0.977383 0.772310
vt 0.976361 0.750236
vt 0.949963 0.564671
vt 0.964548 0.540916
vt 0.966538 0.563288
vt 0.058094 0.145029
vt 0.066177 0.166097
vt 0.051618 0.162137
vt 0.061002 0.072882
vt 0.036765 0.055222
vt 0.064084 0.056290
vt 0.035364 0.073198
vt 0.042024 0.081263
vt 0.038847 0.082458
vt 0.118438 0.611174
vt 0.139003 0.609818
vt 0.113582 0.624875
vt 0.113530 0.651238
vt 0.928592 0.551723
vt 0.945625 0.566251
vt 0.044573 0.007557
vt 0.060095 0.006285
vt 0.060022 0.008161
vt 0.068707 0.019983
vt 0.061590 0.007128
vt 0.034991 0.018665
vt 0.043090 0.006405
vt 0.038114 0.020728
vt 0.065433 0.021796
vt 0.041866 0.084654
vt 0.068707 0.082506
vt 0.068549 0.085897
vt 0.038541 0.072003
vt 0.053253 0.254354
vt 0.067754 0.243416
vt 0.068433 0.253313
vt 0.076651 0.153167
vt 0.073428 0.151510
vt 0.072898 0.240412
vt 0.070907 0.236994
vt 0.005340 0.612874
vt 0.004414 0.642575
vt 0.012210 0.645939
vt 0.036676 0.244589
vt 0.383739 0.268631
vt 0.371518 0.294902
vt 0.379993 0.264900
vt 0.360174 0.264900
vt 0.376752 0.253917
vt 0.047336 0.046668
vt 0.054861 0.030350
vt 0.054213 0.046937
vt 0.033752 0.046035
vt 0.047984 0.030081
vt 0.067804 0.047366
vt 0.068453 0.030780
vt 0.016620 0.166314
vt 0.008875 0.201643
vt 0.022940 0.155270
vt 0.023284 0.212493
vt 0.376752 0.233585
vt 0.360174 0.233585
vt 0.385136 0.261791
vt 0.377014 0.233782
vt 0.360174 0.300189
vt 0.371518 0.300189
vt 0.011464 0.664805
vt 0.113362 0.659351
vt 0.105341 0.656712
vt 0.120311 0.656109
vt 0.951685 0.575999
vt 0.971785 0.637881
vt 0.956738 0.639219
vt 0.966697 0.574747
vt 0.956000 0.759903
vt 0.961761 0.772693
vt 0.956684 0.783220
vt 0.980891 0.743607
vt 0.975650 0.737630
vt 0.333589 0.623639
vt 0.356580 0.610009
vt 0.356577 0.623644
vt 0.356574 0.641791
vt 0.995142 0.742738
vt 0.998328 0.743173
vt 0.952197 0.760124
vt 0.952851 0.783328
vt 0.996846 0.722237
vt 0.994018 0.722899
vt 0.980268 0.721829
vt 0.975228 0.721731
vt 0.955622 0.744824
vt 0.961070 0.751027
vt 0.318598 0.623634
vt 0.333593 0.610004
vt 0.951881 0.745177
vt 0.371479 0.309139
vt 0.360174 0.309139
vt 0.976993 0.637335
vt 0.971108 0.564225
vt 0.981301 0.705306
vt 0.975814 0.705238
vt 0.986954 0.705409
vt 0.994208 0.635585
vt 0.990248 0.704748
vt 0.955186 0.721849
vt 0.960687 0.738126
vt 0.958097 0.655970
vt 0.952734 0.656309
vt 0.973819 0.654699
vt 0.294785 0.623624
vt 0.318604 0.609998
vt 0.229269 0.609859
vt 0.229220 0.623557
vt 0.951467 0.721917
vt 0.948933 0.656539
vt 0.356573 0.646371
vt 0.951143 0.705498
vt 0.954918 0.705387
vt 0.278041 0.623611
vt 0.294797 0.609984
vt 0.278060 0.609964
vt 0.960395 0.721765
vt 0.960244 0.705265
vt 0.988944 0.654143
vt 0.991074 0.635168
vt 0.985305 0.653639
vt 0.979344 0.654199
vt 0.409429 0.925269
vt 0.464990 0.965824
vt 0.409196 0.965548
vt 0.412940 0.915207
vt 0.468230 0.913415
vt 0.467543 0.915594
vt 0.414078 0.973115
vt 0.406263 0.925540
vt 0.385874 0.912477
vt 0.409630 0.914467
vt 0.467941 0.965841
vt 0.470065 0.975223
vt 0.467778 0.975195
vt 0.405932 0.965266
vt 0.381621 0.924196
vt 0.468190 0.925675
vt 0.470179 0.965862
vt 0.470427 0.916321
vt 0.470427 0.925682
vt 0.386235 0.978432
vt 0.382015 0.967074
vt 0.414403 0.917759
vt 0.465238 0.925656
vt 0.145959 0.668801
vt 0.213960 0.669106
vt 0.120971 0.668595
vt 0.144780 0.644841
vt 0.329225 0.669168
vt 0.356573 0.669169
vt 0.314937 0.669167
vt 0.292239 0.669163
vt 0.229784 0.669125
vt 0.276288 0.669158
vt 0.381210 0.865091
vt 0.379333 0.875230
vt 0.390451 0.810691
vt 0.381210 0.805515
vt 0.379333 0.794198
vt 0.316581 0.865091
vt 0.316581 0.805515
vt 0.257756 0.865091
vt 0.257756 0.855635
vt 0.257756 0.814971
vt 0.197719 0.865091
vt 0.197719 0.855635
vt 0.197719 0.814970
vt 0.197719 0.805515
vt 0.271194 0.983055
vt 0.271194 0.865091
vt 0.271194 0.855635
vt 0.257756 0.805515
vt 0.271194 0.814971
vt 0.302767 0.969500
vt 0.316435 0.855635
vt 0.316435 0.814971
vt 0.271194 0.805515
vt 0.338463 0.969500
vt 0.357491 0.950753
vt 0.379332 0.941804
vt 0.366654 0.954482
vt 0.379333 0.769809
vt 0.390073 0.755548
vt 0.390073 0.733300
vt 0.271194 0.733300
vt 0.995453 0.875311
vt 0.980737 0.872221
vt 0.995586 0.873109
vt 0.980628 0.874403
vt 0.966097 0.871679
vt 0.966063 0.873815
vt 0.947132 0.871892
vt 0.933203 0.890617
vt 0.927798 0.884139
vt 0.946935 0.983667
vt 0.953281 0.984383
vt 0.951094 0.991747
vt 0.934171 0.975167
vt 0.950003 0.977375
vt 0.943747 0.988962
vt 0.990731 0.990230
vt 0.981433 0.997107
vt 0.981017 0.991459
vt 0.947630 0.997869
vt 0.928051 0.981439
vt 0.922799 0.987001
vt 0.946575 0.876651
vt 0.990083 0.884338
vt 0.995875 0.996023
vt 0.922799 0.878656
vt 0.984407 0.890903
vt 0.978252 0.984162
vt 0.985628 0.983532
vt 0.069056 0.239206
vt 0.052319 0.240656
vt 0.067494 0.239619
vt 0.049696 0.243228
vt 0.049882 0.169417
vt 0.375032 0.251361
vt 0.360174 0.253917
vt 0.360174 0.251361
vt 0.377014 0.253720
vt 0.375032 0.236140
vt 0.360174 0.236140
vt 0.464851 0.973361
vt 0.412585 0.975647
vt 0.465191 0.918118
vt 0.409446 0.976351
vt 0.412115 0.974701
vt 0.467832 0.978099
vt 0.406616 0.996586
vt 0.078178 0.373835
vt 0.090404 0.379187
vt 0.077675 0.377381
vt 0.124244 0.751139
vt 0.137682 0.733300
vt 0.137682 0.751139
vt 0.024062 0.436712
vt 0.005182 0.407163
vt 0.019617 0.400618
vt 0.008333 0.814970
vt 0.004987 0.858737
vt 0.004987 0.810691
vt 0.096883 0.710580
vt 0.072616 0.687102
vt 0.104707 0.680193
vt 0.335211 0.225710
vt 0.330096 0.260456
vt 0.330096 0.224375
vt 0.037189 0.685170
vt 0.070948 0.708057
vt 0.035928 0.705630
vt 0.340354 0.217315
vt 0.060764 0.409844
vt 0.061833 0.376831
vt 0.065614 0.375669
vt 0.731448 0.554641
vt 0.659641 0.547430
vt 0.731620 0.550877
vt 0.069863 0.721097
vt 0.035055 0.718597
vt 0.851967 0.588373
vt 0.875924 0.590289
vt 0.852818 0.591995
vt 0.089893 0.722976
vt 0.177899 0.733300
vt 0.168978 0.733300
vt 0.055863 0.439679
vt 0.058986 0.442475
vt 0.875492 0.581604
vt 0.875712 0.587045
vt 0.212287 0.714825
vt 0.139449 0.697666
vt 0.212320 0.728570
vt 0.139021 0.714936
vt 0.046996 0.374604
vt 0.035999 0.364483
vt 0.638914 0.586628
vt 0.660636 0.594657
vt 0.643203 0.601053
vt 0.882443 0.577105
vt 0.880376 0.573640
vt 0.882419 0.573625
vt 0.661298 0.598118
vt 0.644365 0.604259
vt 0.876445 0.559891
vt 0.880281 0.559865
vt 0.039735 0.406765
vt 0.021938 0.443992
vt 0.027722 0.463102
vt 0.013426 0.454765
vt 0.177899 0.995789
vt 0.168978 0.995789
vt 0.137682 0.983055
vt 0.851541 0.581971
vt 0.864864 0.576377
vt 0.633181 0.570814
vt 0.656465 0.555491
vt 0.655604 0.572101
vt 0.047995 0.466836
vt 0.057171 0.446220
vt 0.063647 0.461167
vt 0.359764 0.332773
vt 0.335526 0.350433
vt 0.337303 0.333651
vt 0.334125 0.332456
vt 0.340785 0.324392
vt 0.117440 0.727046
vt 0.138505 0.728436
vt 0.112453 0.712986
vt 0.113268 0.686012
vt 0.642853 0.534537
vt 0.645631 0.532012
vt 0.358857 0.399370
vt 0.343334 0.398098
vt 0.358783 0.397494
vt 0.367468 0.385671
vt 0.364194 0.383858
vt 0.333753 0.386990
vt 0.341851 0.399250
vt 0.336875 0.384927
vt 0.367468 0.323149
vt 0.340627 0.321001
vt 0.367311 0.319758
vt 0.062802 0.369091
vt 0.048896 0.357407
vt 0.063999 0.359243
vt 0.066953 0.459682
vt 0.067782 0.372360
vt 0.000390 0.716382
vt 0.010449 0.683707
vt 0.002281 0.686367
vt 0.031828 0.366289
vt 0.016771 0.397638
vt 0.336609 0.268631
vt 0.348830 0.294902
vt 0.345084 0.298633
vt 0.343596 0.253917
vt 0.340354 0.264899
vt 0.346097 0.358987
vt 0.353623 0.375305
vt 0.346746 0.375574
vt 0.332514 0.359620
vt 0.333163 0.376207
vt 0.366566 0.358288
vt 0.367215 0.374875
vt 0.352974 0.358718
vt 0.362845 0.349365
vt 0.007694 0.443404
vt 0.001813 0.407718
vt 0.011087 0.442845
vt 0.343596 0.233585
vt 0.340354 0.222602
vt 0.343334 0.233782
vt 0.335211 0.261791
vt 0.348830 0.300189
vt 0.360174 0.294902
vt 0.113523 0.677705
vt 0.120307 0.681166
vt 0.730325 0.575004
vt 0.667842 0.556857
vt 0.731190 0.559922
vt 0.876564 0.577145
vt 0.657908 0.551105
vt 0.667062 0.571900
vt 0.864756 0.560751
vt 0.851791 0.555395
vt 0.875118 0.555347
vt 0.842768 0.576050
vt 0.843078 0.560741
vt 0.836285 0.580786
vt 0.356580 0.728339
vt 0.333585 0.714705
vt 0.356577 0.714702
vt 0.356575 0.696550
vt 0.835864 0.595057
vt 0.836399 0.598227
vt 0.851893 0.551587
vt 0.875106 0.551512
vt 0.815426 0.597403
vt 0.815999 0.594557
vt 0.814497 0.580847
vt 0.830147 0.575735
vt 0.836707 0.555490
vt 0.830173 0.560763
vt 0.333588 0.728344
vt 0.318591 0.714709
vt 0.836943 0.551741
vt 0.348869 0.309139
vt 0.729943 0.580226
vt 0.656684 0.576640
vt 0.798016 0.582398
vt 0.814241 0.575812
vt 0.728219 0.594369
vt 0.798296 0.588045
vt 0.728734 0.597488
vt 0.797739 0.591358
vt 0.813731 0.555776
vt 0.747976 0.560754
vt 0.748146 0.555383
vt 0.813810 0.560986
vt 0.318595 0.728349
vt 0.294770 0.714715
vt 0.229193 0.728474
vt 0.229152 0.714749
vt 0.813681 0.552057
vt 0.748257 0.551577
vt 0.356574 0.691970
vt 0.797261 0.552249
vt 0.797268 0.556026
vt 0.278017 0.714724
vt 0.294779 0.728362
vt 0.278033 0.728382
vt 0.797775 0.576916
vt 0.797313 0.561352
vt 0.747199 0.576508
vt 0.747118 0.591643
vt 0.746499 0.588022
vt 0.746872 0.582046
vt 0.554872 0.924692
vt 0.499311 0.965247
vt 0.499078 0.924968
vt 0.558112 0.977101
vt 0.502822 0.975308
vt 0.557425 0.974922
vt 0.503961 0.917401
vt 0.554733 0.917155
vt 0.475756 0.978039
vt 0.496145 0.964976
vt 0.499512 0.976049
vt 0.559947 0.915293
vt 0.557823 0.924675
vt 0.557660 0.915322
vt 0.471503 0.966320
vt 0.495814 0.925250
vt 0.560061 0.924654
vt 0.558072 0.964841
vt 0.560309 0.974196
vt 0.558022 0.974195
vt 0.476117 0.912084
vt 0.499328 0.914165
vt 0.504285 0.972757
vt 0.555120 0.964860
vt 0.555073 0.972398
vt 0.144612 0.692914
vt 0.014229 0.865090
vt 0.008333 0.855635
vt 0.014229 0.805515
vt 0.016106 0.794198
vt 0.078857 0.865091
vt 0.016106 0.875230
vt 0.078857 0.805515
vt 0.137682 0.865091
vt 0.137682 0.855635
vt 0.137682 0.814970
vt 0.124244 0.983055
vt 0.124244 0.865090
vt 0.124244 0.855635
vt 0.124244 0.814970
vt 0.137682 0.805515
vt 0.092671 0.969500
vt 0.092671 0.983055
vt 0.079003 0.855635
vt 0.079003 0.814970
vt 0.124244 0.805515
vt 0.056975 0.969500
vt 0.037947 0.950753
vt 0.016106 0.941804
vt 0.028784 0.954482
vt 0.016106 0.769809
vt 0.005365 0.755548
vt 0.005365 0.733300
vt 0.864862 0.872221
vt 0.850145 0.875311
vt 0.850013 0.873109
vt 0.879502 0.871679
vt 0.864970 0.874403
vt 0.898467 0.871892
vt 0.879535 0.873815
vt 0.912395 0.890617
vt 0.917801 0.884139
vt 0.892318 0.984383
vt 0.898663 0.983667
vt 0.894505 0.991747
vt 0.911428 0.975167
vt 0.917547 0.981439
vt 0.901852 0.988962
vt 0.864166 0.997107
vt 0.854868 0.990230
vt 0.864582 0.991459
vt 0.899024 0.876651
vt 0.849723 0.996023
vt 0.855516 0.884338
vt 0.867347 0.984162
vt 0.861191 0.890903
vt 0.895595 0.977375
vt 0.859970 0.983532
vt 0.063881 0.373363
vt 0.047243 0.371037
vt 0.047699 0.367255
vt 0.062343 0.372869
vt 0.044759 0.368331
vt 0.042424 0.449412
vt 0.041072 0.442050
vt 0.345316 0.251361
vt 0.345316 0.236140
vt 0.502467 0.914868
vt 0.557714 0.912418
vt 0.557054 0.914604
vt 0.582157 0.899867
vt 0.607613 0.921819
vt 0.577521 0.909003
vt 0.715499 0.979018
vt 0.690175 0.956896
vt 0.720240 0.969774
vt 0.588126 0.939199
vt 0.606789 0.925089
vt 0.606864 0.931136
vt 0.684642 0.987903
vt 0.684951 0.964881
vt 0.691147 0.997029
vt 0.576826 0.939365
vt 0.709196 0.939975
vt 0.606712 0.880942
vt 0.720417 0.939914
vt 0.986895 0.107286
vt 0.995157 0.127448
vt 0.985560 0.127462
vt 0.613184 0.890195
vt 0.612652 0.913577
vt 0.690684 0.953690
vt 0.690632 0.947826
vt 0.675991 0.962373
vt 0.614329 0.924953
vt 0.680778 0.958988
vt 0.683459 0.953754
vt 0.683403 0.947895
vt 0.616956 0.919770
vt 0.622023 0.916358
vt 0.985207 0.002639
vt 0.993600 0.022762
vt 0.986491 0.022797
vt 0.994920 0.235800
vt 0.985207 0.235774
vt 0.610996 0.923334
vt 0.613684 0.918035
vt 0.610449 0.916230
vt 0.684047 0.960732
vt 0.686793 0.955373
vt 0.687275 0.962551
vt 0.678718 0.964868
vt 0.683504 0.961480
vt 0.610566 0.930310
vt 0.614526 0.931054
vt 0.619099 0.913582
vt 0.614116 0.917123
vt 0.687023 0.948646
vt 0.993379 0.030214
vt 0.986663 0.026520
vt 0.993437 0.026488
vt 0.993923 0.107279
vt 0.987066 0.103561
vt 0.993767 0.103557
vt 0.993693 0.099833
vt 0.987123 0.099836
vt 0.986747 0.030244
vt 0.393087 0.651982
vt 0.389596 0.650536
vt 0.391641 0.648491
vt 0.393087 0.684189
vt 0.391641 0.687679
vt 0.389596 0.685635
vt 0.385858 0.655472
vt 0.382966 0.680698
vt 0.382966 0.655472
vt 0.389596 0.653428
vt 0.389596 0.682743
vt 0.388749 0.655472
vt 0.385858 0.680698
vt 0.391641 0.655472
vt 0.391641 0.680698
vt 0.388749 0.680698
vt 0.394533 0.655472
vt 0.394533 0.680698
vt 0.396577 0.653428
vt 0.396577 0.682743
vt 0.374291 0.655472
vt 0.371400 0.680698
vt 0.371400 0.655472
vt 0.396577 0.650536
vt 0.396577 0.685635
vt 0.377183 0.655472
vt 0.374291 0.680698
vt 0.394533 0.648491
vt 0.394533 0.687679
vt 0.380075 0.655472
vt 0.377183 0.680698
vt 0.380074 0.680698
vt 0.739365 0.907754
vt 0.707217 0.897936
vt 0.712470 0.889140
vt 0.813083 0.958866
vt 0.845305 0.968481
vt 0.840016 0.977423
vt 0.741691 0.905311
vt 0.743667 0.881999
vt 0.746846 0.902149
vt 0.836356 0.937643
vt 0.817050 0.950188
vt 0.817364 0.944329
vt 0.847545 0.938276
vt 0.808921 0.983982
vt 0.704312 0.928800
vt 0.715591 0.929338
vt 0.986523 0.366677
vt 0.994785 0.346514
vt 0.993551 0.366683
vt 0.735083 0.916413
vt 0.734782 0.922456
vt 0.810644 0.961007
vt 0.805657 0.964092
vt 0.810148 0.943948
vt 0.745599 0.911761
vt 0.750865 0.908673
vt 0.806843 0.954863
vt 0.809839 0.949803
vt 0.742617 0.916749
vt 0.801857 0.957941
vt 0.742436 0.922854
vt 0.984835 0.471323
vt 0.993228 0.451201
vt 0.994548 0.471377
vt 0.985188 0.346500
vt 0.994548 0.238162
vt 0.742452 0.909806
vt 0.736152 0.913134
vt 0.739404 0.914907
vt 0.813058 0.951637
vt 0.816319 0.953397
vt 0.809991 0.956819
vt 0.813713 0.944924
vt 0.813402 0.950779
vt 0.748122 0.905721
vt 0.742931 0.908942
vt 0.738527 0.921863
vt 0.738863 0.915759
vt 0.804424 0.960602
vt 0.809409 0.957521
vt 0.993007 0.443748
vt 0.986291 0.447443
vt 0.986375 0.443718
vt 0.993065 0.447475
vt 0.986120 0.451166
vt 0.986694 0.370401
vt 0.993321 0.374130
vt 0.993396 0.370406
vt 0.986751 0.374127
vt 0.099399 0.238061
vt 0.379993 0.222602
vt 0.988386 0.782818
vt 0.961362 0.788238
vt 0.257756 0.995789
vt 0.947981 0.542390
vt 0.926156 0.554579
vt 0.044646 0.005681
vt 0.052575 0.244457
vt 0.375263 0.298633
vt 0.034401 0.029448
vt 0.010486 0.205555
vt 0.038147 0.665980
vt 0.407218 0.894193
vt 0.468140 0.916321
vt 0.113623 0.668574
vt 0.302767 0.983055
vt 0.467172 0.975912
vt 0.412307 0.916104
vt 0.094122 0.376098
vt 0.124244 0.733300
vt 0.057270 0.408435
vt 0.038964 0.449117
vt 0.137682 0.995789
vt 0.634134 0.554209
vt 0.337608 0.323197
vt 0.343408 0.399974
vt 0.360352 0.398526
vt 0.003627 0.403895
vt 0.343334 0.253719
vt 0.497100 0.996323
vt 0.471897 0.923442
vt 0.560309 0.964835
vt 0.897968 0.997869
vt 0.501997 0.915815
vt 0.502188 0.974412
vt 0.496498 0.893930
vt 0.680163 0.968273
vt 0.617603 0.910098
vt 0.994919 0.002585
vt 0.610521 0.924201
vt 0.687077 0.954506
vt 0.737779 0.872354
vt 0.814856 0.993505
vt 0.984835 0.238188
vn -0.0153 0.1305 0.9913
vn -0.0153 0.1304 0.9913
vn -0.0154 0.1305 0.9913
vn -0.0154 0.1292 0.9915
vn -0.0144 -0.3669 0.9302
vn -0.6886 0.7251 -0.0107
vn -0.6885 0.7251 -0.0107
vn 0.0153 0.1305 -0.9913
vn 0.0154 0.1305 -0.9913
vn 0.0154 0.1304 -0.9913
vn 0.0154 0.1295 -0.9915
vn 0.0144 -0.3669 -0.9302
vn -0.0154 0.1304 0.9913
vn -0.0150 0.1304 0.9913
vn -0.0144 -0.3668 0.9302
vn 0.0156 0.1303 -0.9913
vn 0.0144 -0.3668 -0.9302
vn -0.0155 -0.0000 0.9999
vn -0.0156 -0.0000 0.9999
vn -0.0154 0.0001 0.9999
vn 0.0154 0.0000 -0.9999
vn 0.0153 0.0000 -0.9999
vn -0.3829 0.9238 -0.0059
vn -0.3830 0.9237 -0.0059
vn -0.0153 0.0000 0.9999
vn -0.9238 0.3827 -0.0143
vn -0.0155 0.0002 0.9999
vn -0.9238 -0.3827 -0.0143
vn -0.0153 -0.0002 0.9999
vn 0.0152 0.0000 -0.9999
vn -0.3827 -0.9239 -0.0059
vn 0.0156 -0.0000 -0.9999
vn 0.3827 -0.9239 0.0059
vn 0.3826 -0.9239 0.0059
vn 0.9238 -0.3827 0.0143
vn 0.9238 0.3827 0.0143
vn 0.3830 0.9237 0.0059
vn 0.3829 0.9238 0.0059
vn -0.9999 0.0000 -0.0155
vn 0.0000 -1.0000 0.0000
vn 0.0215 0.0017 -0.9998
vn 0.0141 -0.0002 -0.9999
vn 0.0154 -0.0003 -0.9999
vn 0.0155 0.0001 -0.9999
vn 0.0155 -0.0000 -0.9999
vn 0.7070 0.7071 0.0109
vn 0.7070 0.7071 0.0110
vn 0.1379 0.0000 -0.9904
vn 0.9999 0.0000 0.0155
vn 0.2526 -0.9676 0.0039
vn 0.2525 -0.9676 0.0039
vn -0.0155 -0.0001 0.9999
vn -0.0154 0.0726 0.9972
vn -0.0154 0.0000 0.9999
vn 0.0167 0.0026 -0.9999
vn 0.0158 0.0368 -0.9992
vn 0.0164 0.0797 -0.9967
vn -0.0000 1.0000 0.0000
vn 0.0188 0.0008 -0.9998
vn 0.0173 0.0015 -0.9999
vn 0.0163 0.0006 -0.9999
vn 0.0208 0.0116 -0.9997
vn 0.0254 0.0099 -0.9996
vn 0.0254 0.0100 -0.9996
vn -0.9999 -0.0000 -0.0154
vn -0.7070 -0.7071 -0.0109
vn 0.0232 0.0018 -0.9997
vn 0.0215 0.0044 -0.9998
vn 0.0263 0.0079 -0.9996
vn 0.0160 0.1560 -0.9876
vn 0.0165 0.1552 -0.9877
vn 0.5907 0.8066 0.0232
vn 0.7068 0.7070 0.0243
vn 0.5903 0.8068 0.0231
vn 0.7067 0.7071 0.0243
vn 0.8309 0.5557 0.0270
vn 0.8317 0.5547 0.0268
vn 0.0198 0.0043 -0.9998
vn 0.0226 0.0071 -0.9997
vn -0.9261 0.3770 -0.0143
vn -0.0155 0.0001 0.9999
vn -0.0155 0.0243 0.9996
vn 0.0437 0.0591 0.9973
vn 0.6413 -0.6436 0.4179
vn 0.6606 -0.6257 0.4149
vn 0.6641 -0.6223 0.4143
vn -0.6319 0.6669 0.3949
vn -0.6498 0.6476 0.3979
vn -0.6285 0.6705 0.3943
vn 0.6980 0.7002 0.1503
vn 0.6979 0.7002 0.1503
vn -0.7123 -0.7018 -0.0110
vn -0.7123 -0.7018 -0.0112
vn 0.0214 0.0059 -0.9998
vn 0.1950 -0.9808 0.0031
vn -0.0155 -0.0002 0.9999
vn -0.0638 0.3011 -0.9514
vn 0.7211 0.6927 0.0112
vn 0.8108 0.5852 0.0126
vn 0.7210 0.6928 0.0112
vn 0.0658 0.9978 0.0110
vn -0.0169 -0.0016 0.9999
vn -0.0169 -0.0013 0.9999
vn 0.9975 0.0659 0.0255
vn 0.0169 0.0014 -0.9999
vn -0.9999 0.0000 -0.0157
vn -0.9999 0.0000 -0.0156
vn 0.0217 0.0062 -0.9997
vn 0.7349 -0.6781 0.0114
vn 0.8108 -0.5852 0.0126
vn 0.8416 -0.5399 0.0130
vn 0.1679 0.0000 -0.9858
vn 0.4132 0.0000 -0.9106
vn -0.2408 0.9706 -0.0037
vn -0.2525 0.9676 -0.0039
vn -0.1063 0.3462 0.9321
vn -0.1082 0.3692 0.9230
vn -0.0965 0.3666 0.9254
vn -0.0939 0.2509 0.9635
vn -0.1102 0.3255 0.9391
vn 0.2376 0.9712 0.0177
vn -0.0005 1.0000 0.0096
vn -0.0001 1.0000 0.0096
vn -0.4553 0.8903 -0.0070
vn -0.2399 0.9708 -0.0037
vn -0.0153 0.1448 0.9893
vn 0.2384 0.9710 0.0180
vn -0.0153 0.1447 0.9894
vn -0.0155 0.0338 0.9993
vn -0.2392 0.9710 -0.0035
vn -0.0009 1.0000 0.0008
vn 0.0169 0.0793 -0.9967
vn 0.0175 0.1544 -0.9879
vn 0.0162 0.0024 -0.9999
vn -0.6015 -0.7988 -0.0093
vn 0.0149 0.0054 -0.9999
vn 0.0163 0.0822 -0.9965
vn 0.0173 0.1558 -0.9876
vn -0.0004 1.0000 0.0014
vn -0.0021 1.0000 0.0019
vn -0.2290 0.9734 -0.0035
vn 0.0174 0.0838 -0.9963
vn 0.0160 0.1553 -0.9877
vn 0.0201 0.0360 -0.9991
vn 0.0161 0.0897 -0.9958
vn 0.0160 0.1555 -0.9877
vn 0.0148 0.0191 -0.9997
vn 0.5589 -0.8292 0.0088
vn 0.5589 -0.8292 0.0087
vn -0.0009 1.0000 0.0032
vn -0.0014 1.0000 0.0051
vn -0.0004 1.0000 0.0087
vn -0.0007 1.0000 0.0083
vn -0.0004 1.0000 0.0063
vn -0.0006 1.0000 0.0069
vn -0.0003 1.0000 0.0073
vn -0.5589 -0.8292 -0.0086
vn 0.0178 0.0229 -0.9996
vn 0.0182 0.0103 -0.9998
vn 0.0162 0.0913 -0.9957
vn 0.0160 0.1551 -0.9878
vn 0.0162 0.1548 -0.9878
vn 0.0148 -0.2938 -0.9558
vn 0.9999 0.0001 0.0156
vn 0.9999 0.0001 0.0157
vn 0.0149 -0.2937 -0.9558
vn 0.0147 -0.2938 -0.9558
vn 0.2837 0.8216 -0.4945
vn 0.4949 0.7475 -0.4431
vn 0.5343 0.7149 -0.4510
vn -0.0077 -1.0000 -0.0001
vn -0.0154 -0.9999 -0.0002
vn -0.2683 0.8216 -0.5030
vn 0.2284 0.8403 -0.4917
vn 0.0077 -1.0000 0.0001
vn 0.0154 -0.9999 0.0002
vn -0.4810 0.7475 -0.4582
vn -0.2131 0.8403 -0.4985
vn 0.0149 -0.2938 -0.9558
vn -0.0035 1.0000 -0.0001
vn -0.0020 1.0000 -0.0003
vn -0.0021 1.0000 -0.0000
vn 0.7110 0.7031 0.0110
vn 0.7121 0.7020 0.0118
vn 0.7157 0.6983 0.0111
vn 0.7160 0.6980 0.0142
vn -0.0159 0.1296 0.9914
vn -0.0559 0.1932 0.9796
vn 0.0154 -0.0001 -0.9999
vn -0.4837 -0.3236 0.8132
vn -0.4838 -0.3235 0.8132
vn -0.6506 -0.7594 -0.0101
vn -0.6506 -0.7593 -0.0101
vn -0.9999 -0.0001 -0.0155
vn -0.7111 -0.7030 -0.0110
vn -0.4353 0.0000 -0.9003
vn -0.4354 0.0000 -0.9002
vn -0.6886 0.7251 -0.0106
vn -0.5105 -0.0000 0.8599
vn -0.0154 -0.0002 0.9999
vn -0.0154 -0.0001 0.9999
vn 0.3826 -0.9239 0.0060
vn 0.9237 -0.3827 0.0152
vn 0.9801 -0.1978 0.0159
vn 0.9804 -0.1961 0.0170
vn 0.9998 -0.0008 0.0221
vn 0.0155 0.0030 -0.9999
vn 0.0172 0.0015 -0.9999
vn 0.0158 0.0027 -0.9999
vn 0.9807 0.1934 0.0280
vn 0.0272 0.0047 -0.9996
vn 0.9998 -0.0000 0.0221
vn 0.9711 0.1419 -0.1917
vn 0.8416 0.5399 0.0130
vn 0.9804 0.1964 0.0152
vn 0.8753 0.0000 -0.4835
vn 0.9711 -0.1419 -0.1917
vn 0.9804 -0.1964 0.0152
vn -0.6883 -0.2101 -0.6944
vn -0.6882 -0.2101 -0.6945
vn 0.7092 -0.2101 -0.6729
vn 0.0140 -0.8089 -0.5877
vn 0.0045 -0.8090 -0.5879
vn 0.0043 -0.8089 -0.5879
vn -0.0006 -0.8090 -0.5878
vn 0.0187 -0.8089 -0.5876
vn 0.0139 -0.8089 -0.5877
vn 0.1584 0.2972 -0.9416
vn -0.1817 0.2933 -0.9386
vn -0.1292 0.2972 -0.9461
vn -0.3266 0.2712 -0.9054
vn -0.3260 0.2682 -0.9065
vn 0.3544 0.2710 -0.8950
vn 0.2106 0.2933 -0.9325
vn -0.0095 0.0017 1.0000
vn -0.0169 -0.0002 0.9999
vn -0.0122 0.0008 0.9999
vn 0.1071 -0.0000 0.9942
vn 0.0155 0.0726 -0.9972
vn -0.0143 0.0027 0.9999
vn -0.0153 0.0368 0.9992
vn -0.0138 0.0015 0.9999
vn -0.0147 0.0006 0.9999
vn -0.0055 0.0100 0.9999
vn -0.0101 0.0116 0.9999
vn -0.0055 0.0099 0.9999
vn -0.7070 -0.7071 -0.0111
vn -0.0078 0.0018 1.0000
vn -0.0095 0.0044 0.9999
vn -0.0093 0.0062 0.9999
vn -0.0145 0.0797 0.9967
vn -0.0147 0.1560 0.9876
vn 0.7072 0.7071 -0.0024
vn 0.5911 0.8066 -0.0049
vn 0.5907 0.8068 -0.0049
vn 0.7072 0.7070 -0.0024
vn 0.8313 0.5558 -0.0013
vn -0.0112 0.0043 0.9999
vn -0.0083 0.0072 0.9999
vn -0.0096 0.0059 0.9999
vn -0.9261 0.3770 -0.0146
vn -0.9260 0.3772 -0.0143
vn 0.0155 -0.0001 -0.9999
vn 0.0744 0.0590 -0.9955
vn 0.0748 0.0593 -0.9954
vn 0.6538 -0.6436 -0.3978
vn 0.6730 -0.6258 -0.3943
vn 0.6518 -0.6455 -0.3982
vn -0.6372 0.6476 -0.4178
vn -0.6194 0.6669 -0.4143
vn -0.6160 0.6704 -0.4136
vn 0.7023 0.7002 -0.1286
vn 0.1950 -0.9808 0.0030
vn 0.0155 0.0002 -0.9999
vn -0.0933 0.3011 0.9490
vn 0.7071 0.7071 -0.0024
vn 0.7072 0.7070 -0.0023
vn 0.0661 0.9978 -0.0090
vn 0.0661 0.9978 -0.0091
vn 0.0141 -0.0014 -0.9999
vn 0.9978 0.0660 0.0054
vn -0.0141 0.0014 0.9999
vn -0.0084 0.0071 0.9999
vn -0.9999 -0.0000 -0.0153
vn -0.0156 -0.0003 0.9999
vn 0.3849 -0.0000 0.9230
vn 0.1372 -0.0000 0.9905
vn -0.0795 0.3693 -0.9259
vn -0.0773 0.3463 -0.9349
vn -0.0678 0.3667 -0.9279
vn -0.0810 0.3256 -0.9420
vn -0.0640 0.2510 -0.9659
vn -0.0002 1.0000 -0.0096
vn 0.2380 0.9712 -0.0103
vn 0.0001 1.0000 -0.0096
vn 0.0153 0.1447 -0.9894
vn 0.0155 0.0245 -0.9996
vn 0.2388 0.9710 -0.0106
vn 0.0154 0.1448 -0.9893
vn 0.0155 0.0338 -0.9993
vn -0.2392 0.9710 -0.0039
vn -0.0009 1.0000 -0.0009
vn -0.0003 1.0000 -0.0014
vn -0.0140 0.0792 0.9968
vn -0.0141 0.1552 0.9878
vn -0.0148 0.0025 0.9999
vn -0.0161 0.0054 0.9999
vn -0.0145 0.0821 0.9965
vn -0.0131 0.1543 0.9879
vn 0.0153 0.1449 -0.9893
vn 0.0154 0.0725 -0.9972
vn -0.0020 1.0000 -0.0020
vn -0.0008 1.0000 -0.0032
vn -0.0146 0.1552 0.9878
vn -0.0135 0.0838 0.9964
vn -0.0108 0.0360 0.9993
vn -0.0147 0.0896 0.9959
vn -0.0133 0.1558 0.9877
vn -0.0128 0.0103 0.9999
vn -0.0161 0.0191 0.9997
vn 0.5589 -0.8292 0.0086
vn 0.0153 0.1448 -0.9893
vn 0.0154 0.0726 -0.9972
vn -0.0013 1.0000 -0.0051
vn -0.0002 1.0000 -0.0063
vn -0.0002 1.0000 -0.0087
vn 0.0153 0.1306 -0.9913
vn -0.0004 1.0000 -0.0069
vn -0.0000 1.0000 -0.0073
vn -0.0005 1.0000 -0.0083
vn -0.0132 0.0229 0.9997
vn -0.0146 0.1551 0.9878
vn -0.0146 0.0913 0.9957
vn -0.0146 0.1554 0.9877
vn -0.0148 -0.2938 0.9558
vn 0.9999 0.0001 0.0154
vn -0.0147 -0.2937 0.9558
vn 0.4810 0.7475 0.4582
vn 0.2683 0.8216 0.5030
vn 0.5201 0.7149 0.4674
vn 0.2131 0.8403 0.4985
vn -0.2837 0.8216 0.4945
vn -0.4949 0.7475 0.4431
vn -0.5343 0.7149 0.4510
vn -0.0149 -0.2937 0.9558
vn -0.0020 1.0000 0.0002
vn 0.7070 0.7072 0.0109
vn 0.7121 0.7020 0.0102
vn 0.7161 0.6980 0.0080
vn -0.0255 0.1933 -0.9808
vn 0.0149 0.1299 -0.9914
vn -0.4584 -0.3236 -0.8278
vn -0.4584 -0.3235 -0.8278
vn -0.4631 -0.0000 0.8863
vn -0.4838 0.0000 -0.8752
vn 0.0154 0.0002 -0.9999
vn 0.3823 -0.9240 0.0059
vn 0.1948 -0.9808 0.0030
vn 0.9236 -0.3831 0.0136
vn 0.9801 -0.1979 0.0146
vn 0.9228 -0.3851 0.0141
vn 0.9805 -0.1961 0.0134
vn 1.0000 -0.0008 0.0089
vn -0.0154 0.0028 0.9999
vn 0.9811 0.1935 0.0024
vn 0.8321 0.5546 -0.0010
vn 0.9812 0.1930 0.0018
vn -0.0038 0.0048 1.0000
vn 0.9647 0.1419 0.2217
vn 0.8599 -0.0000 0.5105
vn 0.9647 -0.1419 0.2217
vn -0.7092 -0.2101 0.6729
vn 0.6882 -0.2101 0.6945
vn 0.6883 -0.2101 0.6944
vn -0.0139 -0.8089 0.5877
vn -0.0043 -0.8089 0.5879
vn -0.0140 -0.8089 0.5877
vn -0.0187 -0.8089 0.5876
vn -0.0043 -0.8090 0.5879
vn 0.0005 -0.8089 0.5879
vn -0.2106 0.2933 0.9325
vn 0.1292 0.2972 0.9461
vn -0.1584 0.2972 0.9416
vn -0.3544 0.2710 0.8950
vn 0.1817 0.2933 0.9386
vn 0.3266 0.2712 0.9054
vn -0.9999 0.0001 -0.0156
vn -0.9999 0.0001 -0.0157
vn 0.7889 0.6139 0.0276
vn 0.7216 0.6917 0.0277
vn -0.7904 0.6124 -0.0122
vn -0.7234 0.6904 -0.0111
vn -0.0128 0.0671 0.9977
vn -0.0180 0.0635 0.9978
vn -0.0210 0.0639 0.9977
vn -0.0181 0.0672 0.9976
vn -0.0130 0.0636 0.9979
vn -0.0186 0.0670 0.9976
vn -0.0123 0.0670 0.9977
vn 0.0132 0.0848 -0.9963
vn 0.0204 0.0842 -0.9962
vn 0.0126 0.0846 -0.9963
vn -0.7090 -0.7047 -0.0270
vn -0.7671 -0.6410 -0.0272
vn 0.0199 0.0843 -0.9962
vn 0.0135 0.0801 -0.9967
vn 0.0199 0.0801 -0.9966
vn 0.0236 0.0805 -0.9965
vn -0.0154 0.0611 0.9980
vn -0.0154 0.0612 0.9980
vn -0.0155 0.0611 0.9980
vn 0.1335 0.9908 0.0202
vn -0.1356 0.9908 -0.0006
vn -0.1349 0.9909 -0.0007
vn 0.0165 0.0768 -0.9969
vn 0.0165 0.0771 -0.9969
vn 0.0164 0.0771 -0.9969
vn 0.7687 -0.6395 0.0116
vn 0.7109 -0.7033 0.0104
vn 0.7104 -0.7038 0.0102
vn -0.0017 0.9999 0.0172
vn -0.0001 1.0000 0.0022
vn -0.0000 1.0000 0.0013
vn 0.1334 0.9908 0.0209
vn 0.4671 0.8838 0.0259
vn 0.4661 0.8844 0.0260
vn 0.7210 0.6924 0.0276
vn -0.4684 0.8835 -0.0066
vn -0.4698 0.8827 -0.0070
vn -0.7227 0.6911 -0.0110
vn -0.0156 0.0611 0.9980
vn -0.0153 0.0611 0.9980
vn 0.0167 0.0770 -0.9969
vn 0.0167 0.0771 -0.9969
vn 0.0168 0.0769 -0.9969
vn 0.1355 -0.9908 -0.0009
vn 0.4685 -0.8834 0.0054
vn 0.4696 -0.8829 0.0058
vn -0.7086 -0.7051 -0.0268
vn -0.4670 -0.8839 -0.0246
vn -0.4663 -0.8843 -0.0247
vn -0.1336 -0.9909 -0.0192
vn -0.1335 -0.9909 -0.0186
vn 0.1350 -0.9908 -0.0008
vn -0.3826 -0.9239 -0.0059
vn 0.0154 0.0001 -0.9999
vn 0.7221 0.6918 -0.0053
vn 0.7894 0.6139 -0.0031
vn -0.7234 0.6903 -0.0112
vn 0.0130 0.0635 -0.9979
vn 0.0182 0.0671 -0.9976
vn 0.0100 0.0639 -0.9979
vn 0.0128 0.0672 -0.9977
vn 0.0180 0.0635 -0.9978
vn 0.0210 0.0639 -0.9977
vn 0.0124 0.0670 -0.9977
vn -0.0177 0.0848 0.9962
vn -0.0104 0.0842 0.9964
vn -0.0110 0.0843 0.9964
vn -0.7095 -0.7047 0.0050
vn -0.7675 -0.6410 0.0034
vn -0.7091 -0.7051 0.0048
vn -0.0173 0.0800 0.9966
vn -0.0211 0.0806 0.9965
vn -0.0111 0.0800 0.9967
vn -0.0074 0.0806 0.9967
vn 0.0155 0.0611 -0.9980
vn 0.0154 0.0611 -0.9980
vn -0.1356 0.9908 -0.0036
vn 0.1341 0.9908 -0.0160
vn -0.1349 0.9909 -0.0034
vn -0.0144 0.0770 0.9969
vn -0.0144 0.0769 0.9969
vn 0.7687 -0.6395 0.0123
vn 0.7108 -0.7033 0.0116
vn -0.0012 0.9999 -0.0172
vn -0.0001 1.0000 -0.0023
vn -0.0012 0.9998 -0.0182
vn 0.1340 0.9908 -0.0167
vn 0.4676 0.8839 -0.0114
vn 0.7215 0.6924 -0.0053
vn 0.4666 0.8844 -0.0116
vn -0.4683 0.8835 -0.0079
vn -0.7227 0.6911 -0.0113
vn -0.4698 0.8827 -0.0076
vn 0.0156 0.0611 -0.9980
vn 0.0155 0.0612 -0.9980
vn -0.0142 0.0770 0.9969
vn -0.0141 0.0769 0.9969
vn -0.0143 0.0769 0.9969
vn 0.1355 -0.9908 0.0051
vn 0.4684 -0.8835 0.0090
vn 0.1349 -0.9908 0.0049
vn 0.4696 -0.8828 0.0087
vn 0.7103 -0.7038 0.0117
vn -0.4675 -0.8839 0.0101
vn -0.1341 -0.9909 0.0151
vn -0.4669 -0.8843 0.0102
vn -0.1340 -0.9909 0.0144
vn 0.0160 0.1561 -0.9876
vn 0.6392 -0.6454 0.4182
vn -0.6517 0.6456 0.3982
vn -0.6499 0.6476 0.3979
vn -0.0156 -0.0004 0.9999
vn 0.0658 0.9978 0.0111
vn -0.0169 -0.0015 0.9999
vn 0.0169 0.0015 -0.9999
vn -0.5201 0.7149 -0.4674
vn 0.0147 -0.2937 -0.9558
vn -0.0033 1.0000 -0.0027
vn -0.0159 0.1293 0.9915
vn -0.4837 -0.3237 0.8132
vn 0.3822 -0.9241 0.0059
vn 0.9236 -0.3831 0.0151
vn 0.9228 -0.3850 0.0146
vn 0.9808 0.1930 0.0287
vn -0.0005 -0.8089 -0.5879
vn 0.3538 0.2680 -0.8961
vn -0.9999 -0.0001 -0.0157
vn -0.7070 -0.7071 -0.0112
vn -0.7071 -0.7071 -0.0109
vn -0.0047 0.0080 1.0000
vn -0.9261 0.3769 -0.0147
vn -0.9261 0.3771 -0.0143
vn 0.0743 0.0590 -0.9955
vn 0.6765 -0.6224 -0.3936
vn -0.6391 0.6455 -0.4182
vn 0.7023 0.7002 -0.1287
vn 0.0141 -0.0013 -0.9999
vn -0.0140 0.0016 0.9999
vn -0.9999 0.0000 -0.0151
vn -0.0145 0.1548 0.9878
vn -0.0144 0.1548 0.9878
vn -0.0149 -0.2938 0.9558
vn -0.2285 0.8403 0.4917
vn -0.0147 -0.2938 0.9558
vn -0.0034 1.0000 0.0026
vn 0.0148 0.1296 -0.9915
vn 0.3826 -0.9239 0.0058
vn 1.0000 0.0000 0.0089
vn -0.0156 0.0030 0.9999
vn 0.0006 -0.8090 0.5878
vn -0.3538 0.2680 0.8961
vn 0.3260 0.2682 0.9065
vn -0.0101 0.0640 0.9979
vn -0.7670 -0.6411 -0.0270
vn 0.0098 0.0805 -0.9967
vn -0.0017 0.9999 0.0171
vn -0.0018 0.9998 0.0181
vn 0.0166 0.0770 -0.9969
vn 0.0186 0.0670 -0.9976
vn -0.0182 0.0847 0.9962
vn 0.0000 1.0000 -0.0013
usemtl Default_OBJ.003
s off
f 1/1/1 2/2/1 3/3/1
f 4/4/2 5/5/2 6/6/2
f 7/7/3 8/8/3 5/5/3
f 4/4/4 9/9/4 10/10/4
f 11/11/3 3/3/3 8/8/3
f 12/12/5 13/13/5 14/14/5
f 15/15/5 16/16/5 12/12/5
f 17/17/5 18/18/5 15/15/5
f 19/19/5 20/20/5 17/17/5
f 21/21/5 22/22/5 19/19/5
f 23/23/6 24/24/6 25/25/6
f 23/23/7 26/26/7 27/27/7
f 28/28/8 29/29/8 30/30/8
f 31/31/9 32/32/9 33/33/9
f 33/33/10 34/34/10 35/35/10
f 36/36/11 31/31/11 37/37/11
f 35/35/9 38/38/9 28/28/9
f 39/39/12 40/40/12 41/41/12
f 42/42/12 43/43/12 40/40/12
f 44/44/12 45/45/12 43/43/12
f 46/46/12 47/47/12 45/45/12
f 48/48/12 49/49/12 47/47/12
f 50/50/6 51/51/6 52/52/6
f 51/51/6 53/53/6 54/54/6
f 1/1/1 55/55/1 2/2/1
f 4/4/3 7/7/3 5/5/3
f 7/7/13 11/11/13 8/8/13
f 4/4/14 6/6/14 9/9/14
f 11/11/3 1/1/3 3/3/3
f 12/12/5 16/16/5 13/13/5
f 15/15/5 18/18/5 16/16/5
f 17/17/5 20/20/5 18/18/5
f 19/19/5 22/22/5 20/20/5
f 21/21/15 56/56/15 22/22/15
f 23/23/7 27/27/7 24/24/7
f 23/23/6 57/57/6 26/26/6
f 28/28/8 38/38/8 29/29/8
f 31/31/10 58/58/10 32/32/10
f 33/33/8 32/32/8 34/34/8
f 36/36/16 58/58/16 31/31/16
f 35/35/10 34/34/10 38/38/10
f 39/39/12 42/42/12 40/40/12
f 42/42/12 44/44/12 43/43/12
f 44/44/12 46/46/12 45/45/12
f 46/46/12 48/48/12 47/47/12
f 48/48/17 59/59/17 49/49/17
f 50/50/6 60/60/6 51/51/6
f 51/51/6 60/60/6 53/53/6
s 1
f 61/61/18 62/62/19 63/63/20
f 64/64/21 65/65/22 66/66/21
f 67/67/23 68/68/24 69/69/24
f 61/61/18 63/63/20 70/70/25
f 64/64/21 71/71/22 65/65/22
f 72/72/26 73/73/26 68/68/26
f 61/61/18 70/70/25 74/74/27
f 64/64/21 75/75/22 71/71/22
f 76/76/28 74/74/28 73/73/28
f 61/61/18 74/74/29 77/77/19
f 64/64/21 78/78/30 75/75/22
f 75/75/31 77/77/31 74/74/31
f 61/61/18 77/77/19 79/79/19
f 64/64/21 80/80/32 78/78/32
f 81/81/33 82/82/34 83/83/34
f 61/61/18 79/79/19 84/84/19
f 64/64/21 85/85/32 80/80/32
f 86/86/35 87/87/35 82/82/35
f 61/61/18 84/84/19 88/88/19
f 64/64/21 89/89/32 85/85/32
f 90/90/36 91/91/36 87/87/36
f 61/61/18 88/88/19 62/62/19
f 64/64/21 66/66/21 89/89/32
f 92/92/37 69/69/38 91/91/38
f 93/93/39 94/94/39 95/95/39
f 96/96/40 97/97/40 98/98/40
f 99/99/41 100/100/42 101/101/43
f 102/102/44 103/103/45 104/104/45
f 105/105/46 106/106/47 107/107/46
f 108/108/32 109/109/48 110/110/32
f 111/111/40 21/21/40 112/112/40
f 107/107/49 113/113/49 114/114/49
f 115/115/50 116/116/51 117/117/51
f 118/118/18 119/119/18 120/120/18
f 121/121/52 122/122/53 123/123/18
f 124/124/49 114/114/49 125/125/49
f 126/126/40 127/127/40 128/128/40
f 129/129/46 107/107/46 124/124/46
f 130/130/5 56/56/15 21/21/15
f 131/131/40 98/98/40 56/56/40
f 118/118/18 132/132/54 133/133/20
f 127/127/55 134/134/56 135/135/57
f 136/136/58 137/137/58 10/10/58
f 138/138/58 139/139/58 137/137/58
f 140/140/59 141/141/60 142/142/61
f 143/143/62 144/144/63 145/145/64
f 146/146/39 147/147/65 148/148/65
f 149/149/66 145/145/66 150/150/66
f 146/146/39 151/151/39 152/152/39
f 14/14/40 153/153/40 154/154/40
f 99/99/41 155/155/67 140/140/59
f 156/156/68 157/157/64 158/158/69
f 13/13/5 159/159/5 14/14/5
f 160/160/40 161/161/40 13/13/40
f 135/135/57 162/162/70 163/163/71
f 164/164/72 165/165/73 166/166/74
f 167/167/75 168/168/76 169/169/77
f 170/170/78 171/171/79 172/172/79
f 173/173/80 174/174/80 175/175/80
f 138/138/47 176/176/47 177/177/46
f 136/136/47 178/178/47 138/138/47
f 179/179/46 105/105/46 178/178/47
f 121/121/52 180/180/81 181/181/82
f 182/182/83 183/183/83 184/184/83
f 185/185/84 184/184/85 186/186/86
f 182/182/87 187/187/88 188/188/89
f 189/189/90 184/184/91 190/190/91
f 191/191/92 192/192/93 193/193/93
f 170/170/78 174/174/45 194/194/94
f 195/195/40 196/196/95 197/197/40
f 198/198/20 168/168/20 199/199/20
f 95/95/96 200/200/96 201/201/96
f 202/202/49 114/114/49 203/203/49
f 114/114/49 204/204/49 203/203/49
f 205/205/65 140/140/65 142/142/65
f 206/206/97 207/207/97 208/208/97
f 209/209/98 210/210/99 208/208/100
f 211/211/75 212/212/73 213/213/75
f 214/214/101 215/215/101 211/211/101
f 189/189/102 212/212/102 215/215/103
f 216/216/104 212/212/104 217/217/104
f 171/171/79 213/213/105 172/172/79
f 218/218/106 100/100/107 219/219/107
f 156/156/68 101/101/43 220/220/108
f 221/221/40 100/100/40 140/140/40
f 116/116/109 222/222/110 223/223/111
f 224/224/112 225/225/113 109/109/48
f 226/226/114 207/207/115 227/227/114
f 207/207/46 209/209/98 208/208/100
f 113/113/49 228/228/49 204/204/49
f 179/179/116 229/229/117 230/230/118
f 136/136/119 231/231/120 179/179/116
f 232/232/121 233/233/122 234/234/123
f 151/151/124 162/162/125 152/152/124
f 122/122/53 232/232/126 234/234/126
f 164/164/72 235/235/127 232/232/121
f 236/236/53 237/237/128 238/238/129
f 237/237/130 163/163/131 162/162/125
f 239/239/132 163/163/71 240/240/133
f 241/241/58 242/242/58 243/243/58
f 55/55/58 243/243/58 244/244/58
f 127/127/55 239/239/132 245/245/134
f 128/128/135 245/245/135 246/246/135
f 247/247/18 238/238/129 248/248/18
f 249/249/40 245/245/40 250/250/40
f 250/250/136 239/239/132 251/251/137
f 251/251/137 240/240/133 252/252/138
f 253/253/53 254/254/128 236/236/53
f 254/254/139 240/240/140 163/163/131
f 255/255/58 256/256/58 241/241/58
f 1/1/58 241/241/58 55/55/58
f 257/257/81 236/236/53 247/247/18
f 226/226/114 258/258/141 259/259/141
f 260/260/142 235/235/143 261/261/144
f 262/262/145 252/252/138 263/263/146
f 143/143/62 260/260/142 261/261/144
f 264/264/147 251/251/137 262/262/145
f 265/265/40 143/143/40 149/149/40
f 266/266/148 250/250/149 264/264/148
f 267/267/53 268/268/128 253/253/53
f 122/122/53 269/269/126 270/270/53
f 268/268/150 252/252/151 240/240/140
f 269/269/152 233/233/122 271/271/153
f 272/272/58 273/273/58 255/255/58
f 137/137/58 274/274/58 275/275/58
f 11/11/58 255/255/58 1/1/58
f 10/10/58 275/275/58 4/4/58
f 276/276/18 253/253/53 257/257/81
f 123/123/18 270/270/53 277/277/18
f 55/55/3 278/278/3 2/2/3
f 279/279/18 267/267/53 276/276/18
f 277/277/18 280/280/53 279/279/18
f 7/7/58 272/272/58 11/11/58
f 4/4/58 281/281/58 7/7/58
f 281/281/58 282/282/58 272/272/58
f 275/275/58 283/283/58 281/281/58
f 284/284/154 263/263/155 252/252/151
f 285/285/156 271/271/153 263/263/155
f 280/280/53 284/284/126 267/267/53
f 270/270/53 285/285/126 280/280/53
f 286/286/157 287/287/157 265/265/157
f 266/266/40 288/288/40 286/286/40
f 288/288/158 260/260/142 287/287/159
f 288/288/158 262/262/145 289/289/160
f 260/260/142 271/271/161 233/233/162
f 289/289/160 263/263/146 271/271/161
f 290/290/163 291/291/163 292/292/163
f 293/293/49 294/294/164 295/295/165
f 291/291/166 296/296/163 292/292/167
f 297/297/168 298/298/169 299/299/170
f 300/300/171 301/301/172 302/302/172
f 303/303/173 304/304/174 297/297/168
f 305/305/175 306/306/171 300/300/171
f 305/305/175 307/307/176 308/308/175
f 303/303/173 309/309/177 310/310/178
f 311/311/179 312/312/163 290/290/163
f 313/313/180 9/9/181 314/314/182
f 315/315/183 229/229/47 231/231/184
f 313/313/185 231/231/184 316/316/186
f 317/317/58 278/278/58 318/318/58
f 319/319/58 2/2/58 317/317/58
f 320/320/58 3/3/58 319/319/58
f 314/314/182 6/6/58 321/321/58
f 322/322/58 8/8/58 320/320/58
f 321/321/58 5/5/58 322/322/58
f 10/10/187 316/316/188 136/136/119
f 323/323/45 103/103/45 324/324/45
f 325/325/44 326/326/45 327/327/45
f 323/323/45 324/324/45 328/328/45
f 327/327/45 326/326/45 329/329/45
f 16/16/40 160/160/40 13/13/40
f 18/18/40 330/330/40 16/16/40
f 20/20/40 331/331/40 18/18/40
f 22/22/40 332/332/40 20/20/40
f 333/333/40 14/14/40 154/154/40
f 334/334/40 12/12/40 333/333/40
f 335/335/40 15/15/40 334/334/40
f 336/336/40 17/17/40 335/335/40
f 330/330/40 337/337/40 160/160/40
f 331/331/40 338/338/40 330/330/40
f 332/332/40 339/339/40 331/331/40
f 340/340/40 341/341/40 332/332/40
f 342/342/45 337/337/45 338/338/45
f 343/343/45 338/338/45 339/339/45
f 343/343/45 341/341/45 344/344/45
f 344/344/45 345/345/45 329/329/45
f 342/342/45 328/328/45 346/346/45
f 347/347/45 328/328/45 324/324/45
f 347/347/45 348/348/45 349/349/189
f 350/350/45 329/329/45 345/345/45
f 56/56/40 340/340/40 22/22/40
f 112/112/40 19/19/40 336/336/40
f 98/98/40 345/345/40 340/340/40
f 350/350/45 97/97/45 351/351/45
f 352/352/45 97/97/45 353/353/45
f 354/354/39 355/355/39 356/356/39
f 357/357/39 358/358/39 355/355/39
f 359/359/39 360/360/39 358/358/39
f 25/25/6 361/361/6 362/362/6
f 363/363/190 364/364/190 365/365/191
f 363/363/192 366/366/193 367/367/192
f 365/365/65 368/368/65 363/363/194
f 369/369/39 370/370/39 371/371/39
f 365/365/65 370/370/39 372/372/65
f 373/373/39 368/368/65 374/374/39
f 362/362/39 375/375/39 25/25/39
f 376/376/39 377/377/39 369/369/39
f 376/376/39 357/357/39 354/354/39
f 23/23/39 375/375/39 359/359/39
f 23/23/39 357/357/39 57/57/39
f 373/373/39 378/378/39 362/362/39
f 379/379/65 380/380/65 26/26/65
f 27/27/39 380/380/39 364/364/39
f 27/27/39 367/367/39 24/24/39
f 24/24/39 366/366/39 361/361/39
f 371/371/195 381/381/195 369/369/195
f 376/376/196 381/381/197 379/379/196
f 365/365/195 380/380/195 371/371/195
f 57/57/198 379/379/198 26/26/198
f 373/373/199 361/361/199 366/366/199
f 200/200/96 382/382/200 201/201/96
f 382/382/200 119/119/201 201/201/96
f 196/196/95 383/383/202 384/384/202
f 384/384/203 141/141/204 119/119/205
f 155/155/206 119/119/205 141/141/204
f 385/385/207 141/141/208 383/383/209
f 132/132/54 168/168/20 133/133/20
f 132/132/210 169/169/77 168/168/76
f 386/386/211 156/156/68 158/158/69
f 155/155/206 132/132/210 120/120/212
f 387/387/213 388/388/214 389/389/215
f 387/387/213 225/225/216 390/390/216
f 391/391/217 223/223/111 222/222/110
f 387/387/213 392/392/218 391/391/217
f 393/393/219 394/394/220 296/296/220
f 293/293/221 395/395/221 311/311/221
f 312/312/222 300/300/223 291/291/224
f 393/393/225 300/300/224 302/302/225
f 395/395/226 305/305/227 312/312/222
f 297/297/228 292/292/229 303/303/230
f 396/396/231 292/292/229 397/397/232
f 299/299/233 290/290/234 297/297/228
f 394/394/39 398/398/39 399/399/39
f 400/400/39 401/401/39 402/402/39
f 403/403/40 404/404/40 405/405/40
f 406/406/235 407/407/236 408/408/237
f 409/409/52 410/410/18 411/411/52
f 412/412/46 413/413/46 414/414/46
f 415/415/238 416/416/19 417/417/19
f 49/49/40 111/111/40 112/112/40
f 418/418/49 419/419/49 420/420/49
f 116/116/51 421/421/51 117/117/51
f 422/422/45 423/423/21 424/424/44
f 425/425/239 426/426/44 427/427/45
f 420/420/49 428/428/49 429/429/49
f 430/430/40 431/431/40 432/432/40
f 433/433/47 419/419/46 412/412/46
f 59/59/17 434/434/17 49/49/17
f 405/405/40 435/435/40 59/59/40
f 436/436/21 422/422/45 437/437/189
f 430/430/240 438/438/241 439/439/18
f 440/440/58 441/441/58 37/37/58
f 442/442/58 443/443/58 440/440/58
f 444/444/242 408/408/237 445/445/243
f 446/446/244 447/447/245 448/448/246
f 449/449/65 450/450/65 451/451/65
f 448/448/247 452/452/247 453/453/247
f 450/450/39 454/454/39 455/455/39
f 153/153/40 41/41/40 154/154/40
f 456/456/248 406/406/235 408/408/237
f 457/457/249 458/458/244 459/459/250
f 460/460/12 39/39/12 41/41/12
f 461/461/40 462/462/40 39/39/40
f 463/463/251 464/464/252 438/438/241
f 465/465/253 466/466/254 467/467/255
f 468/468/256 469/469/257 470/470/256
f 471/471/258 472/472/259 473/473/260
f 474/474/261 475/475/262 473/473/261
f 476/476/46 443/443/47 477/477/46
f 478/478/46 441/441/47 443/443/47
f 412/412/47 479/479/46 478/478/46
f 426/426/44 480/480/263 481/481/189
f 482/482/264 483/483/265 484/484/264
f 485/485/266 484/484/267 486/486/268
f 487/487/269 483/483/270 488/488/271
f 484/484/272 489/489/272 486/486/272
f 490/490/92 491/491/92 492/492/92
f 475/475/18 471/471/258 473/473/260
f 493/493/273 494/494/40 495/495/40
f 496/496/189 469/469/189 437/437/189
f 497/497/274 402/402/45 424/424/44
f 498/498/49 420/420/49 429/429/49
f 499/499/49 420/420/49 500/500/49
f 501/501/65 408/408/65 502/502/65
f 503/503/275 504/504/275 505/505/275
f 506/506/99 209/209/98 507/507/100
f 508/508/276 509/509/256 510/510/277
f 511/511/278 510/510/278 512/512/279
f 489/489/280 509/509/280 486/486/280
f 509/509/281 513/513/281 514/514/281
f 515/515/282 472/472/259 516/516/283
f 407/407/284 517/517/284 518/518/284
f 519/519/285 457/457/249 459/459/250
f 407/407/40 502/502/40 408/408/40
f 116/116/109 520/520/110 521/521/109
f 522/522/286 523/523/287 415/415/238
f 504/504/115 226/226/114 524/524/114
f 504/504/47 209/209/98 525/525/47
f 228/228/49 418/418/49 499/499/49
f 526/526/288 479/479/289 414/414/290
f 527/527/291 441/441/292 479/479/289
f 528/528/293 529/529/294 530/530/295
f 464/464/125 454/454/124 531/531/124
f 425/425/239 529/529/296 532/532/297
f 466/466/254 533/533/298 467/467/255
f 534/534/299 535/535/239 536/536/300
f 534/534/301 537/537/302 538/538/303
f 539/539/304 537/537/305 463/463/251
f 540/540/58 541/541/58 542/542/58
f 542/542/58 30/30/58 543/543/58
f 539/539/304 430/430/240 544/544/306
f 544/544/135 432/432/135 545/545/135
f 536/536/300 546/546/45 547/547/45
f 548/548/40 544/544/40 545/545/40
f 549/549/307 539/539/304 544/544/306
f 550/550/308 551/551/309 539/539/304
f 538/538/310 552/552/311 535/535/239
f 538/538/303 551/551/312 553/553/313
f 554/554/58 555/555/58 541/541/58
f 541/541/58 28/28/58 30/30/58
f 535/535/239 556/556/263 546/546/45
f 226/226/114 557/557/141 524/524/114
f 533/533/314 558/558/315 559/559/316
f 560/560/317 561/561/318 550/550/308
f 447/447/245 558/558/315 562/562/319
f 563/563/320 550/550/308 549/549/307
f 447/447/40 564/564/40 452/452/40
f 565/565/321 549/549/321 548/548/321
f 553/553/322 566/566/323 552/552/311
f 567/567/322 425/425/239 568/568/239
f 553/553/313 561/561/324 569/569/325
f 567/567/326 528/528/293 530/530/295
f 570/570/58 571/571/58 555/555/58
f 572/572/58 440/440/58 573/573/58
f 555/555/58 35/35/58 28/28/58
f 573/573/58 37/37/58 31/31/58
f 552/552/311 574/574/45 556/556/263
f 568/568/239 427/427/45 575/575/45
f 30/30/9 576/576/327 543/543/327
f 566/566/323 577/577/45 574/574/45
f 578/578/323 575/575/45 577/577/45
f 571/571/58 33/33/58 35/35/58
f 579/579/58 31/31/58 33/33/58
f 580/580/58 579/579/58 571/571/58
f 581/581/58 573/573/58 579/579/58
f 569/569/325 582/582/328 583/583/329
f 583/583/329 584/584/330 567/567/326
f 569/569/322 578/578/323 566/566/323
f 583/583/322 568/568/239 578/578/323
f 562/562/157 585/585/157 564/564/157
f 586/586/40 565/565/40 585/585/40
f 558/558/315 586/586/331 562/562/319
f 586/586/331 560/560/317 563/563/320
f 558/558/315 584/584/332 587/587/333
f 587/587/333 582/582/334 560/560/317
f 588/588/335 589/589/335 590/590/335
f 591/591/336 592/592/336 593/593/336
f 588/588/337 594/594/337 595/595/337
f 596/596/338 597/597/339 598/598/340
f 599/599/172 600/600/171 601/601/172
f 602/602/341 603/603/342 597/597/339
f 604/604/171 605/605/175 600/600/171
f 605/605/175 606/606/176 607/607/176
f 603/603/342 608/608/343 609/609/344
f 610/610/335 611/611/345 612/612/345
f 36/36/346 313/313/180 314/314/182
f 526/526/347 315/315/183 527/527/348
f 527/527/348 313/313/185 613/613/349
f 576/576/58 317/317/58 318/318/58
f 29/29/58 319/319/58 317/317/58
f 38/38/58 320/320/58 319/319/58
f 58/58/58 314/314/182 321/321/58
f 34/34/58 322/322/58 320/320/58
f 32/32/58 321/321/58 322/322/58
f 613/613/350 37/37/351 441/441/292
f 614/614/18 410/410/18 615/615/18
f 616/616/18 411/411/52 617/617/18
f 614/614/18 618/618/18 619/619/18
f 617/617/18 620/620/18 616/616/18
f 462/462/40 42/42/40 39/39/40
f 621/621/40 44/44/40 42/42/40
f 622/622/40 46/46/40 44/44/40
f 623/623/40 48/48/40 46/46/40
f 41/41/40 333/333/40 154/154/40
f 40/40/40 334/334/40 333/333/40
f 43/43/40 335/335/40 334/334/40
f 45/45/40 336/336/40 335/335/40
f 624/624/40 621/621/40 462/462/40
f 625/625/40 622/622/40 621/621/40
f 626/626/40 623/623/40 622/622/40
f 627/627/40 628/628/40 623/623/40
f 629/629/18 624/624/18 630/630/18
f 631/631/18 625/625/18 618/618/18
f 627/627/18 631/631/18 632/632/18
f 633/633/18 632/632/18 620/620/18
f 618/618/18 629/629/18 634/634/18
f 635/635/18 618/618/18 634/634/18
f 636/636/18 635/635/18 637/637/18
f 638/638/18 620/620/18 617/617/18
f 628/628/40 59/59/40 48/48/40
f 47/47/40 112/112/40 336/336/40
f 633/633/40 405/405/40 628/628/40
f 403/403/18 638/638/18 639/639/18
f 640/640/18 403/403/18 639/639/18
f 641/641/39 642/642/39 643/643/39
f 644/644/39 645/645/39 641/641/39
f 646/646/39 647/647/39 644/644/39
f 648/648/6 52/52/6 649/649/6
f 650/650/352 651/651/353 652/652/352
f 651/651/193 653/653/193 654/654/193
f 655/655/39 652/652/65 651/651/39
f 656/656/39 657/657/39 658/658/39
f 652/652/65 656/656/39 658/658/39
f 654/654/39 655/655/39 651/651/39
f 659/659/39 649/649/39 52/52/39
f 660/660/39 661/661/39 657/657/39
f 661/661/39 645/645/39 54/54/39
f 51/51/39 659/659/39 52/52/39
f 645/645/39 51/51/39 54/54/39
f 378/378/39 654/654/39 649/649/39
f 662/662/39 663/663/39 53/53/39
f 60/60/39 662/662/39 53/53/39
f 664/664/39 60/60/39 50/50/39
f 653/653/39 50/50/39 648/648/39
f 665/665/195 658/658/195 657/657/195
f 661/661/354 665/665/354 657/657/354
f 662/662/195 652/652/195 658/658/195
f 54/54/198 663/663/198 661/661/6
f 654/654/355 648/648/355 649/649/355
f 497/497/274 424/424/44 666/666/356
f 666/666/356 424/424/44 423/423/21
f 493/493/273 667/667/357 668/668/358
f 669/669/359 444/444/360 667/667/361
f 423/423/362 456/456/363 444/444/360
f 670/670/364 444/444/242 445/445/243
f 436/436/21 437/437/189 469/469/189
f 436/436/365 671/671/366 672/672/367
f 672/672/368 457/457/249 406/406/235
f 456/456/363 436/436/365 672/672/367
f 388/388/214 673/673/369 389/389/215
f 673/673/369 522/522/370 674/674/371
f 674/674/371 223/223/111 392/392/218
f 392/392/218 673/673/369 674/674/371
f 675/675/372 595/595/372 594/594/372
f 592/592/373 612/612/374 593/593/374
f 600/600/375 611/611/376 588/588/377
f 595/595/378 600/600/375 588/588/377
f 605/605/379 612/612/380 611/611/376
f 590/590/381 597/597/382 603/603/383
f 609/609/384 590/590/381 603/603/383
f 589/589/385 598/598/386 597/597/382
f 675/675/39 676/676/387 677/677/388
f 678/678/389 679/679/390 680/680/389
f 681/681/391 682/682/392 683/683/391
f 684/684/393 685/685/394 686/686/395
f 687/687/396 688/688/397 689/689/398
f 684/684/393 689/689/398 690/690/399
f 691/691/400 692/692/401 693/693/402
f 694/694/403 695/695/404 696/696/404
f 697/697/405 698/698/406 692/692/401
f 691/691/400 699/699/407 700/700/408
f 701/701/409 702/702/410 703/703/411
f 702/702/412 704/704/413 703/703/414
f 705/705/415 706/706/416 707/707/417
f 708/708/418 709/709/419 710/710/420
f 696/696/421 711/711/422 712/712/423
f 706/706/424 713/713/425 714/714/426
f 713/713/425 715/715/427 714/714/426
f 704/704/413 716/716/428 703/703/414
f 717/717/429 718/718/430 716/716/428
f 688/688/397 719/719/411 720/720/431
f 719/719/411 703/703/411 720/720/431
f 685/685/394 721/721/411 686/686/395
f 721/721/432 702/702/410 722/722/410
f 698/698/406 723/723/433 724/724/434
f 723/723/433 706/706/416 724/724/434
f 699/699/407 725/725/433 700/700/408
f 725/725/435 704/704/416 705/705/415
f 726/726/436 727/727/437 728/728/438
f 728/728/438 710/710/420 709/709/419
f 729/729/439 730/730/440 731/731/441
f 730/730/440 732/732/442 731/731/441
f 726/726/436 733/733/443 734/734/444
f 735/735/45 736/736/32 737/737/32
f 738/738/54 739/739/54 740/740/19
f 741/741/23 742/742/23 743/743/23
f 735/735/45 744/744/45 736/736/32
f 738/738/54 740/740/19 745/745/19
f 746/746/26 747/747/26 741/741/26
f 735/735/45 748/748/32 744/744/45
f 738/738/54 745/745/19 749/749/19
f 748/748/28 750/750/28 746/746/28
f 735/735/45 751/751/32 748/748/32
f 738/738/54 749/749/19 752/752/54
f 751/751/445 749/749/31 748/748/445
f 735/735/45 753/753/189 751/751/32
f 738/738/54 752/752/54 754/754/25
f 755/755/33 756/756/33 757/757/33
f 735/735/45 758/758/22 753/753/189
f 738/738/54 754/754/25 759/759/25
f 760/760/35 761/761/35 755/755/35
f 735/735/45 762/762/446 758/758/22
f 738/738/54 759/759/25 763/763/25
f 764/764/36 765/765/36 760/760/36
f 735/735/45 737/737/32 762/762/446
f 738/738/54 763/763/25 739/739/54
f 743/743/37 766/766/37 764/764/37
f 767/767/447 768/768/448 769/769/448
f 770/770/449 771/771/391 772/772/391
f 773/773/450 774/774/451 775/775/452
f 776/776/453 777/777/454 778/778/455
f 774/774/451 779/779/456 776/776/453
f 780/780/457 781/781/458 782/782/459
f 783/783/460 784/784/461 785/785/462
f 782/782/459 786/786/463 787/787/464
f 788/788/465 780/780/457 789/789/466
f 790/790/467 791/791/467 792/792/468
f 793/793/469 791/791/470 794/794/471
f 795/795/472 796/796/473 797/797/472
f 798/798/474 799/799/475 800/800/474
f 801/801/476 802/802/477 784/784/478
f 795/795/479 803/803/480 791/791/470
f 804/804/481 803/803/480 805/805/482
f 806/806/483 793/793/469 794/794/471
f 807/807/484 808/808/485 806/806/483
f 777/777/454 809/809/467 778/778/455
f 794/794/486 809/809/467 810/810/467
f 811/811/467 773/773/450 775/775/452
f 811/811/467 791/791/467 812/812/487
f 786/786/463 813/813/488 787/787/464
f 795/795/489 813/813/488 814/814/489
f 815/815/488 788/788/465 789/789/466
f 815/815/488 793/793/490 816/816/488
f 817/817/491 818/818/492 819/819/493
f 820/820/494 821/821/495 818/818/492
f 785/785/462 822/822/496 783/783/460
f 823/823/497 822/822/496 824/824/498
f 825/825/499 817/817/491 819/819/493
f 67/67/23 72/72/23 68/68/24
f 72/72/26 76/76/26 73/73/26
f 76/76/28 75/75/28 74/74/28
f 75/75/445 78/78/445 77/77/445
f 81/81/33 86/86/33 82/82/34
f 86/86/35 90/90/35 87/87/35
f 90/90/36 92/92/36 91/91/36
f 92/92/37 67/67/37 69/69/38
f 93/93/39 826/826/39 94/94/39
f 96/96/40 353/353/40 97/97/40
f 99/99/41 140/140/59 100/100/42
f 102/102/44 325/325/44 103/103/45
f 105/105/46 230/230/47 106/106/47
f 108/108/32 224/224/112 109/109/48
f 111/111/40 130/130/40 21/21/40
f 107/107/49 106/106/49 113/113/49
f 115/115/50 827/827/50 116/116/51
f 118/118/18 201/201/18 119/119/18
f 121/121/52 181/181/82 122/122/53
f 124/124/49 107/107/49 114/114/49
f 126/126/40 828/828/40 127/127/40
f 129/129/46 105/105/46 107/107/46
f 130/130/5 131/131/5 56/56/15
f 131/131/40 96/96/40 98/98/40
f 118/118/18 120/120/18 132/132/54
f 127/127/55 828/828/45 134/134/56
f 136/136/58 138/138/58 137/137/58
f 138/138/58 177/177/58 139/139/58
f 140/140/59 155/155/67 141/141/60
f 143/143/62 261/261/144 144/144/63
f 146/146/39 152/152/39 147/147/65
f 149/149/66 143/143/66 145/145/66
f 146/146/39 829/829/39 151/151/39
f 14/14/40 159/159/40 153/153/40
f 99/99/41 386/386/211 155/155/67
f 156/156/68 220/220/108 157/157/64
f 13/13/5 161/161/5 159/159/5
f 160/160/40 830/830/40 161/161/40
f 135/135/57 134/134/56 162/162/500
f 164/164/72 831/831/73 165/165/73
f 167/167/75 199/199/75 168/168/76
f 170/170/78 194/194/94 171/171/79
f 173/173/80 194/194/80 174/174/80
f 138/138/47 178/178/47 176/176/47
f 136/136/47 179/179/46 178/178/47
f 179/179/46 230/230/47 105/105/46
f 121/121/52 832/832/20 180/180/81
f 182/182/83 833/833/83 183/183/83
f 185/185/84 190/190/501 184/184/85
f 182/182/87 189/189/502 187/187/503
f 189/189/90 182/182/90 184/184/91
f 191/191/92 174/174/92 192/192/93
f 170/170/78 192/192/45 174/174/45
f 195/195/40 834/834/358 196/196/95
f 198/198/20 133/133/20 168/168/20
f 95/95/54 94/94/54 200/200/504
f 202/202/49 125/125/49 114/114/49
f 114/114/49 113/113/49 204/204/49
f 205/205/65 221/221/65 140/140/65
f 206/206/97 835/835/97 207/207/97
f 209/209/98 388/388/214 210/210/99
f 211/211/75 215/215/73 212/212/73
f 214/214/505 836/836/505 215/215/505
f 189/189/506 190/190/506 212/212/506
f 216/216/104 213/213/104 212/212/104
f 171/171/79 211/211/507 213/213/105
f 218/218/106 101/101/106 100/100/107
f 156/156/68 99/99/41 101/101/43
f 221/221/40 837/837/40 100/100/40
f 116/116/109 827/827/109 222/222/110
f 224/224/112 390/390/113 225/225/113
f 226/226/114 525/525/115 207/207/115
f 207/207/46 525/525/47 209/209/98
f 113/113/49 838/838/49 228/228/49
f 179/179/116 231/231/120 229/229/117
f 136/136/119 316/316/188 231/231/120
f 232/232/121 235/235/127 233/233/122
f 151/151/124 237/237/130 162/162/125
f 122/122/53 181/181/82 232/232/126
f 164/164/72 166/166/74 235/235/127
f 236/236/53 254/254/128 237/237/128
f 237/237/130 254/254/139 163/163/131
f 239/239/132 135/135/57 163/163/71
f 241/241/58 256/256/58 242/242/58
f 55/55/58 241/241/58 243/243/58
f 127/127/55 135/135/57 239/239/132
f 128/128/135 127/127/135 245/245/135
f 247/247/18 236/236/53 238/238/129
f 249/249/40 246/246/40 245/245/40
f 250/250/136 245/245/134 239/239/132
f 251/251/137 239/239/132 240/240/133
f 253/253/53 268/268/128 254/254/128
f 254/254/139 268/268/150 240/240/140
f 255/255/58 273/273/58 256/256/58
f 1/1/58 255/255/58 241/241/58
f 257/257/81 253/253/53 236/236/53
f 226/226/114 227/227/114 258/258/141
f 260/260/142 233/233/162 235/235/143
f 262/262/145 251/251/137 252/252/138
f 143/143/62 287/287/159 260/260/142
f 264/264/147 250/250/136 251/251/137
f 265/265/40 287/287/40 143/143/40
f 266/266/148 249/249/321 250/250/149
f 267/267/53 284/284/126 268/268/128
f 122/122/53 234/234/126 269/269/126
f 268/268/150 284/284/154 252/252/151
f 269/269/152 234/234/123 233/233/122
f 272/272/58 282/282/58 273/273/58
f 137/137/58 139/139/58 274/274/58
f 11/11/58 272/272/58 255/255/58
f 10/10/58 137/137/58 275/275/58
f 276/276/18 267/267/53 253/253/53
f 123/123/18 122/122/53 270/270/53
f 55/55/2 244/244/2 278/278/2
f 279/279/18 280/280/53 267/267/53
f 277/277/18 270/270/53 280/280/53
f 7/7/58 281/281/58 272/272/58
f 4/4/58 275/275/58 281/281/58
f 281/281/58 283/283/58 282/282/58
f 275/275/58 274/274/58 283/283/58
f 284/284/154 285/285/156 263/263/155
f 285/285/156 269/269/152 271/271/153
f 280/280/53 285/285/126 284/284/126
f 270/270/53 269/269/126 285/285/126
f 286/286/157 288/288/157 287/287/157
f 266/266/40 264/264/40 288/288/40
f 288/288/158 289/289/160 260/260/142
f 288/288/158 264/264/147 262/262/145
f 260/260/142 289/289/160 271/271/161
f 289/289/160 262/262/145 263/263/146
f 290/290/163 312/312/163 291/291/163
f 293/293/49 839/839/49 294/294/164
f 291/291/166 393/393/166 296/296/163
f 297/297/168 304/304/174 298/298/169
f 300/300/171 306/306/171 301/301/172
f 303/303/173 310/310/178 304/304/174
f 305/305/175 308/308/175 306/306/171
f 305/305/175 840/840/176 307/307/176
f 303/303/173 396/396/508 309/309/177
f 311/311/509 395/395/509 312/312/509
f 313/313/180 316/316/510 9/9/181
f 315/315/183 841/841/46 229/229/47
f 313/313/185 315/315/183 231/231/184
f 317/317/58 2/2/58 278/278/58
f 319/319/58 3/3/58 2/2/58
f 320/320/58 8/8/58 3/3/58
f 314/314/182 9/9/181 6/6/58
f 322/322/58 5/5/58 8/8/58
f 321/321/58 6/6/58 5/5/58
f 10/10/187 9/9/511 316/316/188
f 323/323/45 104/104/45 103/103/45
f 325/325/44 102/102/44 326/326/45
f 16/16/40 330/330/40 160/160/40
f 18/18/40 331/331/40 330/330/40
f 20/20/40 332/332/40 331/331/40
f 22/22/40 340/340/40 332/332/40
f 333/333/40 12/12/40 14/14/40
f 334/334/40 15/15/40 12/12/40
f 335/335/40 17/17/40 15/15/40
f 336/336/40 19/19/40 17/17/40
f 330/330/40 338/338/40 337/337/40
f 331/331/40 339/339/40 338/338/40
f 332/332/40 341/341/40 339/339/40
f 340/340/40 345/345/40 341/341/40
f 342/342/45 842/842/45 337/337/45
f 343/343/45 328/328/45 338/338/45
f 343/343/45 339/339/45 341/341/45
f 344/344/45 341/341/45 345/345/45
f 342/342/45 338/338/45 328/328/45
f 347/347/45 346/346/45 328/328/45
f 347/347/45 324/324/45 348/348/45
f 350/350/45 327/327/45 329/329/45
f 56/56/40 98/98/40 340/340/40
f 112/112/40 21/21/40 19/19/40
f 98/98/40 97/97/40 345/345/40
f 350/350/45 345/345/45 97/97/45
f 352/352/45 351/351/45 97/97/45
f 354/354/39 357/357/39 355/355/39
f 357/357/39 359/359/39 358/358/39
f 359/359/39 375/375/39 360/360/39
f 25/25/6 24/24/6 361/361/6
f 363/363/190 367/367/512 364/364/190
f 363/363/192 373/373/193 366/366/193
f 365/365/65 372/372/65 368/368/65
f 369/369/39 377/377/39 370/370/39
f 365/365/65 371/371/39 370/370/39
f 373/373/39 363/363/194 368/368/65
f 362/362/39 378/378/39 375/375/39
f 376/376/39 354/354/39 377/377/39
f 376/376/39 57/57/39 357/357/39
f 23/23/39 25/25/39 375/375/39
f 23/23/39 359/359/39 357/357/39
f 373/373/39 374/374/39 378/378/39
f 379/379/65 381/381/65 380/380/65
f 27/27/39 26/26/39 380/380/39
f 27/27/39 364/364/39 367/367/39
f 24/24/39 367/367/39 366/366/39
f 371/371/195 380/380/195 381/381/195
f 376/376/196 369/369/197 381/381/197
f 365/365/195 364/364/195 380/380/195
f 57/57/6 376/376/6 379/379/6
f 373/373/199 362/362/199 361/361/199
f 196/196/95 834/834/358 383/383/513
f 384/384/514 383/383/515 141/141/204
f 155/155/206 120/120/212 119/119/205
f 385/385/207 142/142/61 141/141/208
f 132/132/210 386/386/516 169/169/77
f 386/386/211 99/99/41 156/156/68
f 155/155/206 386/386/516 132/132/210
f 387/387/213 210/210/99 388/388/214
f 387/387/213 391/391/217 225/225/216
f 391/391/217 392/392/218 223/223/111
f 387/387/213 389/389/215 392/392/218
f 393/393/219 843/843/219 394/394/220
f 293/293/221 295/295/221 395/395/221
f 312/312/222 305/305/227 300/300/223
f 393/393/517 291/291/224 300/300/223
f 395/395/226 840/840/226 305/305/227
f 297/297/228 290/290/234 292/292/229
f 396/396/231 303/303/230 292/292/229
f 299/299/233 844/844/518 290/290/234
f 394/394/519 843/843/519 398/398/519
f 400/400/39 845/845/39 401/401/39
f 403/403/40 846/846/40 404/404/40
f 406/406/235 519/519/96 407/407/236
f 409/409/52 615/615/18 410/410/18
f 412/412/46 419/419/46 413/413/46
f 415/415/238 523/523/287 416/416/19
f 49/49/40 434/434/40 111/111/40
f 418/418/49 413/413/49 419/419/49
f 116/116/51 521/521/51 421/421/51
f 422/422/45 847/847/45 423/423/21
f 425/425/239 532/532/297 426/426/44
f 420/420/49 419/419/49 428/428/49
f 430/430/40 439/439/40 431/431/40
f 433/433/47 428/428/46 419/419/46
f 59/59/12 435/435/12 434/434/12
f 405/405/40 404/404/40 435/435/40
f 436/436/21 847/847/45 422/422/45
f 430/430/240 463/463/251 438/438/241
f 440/440/58 443/443/58 441/441/58
f 442/442/58 477/477/58 443/443/58
f 444/444/242 456/456/248 408/408/237
f 446/446/244 559/559/316 447/447/245
f 449/449/65 531/531/39 450/450/65
f 448/448/520 447/447/521 452/452/521
f 450/450/39 531/531/39 454/454/39
f 153/153/40 460/460/40 41/41/40
f 456/456/248 672/672/368 406/406/235
f 457/457/249 848/848/522 458/458/244
f 460/460/12 461/461/12 39/39/12
f 461/461/40 849/849/40 462/462/40
f 463/463/251 537/537/305 464/464/252
f 465/465/253 850/850/256 466/466/254
f 468/468/256 671/671/366 469/469/257
f 471/471/258 516/516/283 472/472/259
f 474/474/523 851/851/524 475/475/524
f 476/476/46 478/478/46 443/443/47
f 478/478/46 479/479/46 441/441/47
f 412/412/47 414/414/46 479/479/46
f 426/426/44 532/532/297 480/480/263
f 482/482/525 852/852/265 483/483/265
f 485/485/266 853/853/526 484/484/267
f 487/487/269 489/489/527 483/483/270
f 484/484/272 483/483/528 489/489/272
f 490/490/92 475/475/92 491/491/92
f 475/475/18 490/490/18 471/471/258
f 493/493/273 668/668/358 494/494/40
f 496/496/189 470/470/189 469/469/189
f 497/497/274 400/400/45 402/402/45
f 498/498/49 500/500/49 420/420/49
f 499/499/49 418/418/49 420/420/49
f 501/501/65 445/445/65 408/408/65
f 503/503/275 507/507/275 504/504/275
f 506/506/99 388/388/214 209/209/98
f 508/508/276 515/515/276 509/509/256
f 511/511/278 508/508/278 510/510/278
f 489/489/280 510/510/529 509/509/280
f 509/509/281 515/515/281 513/513/281
f 515/515/530 508/508/530 472/472/283
f 407/407/531 519/519/65 517/517/65
f 519/519/96 406/406/235 457/457/249
f 407/407/40 854/854/40 502/502/40
f 116/116/109 223/223/111 520/520/110
f 522/522/286 855/855/286 523/523/287
f 504/504/115 525/525/115 226/226/114
f 504/504/47 507/507/100 209/209/98
f 228/228/49 838/838/49 418/418/49
f 526/526/288 527/527/291 479/479/289
f 527/527/291 613/613/350 441/441/292
f 528/528/293 533/533/298 529/529/294
f 464/464/125 534/534/301 454/454/124
f 425/425/239 530/530/322 529/529/296
f 466/466/254 529/529/294 533/533/298
f 534/534/299 538/538/310 535/535/239
f 534/534/301 464/464/125 537/537/302
f 539/539/304 551/551/309 537/537/305
f 540/540/58 554/554/58 541/541/58
f 542/542/58 541/541/58 30/30/58
f 539/539/304 463/463/251 430/430/240
f 544/544/135 430/430/135 432/432/135
f 536/536/300 535/535/239 546/546/45
f 548/548/40 549/549/40 544/544/40
f 549/549/307 550/550/308 539/539/304
f 550/550/308 561/561/318 551/551/309
f 538/538/310 553/553/322 552/552/311
f 538/538/303 537/537/302 551/551/312
f 554/554/58 570/570/58 555/555/58
f 541/541/58 555/555/58 28/28/58
f 535/535/239 552/552/311 556/556/263
f 226/226/114 259/259/141 557/557/141
f 533/533/532 528/528/533 558/558/315
f 560/560/317 582/582/334 561/561/318
f 447/447/245 559/559/316 558/558/315
f 563/563/320 560/560/317 550/550/308
f 447/447/40 562/562/40 564/564/40
f 565/565/321 563/563/321 549/549/321
f 553/553/322 569/569/322 566/566/323
f 567/567/322 530/530/322 425/425/239
f 553/553/313 551/551/312 561/561/324
f 567/567/326 584/584/330 528/528/293
f 570/570/58 580/580/58 571/571/58
f 572/572/58 442/442/58 440/440/58
f 555/555/58 571/571/58 35/35/58
f 573/573/58 440/440/58 37/37/58
f 552/552/311 566/566/323 574/574/45
f 568/568/239 425/425/239 427/427/45
f 30/30/9 29/29/9 576/576/327
f 566/566/323 578/578/323 577/577/45
f 578/578/323 568/568/239 575/575/45
f 571/571/58 579/579/58 33/33/58
f 579/579/58 573/573/58 31/31/58
f 580/580/58 581/581/58 579/579/58
f 581/581/58 572/572/58 573/573/58
f 569/569/325 561/561/324 582/582/328
f 583/583/329 582/582/328 584/584/330
f 569/569/322 583/583/322 578/578/323
f 583/583/322 567/567/322 568/568/239
f 562/562/157 586/586/157 585/585/157
f 586/586/40 563/563/40 565/565/40
f 558/558/315 587/587/333 586/586/331
f 586/586/331 587/587/333 560/560/317
f 558/558/315 528/528/533 584/584/332
f 587/587/333 584/584/332 582/582/334
f 588/588/335 611/611/335 589/589/335
f 591/591/49 856/856/49 592/592/49
f 588/588/335 590/590/335 594/594/534
f 596/596/338 602/602/341 597/597/339
f 599/599/172 604/604/171 600/600/171
f 602/602/341 857/857/535 603/603/342
f 604/604/171 858/858/175 605/605/175
f 605/605/175 858/858/175 606/606/176
f 603/603/342 857/857/535 608/608/343
f 610/610/335 589/589/536 611/611/345
f 36/36/346 613/613/537 313/313/180
f 526/526/347 841/841/46 315/315/183
f 527/527/348 315/315/183 313/313/185
f 576/576/58 29/29/58 317/317/58
f 29/29/58 38/38/58 319/319/58
f 38/38/58 34/34/58 320/320/58
f 58/58/58 36/36/346 314/314/182
f 34/34/58 32/32/58 322/322/58
f 32/32/58 58/58/58 321/321/58
f 613/613/350 36/36/538 37/37/538
f 614/614/18 619/619/18 410/410/18
f 616/616/18 409/409/52 411/411/52
f 462/462/40 621/621/40 42/42/40
f 621/621/40 622/622/40 44/44/40
f 622/622/40 623/623/40 46/46/40
f 623/623/40 628/628/40 48/48/40
f 41/41/40 40/40/40 333/333/40
f 40/40/40 43/43/40 334/334/40
f 43/43/40 45/45/40 335/335/40
f 45/45/40 47/47/40 336/336/40
f 624/624/40 625/625/40 621/621/40
f 625/625/40 626/626/40 622/622/40
f 626/626/40 627/627/40 623/623/40
f 627/627/40 633/633/40 628/628/40
f 629/629/18 625/625/18 624/624/18
f 631/631/18 626/626/18 625/625/18
f 627/627/18 626/626/18 631/631/18
f 633/633/18 627/627/18 632/632/18
f 618/618/18 625/625/18 629/629/18
f 635/635/18 619/619/18 618/618/18
f 636/636/18 619/619/18 635/635/18
f 638/638/18 633/633/18 620/620/18
f 628/628/40 405/405/40 59/59/40
f 47/47/40 49/49/40 112/112/40
f 633/633/40 403/403/40 405/405/40
f 403/403/18 633/633/18 638/638/18
f 640/640/18 846/846/18 403/403/18
f 641/641/39 645/645/39 642/642/39
f 644/644/39 647/647/39 645/645/39
f 646/646/39 659/659/39 647/647/39
f 648/648/6 50/50/6 52/52/6
f 650/650/352 664/664/353 651/651/353
f 651/651/193 664/664/193 653/653/193
f 655/655/39 859/859/65 652/652/65
f 656/656/39 660/660/39 657/657/39
f 652/652/65 859/859/65 656/656/39
f 654/654/39 374/374/39 655/655/39
f 659/659/39 378/378/39 649/649/39
f 660/660/39 642/642/39 661/661/39
f 661/661/39 642/642/39 645/645/39
f 51/51/39 647/647/39 659/659/39
f 645/645/39 647/647/39 51/51/39
f 378/378/39 374/374/39 654/654/39
f 662/662/39 665/665/39 663/663/39
f 60/60/39 650/650/39 662/662/39
f 664/664/39 650/650/39 60/60/39
f 653/653/39 664/664/39 50/50/39
f 665/665/195 662/662/195 658/658/195
f 661/661/354 663/663/354 665/665/354
f 662/662/195 650/650/195 652/652/195
f 54/54/198 53/53/198 663/663/198
f 654/654/355 653/653/355 648/648/355
f 493/493/273 669/669/539 667/667/357
f 669/669/359 423/423/362 444/444/360
f 423/423/362 847/847/540 456/456/363
f 670/670/364 667/667/541 444/444/242
f 436/436/365 469/469/257 671/671/366
f 672/672/368 848/848/522 457/457/249
f 456/456/363 847/847/540 436/436/365
f 388/388/214 506/506/99 673/673/369
f 673/673/369 855/855/370 522/522/370
f 674/674/371 520/520/110 223/223/111
f 392/392/218 389/389/215 673/673/369
f 675/675/372 677/677/372 595/595/372
f 592/592/373 610/610/373 612/612/374
f 600/600/375 605/605/379 611/611/376
f 595/595/378 601/601/378 600/600/375
f 605/605/376 607/607/542 612/612/542
f 590/590/381 589/589/385 597/597/382
f 609/609/384 860/860/543 590/590/381
f 589/589/385 861/861/544 598/598/386
f 675/675/39 862/862/39 676/676/387
f 678/678/389 715/715/427 679/679/390
f 681/681/391 718/718/430 682/682/392
f 684/684/393 690/690/399 685/685/394
f 687/687/396 863/863/545 688/688/397
f 684/684/393 687/687/396 689/689/398
f 691/691/400 697/697/405 692/692/401
f 694/694/403 729/729/439 695/695/546
f 697/697/405 864/864/547 698/698/406
f 691/691/400 693/693/402 699/699/407
f 701/701/409 722/722/410 702/702/410
f 702/702/412 706/706/424 704/704/413
f 705/705/415 704/704/416 706/706/416
f 708/708/418 865/865/418 709/709/419
f 696/696/548 695/695/549 711/711/422
f 706/706/424 702/702/412 713/713/425
f 713/713/425 679/679/390 715/715/427
f 704/704/413 717/717/429 716/716/428
f 717/717/429 682/682/392 718/718/430
f 688/688/397 863/863/545 719/719/411
f 719/719/411 701/701/409 703/703/411
f 685/685/394 866/866/431 721/721/411
f 721/721/411 866/866/431 702/702/431
f 698/698/406 864/864/547 723/723/433
f 723/723/433 707/707/417 706/706/416
f 699/699/407 867/867/433 725/725/433
f 725/725/433 867/867/433 704/704/550
f 726/726/436 734/734/444 727/727/437
f 728/728/438 727/727/437 710/710/420
f 729/729/439 694/694/403 730/730/440
f 730/730/440 733/733/443 732/732/442
f 726/726/436 732/732/442 733/733/443
f 741/741/24 747/747/24 742/742/24
f 746/746/26 750/750/26 747/747/26
f 748/748/28 749/749/28 750/750/28
f 751/751/445 752/752/31 749/749/31
f 755/755/34 761/761/34 756/756/34
f 760/760/35 765/765/35 761/761/35
f 764/764/36 766/766/36 765/765/36
f 743/743/38 742/742/38 766/766/38
f 767/767/447 804/804/481 768/768/448
f 770/770/449 807/807/484 771/771/391
f 773/773/450 868/868/551 774/774/451
f 776/776/453 779/779/456 777/777/454
f 774/774/451 868/868/551 779/779/456
f 780/780/457 869/869/552 781/781/458
f 783/783/460 801/801/461 784/784/461
f 782/782/459 781/781/458 786/786/463
f 788/788/465 869/869/552 780/780/457
f 790/790/467 794/794/467 791/791/467
f 793/793/469 795/795/479 791/791/470
f 795/795/472 793/793/490 796/796/473
f 798/798/474 821/821/495 799/799/475
f 801/801/476 870/870/553 802/802/477
f 795/795/479 805/805/482 803/803/480
f 804/804/481 767/767/447 803/803/480
f 806/806/483 808/808/485 793/793/469
f 807/807/484 770/770/449 808/808/485
f 777/777/454 810/810/467 809/809/467
f 794/794/467 790/790/467 809/809/486
f 811/811/467 812/812/487 773/773/450
f 811/811/467 792/792/468 791/791/467
f 786/786/463 814/814/489 813/813/488
f 795/795/472 797/797/472 813/813/489
f 815/815/488 816/816/488 788/788/465
f 815/815/488 796/796/473 793/793/490
f 817/817/491 820/820/494 818/818/492
f 820/820/494 799/799/475 821/821/495
f 785/785/462 824/824/498 822/822/496
f 823/823/497 825/825/499 822/822/496
f 825/825/499 823/823/497 817/817/491
