# Blender v2.83.0 OBJ File: ''
# www.blender.org
mtllib chair_2.mtl
v 0.255905 0.527544 -0.283244
v 0.296336 -0.000000 -0.319539
v 0.279070 -0.000000 -0.309559
v 0.247517 0.554819 -0.283040
v 0.273084 0.530730 -0.293146
v 0.313632 -0.000000 -0.309559
v 0.290281 0.533460 -0.283080
v 0.313663 -0.000000 -0.289600
v 0.290300 0.533004 -0.263111
v 0.273122 0.529818 -0.253209
v 0.262630 0.563692 -0.252910
v 0.247454 0.554482 -0.263071
v 0.237958 0.587375 -0.252359
v 0.255925 0.527088 -0.263275
v 0.296396 -0.000000 -0.279621
v 0.279101 -0.000000 -0.289600
v 0.229141 0.572430 -0.282617
v 0.229193 0.572006 -0.262650
v 0.201490 0.579704 -0.282372
v 0.201522 0.579290 -0.262404
v -0.199562 0.579704 -0.282372
v -0.199594 0.579290 -0.262404
v 0.203778 0.596374 -0.252061
v -0.201832 0.596374 -0.252061
v -0.227463 0.572011 -0.262650
v -0.227411 0.572436 -0.282618
v -0.245980 0.554442 -0.263072
v -0.246043 0.554779 -0.283043
v 0.206000 0.613875 -0.261686
v -0.204039 0.613875 -0.261686
v -0.236164 0.587406 -0.252359
v -0.204007 0.614289 -0.281654
v -0.244815 0.603226 -0.262036
v 0.246671 0.603169 -0.262036
v 0.205970 0.614289 -0.281654
v 0.203714 0.597204 -0.291997
v -0.201769 0.597204 -0.291997
v -0.236061 0.588255 -0.292294
v -0.244762 0.603651 -0.282003
v -0.276238 0.573417 -0.262717
v -0.261078 0.563761 -0.252910
v -0.271928 0.529854 -0.253209
v -0.254764 0.526947 -0.263279
v -0.289073 0.533216 -0.263108
v -0.254745 0.527403 -0.283247
v -0.284215 0.000000 -0.289605
v -0.301504 0.000000 -0.279621
v -0.318758 0.000000 -0.289597
v -0.289053 0.533673 -0.283076
v -0.276302 0.573754 -0.282686
v -0.261203 0.564435 -0.292849
v -0.284180 0.000000 -0.309563
v -0.271889 0.530766 -0.293146
v -0.318724 0.000000 -0.309555
v -0.301435 0.000000 -0.319539
v 0.237854 0.588224 -0.292294
v 0.277869 0.573239 -0.262719
v 0.246619 0.603594 -0.282004
v 0.262755 0.564364 -0.292849
v 0.277932 0.573574 -0.282689
v 0.262630 0.563692 0.252910
v 0.290300 0.533004 0.263111
v 0.273122 0.529818 0.253209
v 0.277869 0.573239 0.262719
v 0.247454 0.554482 0.263071
v 0.255905 0.527544 0.283244
v 0.247517 0.554819 0.283040
v 0.255925 0.527088 0.263275
v 0.279100 -0.000000 0.289601
v 0.296396 -0.000000 0.279621
v 0.313663 -0.000000 0.289601
v 0.290281 0.533460 0.283080
v 0.277932 0.573574 0.282689
v 0.279070 -0.000000 0.309559
v 0.273084 0.530730 0.293146
v 0.262755 0.564364 0.292849
v 0.229141 0.572430 0.282617
v 0.313632 -0.000000 0.309559
v 0.296336 -0.000000 0.319539
v 0.246619 0.603594 0.282004
v 0.237854 0.588224 0.292294
v 0.203714 0.597204 0.291997
v 0.201490 0.579704 0.282372
v -0.201769 0.597204 0.291997
v -0.199562 0.579704 0.282372
v -0.227411 0.572436 0.282618
v -0.236061 0.588255 0.292294
v 0.237958 0.587375 0.252359
v 0.246671 0.603169 0.262036
v 0.205969 0.614289 0.281654
v -0.204007 0.614289 0.281654
v -0.244762 0.603651 0.282003
v 0.206000 0.613875 0.261686
v -0.276238 0.573417 0.262717
v -0.244815 0.603226 0.262036
v -0.204039 0.613875 0.261686
v 0.203778 0.596374 0.252061
v 0.229193 0.572006 0.262650
v -0.236164 0.587406 0.252359
v -0.261078 0.563761 0.252910
v -0.201832 0.596374 0.252061
v 0.201522 0.579290 0.262404
v -0.199594 0.579290 0.262404
v -0.227463 0.572011 0.262650
v -0.245980 0.554442 0.263072
v -0.246043 0.554779 0.283043
v -0.254745 0.527403 0.283247
v -0.254764 0.526947 0.263279
v -0.271928 0.529854 0.253209
v -0.289073 0.533216 0.263108
v -0.261203 0.564435 0.292849
v -0.276302 0.573754 0.282686
v -0.289053 0.533673 0.283076
v -0.318758 0.000000 0.289596
v -0.301504 0.000000 0.279621
v -0.284215 0.000000 0.289604
v -0.284180 0.000000 0.309563
v -0.271889 0.530766 0.293146
v -0.318724 0.000000 0.309555
v -0.301435 0.000000 0.319539
v -0.264120 1.170076 -0.255118
v -0.211199 0.626061 -0.257053
v -0.201224 0.626061 -0.272623
v -0.267035 1.197453 -0.246417
v -0.254222 1.173440 -0.272262
v -0.211207 0.626061 -0.288222
v -0.257228 1.207109 -0.261577
v -0.272479 1.215108 -0.227786
v -0.264290 1.176346 -0.289426
v -0.231166 0.626061 -0.288254
v -0.284260 1.175890 -0.289446
v -0.294158 1.172526 -0.272302
v -0.241141 0.626061 -0.272684
v -0.284089 1.169621 -0.255138
v -0.231158 0.626061 -0.257083
v -0.267390 1.216428 -0.276675
v -0.287004 1.197116 -0.246353
v -0.297167 1.206435 -0.261452
v -0.287359 1.216091 -0.276612
v -0.273094 1.246323 -0.245136
v -0.302738 1.230079 -0.236539
v -0.293061 1.245898 -0.245188
v -0.292447 1.214685 -0.227838
v -0.276151 1.222378 -0.199937
v -0.296119 1.221963 -0.199969
v -0.283997 1.222378 -0.099673
v -0.303966 1.221963 -0.099689
v -0.287937 1.222378 0.000590
v -0.306462 1.239048 -0.202207
v -0.314308 1.239048 -0.100803
v -0.304685 1.256548 -0.101903
v -0.296837 1.256548 -0.204413
v -0.276869 1.256963 -0.204381
v -0.284716 1.256963 -0.101887
v -0.266526 1.239877 -0.202143
v -0.262803 1.230929 -0.236435
v -0.274374 1.239877 -0.100772
v -0.288656 1.256963 0.000607
v -0.308624 1.256548 0.000607
v -0.278313 1.239877 0.000599
v -0.274374 1.239877 0.101969
v -0.283997 1.222378 0.100854
v -0.276151 1.222378 0.201118
v -0.266526 1.239877 0.203340
v -0.272480 1.215103 0.228767
v -0.284716 1.256963 0.103101
v -0.304685 1.256548 0.103117
v -0.314308 1.239048 0.102001
v -0.318248 1.239048 0.000599
v -0.303966 1.221963 0.100870
v -0.307905 1.221963 0.000590
v -0.296119 1.221963 0.201149
v -0.306462 1.239048 0.203404
v -0.292447 1.214678 0.228819
v -0.302738 1.230049 0.237584
v -0.296837 1.256548 0.205627
v -0.293061 1.245842 0.246297
v -0.276869 1.256963 0.205595
v -0.273093 1.246267 0.246245
v -0.262803 1.230898 0.237480
v -0.257228 1.207038 0.262381
v -0.287007 1.197156 0.247080
v -0.297167 1.206366 0.262256
v -0.267037 1.197491 0.247143
v -0.284092 1.169761 0.255551
v -0.264124 1.170218 0.255532
v -0.294158 1.172492 0.272748
v -0.284256 1.175677 0.289927
v -0.287358 1.215912 0.277495
v -0.267389 1.216248 0.277557
v -0.264288 1.176133 0.289907
v -0.231162 0.626061 0.288382
v -0.241142 0.626061 0.272801
v -0.231162 0.626061 0.257194
v -0.211203 0.626061 0.257167
v -0.211203 0.626061 0.288354
v -0.254222 1.173404 0.272709
v -0.201224 0.626061 0.272747
v -0.225395 1.124105 0.319553
v -0.239244 1.263190 0.314008
v -0.235023 1.234154 0.323855
v -0.224535 1.095068 0.309838
v -0.244822 1.272870 0.284468
v -0.228419 1.085388 0.280689
v -0.259458 1.272870 0.159777
v -0.243056 1.085388 0.159777
v -0.250072 1.085388 -0.000000
v -0.266474 1.272870 -0.000000
v -0.259458 1.272870 -0.159777
v -0.243056 1.085388 -0.159777
v -0.228419 1.085388 -0.280689
v -0.244822 1.272870 -0.284468
v -0.224535 1.095068 -0.309838
v -0.239244 1.263190 -0.314008
v -0.225395 1.124105 -0.319553
v -0.235023 1.234154 -0.323855
v -0.243197 1.122037 -0.319553
v -0.257046 1.261122 -0.314008
v -0.252825 1.232086 -0.323855
v -0.242337 1.092999 -0.309838
v -0.262623 1.270801 -0.284468
v -0.246221 1.083320 -0.280689
v -0.277260 1.270801 -0.159777
v -0.260858 1.083320 -0.159777
v -0.284276 1.270801 -0.000000
v -0.267873 1.083320 -0.000000
v -0.260858 1.083320 0.159777
v -0.277260 1.270801 0.159777
v -0.246221 1.083320 0.280689
v -0.262623 1.270801 0.284468
v -0.242337 1.092999 0.309838
v -0.257046 1.261122 0.314008
v -0.243197 1.122037 0.319553
v -0.252825 1.232086 0.323855
v 0.319605 0.632616 -0.280689
v -0.276836 0.620752 -0.159777
v 0.319605 0.620752 -0.159777
v -0.276836 0.632616 -0.280689
v -0.267118 0.636450 -0.309838
v 0.309890 0.636450 -0.309838
v -0.237971 0.637812 -0.319553
v 0.280741 0.637812 -0.319553
v 0.280741 0.637812 0.319553
v -0.267119 0.636450 0.309838
v -0.237971 0.637812 0.319553
v 0.309890 0.636450 0.309838
v 0.319605 0.632616 0.280689
v -0.276836 0.632616 0.280689
v 0.319605 0.620752 0.159777
v -0.276836 0.620752 0.159777
v 0.319605 0.615066 0.000000
v -0.276836 0.615066 -0.000000
v 0.309890 0.612722 -0.309838
v -0.237971 0.614084 -0.319553
v 0.280741 0.614084 -0.319553
v -0.267118 0.612722 -0.309838
v 0.319605 0.608887 -0.280689
v -0.276836 0.608888 -0.280689
v -0.276836 0.597024 -0.159777
v 0.319605 0.597024 -0.159777
v -0.276836 0.591337 -0.000000
v 0.319605 0.591337 0.000000
v -0.276836 0.597024 0.159777
v 0.319605 0.597024 0.159777
v -0.276836 0.608888 0.280689
v 0.319605 0.608887 0.280689
v -0.267119 0.612722 0.309838
v 0.309890 0.612722 0.309838
v 0.280741 0.614084 0.319553
v -0.237971 0.614084 0.319553
vt 0.996100 0.318400
vt 0.960900 0.016600
vt 0.996100 0.016600
vt 0.996100 0.339800
vt 0.959000 0.326200
vt 0.925800 0.016600
vt 0.925800 0.326200
vt 0.892600 0.016600
vt 0.890600 0.326200
vt 0.857400 0.328100
vt 0.857400 0.343800
vt 0.822300 0.341800
vt 0.857400 0.359400
vt 0.824200 0.326200
vt 0.857400 0.016600
vt 0.822300 0.016600
vt 0.789100 0.318400
vt 0.789100 0.339800
vt 0.789100 0.359400
vt 0.822300 0.359400
vt 0.789100 0.378900
vt 0.822300 0.377000
vt 0.789100 0.621100
vt 0.822300 0.623000
vt 0.789100 0.016600
vt 0.857400 0.377000
vt 0.857400 0.623000
vt 0.822300 0.640600
vt 0.789100 0.640600
vt 0.822300 0.658200
vt 0.789100 0.660200
vt 0.892600 0.377000
vt 0.892600 0.623000
vt 0.857400 0.640600
vt 0.927700 0.623000
vt 0.892600 0.640600
vt 0.892600 0.361300
vt 0.927700 0.377000
vt 0.960900 0.377000
vt 0.960900 0.623000
vt 0.960900 0.640600
vt 0.927700 0.640600
vt 0.892600 0.656300
vt 0.857400 0.656300
vt 0.857400 0.673800
vt 0.824200 0.673800
vt 0.890600 0.673800
vt 0.789100 0.681600
vt 0.822300 0.983400
vt 0.857400 0.983400
vt 0.892600 0.983400
vt 0.925800 0.673800
vt 0.925800 0.658200
vt 0.960900 0.658200
vt 0.789100 0.983400
vt 0.996100 0.640600
vt 0.996100 0.660200
vt 0.959000 0.675800
vt 0.925800 0.983400
vt 0.996100 0.681600
vt 0.960900 0.983400
vt 0.996100 0.983400
vt 0.996100 0.621100
vt 0.996100 0.378900
vt 0.996100 0.359400
vt 0.960900 0.359400
vt 0.892600 0.343800
vt 0.927700 0.359400
vt 0.960900 0.341800
vt 0.925800 0.343800
vt 0.857400 0.343800
vt 0.890600 0.326200
vt 0.857400 0.328100
vt 0.892600 0.343800
vt 0.822300 0.341800
vt 0.789100 0.318400
vt 0.789100 0.339800
vt 0.824200 0.326200
vt 0.822300 0.016600
vt 0.857400 0.016600
vt 0.892600 0.016600
vt 0.925800 0.326200
vt 0.925800 0.343800
vt 0.789100 0.016600
vt 0.959000 0.326200
vt 0.996100 0.339800
vt 0.996100 0.318400
vt 0.960900 0.341800
vt 0.996100 0.359400
vt 0.925800 0.016600
vt 0.960900 0.016600
vt 0.996100 0.016600
vt 0.927700 0.359400
vt 0.960900 0.359400
vt 0.960900 0.377000
vt 0.996100 0.378900
vt 0.960900 0.623000
vt 0.996100 0.621100
vt 0.996100 0.640600
vt 0.960900 0.640600
vt 0.857400 0.359400
vt 0.892600 0.361300
vt 0.927700 0.377000
vt 0.927700 0.623000
vt 0.927700 0.640600
vt 0.892600 0.377000
vt 0.892600 0.656300
vt 0.892600 0.640600
vt 0.892600 0.623000
vt 0.857400 0.377000
vt 0.822300 0.359400
vt 0.789100 0.359400
vt 0.857400 0.640600
vt 0.857400 0.656300
vt 0.857400 0.623000
vt 0.822300 0.377000
vt 0.789100 0.378900
vt 0.789100 0.621100
vt 0.822300 0.623000
vt 0.822300 0.640600
vt 0.822300 0.658200
vt 0.789100 0.640600
vt 0.789100 0.660200
vt 0.789100 0.681600
vt 0.824200 0.673800
vt 0.857400 0.673800
vt 0.890600 0.673800
vt 0.960900 0.658200
vt 0.925800 0.658200
vt 0.925800 0.673800
vt 0.892600 0.983400
vt 0.857400 0.983400
vt 0.822300 0.983400
vt 0.789100 0.983400
vt 0.996100 0.660200
vt 0.959000 0.675800
vt 0.925800 0.983400
vt 0.960900 0.983400
vt 0.996100 0.681600
vt 0.996100 0.983400
vt 0.996100 0.681600
vt 0.996100 0.962800
vt 0.960900 0.962800
vt 0.996100 0.660200
vt 0.959000 0.675800
vt 0.925800 0.962800
vt 0.960900 0.658200
vt 0.996100 0.640600
vt 0.925800 0.673800
vt 0.892600 0.962800
vt 0.890600 0.673800
vt 0.857400 0.673800
vt 0.857400 0.962800
vt 0.824200 0.673800
vt 0.822300 0.962800
vt 0.925800 0.658200
vt 0.789100 0.681600
vt 0.789100 0.962800
vt 0.789100 0.660200
vt 0.822300 0.658200
vt 0.857400 0.656300
vt 0.892600 0.656300
vt 0.927700 0.640600
vt 0.789100 0.640600
vt 0.857400 0.640600
vt 0.892600 0.640600
vt 0.822300 0.640600
vt 0.789100 0.621100
vt 0.822300 0.623000
vt 0.789100 0.560500
vt 0.822300 0.562500
vt 0.789100 0.500000
vt 0.857400 0.623000
vt 0.857400 0.562500
vt 0.892600 0.560500
vt 0.892600 0.623000
vt 0.927700 0.623000
vt 0.927700 0.560500
vt 0.960900 0.623000
vt 0.960900 0.640600
vt 0.996100 0.621100
vt 0.960900 0.562500
vt 0.927700 0.500000
vt 0.892600 0.500000
vt 0.996100 0.560500
vt 0.960900 0.500000
vt 0.960900 0.439500
vt 0.996100 0.439500
vt 0.996100 0.378900
vt 0.996100 0.500000
vt 0.960900 0.377000
vt 0.996100 0.359400
vt 0.927700 0.439500
vt 0.892600 0.439500
vt 0.857400 0.439500
vt 0.857400 0.500000
vt 0.822300 0.437500
vt 0.822300 0.500000
vt 0.789100 0.439500
vt 0.822300 0.377000
vt 0.857400 0.377000
vt 0.789100 0.378900
vt 0.822300 0.359400
vt 0.857400 0.359400
vt 0.892600 0.377000
vt 0.892600 0.361300
vt 0.927700 0.377000
vt 0.927700 0.359400
vt 0.960900 0.359400
vt 0.960900 0.341800
vt 0.822300 0.341800
vt 0.857400 0.343800
vt 0.789100 0.359400
vt 0.789100 0.339800
vt 0.824200 0.326200
vt 0.789100 0.318400
vt 0.857400 0.328100
vt 0.890600 0.326200
vt 0.892600 0.343800
vt 0.925800 0.343800
vt 0.925800 0.326200
vt 0.892600 0.037600
vt 0.857400 0.037600
vt 0.822300 0.037600
vt 0.789100 0.037600
vt 0.925800 0.037600
vt 0.959000 0.326200
vt 0.960900 0.037600
vt 0.996100 0.339800
vt 0.996100 0.318400
vt 0.996100 0.037600
vt 0.035200 0.798800
vt 0.039100 0.955100
vt 0.031300 0.923800
vt 0.043000 0.767600
vt 0.068400 0.968800
vt 0.072300 0.755900
vt 0.207000 0.970700
vt 0.207000 0.755900
vt 0.388700 0.757800
vt 0.388700 0.970700
vt 0.568400 0.968800
vt 0.568400 0.755900
vt 0.705100 0.755900
vt 0.709000 0.968800
vt 0.732400 0.767600
vt 0.736300 0.955100
vt 0.742200 0.798800
vt 0.746100 0.923800
vt 0.035200 0.798800
vt 0.039100 0.955100
vt 0.031300 0.923800
vt 0.043000 0.767600
vt 0.068400 0.968800
vt 0.072300 0.755900
vt 0.207000 0.970700
vt 0.207000 0.755900
vt 0.388700 0.970700
vt 0.388700 0.757800
vt 0.568400 0.755900
vt 0.568400 0.968800
vt 0.705100 0.755900
vt 0.709000 0.968800
vt 0.732400 0.767600
vt 0.736300 0.955100
vt 0.742200 0.798800
vt 0.746100 0.923800
vt 0.697300 0.037100
vt 0.566400 0.693400
vt 0.566400 0.037100
vt 0.697300 0.693400
vt 0.724600 0.681600
vt 0.724600 0.050800
vt 0.732400 0.650400
vt 0.732400 0.080100
vt 0.048800 0.080100
vt 0.056600 0.681600
vt 0.048800 0.650400
vt 0.056600 0.050800
vt 0.084000 0.037100
vt 0.084000 0.693400
vt 0.214800 0.037100
vt 0.214800 0.693400
vt 0.390600 0.037100
vt 0.390600 0.693400
vt 0.066400 0.056600
vt 0.054700 0.642600
vt 0.054700 0.087900
vt 0.066400 0.677700
vt 0.095700 0.044900
vt 0.095700 0.685500
vt 0.222700 0.685500
vt 0.222700 0.044900
vt 0.388700 0.685500
vt 0.388700 0.044900
vt 0.556600 0.685500
vt 0.556600 0.044900
vt 0.685500 0.685500
vt 0.685500 0.044900
vt 0.714800 0.677700
vt 0.714800 0.056600
vt 0.726600 0.087900
vt 0.726600 0.642600
vt 0.710900 0.988300
vt 0.748000 0.966800
vt 0.763700 0.925800
vt 0.759800 0.794900
vt 0.744100 0.755900
vt 0.707000 0.736300
vt 0.566400 0.736300
vt 0.388700 0.736300
vt 0.209000 0.736300
vt 0.068400 0.736300
vt 0.031300 0.755900
vt 0.015600 0.794900
vt 0.011700 0.925800
vt 0.027300 0.966800
vt 0.064500 0.988300
vt 0.209000 0.990200
vt 0.388700 0.990200
vt 0.566400 0.990200
vt 0.041000 0.695300
vt 0.023400 0.656300
vt 0.023400 0.076200
vt 0.041000 0.035200
vt 0.078100 0.013700
vt 0.214800 0.011700
vt 0.390600 0.011700
vt 0.564500 0.011700
vt 0.703100 0.013700
vt 0.740200 0.035200
vt 0.757800 0.076200
vt 0.757800 0.656300
vt 0.740200 0.695300
vt 0.703100 0.718800
vt 0.564500 0.720700
vt 0.390600 0.720700
vt 0.214800 0.720700
vt 0.078100 0.718800
vn -0.8531 -0.1329 -0.5046
vn 0.0132 0.0503 -0.9986
vn -0.8663 -0.0131 -0.4993
vn -0.7330 -0.4442 -0.5152
vn 0.0394 0.0363 -0.9986
vn 0.8606 0.0628 -0.5054
vn 0.8639 0.1635 -0.4765
vn 0.8765 0.0144 0.4812
vn 0.8599 0.1348 0.4923
vn 0.0401 -0.0224 0.9989
vn 0.0648 0.0248 0.9976
vn -0.7159 -0.4496 0.5343
vn 0.0409 0.0472 0.9981
vn -0.8377 -0.1609 0.5218
vn 0.0147 -0.0492 0.9987
vn -0.8673 -0.0628 0.4938
vn -0.4231 -0.7414 -0.5209
vn -0.4087 -0.7428 0.5303
vn -0.1119 -0.8473 -0.5192
vn -0.1088 -0.8574 0.5030
vn 0.1111 -0.8474 -0.5191
vn 0.1080 -0.8576 0.5029
vn 0.0068 0.0194 0.9998
vn -0.0067 0.0191 0.9998
vn 0.4060 -0.7446 0.5298
vn 0.4203 -0.7430 -0.5208
vn 0.7128 -0.4551 0.5338
vn 0.7296 -0.4497 -0.5152
vn 0.1131 0.8570 0.5027
vn -0.1122 0.8571 0.5028
vn -0.0404 0.0468 0.9981
vn -0.1107 0.8777 -0.4663
vn -0.4291 0.7596 0.4887
vn 0.4320 0.7581 0.4886
vn 0.1116 0.8776 -0.4662
vn 0.0036 0.0612 -0.9981
vn -0.0035 0.0609 -0.9981
vn -0.0351 0.0890 -0.9954
vn -0.4265 0.7796 -0.4585
vn -0.7456 0.4603 0.4819
vn -0.0641 0.0250 0.9976
vn -0.0397 -0.0220 0.9990
vn 0.8363 -0.1699 0.5214
vn -0.8583 0.1439 0.4926
vn 0.8515 -0.1420 -0.5048
vn 0.8658 -0.0731 0.4950
vn -0.0184 -0.0488 0.9986
vn -0.8772 0.0249 0.4794
vn -0.8621 0.1726 -0.4764
vn -0.7467 0.4753 -0.4653
vn -0.0676 0.0575 -0.9961
vn 0.8662 -0.0234 -0.4992
vn -0.0388 0.0366 -0.9986
vn -0.8610 0.0729 -0.5034
vn -0.0170 0.0506 -0.9986
vn 0.0356 0.0893 -0.9954
vn 0.7492 0.4547 0.4816
vn 0.4295 0.7781 -0.4584
vn 0.0683 0.0572 -0.9960
vn 0.7502 0.4697 -0.4653
vn 0.0648 0.0248 -0.9976
vn 0.8599 0.1348 -0.4923
vn 0.0401 -0.0224 -0.9989
vn 0.7492 0.4547 -0.4816
vn -0.7159 -0.4496 -0.5343
vn -0.8531 -0.1329 0.5046
vn -0.7330 -0.4441 0.5152
vn -0.8377 -0.1609 -0.5218
vn -0.8673 -0.0628 -0.4938
vn 0.0147 -0.0492 -0.9987
vn 0.8765 0.0144 -0.4812
vn 0.8639 0.1635 0.4765
vn 0.7502 0.4697 0.4653
vn -0.8663 -0.0131 0.4993
vn 0.0394 0.0363 0.9986
vn 0.0683 0.0572 0.9960
vn -0.4231 -0.7414 0.5209
vn 0.8606 0.0628 0.5054
vn 0.0132 0.0503 0.9986
vn 0.4295 0.7781 0.4584
vn 0.0356 0.0893 0.9954
vn 0.0036 0.0612 0.9981
vn -0.1119 -0.8473 0.5192
vn -0.0035 0.0609 0.9981
vn 0.1111 -0.8474 0.5191
vn 0.4203 -0.7430 0.5208
vn -0.0351 0.0890 0.9954
vn 0.0409 0.0472 -0.9981
vn 0.4320 0.7581 -0.4886
vn 0.1116 0.8776 0.4662
vn -0.1107 0.8777 0.4663
vn -0.4265 0.7796 0.4585
vn 0.1131 0.8570 -0.5027
vn -0.7456 0.4603 -0.4819
vn -0.4291 0.7596 -0.4887
vn -0.1122 0.8571 -0.5028
vn 0.0068 0.0194 -0.9998
vn -0.4087 -0.7428 -0.5303
vn -0.0404 0.0468 -0.9981
vn -0.0641 0.0250 -0.9976
vn -0.0067 0.0191 -0.9998
vn -0.1088 -0.8574 -0.5030
vn 0.1080 -0.8576 -0.5029
vn 0.4060 -0.7446 -0.5298
vn 0.7128 -0.4551 -0.5338
vn 0.7296 -0.4496 0.5152
vn 0.8515 -0.1420 0.5048
vn 0.8363 -0.1699 -0.5214
vn -0.0397 -0.0220 -0.9990
vn -0.8583 0.1439 -0.4926
vn -0.0676 0.0575 0.9961
vn -0.7467 0.4753 0.4653
vn -0.8621 0.1726 0.4764
vn -0.8772 0.0249 -0.4794
vn -0.0184 -0.0488 -0.9986
vn 0.8658 -0.0731 -0.4950
vn 0.8662 -0.0234 0.4992
vn -0.0388 0.0366 0.9986
vn -0.8610 0.0729 0.5034
vn -0.0170 0.0506 0.9986
vn 0.5013 -0.0800 0.8616
vn 0.4780 0.0434 0.8773
vn 0.9954 0.0957 -0.0003
vn 0.5120 -0.3761 0.7723
vn 0.9946 0.0978 -0.0347
vn 0.5029 0.0477 -0.8630
vn 0.9899 0.1416 -0.0050
vn 0.5194 -0.7021 0.4871
vn 0.4762 0.1734 -0.8620
vn -0.4560 -0.0454 -0.8888
vn -0.4836 0.0943 -0.8702
vn -0.9944 -0.0859 -0.0621
vn -0.9952 -0.0976 -0.0011
vn -0.5185 -0.1856 0.8347
vn -0.4573 -0.0477 0.8880
vn 0.4698 0.5045 -0.7244
vn -0.5205 -0.5170 0.6796
vn -0.9901 -0.0692 -0.1219
vn -0.4716 0.4293 -0.7703
vn 0.4499 0.8023 -0.3922
vn -0.9904 -0.0153 -0.1372
vn -0.4907 0.7373 -0.4643
vn -0.5361 -0.7813 0.3196
vn 0.5172 -0.8399 0.1646
vn -0.5060 -0.8608 0.0542
vn 0.5185 -0.8546 0.0299
vn -0.4849 -0.8741 -0.0282
vn 0.5179 -0.8555 0.0000
vn -0.9955 0.0053 -0.0949
vn -0.9981 -0.0234 -0.0577
vn -0.5230 0.8518 -0.0308
vn -0.5037 0.8506 -0.1510
vn 0.4631 0.8831 -0.0752
vn 0.4754 0.8793 0.0277
vn 0.9935 0.0750 0.0852
vn 0.9870 0.1450 0.0692
vn 0.9980 0.0238 0.0585
vn 0.4723 0.8814 -0.0000
vn -0.5268 0.8500 0.0000
vn 0.9998 0.0212 -0.0000
vn 0.9980 0.0238 -0.0585
vn 0.5185 -0.8546 -0.0299
vn 0.5172 -0.8397 -0.1657
vn 0.9935 0.0754 -0.0853
vn 0.5195 -0.6999 -0.4902
vn 0.4754 0.8793 -0.0277
vn -0.5231 0.8517 0.0308
vn -0.9981 -0.0235 0.0577
vn -0.9998 -0.0206 0.0000
vn -0.4849 -0.8741 0.0282
vn -0.4914 -0.8709 -0.0000
vn -0.5063 -0.8606 -0.0547
vn -0.9955 0.0054 0.0951
vn -0.5365 -0.7802 -0.3215
vn -0.9903 -0.0156 0.1377
vn -0.5036 0.8505 0.1519
vn -0.4906 0.7356 0.4672
vn 0.4629 0.8831 0.0760
vn 0.4498 0.8009 0.3952
vn 0.9869 0.1459 -0.0689
vn 0.9898 0.1421 0.0061
vn -0.5209 -0.5122 -0.6829
vn -0.9900 -0.0702 0.1222
vn 0.5119 -0.3696 -0.7754
vn -0.5177 -0.1817 -0.8360
vn 0.5014 -0.0758 -0.8619
vn -0.9944 -0.0864 0.0601
vn -0.4841 0.0896 0.8704
vn -0.4713 0.4235 0.7737
vn 0.4698 0.4991 0.7281
vn 0.4768 0.1692 0.8626
vn -0.4562 -0.0459 0.8887
vn -0.9952 -0.0976 0.0010
vn -0.4573 -0.0472 -0.8881
vn 0.4781 0.0439 -0.8772
vn 0.5031 0.0472 0.8629
vn 0.9946 0.0979 0.0339
vn 0.9954 0.0957 0.0000
vn 0.9792 0.0902 -0.1820
vn 0.9836 0.0902 -0.1563
vn 0.9843 0.0920 -0.1506
vn 0.9825 0.0894 -0.1633
vn 0.9869 0.0893 -0.1344
vn 0.9866 0.0882 -0.1370
vn 0.9929 0.0876 -0.0805
vn 0.9928 0.0869 -0.0819
vn 0.9962 0.0872 0.0000
vn 0.9929 0.0876 0.0805
vn 0.9928 0.0869 0.0819
vn 0.9866 0.0882 0.1370
vn 0.9869 0.0893 0.1344
vn 0.9825 0.0894 0.1633
vn 0.9836 0.0902 0.1563
vn 0.9792 0.0902 0.1820
vn 0.9843 0.0920 0.1506
vn -0.9792 -0.0902 -0.1820
vn -0.9836 -0.0902 -0.1563
vn -0.9843 -0.0920 -0.1506
vn -0.9825 -0.0894 -0.1633
vn -0.9869 -0.0893 -0.1344
vn -0.9866 -0.0882 -0.1370
vn -0.9929 -0.0876 -0.0805
vn -0.9928 -0.0869 -0.0819
vn -0.9962 -0.0872 0.0000
vn -0.9928 -0.0869 0.0819
vn -0.9929 -0.0876 0.0805
vn -0.9866 -0.0882 0.1370
vn -0.9869 -0.0893 0.1344
vn -0.9825 -0.0894 0.1633
vn -0.9836 -0.0902 0.1563
vn -0.9792 -0.0902 0.1820
vn -0.9843 -0.0920 0.1506
vn 0.0000 0.9937 0.1122
vn 0.0000 0.9978 0.0666
vn 0.0000 0.9913 0.1317
vn 0.0000 0.9903 0.1388
vn 0.0000 0.9903 -0.1388
vn 0.0000 0.9913 -0.1317
vn 0.0000 0.9903 -0.1389
vn 0.0000 0.9937 -0.1122
vn 0.0000 0.9978 -0.0666
vn 0.0000 1.0000 -0.0000
vn -0.0000 -0.9913 -0.1317
vn -0.0000 -0.9903 -0.1388
vn -0.0000 -0.9937 -0.1122
vn -0.0000 -0.9978 -0.0666
vn -0.0000 -1.0000 -0.0000
vn -0.0000 -0.9978 0.0666
vn -0.0000 -0.9937 0.1122
vn -0.0000 -0.9913 0.1317
vn -0.0000 -0.9903 0.1388
vn -0.1140 0.9805 -0.1599
vn -0.1154 0.9933 -0.0095
vn -0.1134 0.9760 -0.1859
vn -0.0832 0.7164 -0.6927
vn -0.0789 0.6793 -0.7296
vn -0.0164 0.1410 -0.9899
vn -0.0164 0.1411 -0.9899
vn 0.0202 -0.1742 -0.9845
vn 0.0214 -0.1840 -0.9827
vn 0.0791 -0.6804 -0.7286
vn 0.0854 -0.7353 -0.6724
vn 0.1139 -0.9807 -0.1589
vn 0.1144 -0.9848 -0.1304
vn 0.1154 -0.9933 0.0097
vn 0.1154 -0.9933 0.0093
vn 0.1154 -0.9933 -0.0000
vn 0.1154 -0.9933 -0.0093
vn 0.1154 -0.9933 -0.0097
vn 0.1144 -0.9848 0.1304
vn 0.1139 -0.9807 0.1589
vn 0.0854 -0.7353 0.6724
vn 0.0791 -0.6804 0.7286
vn 0.0214 -0.1840 0.9827
vn 0.0202 -0.1742 0.9845
vn -0.0164 0.1410 0.9899
vn -0.0164 0.1411 0.9899
vn -0.0789 0.6793 0.7296
vn -0.0832 0.7164 0.6927
vn -0.1134 0.9760 0.1859
vn -0.1140 0.9805 0.1599
vn -0.1154 0.9933 0.0095
vn -0.1154 0.9933 0.0091
vn -0.1155 0.9933 -0.0000
vn -0.1154 0.9933 -0.0091
vn -0.9852 0.0000 0.1714
vn -0.7253 0.0000 0.6884
vn -0.6874 0.0000 0.7263
vn -0.1624 0.0000 0.9867
vn -0.1579 0.0000 0.9875
vn 0.1624 0.0000 0.9867
vn 0.1579 0.0000 0.9875
vn 0.6874 0.0000 0.7263
vn 0.7253 0.0000 0.6884
vn 0.9852 0.0000 0.1714
vn 0.9889 0.0000 0.1488
vn 1.0000 0.0000 0.0000
vn 0.9889 0.0000 -0.1488
vn 0.9852 0.0000 -0.1714
vn 0.7253 0.0000 -0.6884
vn 0.6874 0.0000 -0.7263
vn 0.1624 -0.0000 -0.9867
vn 0.1579 0.0000 -0.9875
vn -0.1579 0.0000 -0.9875
vn -0.1624 0.0000 -0.9867
vn -0.6874 0.0000 -0.7263
vn -0.7253 0.0000 -0.6884
vn -0.9852 0.0000 -0.1714
vn -0.9889 0.0000 -0.1488
vn -1.0000 0.0000 -0.0000
vn -0.9889 0.0000 0.1488
usemtl GR_ST_Chair_Mat
s 1
f 1/1/1 2/2/2 3/3/3
f 4/4/4 5/5/5 1/1/1
f 2/2/2 1/1/1 5/5/5
f 5/5/5 6/6/6 2/2/2
f 6/6/6 5/5/5 7/7/7
f 7/7/7 8/8/8 6/6/6
f 8/8/8 7/7/7 9/9/9
f 10/10/10 8/8/8 9/9/9
f 9/9/9 11/11/11 10/10/10
f 12/12/12 10/10/10 11/11/11
f 13/13/13 12/12/12 11/11/11
f 10/10/10 12/12/12 14/14/14
f 8/8/8 10/10/10 15/15/15
f 14/14/14 15/15/15 10/10/10
f 15/15/15 14/14/14 16/16/16
f 1/17/1 16/16/16 14/14/14
f 12/12/12 1/17/1 14/14/14
f 1/17/1 12/12/12 4/18/4
f 4/18/4 12/12/12 17/19/17
f 12/12/12 18/20/18 17/19/17
f 17/19/17 18/20/18 19/21/19
f 18/20/18 20/22/20 19/21/19
f 21/23/21 19/21/19 20/22/20
f 20/22/20 22/24/22 21/23/21
f 16/16/16 1/17/1 3/25/3
f 12/12/12 13/13/13 18/20/18
f 23/26/23 18/20/18 13/13/13
f 18/20/18 23/26/23 20/22/20
f 24/27/24 20/22/20 23/26/23
f 20/22/20 24/27/24 22/24/22
f 24/27/24 25/28/25 22/24/22
f 25/28/25 21/23/21 22/24/22
f 21/23/21 25/28/25 26/29/26
f 27/30/27 26/29/26 25/28/25
f 26/29/26 27/30/27 28/31/28
f 13/13/13 29/32/29 23/26/23
f 30/33/30 23/26/23 29/32/29
f 23/26/23 30/33/30 24/27/24
f 30/33/30 31/34/31 24/27/24
f 25/28/25 24/27/24 31/34/31
f 31/34/31 27/30/27 25/28/25
f 29/32/29 32/35/32 30/33/30
f 32/35/32 33/36/33 30/33/30
f 31/34/31 30/33/30 33/36/33
f 34/37/34 35/38/35 29/32/29
f 32/35/32 29/32/29 35/38/35
f 32/35/32 35/38/35 36/39/36
f 32/35/32 36/39/36 37/40/37
f 38/41/38 32/35/32 37/40/37
f 32/35/32 38/41/38 39/42/39
f 33/36/33 32/35/32 39/42/39
f 39/42/39 40/43/40 33/36/33
f 40/43/40 31/34/31 33/36/33
f 31/34/31 40/43/40 41/44/41
f 27/30/27 31/34/31 41/44/41
f 42/45/42 27/30/27 41/44/41
f 27/30/27 42/45/42 43/46/43
f 44/47/44 41/44/41 40/43/40
f 41/44/41 44/47/44 42/45/42
f 28/31/28 27/30/27 45/48/45
f 27/30/27 43/46/43 45/48/45
f 46/49/46 45/48/45 43/46/43
f 43/46/43 47/50/47 46/49/46
f 47/50/47 43/46/43 42/45/42
f 42/45/42 48/51/48 47/50/47
f 48/51/48 42/45/42 44/47/44
f 48/51/48 44/47/44 49/52/49
f 40/43/40 49/52/49 44/47/44
f 49/52/49 40/43/40 50/53/50
f 51/54/51 49/52/49 50/53/50
f 45/48/45 46/49/46 52/55/52
f 51/54/51 26/56/26 28/57/28
f 28/57/28 53/58/53 51/54/51
f 51/54/51 53/58/53 49/52/49
f 54/59/54 49/52/49 53/58/53
f 49/52/49 54/59/54 48/51/48
f 28/57/28 45/60/45 53/58/53
f 55/61/55 53/58/53 45/60/45
f 53/58/53 55/61/55 54/59/54
f 45/60/45 52/62/52 55/61/55
f 40/43/40 39/42/39 50/53/50
f 39/42/39 51/54/51 50/53/50
f 51/54/51 39/42/39 38/41/38
f 26/56/26 51/54/51 38/41/38
f 37/40/37 26/56/26 38/41/38
f 26/56/26 37/40/37 21/63/21
f 37/40/37 19/64/19 21/63/21
f 37/40/37 36/39/36 19/64/19
f 36/39/36 17/65/17 19/64/19
f 36/39/36 56/66/56 17/65/17
f 57/67/57 58/68/58 34/37/34
f 35/38/35 34/37/34 58/68/58
f 35/38/35 58/68/58 56/66/56
f 35/38/35 56/66/56 36/39/36
f 59/69/59 17/65/17 56/66/56
f 59/69/59 56/66/56 58/68/58
f 59/69/59 58/68/58 60/70/60
f 58/68/58 57/67/57 60/70/60
f 57/67/57 7/7/7 60/70/60
f 7/7/7 57/67/57 9/9/9
f 11/11/11 9/9/9 57/67/57
f 13/13/13 11/11/11 57/67/57
f 57/67/57 34/37/34 13/13/13
f 29/32/29 13/13/13 34/37/34
f 17/65/17 59/69/59 4/4/4
f 5/5/5 4/4/4 59/69/59
f 59/69/59 7/7/7 5/5/5
f 7/7/7 59/69/59 60/70/60
f 61/71/61 62/72/62 63/73/63
f 62/72/62 61/71/61 64/74/64
f 65/75/65 66/76/66 67/77/67
f 66/76/66 65/75/65 68/78/68
f 68/78/68 69/79/69 66/76/66
f 68/78/68 70/80/70 69/79/69
f 63/73/63 70/80/70 68/78/68
f 63/73/63 71/81/71 70/80/70
f 62/72/62 71/81/71 63/73/63
f 72/82/72 71/81/71 62/72/62
f 64/74/64 72/82/72 62/72/62
f 73/83/73 72/82/72 64/74/64
f 74/84/74 66/76/66 69/79/69
f 75/85/75 67/86/67 66/87/66
f 67/86/67 75/85/75 76/88/76
f 72/82/72 76/88/76 75/85/75
f 76/88/76 72/82/72 73/83/73
f 76/88/76 77/89/77 67/86/67
f 71/81/71 72/82/72 78/90/78
f 75/85/75 78/90/78 72/82/72
f 78/90/78 75/85/75 79/91/79
f 66/87/66 79/91/79 75/85/75
f 79/91/79 66/87/66 74/92/74
f 64/74/64 80/93/80 73/83/73
f 73/83/73 80/93/80 76/88/76
f 76/88/76 80/93/80 81/94/81
f 77/89/77 76/88/76 81/94/81
f 81/94/81 82/95/82 77/89/77
f 77/89/77 82/95/82 83/96/83
f 84/97/84 83/96/83 82/95/82
f 83/96/83 84/97/84 85/98/85
f 84/97/84 86/99/86 85/98/85
f 86/99/86 84/97/84 87/100/87
f 65/75/65 63/73/63 68/78/68
f 63/73/63 65/75/65 61/71/61
f 65/75/65 88/101/88 61/71/61
f 88/101/88 64/74/64 61/71/61
f 64/74/64 88/101/88 89/102/89
f 80/93/80 64/74/64 89/102/89
f 89/102/89 90/103/90 80/93/80
f 80/93/80 90/103/90 81/94/81
f 81/94/81 90/103/90 82/95/82
f 91/104/91 82/95/82 90/103/90
f 82/95/82 91/104/91 84/97/84
f 91/104/91 87/100/87 84/97/84
f 87/100/87 91/104/91 92/105/92
f 93/106/93 91/104/91 90/103/90
f 90/103/90 89/102/89 93/106/93
f 88/101/88 93/106/93 89/102/89
f 94/107/94 92/105/92 95/108/95
f 92/105/92 91/104/91 95/108/95
f 95/108/95 91/104/91 96/109/96
f 91/104/91 93/106/93 96/109/96
f 97/110/97 96/109/96 93/106/93
f 93/106/93 88/101/88 97/110/97
f 98/111/98 97/110/97 88/101/88
f 88/101/88 65/75/65 98/111/98
f 65/75/65 77/112/77 98/111/98
f 67/77/67 77/112/77 65/75/65
f 94/107/94 99/113/99 100/114/100
f 99/113/99 94/107/94 95/108/95
f 95/108/95 96/109/96 99/113/99
f 96/109/96 101/115/101 99/113/99
f 96/109/96 97/110/97 101/115/101
f 102/116/102 101/115/101 97/110/97
f 97/110/97 98/111/98 102/116/102
f 98/111/98 83/117/83 102/116/102
f 83/117/83 98/111/98 77/112/77
f 85/118/85 102/116/102 83/117/83
f 102/116/102 85/118/85 103/119/103
f 101/115/101 102/116/102 103/119/103
f 101/115/101 103/119/103 104/120/104
f 99/113/99 101/115/101 104/120/104
f 105/121/105 99/113/99 104/120/104
f 99/113/99 105/121/105 100/114/100
f 85/118/85 104/120/104 103/119/103
f 104/120/104 85/118/85 86/122/86
f 86/122/86 105/121/105 104/120/104
f 105/121/105 86/122/86 106/123/106
f 106/123/106 107/124/107 105/121/105
f 105/121/105 107/124/107 108/125/108
f 109/126/109 105/121/105 108/125/108
f 105/121/105 109/126/109 100/114/100
f 110/127/110 100/114/100 109/126/109
f 100/114/100 110/127/110 94/107/94
f 86/99/86 87/100/87 111/128/111
f 92/105/92 111/128/111 87/100/87
f 111/128/111 92/105/92 112/129/112
f 94/107/94 112/129/112 92/105/92
f 94/107/94 113/130/113 112/129/112
f 113/130/113 94/107/94 110/127/110
f 114/131/114 113/130/113 110/127/110
f 109/126/109 114/131/114 110/127/110
f 114/131/114 109/126/109 115/132/115
f 108/125/108 115/132/115 109/126/109
f 115/132/115 108/125/108 116/133/116
f 107/124/107 116/133/116 108/125/108
f 116/133/116 107/124/107 117/134/117
f 112/129/112 113/130/113 111/128/111
f 106/135/106 86/99/86 111/128/111
f 111/128/111 118/136/118 106/135/106
f 111/128/111 113/130/113 118/136/118
f 113/130/113 119/137/119 118/136/118
f 113/130/113 114/131/114 119/137/119
f 118/136/118 119/137/119 120/138/120
f 118/136/118 120/138/120 107/139/107
f 106/135/106 118/136/118 107/139/107
f 107/139/107 120/138/120 117/140/117
f 121/141/121 122/142/122 123/143/123
f 124/144/124 121/141/121 125/145/125
f 123/143/123 125/145/125 121/141/121
f 125/145/125 123/143/123 126/146/126
f 127/147/127 128/148/128 124/144/124
f 124/144/124 125/145/125 127/147/127
f 127/147/127 125/145/125 129/149/129
f 126/146/126 129/149/129 125/145/125
f 129/149/129 126/146/126 130/150/130
f 130/150/130 131/151/131 129/149/129
f 130/150/130 132/152/132 131/151/131
f 132/152/132 130/150/130 133/153/133
f 133/153/133 134/154/134 132/152/132
f 134/154/134 133/153/133 135/155/135
f 127/147/127 129/149/129 136/156/136
f 136/156/136 129/149/129 131/151/131
f 121/157/121 135/155/135 122/158/122
f 135/155/135 121/157/121 134/154/134
f 124/159/124 134/154/134 121/157/121
f 134/154/134 124/159/124 137/160/137
f 137/160/137 132/152/132 134/154/134
f 132/152/132 137/160/137 138/161/138
f 138/161/138 131/151/131 132/152/132
f 131/151/131 138/161/138 139/162/139
f 131/151/131 139/162/139 136/156/136
f 139/162/139 140/163/140 136/156/136
f 128/164/128 137/160/137 124/159/124
f 139/162/139 141/165/141 142/166/142
f 141/165/141 139/162/139 138/161/138
f 137/160/137 141/165/141 138/161/138
f 141/165/141 137/160/137 143/167/143
f 137/160/137 128/164/128 143/167/143
f 144/168/144 143/167/143 128/164/128
f 143/167/143 144/168/144 145/169/145
f 146/170/146 145/169/145 144/168/144
f 145/169/145 146/170/146 147/171/147
f 148/172/148 147/171/147 146/170/146
f 149/173/149 143/167/143 145/169/145
f 150/174/150 149/173/149 145/169/145
f 150/174/150 145/169/145 147/171/147
f 151/175/151 149/173/149 150/174/150
f 141/165/141 152/176/152 142/166/142
f 142/166/142 152/176/152 153/177/153
f 143/167/143 149/173/149 141/165/141
f 152/176/152 141/165/141 149/173/149
f 151/175/151 152/176/152 149/173/149
f 152/176/152 151/175/151 154/178/154
f 152/176/152 154/178/154 153/177/153
f 154/178/154 155/179/155 153/177/153
f 156/180/156 153/177/153 155/179/155
f 153/177/153 156/180/156 140/163/140
f 142/166/142 153/177/153 140/163/140
f 139/162/139 142/166/142 140/163/140
f 140/163/140 127/147/127 136/156/136
f 127/147/127 140/163/140 156/180/156
f 128/148/128 127/147/127 156/180/156
f 155/179/155 128/148/128 156/180/156
f 128/148/128 155/179/155 144/181/144
f 157/182/157 144/181/144 155/179/155
f 155/179/155 154/178/154 157/182/157
f 158/183/158 157/182/157 154/178/154
f 151/175/151 158/183/158 154/178/154
f 151/175/151 159/184/159 158/183/158
f 144/181/144 157/182/157 146/185/146
f 160/186/160 146/185/146 157/182/157
f 157/182/157 158/183/158 160/186/160
f 158/183/158 161/187/161 160/186/160
f 160/186/160 161/187/161 162/188/162
f 161/187/161 163/189/163 162/188/162
f 160/186/160 162/188/162 148/190/148
f 146/185/146 160/186/160 148/190/148
f 164/191/164 165/192/165 163/189/163
f 161/187/161 164/191/164 163/189/163
f 166/193/166 164/191/164 161/187/161
f 158/183/158 166/193/166 161/187/161
f 158/183/158 167/194/167 166/193/166
f 167/194/167 158/183/158 159/184/159
f 159/184/159 168/195/168 167/194/167
f 168/195/168 159/184/159 169/196/169
f 169/196/169 170/197/170 168/195/168
f 170/197/170 169/196/169 171/198/171
f 159/184/159 151/175/151 150/174/150
f 159/184/159 150/174/150 169/196/169
f 169/196/169 150/174/150 147/171/147
f 169/196/169 147/171/147 171/198/171
f 147/171/147 148/172/148 171/198/171
f 148/172/148 170/197/170 171/198/171
f 148/172/148 162/199/162 170/197/170
f 162/199/162 172/200/172 170/197/170
f 172/200/172 168/195/168 170/197/170
f 168/195/168 172/200/172 173/201/173
f 162/199/162 163/202/163 172/200/172
f 163/202/163 174/203/174 172/200/172
f 174/203/174 173/201/173 172/200/172
f 173/201/173 174/203/174 175/204/175
f 175/204/175 176/205/176 173/201/173
f 176/205/176 175/204/175 177/206/177
f 177/206/177 178/207/178 176/205/176
f 178/207/178 177/206/177 179/208/179
f 178/207/178 179/208/179 180/209/180
f 181/210/181 180/209/180 179/208/179
f 175/204/175 182/211/182 183/212/183
f 182/211/182 175/204/175 174/203/174
f 165/213/165 182/211/182 174/203/174
f 163/202/163 165/213/165 174/203/174
f 165/213/165 184/214/184 182/211/182
f 185/215/185 184/214/184 186/216/186
f 184/214/184 185/215/185 182/211/182
f 187/217/187 182/211/182 185/215/185
f 182/211/182 187/217/187 183/212/183
f 188/218/188 183/212/183 187/217/187
f 183/212/183 188/218/188 189/219/189
f 175/204/175 183/212/183 189/219/189
f 189/219/189 177/206/177 175/204/175
f 189/219/189 179/208/179 177/206/177
f 179/208/179 189/219/189 190/220/190
f 188/218/188 190/220/190 189/219/189
f 181/210/181 179/208/179 190/220/190
f 191/221/191 181/210/181 190/220/190
f 190/220/190 188/218/188 191/221/191
f 192/222/192 191/221/191 188/218/188
f 187/217/187 192/222/192 188/218/188
f 192/222/192 187/217/187 193/223/193
f 185/215/185 193/223/193 187/217/187
f 193/223/193 185/215/185 194/224/194
f 186/216/186 194/224/194 185/215/185
f 194/224/194 186/216/186 195/225/195
f 191/221/191 192/222/192 196/226/196
f 181/210/181 191/221/191 197/227/197
f 196/226/196 197/227/197 191/221/191
f 197/227/197 196/226/196 198/228/198
f 173/201/173 167/194/167 168/195/168
f 167/194/167 173/201/173 176/205/176
f 176/205/176 166/193/166 167/194/167
f 166/193/166 176/205/176 178/207/178
f 166/193/166 178/207/178 164/191/164
f 178/207/178 180/209/180 164/191/164
f 164/191/164 180/209/180 165/192/165
f 181/210/181 165/192/165 180/209/180
f 165/192/165 181/210/181 184/229/184
f 197/227/197 184/229/184 181/210/181
f 184/229/184 197/227/197 186/230/186
f 198/228/198 186/230/186 197/227/197
f 186/230/186 198/228/198 195/231/195
f 199/232/199 200/233/200 201/234/201
f 202/235/202 200/233/200 199/232/199
f 202/235/202 203/236/203 200/233/200
f 204/237/204 203/236/203 202/235/202
f 203/236/203 204/237/204 205/238/205
f 205/238/205 204/237/204 206/239/206
f 207/240/207 205/238/205 206/239/206
f 205/238/205 207/240/207 208/241/207
f 209/242/208 208/241/207 207/240/207
f 209/242/208 207/240/207 210/243/209
f 211/244/210 209/242/208 210/243/209
f 209/242/208 211/244/210 212/245/211
f 213/246/212 212/245/211 211/244/210
f 212/245/211 213/246/212 214/247/213
f 214/247/213 213/246/212 215/248/214
f 214/247/213 215/248/214 216/249/215
f 217/250/216 218/251/217 219/252/218
f 220/253/219 218/251/217 217/250/216
f 220/253/219 221/254/220 218/251/217
f 222/255/221 221/254/220 220/253/219
f 222/255/221 223/256/222 221/254/220
f 223/256/222 222/255/221 224/257/223
f 224/257/223 225/258/224 223/256/222
f 225/258/224 224/257/223 226/259/224
f 227/260/225 225/258/224 226/259/224
f 225/258/224 227/260/225 228/261/226
f 229/262/227 228/261/226 227/260/225
f 228/261/226 229/262/227 230/263/228
f 231/264/229 230/263/228 229/262/227
f 230/263/228 231/264/229 232/265/230
f 232/265/230 231/264/229 233/266/231
f 232/265/230 233/266/231 234/267/232
f 235/268/233 236/269/234 237/270/234
f 236/269/234 235/268/233 238/271/233
f 238/271/233 235/268/233 239/272/235
f 239/272/235 235/268/233 240/273/235
f 240/273/235 241/274/236 239/272/235
f 241/274/236 240/273/235 242/275/236
f 243/276/237 244/277/238 245/278/239
f 244/277/238 243/276/237 246/279/238
f 247/280/240 244/277/238 246/279/238
f 244/277/238 247/280/240 248/281/240
f 249/282/241 248/281/240 247/280/240
f 248/281/240 249/282/241 250/283/241
f 251/284/242 250/283/241 249/282/241
f 250/283/241 251/284/242 252/285/242
f 237/270/234 252/285/242 251/284/242
f 252/285/242 237/270/234 236/269/234
f 253/286/243 254/287/244 255/288/244
f 254/287/244 253/286/243 256/289/243
f 257/290/245 256/289/243 253/286/243
f 256/289/243 257/290/245 258/291/245
f 257/290/245 259/292/246 258/291/245
f 260/293/246 259/292/246 257/290/245
f 260/293/246 261/294/247 259/292/246
f 262/295/247 261/294/247 260/293/246
f 262/295/247 263/296/248 261/294/247
f 264/297/248 263/296/248 262/295/247
f 264/297/248 265/298/249 263/296/248
f 266/299/249 265/298/249 264/297/248
f 265/298/249 266/299/249 267/300/250
f 267/300/250 266/299/249 268/301/250
f 269/302/251 267/300/250 268/301/250
f 267/300/250 269/302/251 270/303/251
f 221/304/252 209/242/253 212/245/254
f 218/305/255 221/304/252 212/245/254
f 218/305/255 212/245/254 214/247/256
f 214/247/256 219/306/257 218/305/255
f 219/306/257 214/247/256 216/249/258
f 215/248/259 219/306/257 216/249/258
f 219/306/257 215/248/259 217/307/260
f 213/246/261 217/307/260 215/248/259
f 217/307/260 213/246/261 220/308/262
f 211/244/263 220/308/262 213/246/261
f 220/308/262 211/244/263 222/309/264
f 210/243/265 222/309/264 211/244/263
f 222/309/264 210/243/265 224/310/266
f 207/240/267 224/310/266 210/243/265
f 224/310/266 207/240/267 226/311/267
f 207/240/267 227/312/268 226/311/267
f 207/240/267 206/239/269 227/312/268
f 206/239/269 229/313/270 227/312/268
f 206/239/269 204/237/271 229/313/270
f 204/237/271 231/314/272 229/313/270
f 204/237/271 202/235/273 231/314/272
f 202/235/273 233/315/274 231/314/272
f 233/315/274 202/235/273 199/232/275
f 234/316/276 233/315/274 199/232/275
f 199/232/275 201/234/277 234/316/276
f 200/233/278 234/316/276 201/234/277
f 234/316/276 200/233/278 232/317/279
f 203/236/280 232/317/279 200/233/278
f 232/317/279 203/236/280 230/318/281
f 205/238/282 230/318/281 203/236/280
f 230/318/281 205/238/282 228/319/283
f 208/241/284 228/319/283 205/238/282
f 228/319/283 208/241/284 225/320/284
f 223/321/285 225/320/284 208/241/284
f 223/321/285 208/241/284 209/242/253
f 221/304/252 223/321/285 209/242/253
f 248/281/286 267/322/287 244/277/288
f 270/323/289 244/277/288 267/322/287
f 244/277/288 270/323/289 245/278/290
f 269/324/291 245/278/290 270/323/289
f 245/278/290 269/324/291 243/276/292
f 243/276/292 269/324/291 246/279/293
f 246/279/293 269/324/291 268/325/294
f 246/279/293 268/325/294 247/280/295
f 247/280/295 268/325/294 266/326/296
f 249/282/297 247/280/295 266/326/296
f 249/282/297 266/326/296 264/327/297
f 251/284/297 249/282/297 264/327/297
f 251/284/297 264/327/297 262/328/297
f 260/329/297 251/284/297 262/328/297
f 251/284/297 260/329/297 237/270/297
f 257/330/298 237/270/297 260/329/297
f 237/270/297 257/330/298 235/268/299
f 253/331/300 235/268/299 257/330/298
f 235/268/299 253/331/300 240/273/301
f 255/332/302 240/273/301 253/331/300
f 240/273/301 255/332/302 242/275/303
f 241/274/304 242/275/303 255/332/302
f 241/274/304 255/332/302 254/333/305
f 239/272/306 241/274/304 254/333/305
f 239/272/306 254/333/305 256/334/307
f 238/271/308 239/272/306 256/334/307
f 238/271/308 256/334/307 258/335/309
f 236/269/310 238/271/308 258/335/309
f 236/269/310 258/335/309 259/336/310
f 252/285/310 236/269/310 259/336/310
f 252/285/310 259/336/310 261/337/310
f 263/338/310 252/285/310 261/337/310
f 252/285/310 263/338/310 250/283/310
f 265/339/311 250/283/310 263/338/310
f 250/283/310 265/339/311 248/281/286
f 267/322/287 248/281/286 265/339/311
