# Blender v2.83.0 OBJ File: ''
# www.blender.org
mtllib wires_1.mtl
v -0.171364 0.088347 -0.173382
v -0.122230 0.088347 -0.211085
v -0.116063 0.088967 -0.152180
v 0.594370 -0.017113 -0.603609
v 0.419225 0.089001 -0.738002
v 0.594370 0.089001 -0.603609
v 0.728763 -0.017113 -0.428464
v 0.728763 0.089001 -0.428464
v 0.813247 -0.017113 -0.224504
v 0.813247 0.089001 -0.224504
v 0.842064 -0.017113 -0.005627
v 0.842064 0.089001 -0.005627
v 0.813247 -0.017113 0.213247
v 0.813247 0.089001 0.213247
v 0.728763 -0.017114 0.417209
v 0.728763 0.089001 0.417209
v 0.594370 -0.017114 0.592352
v 0.594370 0.089001 0.592352
v 0.419225 0.089001 0.726745
v 0.419225 -0.017114 0.726745
v 0.215265 -0.017114 0.811229
v 0.215265 0.089001 0.811229
v -0.003611 -0.017114 0.840043
v -0.003611 0.089001 0.840043
v -0.222488 -0.017114 0.811229
v -0.222488 0.089001 0.811229
v -0.426448 -0.017114 0.726745
v -0.426448 0.089001 0.726745
v 0.116401 0.704887 -0.213494
v 0.116401 0.604422 -0.213494
v 0.166111 0.704887 -0.175350
v 0.166111 0.604422 -0.175350
v 0.204255 0.704887 -0.125639
v 0.204255 0.604422 -0.125639
v 0.228233 0.704887 -0.067751
v 0.228233 0.604422 -0.067751
v 0.236410 0.704887 -0.005630
v 0.236410 0.604422 -0.005630
v 0.228233 0.704887 0.056494
v 0.228233 0.604422 0.056494
v 0.204255 0.704887 0.114382
v 0.204255 0.604422 0.114382
v 0.166111 0.704887 0.164093
v 0.166111 0.604422 0.164093
v 0.116401 0.704887 0.202237
v 0.116401 0.604422 0.202237
v 0.058513 0.704887 0.226214
v 0.058513 0.604422 0.226214
v -0.003611 0.704887 0.234394
v -0.003611 0.604422 0.234394
v -0.065733 0.704887 0.226214
v -0.065733 0.604422 0.226214
v -0.123621 0.704887 0.202237
v -0.123621 0.604422 0.202237
v -0.173331 0.704887 0.164093
v -0.173331 0.604422 0.164093
v -0.211476 0.704887 0.114382
v -0.211476 0.604422 0.114382
v -0.235453 0.704887 0.056494
v -0.235453 0.604422 0.056494
v -0.243633 0.704887 -0.005630
v -0.243633 0.604422 -0.005630
v -0.235453 0.704887 -0.067751
v -0.235453 0.604422 -0.067751
v -0.211476 0.704887 -0.125639
v -0.211476 0.604422 -0.125639
v -0.173331 0.704887 -0.175350
v -0.173331 0.604422 -0.175350
v -0.123621 0.704887 -0.213494
v -0.123621 0.604422 -0.213494
v -0.065733 0.704887 -0.237471
v -0.065733 0.604422 -0.237471
v -0.003611 0.704887 -0.245651
v -0.003611 0.604422 -0.245651
v 0.058513 0.704887 -0.237471
v 0.058513 0.604422 -0.237471
v 0.116401 0.704887 -0.213494
v 0.116401 0.604422 -0.213494
v 0.067079 0.593347 -0.176293
v 0.067079 0.088967 -0.176293
v 0.142942 0.593347 -0.118081
v 0.142942 0.088967 -0.118081
v 0.179533 0.593347 -0.029740
v 0.179533 0.088967 -0.029740
v 0.167052 0.593347 0.065063
v 0.167052 0.088967 0.065063
v 0.108843 0.593347 0.140923
v 0.108843 0.088967 0.140923
v 0.020502 0.593347 0.177515
v 0.020502 0.088967 0.177515
v -0.074302 0.593347 0.165034
v -0.074302 0.088967 0.165034
v -0.150162 0.593347 0.106824
v -0.150162 0.088967 0.106824
v -0.186754 0.593347 0.018483
v -0.186754 0.088967 0.018483
v -0.174275 0.593347 -0.076320
v -0.174275 0.088967 -0.076320
v -0.116063 0.593347 -0.152180
v -0.116063 0.088967 -0.152180
v -0.027722 0.593347 -0.188772
v -0.027722 0.088967 -0.188772
v 0.067079 0.593347 -0.176293
v 0.067079 0.088967 -0.176293
v 0.419225 -0.017113 -0.738002
v 0.215265 0.089001 -0.822486
v 0.419225 0.089001 -0.738002
v 0.215265 -0.017113 -0.822486
v -0.003611 0.089001 -0.851300
v -0.003611 -0.017113 -0.851300
v -0.222485 0.089001 -0.822486
v -0.222485 -0.017113 -0.822486
v -0.426448 0.089001 -0.738005
v -0.426448 -0.017113 -0.738005
v -0.601591 0.089001 -0.603609
v -0.601591 -0.017113 -0.603609
v -0.735986 0.089001 -0.428466
v -0.735986 -0.017113 -0.428466
v -0.820467 0.089001 -0.224504
v -0.820467 -0.017113 -0.224504
v -0.849282 0.089001 -0.005627
v -0.849282 -0.017113 -0.005627
v -0.820467 0.089001 0.213247
v -0.820467 -0.017113 0.213247
v -0.735986 0.089001 0.417207
v -0.735986 -0.017114 0.417207
v -0.601591 0.089001 0.592352
v -0.601591 -0.017114 0.592352
v -0.426448 0.089001 0.726745
v -0.426448 -0.017114 0.726745
v -0.221163 0.602580 -0.824482
v -0.424917 0.602580 -0.740085
v -0.424917 0.707892 -0.740085
v -0.221163 0.707892 -0.824482
v -0.002506 0.602580 -0.853268
v -0.002506 0.707892 -0.853268
v 0.216146 0.602580 -0.824482
v 0.216146 0.707892 -0.824482
v 0.419899 0.602580 -0.740085
v 0.419899 0.707892 -0.740085
v 0.594867 0.602580 -0.605828
v 0.594867 0.707892 -0.605828
v 0.729124 0.602580 -0.430860
v 0.729124 0.707892 -0.430860
v 0.813524 0.602580 -0.227107
v 0.813524 0.707892 -0.227107
v 0.842310 0.602580 -0.008450
v 0.842310 0.707892 -0.008450
v 0.813524 0.602580 0.210205
v 0.813524 0.707892 0.210205
v 0.729124 0.602580 0.413958
v 0.729124 0.707892 0.413958
v 0.594870 0.707892 0.588926
v 0.594870 0.602580 0.588926
v 0.419899 0.602580 0.723183
v 0.419899 0.707892 0.723183
v -0.424917 0.602580 -0.740085
v -0.599884 0.707892 -0.605828
v -0.424917 0.707892 -0.740085
v -0.599884 0.602580 -0.605828
v -0.734144 0.707892 -0.430860
v -0.734144 0.602580 -0.430860
v -0.818539 0.707892 -0.227107
v -0.818539 0.602580 -0.227107
v -0.847327 0.707892 -0.008450
v -0.847327 0.602580 -0.008450
v -0.818539 0.707892 0.210205
v -0.818539 0.602580 0.210205
v -0.734144 0.707892 0.413958
v -0.734144 0.602580 0.413958
v -0.599884 0.707892 0.588926
v -0.599884 0.602580 0.588926
v -0.424917 0.707892 0.723183
v -0.424917 0.602580 0.723183
v -0.221163 0.707892 0.807581
v -0.221163 0.602580 0.807581
v -0.002506 0.707892 0.836367
v -0.002506 0.602580 0.836367
v 0.216146 0.707892 0.807581
v 0.216146 0.602580 0.807581
v 0.419899 0.707892 0.723183
v 0.419899 0.602580 0.723183
v 0.115008 0.088347 -0.211085
v 0.058756 -0.017576 -0.238386
v 0.116873 -0.017576 -0.214312
v 0.057791 0.088347 -0.234785
v -0.003611 -0.017576 -0.246594
v -0.003611 0.088347 -0.242868
v -0.065014 0.088347 -0.234785
v -0.065978 -0.017576 -0.238386
v -0.122230 0.088347 -0.211085
v -0.124094 -0.017576 -0.214312
v -0.171364 0.088347 -0.173382
v -0.174001 -0.017576 -0.176019
v -0.212296 -0.017576 -0.126112
v -0.209066 0.088347 -0.124249
v -0.236368 -0.017576 -0.067997
v -0.232766 0.088347 -0.067030
v -0.244579 -0.017576 -0.005630
v -0.240849 0.088347 -0.005630
v -0.232766 0.088347 0.055773
v -0.236368 -0.017576 0.056737
v -0.209066 0.088347 0.112989
v -0.212296 -0.017576 0.114855
v -0.171364 0.088347 0.162125
v -0.174001 -0.017576 0.164762
v -0.124094 -0.017576 0.203055
v -0.122230 0.088347 0.199825
v -0.065978 -0.017576 0.227126
v -0.065014 0.088347 0.223525
v -0.003611 -0.017576 0.235337
v -0.003611 0.088347 0.231611
v 0.057791 0.088347 0.223525
v 0.058756 -0.017576 0.227126
v 0.115008 0.088347 0.199825
v 0.116873 -0.017576 0.203055
v 0.164143 0.088347 0.162125
v 0.166778 -0.017576 0.164762
v 0.205073 -0.017576 0.114855
v 0.201843 0.088347 0.112992
v 0.229145 -0.017576 0.056737
v 0.225544 0.088347 0.055773
v 0.237356 -0.017576 -0.005630
v 0.233626 0.088347 -0.005630
v 0.225544 0.088347 -0.067030
v 0.229145 -0.017576 -0.067997
v 0.201843 0.088347 -0.124249
v 0.205073 -0.017576 -0.126112
v 0.164143 0.088347 -0.173382
v 0.166778 -0.017576 -0.176019
v 0.116873 -0.017576 -0.214312
v 0.115008 0.088347 -0.211085
v -0.173436 0.602580 0.670600
v -0.332716 0.602580 0.604624
v -0.309225 0.418672 0.604624
v -0.149947 0.418672 0.670600
v -0.002506 0.602580 0.693104
v -0.307795 0.220213 0.566005
v 0.020983 0.418672 0.693104
v 0.168421 0.602580 0.670600
v -0.148518 0.220213 0.631981
v -0.173436 0.087950 0.670600
v -0.332716 0.087950 0.604624
v -0.002506 0.087950 0.693104
v 0.022412 0.220213 0.654484
v 0.168421 0.087950 0.670600
v 0.191913 0.418672 0.670600
v 0.327701 0.602580 0.604624
v 0.193342 0.220213 0.631981
v 0.327701 0.087950 0.604624
v 0.351192 0.418672 0.604624
v 0.464480 0.602580 0.499670
v 0.352622 0.220213 0.566005
v 0.464480 0.087950 0.499670
v 0.487969 0.418672 0.499670
v 0.569431 0.602580 0.362894
v 0.489398 0.220213 0.461053
v 0.569431 0.087950 0.362894
v 0.592923 0.418672 0.362894
v 0.635408 0.602580 0.203614
v 0.594352 0.220213 0.324274
v 0.635408 0.087950 0.203614
v 0.658899 0.418672 0.203614
v 0.657911 0.602580 0.032684
v 0.660328 0.220213 0.164994
v 0.657911 0.087950 0.032684
v 0.681402 0.418672 0.032684
v 0.635408 0.602580 -0.138243
v 0.682832 0.220213 -0.005933
v 0.635408 0.087950 -0.138243
v 0.658899 0.418672 -0.138243
v 0.569431 0.602580 -0.297526
v 0.660328 0.220213 -0.176863
v 0.569431 0.087950 -0.297526
v 0.592923 0.418672 -0.297526
v 0.464478 0.602580 -0.434302
v 0.594352 0.220213 -0.336143
v 0.464478 0.087950 -0.434302
v 0.487969 0.418672 -0.434302
v 0.351192 0.418672 -0.539253
v 0.327701 0.602580 -0.539253
v 0.352622 0.220214 -0.577873
v 0.327701 0.087950 -0.539253
v 0.489398 0.220214 -0.472922
v -0.065014 0.088347 0.223525
v -0.122230 0.088347 0.199825
v -0.074302 0.088967 0.165034
v -0.003611 0.088347 0.231611
v -0.171364 0.088347 0.162125
v 0.020502 0.088967 0.177515
v -0.150162 0.088967 0.106824
v 0.057791 0.088347 0.223525
v -0.209066 0.088347 0.112989
v 0.108843 0.088967 0.140923
v -0.232766 0.088347 0.055773
v 0.115008 0.088347 0.199825
v -0.186754 0.088967 0.018483
v 0.164143 0.088347 0.162125
v -0.240849 0.088347 -0.005630
v 0.167052 0.088967 0.065063
v -0.232766 0.088347 -0.067030
v 0.201843 0.088347 0.112992
v -0.174275 0.088967 -0.076320
v 0.225544 0.088347 0.055773
v -0.209066 0.088347 -0.124249
v 0.233626 0.088347 -0.005630
v 0.179533 0.088967 -0.029740
v 0.225544 0.088347 -0.067030
v 0.419225 -0.017113 -0.738002
v 0.142942 0.088967 -0.118081
v -0.065014 0.088347 -0.234785
v 0.201843 0.088347 -0.124249
v -0.027722 0.088967 -0.188772
v 0.164143 0.088347 -0.173382
v -0.003611 0.088347 -0.242868
v 0.067079 0.088967 -0.176293
v 0.115008 0.088347 -0.211085
v 0.057791 0.088347 -0.234785
v -0.123621 0.604422 0.202237
v -0.065733 0.604422 0.226214
v -0.074302 0.593347 0.165034
v -0.173331 0.604422 0.164093
v -0.003611 0.604422 0.234394
v -0.150162 0.593347 0.106824
v 0.020502 0.593347 0.177515
v -0.211476 0.604422 0.114382
v 0.058513 0.604422 0.226214
v -0.235453 0.604422 0.056494
v 0.108843 0.593347 0.140923
v -0.186754 0.593347 0.018483
v 0.116401 0.604422 0.202237
v -0.243633 0.604422 -0.005630
v 0.166111 0.604422 0.164093
v -0.235453 0.604422 -0.067751
v 0.167052 0.593347 0.065063
v -0.174275 0.593347 -0.076320
v 0.204255 0.604422 0.114382
v -0.211476 0.604422 -0.125639
v 0.228233 0.604422 0.056494
v -0.173331 0.604422 -0.175350
v 0.236410 0.604422 -0.005630
v -0.116063 0.593347 -0.152180
v 0.179533 0.593347 -0.029740
v -0.123621 0.604422 -0.213494
v 0.228233 0.604422 -0.067751
v -0.065733 0.604422 -0.237471
v 0.142942 0.593347 -0.118081
v -0.027722 0.593347 -0.188772
v 0.204255 0.604422 -0.125639
v -0.003611 0.604422 -0.245651
v 0.166111 0.604422 -0.175350
v 0.067079 0.593347 -0.176293
v 0.058513 0.604422 -0.237471
v 0.116401 0.604422 -0.213494
v 0.327701 0.087950 -0.539253
v 0.193342 0.220214 -0.643849
v 0.352622 0.220214 -0.577873
v 0.168421 0.087950 -0.605229
v 0.351192 0.418672 -0.539253
v 0.022412 0.220214 -0.666353
v -0.002506 0.087950 -0.627733
v 0.191913 0.418672 -0.605229
v 0.327701 0.602580 -0.539253
v 0.168421 0.602580 -0.605229
v -0.148515 0.220214 -0.643849
v -0.173436 0.087950 -0.605229
v 0.020983 0.418672 -0.627733
v -0.002506 0.602580 -0.627733
v -0.307795 0.220214 -0.577873
v -0.332716 0.087950 -0.539253
v -0.149945 0.418672 -0.605229
v -0.173436 0.602580 -0.605229
v -0.444574 0.220214 -0.472922
v -0.469495 0.087950 -0.434302
v -0.309225 0.418672 -0.539253
v -0.332716 0.602580 -0.539253
v -0.549525 0.220213 -0.336143
v -0.574446 0.087950 -0.297526
v -0.446004 0.418672 -0.434302
v -0.469495 0.602580 -0.434302
v -0.574446 0.602580 -0.297526
v -0.550955 0.418672 -0.297526
v -0.640422 0.602580 -0.138246
v -0.615501 0.220213 -0.176863
v -0.640422 0.087950 -0.138246
v -0.616931 0.418672 -0.138246
v -0.662926 0.602580 0.032684
v -0.638005 0.220213 -0.005933
v -0.662926 0.087950 0.032684
v -0.639434 0.418672 0.032684
v -0.640422 0.602580 0.203614
v -0.615501 0.220213 0.164994
v -0.640422 0.087950 0.203614
v -0.616931 0.418672 0.203614
v -0.574446 0.602580 0.362894
v -0.549525 0.220213 0.324274
v -0.574446 0.087950 0.362894
v -0.550955 0.418672 0.362894
v -0.469495 0.602580 0.499670
v -0.444574 0.220213 0.461051
v -0.469495 0.087950 0.499670
v -0.332716 0.087950 0.604624
v -0.307795 0.220213 0.566005
v -0.309225 0.418672 0.604624
v -0.446004 0.418672 0.499670
v -0.332716 0.602580 0.604624
v 0.728763 -0.017113 -0.428464
v 0.205073 -0.017576 -0.126112
v 0.594370 -0.017113 -0.603609
v 0.813247 -0.017113 -0.224504
v 0.166778 -0.017576 -0.176019
v 0.229145 -0.017576 -0.067997
v 0.419225 -0.017113 -0.738002
v 0.842064 -0.017113 -0.005627
v 0.116873 -0.017576 -0.214312
v 0.237356 -0.017576 -0.005630
v 0.215265 -0.017113 -0.822486
v 0.229145 -0.017576 0.056737
v 0.058756 -0.017576 -0.238386
v 0.813247 -0.017113 0.213247
v -0.003611 -0.017113 -0.851300
v 0.205073 -0.017576 0.114855
v -0.003611 -0.017576 -0.246594
v 0.728763 -0.017114 0.417209
v -0.065978 -0.017576 -0.238386
v 0.594370 -0.017114 0.592352
v -0.222485 -0.017113 -0.822486
v 0.166778 -0.017576 0.164762
v -0.426448 -0.017113 -0.738005
v 0.419225 -0.017114 0.726745
v -0.124094 -0.017576 -0.214312
v 0.116873 -0.017576 0.203055
v -0.601591 -0.017113 -0.603609
v 0.215265 -0.017114 0.811229
v -0.174001 -0.017576 -0.176019
v 0.058756 -0.017576 0.227126
v -0.212296 -0.017576 -0.126112
v -0.003611 -0.017114 0.840043
v -0.735986 -0.017113 -0.428466
v -0.003611 -0.017576 0.235337
v -0.820467 -0.017113 -0.224504
v -0.065978 -0.017576 0.227126
v -0.236368 -0.017576 -0.067997
v -0.222488 -0.017114 0.811229
v -0.244579 -0.017576 -0.005630
v -0.124094 -0.017576 0.203055
v -0.849282 -0.017113 -0.005627
v -0.426448 -0.017114 0.726745
v -0.820467 -0.017113 0.213247
v -0.601591 -0.017114 0.592352
v -0.236368 -0.017576 0.056737
v -0.174001 -0.017576 0.164762
v -0.212296 -0.017576 0.114855
v -0.735986 -0.017114 0.417207
v -0.002506 0.087950 -0.627733
v 0.215265 0.089001 -0.822486
v -0.003611 0.089001 -0.851300
v -0.222485 0.089001 -0.822486
v 0.168421 0.087950 -0.605229
v -0.173436 0.087950 -0.605229
v 0.419225 0.089001 -0.738002
v -0.426448 0.089001 -0.738005
v 0.327701 0.087950 -0.539253
v -0.332716 0.087950 -0.539253
v 0.594370 0.089001 -0.603609
v -0.601591 0.089001 -0.603609
v 0.464478 0.087950 -0.434302
v -0.469495 0.087950 -0.434302
v 0.728763 0.089001 -0.428464
v -0.735986 0.089001 -0.428466
v 0.569431 0.087950 -0.297526
v -0.574446 0.087950 -0.297526
v 0.813247 0.089001 -0.224504
v -0.820467 0.089001 -0.224504
v 0.635408 0.087950 -0.138243
v -0.640422 0.087950 -0.138246
v 0.842064 0.089001 -0.005627
v -0.849282 0.089001 -0.005627
v 0.657911 0.087950 0.032684
v -0.662926 0.087950 0.032684
v 0.813247 0.089001 0.213247
v -0.820467 0.089001 0.213247
v 0.635408 0.087950 0.203614
v -0.640422 0.087950 0.203614
v 0.728763 0.089001 0.417209
v -0.735986 0.089001 0.417207
v 0.569431 0.087950 0.362894
v -0.574446 0.087950 0.362894
v 0.594370 0.089001 0.592352
v -0.601591 0.089001 0.592352
v 0.464480 0.087950 0.499670
v -0.469495 0.087950 0.499670
v 0.419225 0.089001 0.726745
v -0.426448 0.089001 0.726745
v 0.327701 0.087950 0.604624
v -0.332716 0.087950 0.604624
v 0.215265 0.089001 0.811229
v -0.222488 0.089001 0.811229
v 0.168421 0.087950 0.670600
v -0.173436 0.087950 0.670600
v -0.003611 0.089001 0.840043
v -0.002506 0.087950 0.693104
v 0.216146 0.602580 -0.824482
v -0.002506 0.602580 -0.627733
v -0.002506 0.602580 -0.853268
v -0.221163 0.602580 -0.824482
v 0.168421 0.602580 -0.605229
v -0.173436 0.602580 -0.605229
v 0.419899 0.602580 -0.740085
v -0.424917 0.602580 -0.740085
v 0.327701 0.602580 -0.539253
v -0.332716 0.602580 -0.539253
v 0.594867 0.602580 -0.605828
v -0.599884 0.602580 -0.605828
v 0.464478 0.602580 -0.434302
v -0.469495 0.602580 -0.434302
v 0.729124 0.602580 -0.430860
v -0.734144 0.602580 -0.430860
v 0.569431 0.602580 -0.297526
v -0.574446 0.602580 -0.297526
v 0.813524 0.602580 -0.227107
v -0.818539 0.602580 -0.227107
v 0.635408 0.602580 -0.138243
v -0.640422 0.602580 -0.138246
v 0.842310 0.602580 -0.008450
v -0.847327 0.602580 -0.008450
v 0.657911 0.602580 0.032684
v -0.662926 0.602580 0.032684
v 0.813524 0.602580 0.210205
v -0.818539 0.602580 0.210205
v 0.635408 0.602580 0.203614
v -0.640422 0.602580 0.203614
v 0.729124 0.602580 0.413958
v -0.734144 0.602580 0.413958
v 0.569431 0.602580 0.362894
v -0.574446 0.602580 0.362894
v 0.594870 0.602580 0.588926
v -0.599884 0.602580 0.588926
v 0.464480 0.602580 0.499670
v -0.469495 0.602580 0.499670
v 0.419899 0.602580 0.723183
v -0.424917 0.602580 0.723183
v 0.327701 0.602580 0.604624
v -0.332716 0.602580 0.604624
v 0.216146 0.602580 0.807581
v -0.221163 0.602580 0.807581
v 0.168421 0.602580 0.670600
v -0.173436 0.602580 0.670600
v -0.002506 0.602580 0.836367
v -0.002506 0.602580 0.693104
v 0.058513 0.704887 -0.237471
v 0.419899 0.707892 -0.740085
v 0.216146 0.707892 -0.824482
v -0.002506 0.707892 -0.853268
v 0.116401 0.704887 -0.213494
v -0.003611 0.704887 -0.245651
v 0.594867 0.707892 -0.605828
v -0.221163 0.707892 -0.824482
v 0.166111 0.704887 -0.175350
v -0.065733 0.704887 -0.237471
v 0.729124 0.707892 -0.430860
v -0.424917 0.707892 -0.740085
v 0.204255 0.704887 -0.125639
v -0.123621 0.704887 -0.213494
v 0.813524 0.707892 -0.227107
v -0.599884 0.707892 -0.605828
v 0.228233 0.704887 -0.067751
v -0.173331 0.704887 -0.175350
v 0.842310 0.707892 -0.008450
v -0.734144 0.707892 -0.430860
v 0.236410 0.704887 -0.005630
v -0.211476 0.704887 -0.125639
v 0.813524 0.707892 0.210205
v -0.818539 0.707892 -0.227107
v 0.228233 0.704887 0.056494
v -0.235453 0.704887 -0.067751
v 0.729124 0.707892 0.413958
v -0.847327 0.707892 -0.008450
v 0.204255 0.704887 0.114382
v -0.243633 0.704887 -0.005630
v 0.594870 0.707892 0.588926
v -0.818539 0.707892 0.210205
v 0.166111 0.704887 0.164093
v -0.235453 0.704887 0.056494
v 0.419899 0.707892 0.723183
v -0.734144 0.707892 0.413958
v 0.116401 0.704887 0.202237
v -0.211476 0.704887 0.114382
v 0.216146 0.707892 0.807581
v -0.599884 0.707892 0.588926
v 0.058513 0.704887 0.226214
v -0.173331 0.704887 0.164093
v -0.002506 0.707892 0.836367
v -0.424917 0.707892 0.723183
v -0.003611 0.704887 0.234394
v -0.123621 0.704887 0.202237
v -0.221163 0.707892 0.807581
v -0.065733 0.704887 0.226214
vt 0.712400 0.559600
vt 0.721200 0.571300
vt 0.707000 0.572800
vt 0.935100 0.060100
vt 0.960400 0.008800
vt 0.960400 0.060100
vt 0.935100 0.111300
vt 0.960400 0.111300
vt 0.935100 0.163100
vt 0.960400 0.163100
vt 0.935100 0.214400
vt 0.960400 0.214400
vt 0.935100 0.266100
vt 0.960400 0.266100
vt 0.935100 0.317400
vt 0.960400 0.317400
vt 0.935100 0.368700
vt 0.960400 0.368700
vt 0.960400 0.420400
vt 0.935100 0.420400
vt 0.935100 0.471700
vt 0.960400 0.471700
vt 0.935100 0.522900
vt 0.960400 0.522900
vt 0.935100 0.574500
vt 0.960400 0.574500
vt 0.935100 0.626000
vt 0.960400 0.626000
vt 0.368700 0.887500
vt 0.368700 0.911300
vt 0.354000 0.887500
vt 0.354000 0.911300
vt 0.339100 0.887500
vt 0.339100 0.911300
vt 0.324200 0.887500
vt 0.324200 0.911300
vt 0.309600 0.887500
vt 0.309600 0.911300
vt 0.294700 0.887500
vt 0.294700 0.911300
vt 0.279800 0.887500
vt 0.279800 0.911300
vt 0.265100 0.887500
vt 0.265100 0.911300
vt 0.250200 0.887500
vt 0.250200 0.911300
vt 0.235500 0.887500
vt 0.235500 0.911300
vt 0.220700 0.887500
vt 0.220700 0.911300
vt 0.205800 0.887500
vt 0.205800 0.911300
vt 0.191000 0.887500
vt 0.191000 0.911300
vt 0.176300 0.887500
vt 0.176300 0.911300
vt 0.161500 0.887500
vt 0.161500 0.911300
vt 0.146600 0.887500
vt 0.146600 0.911300
vt 0.131800 0.887500
vt 0.131800 0.911300
vt 0.117100 0.887500
vt 0.117100 0.911300
vt 0.102200 0.887500
vt 0.102200 0.911300
vt 0.087500 0.887500
vt 0.087500 0.911300
vt 0.072600 0.887500
vt 0.072600 0.911300
vt 0.057800 0.887500
vt 0.057800 0.911300
vt 0.043000 0.887500
vt 0.043000 0.911300
vt 0.028200 0.887500
vt 0.028200 0.911300
vt 0.013400 0.887500
vt 0.013400 0.911300
vt 0.071100 0.249500
vt 0.071100 0.130400
vt 0.093900 0.249500
vt 0.093900 0.130400
vt 0.116600 0.249500
vt 0.116600 0.130400
vt 0.139300 0.249500
vt 0.139300 0.130400
vt 0.162000 0.249500
vt 0.162000 0.130400
vt 0.184700 0.249500
vt 0.184700 0.130400
vt 0.207400 0.249500
vt 0.207400 0.130400
vt 0.230100 0.249500
vt 0.230100 0.130400
vt 0.252700 0.249500
vt 0.252700 0.130400
vt 0.275400 0.249500
vt 0.275400 0.130400
vt 0.298100 0.249500
vt 0.298100 0.130400
vt 0.320800 0.249500
vt 0.320800 0.130400
vt 0.343800 0.249500
vt 0.343800 0.130400
vt 0.631300 0.878200
vt 0.580100 0.852800
vt 0.631300 0.852800
vt 0.580100 0.878200
vt 0.528300 0.852800
vt 0.528300 0.878200
vt 0.477100 0.852800
vt 0.477100 0.878200
vt 0.425500 0.852800
vt 0.425500 0.878200
vt 0.374300 0.852800
vt 0.374300 0.878200
vt 0.322800 0.852800
vt 0.322800 0.878200
vt 0.271200 0.852800
vt 0.271200 0.878200
vt 0.219800 0.852800
vt 0.219800 0.878200
vt 0.168500 0.852800
vt 0.168500 0.878200
vt 0.117000 0.852800
vt 0.117000 0.878200
vt 0.065600 0.852800
vt 0.065600 0.878200
vt 0.014100 0.852800
vt 0.014100 0.878200
vt 0.064600 0.850700
vt 0.013300 0.850700
vt 0.013300 0.825300
vt 0.064600 0.825300
vt 0.116000 0.850700
vt 0.116000 0.825300
vt 0.167200 0.850700
vt 0.167200 0.825300
vt 0.218600 0.850700
vt 0.218600 0.825300
vt 0.270000 0.850700
vt 0.270000 0.825300
vt 0.321300 0.850700
vt 0.321300 0.825300
vt 0.372800 0.850700
vt 0.372800 0.825300
vt 0.424100 0.850700
vt 0.424100 0.825300
vt 0.475600 0.850700
vt 0.475600 0.825300
vt 0.526900 0.850700
vt 0.526900 0.825300
vt 0.578100 0.825300
vt 0.578100 0.850700
vt 0.629900 0.850700
vt 0.629900 0.825300
vt 0.962900 0.625000
vt 0.987800 0.573700
vt 0.987800 0.625000
vt 0.962900 0.573700
vt 0.987800 0.522200
vt 0.962900 0.522200
vt 0.987800 0.471200
vt 0.962900 0.471200
vt 0.987800 0.419400
vt 0.962900 0.419400
vt 0.987800 0.368200
vt 0.962900 0.368200
vt 0.987800 0.316900
vt 0.962900 0.316900
vt 0.987800 0.265600
vt 0.962900 0.265600
vt 0.987800 0.214400
vt 0.962900 0.214400
vt 0.987800 0.162600
vt 0.962900 0.162600
vt 0.987800 0.111300
vt 0.962900 0.111300
vt 0.987800 0.060100
vt 0.962900 0.060100
vt 0.987800 0.008800
vt 0.962900 0.008800
vt 0.377700 0.887000
vt 0.392600 0.912100
vt 0.377700 0.912100
vt 0.392600 0.887000
vt 0.407500 0.912100
vt 0.407500 0.887000
vt 0.422100 0.887000
vt 0.422100 0.912100
vt 0.437000 0.887000
vt 0.437000 0.912100
vt 0.451700 0.887000
vt 0.451700 0.912100
vt 0.466600 0.912100
vt 0.466600 0.887000
vt 0.481400 0.912100
vt 0.481400 0.887000
vt 0.496100 0.912100
vt 0.496100 0.887000
vt 0.510700 0.887000
vt 0.510700 0.912100
vt 0.525400 0.887000
vt 0.525400 0.912100
vt 0.540500 0.887000
vt 0.540500 0.912100
vt 0.555200 0.912100
vt 0.555200 0.887000
vt 0.569800 0.912100
vt 0.569800 0.887000
vt 0.585000 0.912100
vt 0.585000 0.887000
vt 0.599600 0.887000
vt 0.599600 0.912100
vt 0.614300 0.887000
vt 0.614300 0.912100
vt 0.628900 0.887000
vt 0.628900 0.912100
vt 0.644000 0.912100
vt 0.644000 0.887000
vt 0.658700 0.912100
vt 0.658700 0.887000
vt 0.673300 0.912100
vt 0.673300 0.887000
vt 0.688000 0.887000
vt 0.688000 0.912100
vt 0.702600 0.887000
vt 0.702600 0.912100
vt 0.717800 0.887000
vt 0.717800 0.912100
vt 0.732400 0.912100
vt 0.732400 0.887000
vt 0.932600 0.459000
vt 0.932600 0.499500
vt 0.889600 0.499500
vt 0.889600 0.459000
vt 0.932600 0.418000
vt 0.842800 0.499500
vt 0.889600 0.418000
vt 0.932600 0.377000
vt 0.842800 0.459000
vt 0.811500 0.459000
vt 0.811500 0.499500
vt 0.811500 0.418000
vt 0.842800 0.418000
vt 0.811500 0.377000
vt 0.889600 0.377000
vt 0.932600 0.335900
vt 0.842800 0.377000
vt 0.811500 0.335900
vt 0.889600 0.335900
vt 0.932600 0.294900
vt 0.842800 0.335900
vt 0.811500 0.294900
vt 0.889600 0.294900
vt 0.932600 0.253900
vt 0.842800 0.294900
vt 0.811500 0.253900
vt 0.889600 0.253900
vt 0.932600 0.213400
vt 0.842800 0.253900
vt 0.811500 0.213400
vt 0.889600 0.213400
vt 0.932600 0.172400
vt 0.842800 0.213400
vt 0.811500 0.172400
vt 0.889600 0.172400
vt 0.932600 0.131300
vt 0.842800 0.172400
vt 0.811500 0.131300
vt 0.889600 0.131300
vt 0.932600 0.090300
vt 0.842800 0.131300
vt 0.811500 0.090300
vt 0.889600 0.090300
vt 0.932600 0.049300
vt 0.842800 0.090300
vt 0.811500 0.049300
vt 0.889600 0.049300
vt 0.889600 0.008800
vt 0.932600 0.008800
vt 0.842800 0.008800
vt 0.811500 0.008800
vt 0.842800 0.049300
vt 0.618200 0.584700
vt 0.624000 0.571300
vt 0.631800 0.582500
vt 0.616200 0.599400
vt 0.632800 0.559600
vt 0.628900 0.605000
vt 0.646000 0.564700
vt 0.618200 0.614000
vt 0.644500 0.550800
vt 0.637700 0.626000
vt 0.657700 0.545200
vt 0.624000 0.627400
vt 0.667000 0.555900
vt 0.632800 0.639200
vt 0.672400 0.543200
vt 0.655800 0.639600
vt 0.687000 0.545200
vt 0.644500 0.647900
vt 0.689000 0.558800
vt 0.657700 0.653600
vt 0.700700 0.550800
vt 0.672400 0.655500
vt 0.678200 0.642800
vt 0.687000 0.653600
vt 0.935100 0.008800
vt 0.699200 0.634000
vt 0.726600 0.584700
vt 0.700700 0.647900
vt 0.715800 0.593800
vt 0.712400 0.639200
vt 0.728500 0.599400
vt 0.712900 0.616200
vt 0.721200 0.627400
vt 0.726600 0.614000
vt 0.507300 0.629200
vt 0.501500 0.615500
vt 0.516100 0.617400
vt 0.516600 0.641100
vt 0.499800 0.600600
vt 0.530300 0.635500
vt 0.513200 0.594700
vt 0.528300 0.650100
vt 0.501500 0.585700
vt 0.542000 0.656000
vt 0.522000 0.573700
vt 0.551300 0.644300
vt 0.507300 0.571800
vt 0.557100 0.658000
vt 0.516600 0.560100
vt 0.571800 0.656000
vt 0.540000 0.559800
vt 0.573700 0.641400
vt 0.528300 0.550800
vt 0.585900 0.650100
vt 0.542000 0.545200
vt 0.597700 0.641100
vt 0.557100 0.543200
vt 0.592300 0.627400
vt 0.563000 0.556900
vt 0.606900 0.629200
vt 0.571800 0.545200
vt 0.612300 0.615500
vt 0.584000 0.565400
vt 0.600600 0.606200
vt 0.585900 0.550800
vt 0.614300 0.600600
vt 0.597700 0.560100
vt 0.597700 0.583700
vt 0.612300 0.585700
vt 0.606900 0.571800
vt 0.811500 0.992500
vt 0.842800 0.951500
vt 0.842800 0.992500
vt 0.811500 0.951500
vt 0.889600 0.992500
vt 0.842800 0.910600
vt 0.811500 0.910600
vt 0.889600 0.951500
vt 0.932600 0.992500
vt 0.932600 0.951500
vt 0.842800 0.869800
vt 0.811500 0.869800
vt 0.889600 0.910600
vt 0.932600 0.910600
vt 0.842800 0.828900
vt 0.811500 0.828900
vt 0.889600 0.869800
vt 0.932600 0.869800
vt 0.842800 0.787800
vt 0.811500 0.787800
vt 0.889600 0.828900
vt 0.932600 0.828900
vt 0.842800 0.747100
vt 0.811500 0.747100
vt 0.889600 0.787800
vt 0.932600 0.787800
vt 0.932600 0.747100
vt 0.889600 0.747100
vt 0.932600 0.706100
vt 0.842800 0.706100
vt 0.811500 0.706100
vt 0.889600 0.706100
vt 0.932600 0.665300
vt 0.842800 0.665300
vt 0.811500 0.665300
vt 0.889600 0.665300
vt 0.932600 0.624300
vt 0.842800 0.624300
vt 0.811500 0.624300
vt 0.889600 0.624300
vt 0.932600 0.583300
vt 0.842800 0.583300
vt 0.811500 0.583300
vt 0.889600 0.583300
vt 0.932600 0.542500
vt 0.842800 0.542500
vt 0.811500 0.542500
vt 0.811500 0.501500
vt 0.842800 0.501500
vt 0.889600 0.501500
vt 0.889600 0.542500
vt 0.932600 0.501500
vt 0.033700 0.710900
vt 0.157600 0.639400
vt 0.065500 0.752400
vt 0.013700 0.662600
vt 0.166700 0.651100
vt 0.152000 0.625700
vt 0.107000 0.784200
vt 0.006900 0.610800
vt 0.178500 0.660400
vt 0.150000 0.610800
vt 0.155300 0.804200
vt 0.152000 0.596200
vt 0.192300 0.666000
vt 0.013700 0.559100
vt 0.207000 0.811000
vt 0.157600 0.582300
vt 0.207000 0.668000
vt 0.033700 0.510700
vt 0.221800 0.666000
vt 0.065500 0.469200
vt 0.258800 0.804200
vt 0.166700 0.570600
vt 0.307100 0.784200
vt 0.107000 0.437500
vt 0.235600 0.660400
vt 0.178500 0.561500
vt 0.348600 0.752400
vt 0.155300 0.417500
vt 0.247300 0.651100
vt 0.192300 0.555900
vt 0.256300 0.639400
vt 0.207000 0.410600
vt 0.380400 0.710900
vt 0.207000 0.554000
vt 0.400400 0.662600
vt 0.221800 0.555900
vt 0.262000 0.625700
vt 0.258800 0.417500
vt 0.263900 0.610800
vt 0.235600 0.561500
vt 0.407200 0.610800
vt 0.307100 0.437500
vt 0.400400 0.559100
vt 0.348600 0.469200
vt 0.262000 0.596200
vt 0.247300 0.570600
vt 0.256300 0.582300
vt 0.380400 0.510700
vt 0.207300 0.356000
vt 0.258800 0.402300
vt 0.207000 0.408700
vt 0.155300 0.402300
vt 0.247800 0.350600
vt 0.166900 0.350600
vt 0.307100 0.382300
vt 0.107000 0.382300
vt 0.285400 0.335000
vt 0.129200 0.335000
vt 0.348600 0.350100
vt 0.065500 0.350100
vt 0.317900 0.310100
vt 0.096800 0.310100
vt 0.380400 0.308600
vt 0.033700 0.308600
vt 0.342500 0.277800
vt 0.072000 0.277800
vt 0.400400 0.260700
vt 0.013700 0.260700
vt 0.358200 0.240200
vt 0.056300 0.240200
vt 0.407200 0.208500
vt 0.006900 0.208500
vt 0.363500 0.199700
vt 0.051000 0.199700
vt 0.400400 0.156700
vt 0.013700 0.156700
vt 0.358200 0.159200
vt 0.056300 0.159200
vt 0.380400 0.108400
vt 0.033700 0.108400
vt 0.342500 0.121600
vt 0.072000 0.121600
vt 0.348600 0.067400
vt 0.065500 0.067400
vt 0.317900 0.089400
vt 0.096800 0.089400
vt 0.307100 0.035200
vt 0.107000 0.035200
vt 0.285400 0.064500
vt 0.129200 0.064500
vt 0.258800 0.015100
vt 0.155300 0.015100
vt 0.247800 0.048800
vt 0.166900 0.048800
vt 0.207000 0.008800
vt 0.207300 0.043500
vt 0.557600 0.803300
vt 0.609400 0.756800
vt 0.609400 0.810200
vt 0.661100 0.803300
vt 0.568800 0.751500
vt 0.649900 0.751500
vt 0.509300 0.783400
vt 0.709000 0.783400
vt 0.531300 0.735800
vt 0.687500 0.735800
vt 0.468000 0.751600
vt 0.750500 0.751600
vt 0.498800 0.711200
vt 0.719700 0.711200
vt 0.436300 0.710200
vt 0.782200 0.710200
vt 0.473900 0.678700
vt 0.744600 0.678700
vt 0.416300 0.662100
vt 0.802200 0.662100
vt 0.458300 0.641100
vt 0.760300 0.641100
vt 0.409400 0.610400
vt 0.809100 0.610400
vt 0.453100 0.600600
vt 0.765600 0.600600
vt 0.416300 0.558600
vt 0.802200 0.558600
vt 0.458300 0.560100
vt 0.760300 0.560100
vt 0.436300 0.510300
vt 0.782200 0.510300
vt 0.473900 0.522500
vt 0.744600 0.522500
vt 0.468000 0.469200
vt 0.750500 0.469200
vt 0.498800 0.490200
vt 0.719700 0.490200
vt 0.509300 0.437000
vt 0.709000 0.437000
vt 0.531300 0.465300
vt 0.687500 0.465300
vt 0.557600 0.417500
vt 0.661100 0.417500
vt 0.568800 0.449700
vt 0.649900 0.449700
vt 0.609400 0.410600
vt 0.609400 0.444300
vt 0.623500 0.262700
vt 0.709000 0.381800
vt 0.661100 0.401900
vt 0.609400 0.408700
vt 0.637200 0.256800
vt 0.608900 0.264600
vt 0.750500 0.350100
vt 0.557600 0.401900
vt 0.648900 0.248000
vt 0.594200 0.262700
vt 0.782200 0.308600
vt 0.509300 0.381800
vt 0.658200 0.236300
vt 0.580600 0.256800
vt 0.802200 0.260300
vt 0.468000 0.350100
vt 0.664100 0.222700
vt 0.568800 0.248000
vt 0.809100 0.208500
vt 0.436300 0.308600
vt 0.666000 0.208000
vt 0.559600 0.236300
vt 0.802200 0.156700
vt 0.416300 0.260300
vt 0.664100 0.193400
vt 0.554200 0.222700
vt 0.782200 0.108400
vt 0.409400 0.208500
vt 0.658200 0.179700
vt 0.552200 0.208000
vt 0.750500 0.066900
vt 0.416300 0.156700
vt 0.648900 0.167500
vt 0.554200 0.193400
vt 0.709000 0.035200
vt 0.436300 0.108400
vt 0.637200 0.158700
vt 0.559600 0.179700
vt 0.661100 0.015100
vt 0.468000 0.066900
vt 0.623500 0.152800
vt 0.568800 0.167500
vt 0.609400 0.008800
vt 0.509300 0.035200
vt 0.608900 0.150900
vt 0.580600 0.158700
vt 0.557600 0.015100
vt 0.594200 0.152800
vn 0.0079 -0.9999 0.0082
vn 0.0080 -0.9999 0.0080
vn 0.7071 0.0000 -0.7071
vn 0.4970 -0.0000 -0.8678
vn 0.8643 -0.0000 -0.5030
vn 0.9658 -0.0000 -0.2592
vn 1.0000 -0.0000 0.0000
vn 0.9659 0.0000 0.2588
vn 0.9658 0.0000 0.2592
vn 0.8642 -0.0000 0.5031
vn 0.8643 -0.0000 0.5030
vn 0.7071 0.0000 0.7071
vn 0.4970 0.0000 0.8677
vn 0.2588 0.0000 0.9659
vn 0.2594 -0.0000 0.9658
vn -0.0000 0.0000 1.0000
vn -0.2593 0.0000 0.9658
vn -0.2588 0.0000 0.9659
vn -0.5030 0.0000 0.8643
vn -0.4970 -0.0000 0.8678
vn -0.7071 -0.0000 0.7071
vn -0.8643 0.0000 0.5029
vn -0.8643 -0.0000 0.5030
vn -0.9659 -0.0000 0.2588
vn -1.0000 0.0000 0.0000
vn -0.9658 0.0000 -0.2593
vn -0.9658 -0.0000 -0.2592
vn -0.8643 0.0000 -0.5030
vn -0.7071 0.0000 -0.7071
vn -0.4970 0.0000 -0.8678
vn -0.4969 0.0000 -0.8678
vn -0.2592 0.0000 -0.9658
vn 0.0000 0.0000 -1.0000
vn 0.2588 0.0000 -0.9659
vn 0.2592 0.0000 -0.9658
vn 0.4970 0.0000 -0.8677
vn 0.8677 0.0000 -0.4970
vn 0.9659 0.0000 -0.2588
vn 0.9658 0.0000 0.2594
vn 0.8677 -0.0000 0.4970
vn 0.2593 -0.0000 0.9658
vn -0.2592 -0.0000 0.9658
vn -0.4970 -0.0000 0.8677
vn -0.3865 -0.0000 0.9223
vn -0.7953 -0.0000 0.6062
vn -0.7953 0.0000 0.6063
vn -0.9910 -0.0000 0.1339
vn -0.9223 0.0000 -0.3865
vn -0.6063 0.0000 -0.7952
vn -0.1338 0.0000 -0.9910
vn 0.3865 0.0000 -0.9223
vn 0.7953 0.0000 -0.6062
vn 0.7953 0.0000 -0.6063
vn 0.9910 0.0000 -0.1338
vn 0.9223 -0.0000 0.3866
vn 0.9223 -0.0000 0.3865
vn 0.6062 -0.0000 0.7953
vn 0.1339 -0.0000 0.9910
vn 0.1338 -0.0000 0.9910
vn 0.2593 0.0000 -0.9658
vn -0.2593 -0.0000 -0.9658
vn -0.5030 0.0000 -0.8643
vn -0.2588 0.0000 -0.9659
vn 0.5031 0.0000 -0.8642
vn 0.9658 0.0000 -0.2594
vn 0.8678 -0.0000 0.4970
vn 0.4970 0.0000 0.8678
vn -0.9659 0.0000 -0.2588
vn -0.9658 -0.0000 0.2593
vn -0.9657 -0.0000 0.2595
vn -0.8642 0.0000 0.5031
vn -0.2594 -0.0000 0.9658
vn -0.4968 -0.0310 0.8673
vn -0.2590 -0.0309 0.9654
vn 0.0000 -0.0309 0.9995
vn -0.0000 -0.0310 0.9995
vn 0.2590 -0.0309 0.9654
vn 0.4968 -0.0311 0.8673
vn 0.7068 -0.0309 0.7068
vn 0.8673 -0.0311 0.4968
vn 0.9654 -0.0309 0.2590
vn 0.9995 -0.0310 -0.0000
vn 0.9654 -0.0309 -0.2590
vn 0.8673 -0.0310 -0.4968
vn 0.7068 -0.0309 -0.7068
vn 0.7068 -0.0308 -0.7068
vn 0.4968 -0.0311 -0.8673
vn 0.2590 -0.0309 -0.9654
vn 0.2590 -0.0310 -0.9654
vn -0.0000 -0.0309 -0.9995
vn 0.0000 -0.0310 -0.9995
vn -0.2590 -0.0310 -0.9654
vn -0.4968 -0.0311 -0.8673
vn -0.7068 -0.0309 -0.7068
vn -0.7068 -0.0308 -0.7068
vn -0.8673 -0.0311 -0.4968
vn -0.9654 -0.0309 -0.2590
vn -0.9995 -0.0309 -0.0000
vn -0.9995 -0.0310 0.0000
vn -0.9654 -0.0309 0.2590
vn -0.8673 -0.0311 0.4968
vn -0.7068 -0.0309 0.7068
vn -0.4968 -0.0311 0.8673
vn -0.2685 -0.0311 0.9628
vn -0.5055 -0.0632 0.8605
vn -0.4875 -0.1179 0.8651
vn -0.2521 -0.1100 0.9614
vn -0.0080 -0.0000 1.0000
vn -0.5026 0.0389 0.8636
vn 0.0080 -0.1023 0.9947
vn 0.2515 0.0310 0.9674
vn -0.2591 0.0159 0.9657
vn -0.2526 0.3154 0.9147
vn -0.4713 0.3305 0.8177
vn -0.0160 0.2825 0.9591
vn 0.0080 -0.0000 1.0000
vn 0.2283 0.2283 0.9464
vn 0.2603 -0.0791 0.9623
vn 0.4900 0.0632 0.8694
vn 0.2685 -0.0240 0.9630
vn 0.4721 0.1649 0.8660
vn 0.4963 -0.0550 0.8664
vn 0.7004 0.0869 0.7084
vn 0.5120 -0.0390 0.8581
vn 0.6851 0.0790 0.7241
vn 0.7069 -0.0240 0.7069
vn 0.8570 0.1099 0.5035
vn 0.7179 -0.0551 0.6939
vn 0.8495 -0.0080 0.5276
vn 0.8643 0.0080 0.5030
vn 0.9577 0.1256 0.2591
vn 0.8748 -0.0631 0.4804
vn 0.9544 -0.0942 0.2834
vn 0.9628 0.0311 0.2685
vn 0.9920 0.1260 0.0000
vn 0.9691 -0.0710 0.2360
vn 0.9832 -0.1808 0.0240
vn 0.9980 0.0630 0.0080
vn 0.9577 0.1255 -0.2591
vn 0.9974 -0.0708 -0.0160
vn 0.9402 -0.2448 -0.2368
vn 0.9642 0.0866 -0.2507
vn 0.8570 0.1099 -0.5034
vn 0.9587 -0.0708 -0.2754
vn 0.8358 -0.2912 -0.4654
vn 0.8667 0.1021 -0.4884
vn 0.7004 0.0869 -0.7084
vn 0.8570 -0.0629 -0.5114
vn 0.6736 -0.3213 -0.6656
vn 0.7101 0.1181 -0.6941
vn 0.5029 0.1178 -0.8563
vn 0.4899 0.0633 -0.8695
vn 0.4967 -0.0310 -0.8673
vn 0.4713 -0.3305 -0.8177
vn 0.6983 -0.0468 -0.7143
vn 0.0000 -1.0000 -0.0080
vn 0.0080 -0.9999 -0.0080
vn 0.0077 -0.9999 -0.0082
vn -0.0081 -0.9999 -0.0079
vn 0.0080 -1.0000 0.0000
vn -0.0080 -0.9999 -0.0080
vn 0.0081 -1.0000 -0.0000
vn -0.0082 -0.9999 -0.0077
vn 0.0081 -1.0000 0.0001
vn -0.0080 -1.0000 -0.0000
vn 0.0080 -0.9999 0.0081
vn -0.0079 -1.0000 -0.0000
vn -0.0080 -0.9999 0.0080
vn -0.0000 -1.0000 0.0080
vn 0.0000 -1.0000 0.0081
vn -0.0082 -0.9999 0.0079
vn 0.1019 0.9834 -0.1499
vn 0.0310 0.9830 -0.1808
vn 0.0710 0.9837 -0.1650
vn 0.1179 0.9828 -0.1418
vn 0.0160 0.9834 -0.1809
vn 0.1420 0.9837 -0.1100
vn -0.0240 0.9832 -0.1809
vn 0.1649 0.9832 -0.0789
vn -0.0629 0.9829 -0.1728
vn 0.1728 0.9829 -0.0629
vn -0.1100 0.9837 -0.1420
vn 0.1809 0.9832 -0.0240
vn -0.0789 0.9832 -0.1649
vn 0.1809 0.9834 0.0160
vn -0.1418 0.9828 -0.1179
vn 0.1808 0.9830 0.0310
vn -0.1650 0.9837 -0.0710
vn 0.1649 0.9837 0.0710
vn -0.1499 0.9834 -0.1019
vn 0.1499 0.9834 0.1019
vn -0.1808 0.9830 -0.0310
vn 0.1418 0.9828 0.1179
vn -0.1809 0.9834 -0.0160
vn 0.1100 0.9837 0.1420
vn -0.1809 0.9832 0.0240
vn 0.0789 0.9832 0.1649
vn -0.1728 0.9829 0.0629
vn 0.0629 0.9829 0.1728
vn -0.1420 0.9837 0.1100
vn 0.0240 0.9832 0.1809
vn -0.1649 0.9832 0.0789
vn -0.0160 0.9834 0.1809
vn -0.1179 0.9828 0.1418
vn -0.0710 0.9837 0.1650
vn -0.0310 0.9830 0.1808
vn -0.1019 0.9834 0.1499
vn 0.2591 -0.0159 -0.9657
vn 0.4968 -0.0310 -0.8673
vn 0.2357 -0.3145 -0.9195
vn 0.5030 0.1178 -0.8562
vn 0.0080 0.0000 -1.0000
vn -0.0160 -0.2760 -0.9610
vn 0.2593 0.1177 -0.9586
vn 0.4900 0.0632 -0.8695
vn 0.2515 0.0310 -0.9674
vn -0.2442 0.0160 -0.9696
vn -0.2683 -0.2202 -0.9378
vn 0.0080 0.1022 -0.9947
vn -0.0080 -0.0000 -1.0000
vn -0.4873 0.0309 -0.8727
vn -0.5133 -0.1503 -0.8450
vn -0.2528 0.0793 -0.9643
vn -0.2685 -0.0311 -0.9628
vn -0.6942 0.0470 -0.7182
vn -0.7249 -0.0631 -0.6859
vn -0.4962 0.0550 -0.8664
vn -0.5055 -0.0632 -0.8605
vn -0.8539 0.0548 -0.5175
vn -0.8814 0.0240 -0.4717
vn -0.7069 0.0239 -0.7069
vn -0.7080 -0.0938 -0.7000
vn -0.8625 -0.1096 -0.4940
vn -0.8677 -0.0080 -0.4970
vn -0.9596 -0.1258 -0.2517
vn -0.9592 0.0629 -0.2755
vn -0.9666 0.1177 -0.2275
vn -0.9671 -0.0390 -0.2515
vn -0.9920 -0.1259 -0.0000
vn -0.9974 0.0708 -0.0160
vn -0.9818 0.1886 0.0239
vn -0.9975 -0.0708 0.0080
vn -0.9596 -0.1258 0.2516
vn -0.9673 0.0709 0.2436
vn -0.9298 0.2522 0.2682
vn -0.9596 -0.0869 0.2676
vn -0.8625 -0.1096 0.4940
vn -0.8714 0.0628 0.4865
vn -0.8197 0.2992 0.4884
vn -0.8570 -0.1098 0.5035
vn -0.7080 -0.0939 0.7000
vn -0.7100 0.0551 0.7020
vn -0.6656 0.3215 0.6735
vn -0.6941 -0.1181 0.7101
vn 0.0002 -1.0000 -0.0001
vn -0.0000 -1.0000 0.0000
vn 0.0001 -1.0000 -0.0000
vn 0.0001 -1.0000 -0.0001
vn 0.0001 -1.0000 -0.0002
vn 0.0002 -1.0000 -0.0000
vn 0.0000 -1.0000 -0.0002
vn 0.0002 -1.0000 0.0001
vn -0.0001 -1.0000 -0.0001
vn 0.0001 -1.0000 0.0002
vn -0.0001 -1.0000 -0.0002
vn 0.0000 -1.0000 0.0001
vn 0.0002 -1.0000 0.0002
vn -0.0002 -1.0000 -0.0001
vn 0.0000 -1.0000 0.0002
vn -0.0001 -1.0000 0.0002
vn -0.0000 1.0000 0.0079
vn 0.0000 1.0000 0.0080
vn 0.0000 1.0000 -0.0000
vn -0.0079 1.0000 0.0000
vn 0.0080 1.0000 -0.0000
vn -0.0080 1.0000 0.0000
vn 0.0079 1.0000 0.0000
vn -0.0078 1.0000 0.0000
vn -0.0080 0.9999 -0.0080
vn 0.0080 0.9999 -0.0080
vn -0.0001 1.0000 -0.0080
vn 0.0000 1.0000 -0.0080
vn 0.0001 1.0000 -0.0079
vn -0.0001 1.0000 -0.0079
vn -0.0001 1.0000 -0.0081
vn 0.0000 1.0000 -0.0078
vn 0.0000 1.0000 -0.0081
vn 0.0001 1.0000 0.0000
usemtl /Game/Construction_VOL2/Materials/Instances/MI_Spool_02a_MI_Spo
s 1
f 1/1/1 2/2/2 3/3/2
f 4/4/3 5/5/4 6/6/3
f 7/7/5 4/4/3 6/6/3
f 8/8/5 7/7/5 6/6/3
f 9/9/6 7/7/5 8/8/5
f 8/8/5 10/10/6 9/9/6
f 11/11/7 9/9/6 10/10/6
f 10/10/6 12/12/7 11/11/7
f 13/13/8 11/11/7 12/12/7
f 12/12/7 14/14/9 13/13/8
f 15/15/10 13/13/8 14/14/9
f 14/14/9 16/16/11 15/15/10
f 17/17/12 15/15/10 16/16/11
f 18/18/12 17/17/12 16/16/11
f 18/18/12 19/19/13 17/17/12
f 19/19/13 20/20/13 17/17/12
f 19/19/13 21/21/14 20/20/13
f 19/19/13 22/22/15 21/21/14
f 22/22/15 23/23/16 21/21/14
f 22/22/15 24/24/16 23/23/16
f 24/24/16 25/25/17 23/23/16
f 24/24/16 26/26/18 25/25/17
f 26/26/18 27/27/19 25/25/17
f 26/26/18 28/28/19 27/27/19
f 29/29/20 30/30/20 31/31/21
f 31/31/21 30/30/20 32/32/21
f 32/32/21 33/33/22 31/31/21
f 33/33/22 32/32/21 34/34/23
f 34/34/23 35/35/24 33/33/22
f 35/35/24 34/34/23 36/36/24
f 36/36/24 37/37/25 35/35/24
f 37/37/25 36/36/24 38/38/25
f 38/38/25 39/39/26 37/37/25
f 39/39/26 38/38/25 40/40/27
f 40/40/27 41/41/28 39/39/26
f 41/41/28 40/40/27 42/42/28
f 42/42/28 43/43/29 41/41/28
f 43/43/29 42/42/28 44/44/29
f 44/44/29 45/45/30 43/43/29
f 46/46/31 45/45/30 44/44/29
f 46/46/31 47/47/32 45/45/30
f 48/48/32 47/47/32 46/46/31
f 48/48/32 49/49/33 47/47/32
f 50/50/33 49/49/33 48/48/32
f 50/50/33 51/51/34 49/49/33
f 51/51/34 50/50/33 52/52/35
f 52/52/35 53/53/4 51/51/34
f 54/54/36 53/53/4 52/52/35
f 54/54/36 55/55/3 53/53/4
f 56/56/3 55/55/3 54/54/36
f 55/55/3 56/56/3 57/57/37
f 58/58/37 57/57/37 56/56/3
f 57/57/37 58/58/37 59/59/38
f 60/60/38 59/59/38 58/58/37
f 59/59/38 60/60/38 61/61/7
f 60/60/38 62/62/7 61/61/7
f 61/61/7 62/62/7 63/63/39
f 62/62/7 64/64/39 63/63/39
f 63/63/39 64/64/39 65/65/40
f 66/66/40 65/65/40 64/64/39
f 65/65/40 66/66/40 67/67/12
f 68/68/12 67/67/12 66/66/40
f 67/67/12 68/68/12 69/69/13
f 69/69/13 68/68/12 70/70/13
f 69/69/13 70/70/13 71/71/14
f 71/71/14 70/70/13 72/72/41
f 73/73/16 71/71/14 72/72/41
f 73/73/16 72/72/41 74/74/16
f 75/75/42 73/73/16 74/74/16
f 75/75/42 74/74/16 76/76/18
f 75/75/42 76/76/18 77/77/43
f 77/77/43 76/76/18 78/78/43
f 79/79/44 80/80/44 81/81/45
f 81/81/45 80/80/44 82/82/46
f 82/82/46 83/83/47 81/81/45
f 83/83/47 82/82/46 84/84/47
f 84/84/47 85/85/48 83/83/47
f 85/85/48 84/84/47 86/86/48
f 86/86/48 87/87/49 85/85/48
f 87/87/49 86/86/48 88/88/49
f 88/88/49 89/89/50 87/87/49
f 89/89/50 88/88/49 90/90/50
f 90/90/50 91/91/51 89/89/50
f 91/91/51 90/90/50 92/92/51
f 92/92/51 93/93/52 91/91/51
f 93/93/52 92/92/51 94/94/53
f 93/93/52 94/94/53 95/95/54
f 96/96/54 95/95/54 94/94/53
f 95/95/54 96/96/54 97/97/55
f 98/98/56 97/97/55 96/96/54
f 97/97/55 98/98/56 99/99/57
f 100/100/57 99/99/57 98/98/56
f 99/99/57 100/100/57 101/101/58
f 101/101/58 100/100/57 102/102/59
f 101/101/58 102/102/59 103/103/44
f 103/103/44 102/102/59 104/104/44
f 105/105/4 106/106/60 107/107/4
f 105/105/4 108/108/34 106/106/60
f 108/108/34 109/109/33 106/106/60
f 108/108/34 110/110/33 109/109/33
f 110/110/33 111/111/61 109/109/33
f 110/110/33 112/112/61 111/111/61
f 112/112/61 113/113/62 111/111/61
f 112/112/61 114/114/62 113/113/62
f 114/114/62 115/115/29 113/113/62
f 116/116/29 115/115/29 114/114/62
f 116/116/29 117/117/28 115/115/29
f 117/117/28 116/116/29 118/118/28
f 118/118/28 119/119/27 117/117/28
f 119/119/27 118/118/28 120/120/27
f 120/120/27 121/121/25 119/119/27
f 121/121/25 120/120/27 122/122/25
f 122/122/25 123/123/24 121/121/25
f 123/123/24 122/122/25 124/124/24
f 124/124/24 125/125/23 123/123/24
f 125/125/23 124/124/24 126/126/23
f 126/126/23 127/127/21 125/125/23
f 127/127/21 126/126/23 128/128/21
f 129/129/19 127/127/21 128/128/21
f 129/129/19 128/128/21 130/130/19
f 131/131/63 132/132/30 133/133/30
f 131/131/63 133/133/30 134/134/63
f 135/135/33 131/131/63 134/134/63
f 135/135/33 134/134/63 136/136/33
f 136/136/33 137/137/60 135/135/33
f 137/137/60 136/136/33 138/138/60
f 139/139/64 137/137/60 138/138/60
f 139/139/64 138/138/60 140/140/64
f 140/140/64 141/141/3 139/139/64
f 141/141/3 140/140/64 142/142/3
f 143/143/5 141/141/3 142/142/3
f 144/144/5 143/143/5 142/142/3
f 145/145/65 143/143/5 144/144/5
f 144/144/5 146/146/38 145/145/65
f 147/147/7 145/145/65 146/146/38
f 146/146/38 148/148/7 147/147/7
f 149/149/9 147/147/7 148/148/7
f 148/148/7 150/150/9 149/149/9
f 151/151/66 149/149/9 150/150/9
f 150/150/9 152/152/40 151/151/66
f 153/153/12 151/151/66 152/152/40
f 151/151/66 153/153/12 154/154/12
f 153/153/12 155/155/67 154/154/12
f 153/153/12 156/156/67 155/155/67
f 157/157/30 158/158/29 159/159/30
f 160/160/29 158/158/29 157/157/30
f 160/160/29 161/161/28 158/158/29
f 161/161/28 160/160/29 162/162/28
f 162/162/28 163/163/68 161/161/28
f 163/163/68 162/162/28 164/164/68
f 164/164/68 165/165/25 163/163/68
f 165/165/25 164/164/68 166/166/25
f 166/166/25 167/167/69 165/165/25
f 167/167/69 166/166/25 168/168/70
f 168/168/70 169/169/71 167/167/69
f 169/169/71 168/168/70 170/170/23
f 170/170/23 171/171/21 169/169/71
f 171/171/21 170/170/23 172/172/21
f 173/173/19 171/171/21 172/172/21
f 173/173/19 172/172/21 174/174/19
f 175/175/18 173/173/19 174/174/19
f 175/175/18 174/174/19 176/176/72
f 177/177/16 175/175/18 176/176/72
f 177/177/16 176/176/72 178/178/16
f 179/179/41 177/177/16 178/178/16
f 179/179/41 178/178/16 180/180/15
f 181/181/67 179/179/41 180/180/15
f 181/181/67 180/180/15 182/182/67
f 183/183/73 184/184/74 185/185/73
f 186/186/74 184/184/74 183/183/73
f 186/186/74 187/187/75 184/184/74
f 186/186/74 188/188/76 187/187/75
f 189/189/77 187/187/75 188/188/76
f 187/187/75 189/189/77 190/190/77
f 191/191/78 190/190/77 189/189/77
f 190/190/77 191/191/78 192/192/78
f 193/193/79 192/192/78 191/191/78
f 192/192/78 193/193/79 194/194/79
f 194/194/79 193/193/79 195/195/80
f 196/196/80 195/195/80 193/193/79
f 195/195/80 196/196/80 197/197/81
f 198/198/81 197/197/81 196/196/80
f 199/199/82 197/197/81 198/198/81
f 200/200/82 199/199/82 198/198/81
f 201/201/83 199/199/82 200/200/82
f 199/199/82 201/201/83 202/202/83
f 203/203/84 202/202/83 201/201/83
f 202/202/83 203/203/84 204/204/84
f 205/205/85 204/204/84 203/203/84
f 204/204/84 205/205/85 206/206/86
f 206/206/86 205/205/85 207/207/87
f 207/207/87 205/205/85 208/208/87
f 207/207/87 208/208/87 209/209/88
f 209/209/88 208/208/87 210/210/89
f 210/210/89 211/211/90 209/209/88
f 211/211/90 210/210/89 212/212/91
f 213/213/92 211/211/90 212/212/91
f 211/211/90 213/213/92 214/214/92
f 215/215/93 214/214/92 213/213/92
f 214/214/92 215/215/93 216/216/93
f 217/217/94 216/216/93 215/215/93
f 216/216/93 217/217/94 218/218/95
f 217/217/94 219/219/96 218/218/95
f 219/219/96 217/217/94 220/220/96
f 220/220/96 221/221/97 219/219/96
f 221/221/97 220/220/96 222/222/97
f 222/222/97 223/223/98 221/221/97
f 223/223/98 222/222/97 224/224/99
f 225/225/100 223/223/98 224/224/99
f 223/223/98 225/225/100 226/226/100
f 227/227/101 226/226/100 225/225/100
f 226/226/100 227/227/101 228/228/101
f 229/229/102 228/228/101 227/227/101
f 228/228/101 229/229/102 230/230/102
f 229/229/102 231/231/103 230/230/102
f 232/232/73 231/231/103 229/229/102
f 233/233/104 234/234/105 235/235/106
f 233/233/104 235/235/106 236/236/107
f 237/237/108 233/233/104 236/236/107
f 236/236/107 235/235/106 238/238/109
f 237/237/108 236/236/107 239/239/110
f 240/240/111 237/237/108 239/239/110
f 236/236/107 238/238/109 241/241/112
f 239/239/110 236/236/107 241/241/112
f 242/242/113 238/238/109 243/243/114
f 238/238/109 242/242/113 241/241/112
f 244/244/115 241/241/112 242/242/113
f 241/241/112 244/244/115 245/245/116
f 239/239/110 241/241/112 245/245/116
f 246/246/117 245/245/116 244/244/115
f 240/240/111 239/239/110 247/247/118
f 247/247/118 239/239/110 245/245/116
f 248/248/119 240/240/111 247/247/118
f 245/245/116 246/246/117 249/249/120
f 247/247/118 245/245/116 249/249/120
f 250/250/121 249/249/120 246/246/117
f 248/248/119 247/247/118 251/251/122
f 251/251/122 247/247/118 249/249/120
f 252/252/123 248/248/119 251/251/122
f 249/249/120 250/250/121 253/253/124
f 251/251/122 249/249/120 253/253/124
f 254/254/125 253/253/124 250/250/121
f 252/252/123 251/251/122 255/255/126
f 255/255/126 251/251/122 253/253/124
f 252/252/123 255/255/126 256/256/127
f 253/253/124 254/254/125 257/257/128
f 255/255/126 253/253/124 257/257/128
f 258/258/129 257/257/128 254/254/125
f 255/255/126 259/259/130 256/256/127
f 255/255/126 257/257/128 259/259/130
f 256/256/127 259/259/130 260/260/131
f 257/257/128 258/258/129 261/261/132
f 261/261/132 259/259/130 257/257/128
f 262/262/133 261/261/132 258/258/129
f 259/259/130 263/263/134 260/260/131
f 259/259/130 261/261/132 263/263/134
f 260/260/131 263/263/134 264/264/135
f 261/261/132 262/262/133 265/265/136
f 261/261/132 265/265/136 263/263/134
f 266/266/137 265/265/136 262/262/133
f 263/263/134 267/267/138 264/264/135
f 263/263/134 265/265/136 267/267/138
f 264/264/135 267/267/138 268/268/139
f 265/265/136 266/266/137 269/269/140
f 265/265/136 269/269/140 267/267/138
f 270/270/141 269/269/140 266/266/137
f 267/267/138 271/271/142 268/268/139
f 267/267/138 269/269/140 271/271/142
f 268/268/139 271/271/142 272/272/143
f 269/269/140 270/270/141 273/273/144
f 269/269/140 273/273/144 271/271/142
f 274/274/145 273/273/144 270/270/141
f 271/271/142 275/275/146 272/272/143
f 271/271/142 273/273/144 275/275/146
f 272/272/143 275/275/146 276/276/147
f 273/273/144 274/274/145 277/277/148
f 273/273/144 277/277/148 275/275/146
f 278/278/149 277/277/148 274/274/145
f 275/275/146 279/279/150 276/276/147
f 275/275/146 277/277/148 279/279/150
f 276/276/147 280/280/151 281/281/152
f 280/280/151 276/276/147 279/279/150
f 279/279/150 282/282/153 280/280/151
f 283/283/154 282/282/153 278/278/149
f 284/284/155 279/279/150 277/277/148
f 282/282/153 279/279/150 284/284/155
f 277/277/148 278/278/149 284/284/155
f 278/278/149 282/282/153 284/284/155
f 285/285/156 286/286/157 287/287/157
f 287/287/157 288/288/156 285/285/156
f 289/289/158 287/287/157 286/286/157
f 288/288/156 287/287/157 290/290/156
f 287/287/157 289/289/158 291/291/157
f 292/292/156 288/288/156 290/290/156
f 289/289/158 293/293/157 291/291/157
f 294/294/159 292/292/156 290/290/156
f 295/295/160 291/291/157 293/293/157
f 292/292/156 294/294/159 296/296/161
f 291/291/157 295/295/160 297/297/162
f 298/298/163 296/296/161 294/294/159
f 295/295/160 299/299/160 297/297/162
f 300/300/161 298/298/163 294/294/159
f 301/301/164 297/297/162 299/299/160
f 298/298/163 300/300/161 302/302/161
f 297/297/162 301/301/164 303/303/2
f 304/304/165 302/302/161 300/300/161
f 301/301/164 305/305/166 303/303/2
f 300/300/161 306/306/165 304/304/165
f 1/1/1 303/303/2 305/305/166
f 300/300/161 307/307/167 306/306/165
f 303/303/2 1/1/1 3/3/2
f 308/308/165 306/306/165 307/307/167
f 309/309/4 5/5/4 4/4/3
f 310/310/168 308/308/165 307/307/167
f 311/311/169 3/3/2 2/2/2
f 308/308/165 310/310/168 312/312/168
f 3/3/2 311/311/169 313/313/170
f 314/314/171 312/312/168 310/310/168
f 311/311/169 315/315/169 313/313/170
f 316/316/168 314/314/171 310/310/168
f 316/316/168 313/313/170 315/315/169
f 314/314/171 316/316/168 317/317/168
f 316/316/168 315/315/169 318/318/169
f 318/318/169 317/317/168 316/316/168
f 319/319/172 320/320/173 321/321/174
f 321/321/174 322/322/175 319/319/172
f 323/323/176 321/321/174 320/320/173
f 321/321/174 324/324/177 322/322/175
f 321/321/174 323/323/176 325/325/178
f 326/326/179 322/322/175 324/324/177
f 323/323/176 327/327/180 325/325/178
f 324/324/177 328/328/181 326/326/179
f 327/327/180 329/329/182 325/325/178
f 324/324/177 330/330/183 328/328/181
f 329/329/182 327/327/180 331/331/184
f 332/332/185 328/328/181 330/330/183
f 331/331/184 333/333/186 329/329/182
f 330/330/183 334/334/187 332/332/185
f 335/335/188 329/329/182 333/333/186
f 334/334/187 330/330/183 336/336/189
f 335/335/188 333/333/186 337/337/190
f 338/338/191 334/334/187 336/336/189
f 337/337/190 339/339/192 335/335/188
f 340/340/193 338/338/191 336/336/189
f 341/341/194 335/335/188 339/339/192
f 340/340/193 336/336/189 342/342/195
f 335/335/188 341/341/194 343/343/196
f 344/344/197 340/340/193 342/342/195
f 341/341/194 345/345/198 343/343/196
f 342/342/195 346/346/199 344/344/197
f 345/345/198 347/347/200 343/343/196
f 342/342/195 348/348/201 346/346/199
f 345/345/198 349/349/202 347/347/200
f 350/350/203 346/346/199 348/348/201
f 349/349/202 351/351/204 347/347/200
f 352/352/205 350/350/203 348/348/201
f 351/351/204 352/352/205 347/347/200
f 350/350/203 352/352/205 353/353/206
f 352/352/205 351/351/204 354/354/207
f 354/354/207 353/353/206 352/352/205
f 355/355/154 356/356/208 357/357/209
f 358/358/210 356/356/208 355/355/154
f 356/356/208 359/359/211 357/357/209
f 358/358/210 360/360/212 356/356/208
f 361/361/213 360/360/212 358/358/210
f 359/359/211 356/356/208 362/362/214
f 360/360/212 362/362/214 356/356/208
f 362/362/214 363/363/215 359/359/211
f 363/363/215 362/362/214 364/364/216
f 361/361/213 365/365/217 360/360/212
f 366/366/218 365/365/217 361/361/213
f 362/362/214 360/360/212 367/367/219
f 367/367/219 364/364/216 362/362/214
f 365/365/217 367/367/219 360/360/212
f 364/364/216 367/367/219 368/368/220
f 366/366/218 369/369/221 365/365/217
f 370/370/222 369/369/221 366/366/218
f 367/367/219 365/365/217 371/371/223
f 371/371/223 368/368/220 367/367/219
f 369/369/221 371/371/223 365/365/217
f 368/368/220 371/371/223 372/372/224
f 370/370/222 373/373/225 369/369/221
f 374/374/226 373/373/225 370/370/222
f 371/371/223 369/369/221 375/375/227
f 375/375/227 372/372/224 371/371/223
f 373/373/225 375/375/227 369/369/221
f 372/372/224 375/375/227 376/376/228
f 374/374/226 377/377/229 373/373/225
f 377/377/229 374/374/226 378/378/230
f 375/375/227 373/373/225 379/379/231
f 379/379/231 376/376/228 375/375/227
f 377/377/229 379/379/231 373/373/225
f 376/376/228 379/379/231 380/380/232
f 379/379/231 381/381/233 380/380/232
f 381/381/233 379/379/231 382/382/234
f 379/379/231 377/377/229 382/382/234
f 382/382/234 383/383/235 381/381/233
f 378/378/230 384/384/236 377/377/229
f 384/384/236 382/382/234 377/377/229
f 384/384/236 378/378/230 385/385/237
f 383/383/235 382/382/234 386/386/238
f 382/382/234 384/384/236 386/386/238
f 386/386/238 387/387/239 383/383/235
f 385/385/237 388/388/240 384/384/236
f 388/388/240 386/386/238 384/384/236
f 388/388/240 385/385/237 389/389/241
f 387/387/239 386/386/238 390/390/242
f 386/386/238 388/388/240 390/390/242
f 390/390/242 391/391/243 387/387/239
f 389/389/241 392/392/244 388/388/240
f 392/392/244 390/390/242 388/388/240
f 392/392/244 389/389/241 393/393/245
f 391/391/243 390/390/242 394/394/246
f 390/390/242 392/392/244 394/394/246
f 394/394/246 395/395/247 391/391/243
f 393/393/245 396/396/248 392/392/244
f 396/396/248 394/394/246 392/392/244
f 396/396/248 393/393/245 397/397/249
f 395/395/247 394/394/246 398/398/250
f 394/394/246 396/396/248 398/398/250
f 398/398/250 399/399/251 395/395/247
f 397/397/249 400/400/252 396/396/248
f 400/400/252 398/398/250 396/396/248
f 400/400/252 397/397/249 401/401/253
f 402/402/114 400/400/252 401/401/253
f 400/400/252 402/402/114 403/403/109
f 404/404/106 400/400/252 403/403/109
f 399/399/251 398/398/250 405/405/254
f 398/398/250 400/400/252 405/405/254
f 404/404/106 405/405/254 400/400/252
f 406/406/105 399/399/251 405/405/254
f 406/406/105 405/405/254 404/404/106
f 407/407/255 408/408/256 409/409/256
f 410/410/257 408/408/256 407/407/255
f 409/409/256 408/408/256 411/411/258
f 408/408/256 410/410/257 412/412/256
f 409/409/256 411/411/258 413/413/259
f 414/414/260 412/412/256 410/410/257
f 415/415/259 413/413/259 411/411/258
f 412/412/256 414/414/260 416/416/256
f 413/413/259 415/415/259 417/417/256
f 414/414/260 418/418/260 416/416/256
f 419/419/261 417/417/256 415/415/259
f 418/418/260 414/414/260 420/420/256
f 421/421/256 417/417/256 419/419/261
f 418/418/260 420/420/256 422/422/262
f 423/423/256 421/421/256 419/419/261
f 422/422/262 420/420/256 424/424/256
f 425/425/256 421/421/256 423/423/256
f 426/426/256 422/422/262 424/424/256
f 421/421/256 425/425/256 427/427/256
f 422/422/262 426/426/256 428/428/263
f 425/425/256 429/429/264 427/427/256
f 430/430/265 428/428/263 426/426/256
f 429/429/264 425/425/256 431/431/265
f 428/428/263 430/430/265 432/432/266
f 431/431/265 433/433/267 429/429/264
f 434/434/265 432/432/266 430/430/265
f 433/433/267 431/431/265 435/435/256
f 432/432/266 434/434/265 436/436/256
f 437/437/268 433/433/267 435/435/256
f 438/438/256 436/436/256 434/434/265
f 433/433/267 437/437/268 439/439/256
f 436/436/256 438/438/256 440/440/269
f 439/439/256 437/437/268 441/441/256
f 438/438/256 442/442/256 440/440/269
f 441/441/256 437/437/268 443/443/256
f 442/442/256 438/438/256 444/444/269
f 445/445/256 441/441/256 443/443/256
f 444/444/269 446/446/256 442/442/256
f 441/441/256 445/445/256 447/447/256
f 446/446/256 444/444/269 448/448/270
f 447/447/256 445/445/256 449/449/256
f 450/450/256 446/446/256 448/448/270
f 451/451/256 449/449/256 445/445/256
f 446/446/256 450/450/256 452/452/256
f 453/453/256 449/449/256 451/451/256
f 452/452/256 450/450/256 453/453/256
f 449/449/256 453/453/256 454/454/255
f 453/453/256 450/450/256 454/454/255
f 455/455/271 456/456/272 457/457/272
f 458/458/272 455/455/271 457/457/272
f 456/456/272 455/455/271 459/459/272
f 455/455/271 458/458/272 460/460/272
f 459/459/272 461/461/272 456/456/272
f 462/462/272 460/460/272 458/458/272
f 461/461/272 459/459/272 463/463/272
f 460/460/272 462/462/272 464/464/272
f 463/463/272 465/465/273 461/461/272
f 466/466/273 464/464/272 462/462/272
f 465/465/273 463/463/272 467/467/273
f 464/464/272 466/466/273 468/468/273
f 467/467/273 469/469/274 465/465/273
f 470/470/275 468/468/273 466/466/273
f 469/469/274 467/467/273 471/471/276
f 468/468/273 470/470/275 472/472/275
f 469/469/274 471/471/276 473/473/276
f 474/474/277 472/472/275 470/470/275
f 473/473/276 471/471/276 475/475/274
f 472/472/275 474/474/277 476/476/275
f 477/477/278 473/473/276 475/475/274
f 478/478/275 476/476/275 474/474/277
f 479/479/274 477/477/278 475/475/274
f 476/476/275 478/478/275 480/480/277
f 481/481/276 477/477/278 479/479/274
f 482/482/277 480/480/277 478/478/275
f 483/483/274 481/481/276 479/479/274
f 480/480/277 482/482/277 484/484/275
f 485/485/276 481/481/276 483/483/274
f 486/486/275 484/484/275 482/482/277
f 483/483/274 487/487/276 485/485/276
f 484/484/275 486/486/275 488/488/275
f 489/489/279 485/485/276 487/487/276
f 490/490/280 488/488/275 486/486/275
f 487/487/276 491/491/279 489/489/279
f 488/488/275 490/490/280 492/492/280
f 491/491/279 493/493/281 489/489/279
f 494/494/282 492/492/280 490/490/280
f 493/493/281 491/491/279 495/495/282
f 492/492/280 494/494/282 496/496/282
f 495/495/282 497/497/281 493/493/281
f 498/498/283 496/496/282 494/494/282
f 497/497/281 495/495/282 499/499/284
f 496/496/282 498/498/283 500/500/285
f 499/499/284 501/501/286 497/497/281
f 501/501/286 500/500/285 498/498/283
f 501/501/286 499/499/284 502/502/287
f 500/500/285 501/501/286 502/502/287
f 503/503/256 504/504/256 505/505/256
f 504/504/256 506/506/256 505/505/256
f 504/504/256 503/503/256 507/507/256
f 508/508/256 506/506/256 504/504/256
f 509/509/256 507/507/256 503/503/256
f 506/506/256 508/508/256 510/510/256
f 507/507/256 509/509/256 511/511/256
f 508/508/256 512/512/256 510/510/256
f 513/513/256 511/511/256 509/509/256
f 510/510/256 512/512/256 514/514/256
f 511/511/256 513/513/256 515/515/256
f 512/512/256 516/516/256 514/514/256
f 517/517/256 515/515/256 513/513/256
f 518/518/256 514/514/256 516/516/256
f 515/515/256 517/517/256 519/519/256
f 516/516/256 520/520/256 518/518/256
f 521/521/256 519/519/256 517/517/256
f 522/522/256 518/518/256 520/520/256
f 519/519/256 521/521/256 523/523/256
f 522/522/256 520/520/256 524/524/256
f 525/525/256 523/523/256 521/521/256
f 526/526/256 522/522/256 524/524/256
f 523/523/256 525/525/256 527/527/256
f 526/526/256 524/524/256 528/528/256
f 529/529/256 527/527/256 525/525/256
f 528/528/256 530/530/256 526/526/256
f 527/527/256 529/529/256 531/531/256
f 530/530/256 528/528/256 532/532/256
f 533/533/256 531/531/256 529/529/256
f 532/532/256 534/534/256 530/530/256
f 531/531/256 533/533/256 535/535/256
f 534/534/256 532/532/256 536/536/256
f 537/537/256 535/535/256 533/533/256
f 536/536/256 538/538/256 534/534/256
f 535/535/256 537/537/256 539/539/256
f 540/540/256 538/538/256 536/536/256
f 541/541/256 539/539/256 537/537/256
f 540/540/256 542/542/256 538/538/256
f 539/539/256 541/541/256 543/543/256
f 540/540/256 544/544/256 542/542/256
f 545/545/256 543/543/256 541/541/256
f 542/542/256 544/544/256 546/546/256
f 543/543/256 545/545/256 547/547/256
f 544/544/256 548/548/256 546/546/256
f 549/549/256 547/547/256 545/545/256
f 549/549/256 546/546/256 548/548/256
f 547/547/256 549/549/256 550/550/256
f 549/549/256 548/548/256 550/550/256
f 551/551/272 552/552/272 553/553/272
f 554/554/272 551/551/272 553/553/272
f 552/552/272 551/551/272 555/555/272
f 551/551/272 554/554/272 556/556/271
f 555/555/272 557/557/273 552/552/272
f 558/558/271 556/556/271 554/554/272
f 557/557/273 555/555/272 559/559/273
f 556/556/271 558/558/271 560/560/272
f 559/559/273 561/561/276 557/557/273
f 562/562/272 560/560/272 558/558/271
f 561/561/276 559/559/273 563/563/276
f 560/560/272 562/562/272 564/564/272
f 561/561/276 563/563/276 565/565/276
f 566/566/273 564/564/272 562/562/272
f 565/565/276 563/563/276 567/567/276
f 564/564/272 566/566/273 568/568/288
f 565/565/276 567/567/276 569/569/276
f 570/570/275 568/568/288 566/566/273
f 571/571/276 569/569/276 567/567/276
f 568/568/288 570/570/275 572/572/275
f 569/569/276 571/571/276 573/573/276
f 574/574/275 572/572/275 570/570/275
f 575/575/276 573/573/276 571/571/276
f 572/572/275 574/574/275 576/576/275
f 577/577/276 573/573/276 575/575/276
f 578/578/277 576/576/275 574/574/275
f 579/579/276 577/577/276 575/575/276
f 576/576/275 578/578/277 580/580/275
f 579/579/276 581/581/273 577/577/276
f 582/582/275 580/580/275 578/578/277
f 583/583/273 581/581/273 579/579/276
f 580/580/275 582/582/275 584/584/275
f 583/583/273 585/585/282 581/581/273
f 586/586/277 584/584/275 582/582/275
f 585/585/282 583/583/273 587/587/282
f 584/584/275 586/586/277 588/588/275
f 587/587/282 589/589/282 585/585/282
f 590/590/273 588/588/275 586/586/277
f 589/589/282 587/587/282 591/591/282
f 588/588/275 590/590/273 592/592/273
f 591/591/282 593/593/282 589/589/282
f 594/594/282 592/592/273 590/590/273
f 593/593/282 591/591/282 595/595/282
f 592/592/273 594/594/282 596/596/282
f 593/593/282 595/595/282 597/597/282
f 597/597/282 596/596/282 594/594/282
f 597/597/282 595/595/282 598/598/282
f 596/596/282 597/597/282 598/598/282
