# Blender v2.83.0 OBJ File: ''
# www.blender.org
mtllib trumpet_2.mtl
v 0.566433 0.137099 -2.977477
v -0.630930 0.087394 2.559082
v -0.638012 0.148456 2.558099
v -0.326660 0.243833 2.626289
v -0.292514 0.127829 2.632633
v -0.299596 0.188891 2.631649
v 0.573105 0.257980 -2.974949
v -0.624259 0.208275 2.561610
v -0.591327 0.259634 2.569193
v 0.606036 0.309340 -2.967366
v -0.543191 0.296340 2.579933
v 0.654172 0.346046 -2.956626
v -0.485655 0.313965 2.592534
v 0.711707 0.363671 -2.944025
v -0.425660 0.310383 2.605477
v 0.771703 0.360089 -2.931082
v -0.370442 0.286027 2.617200
v 0.826921 0.335732 -2.919359
v -0.326660 0.243833 2.626289
v 0.870703 0.293539 -2.910269
v -0.299596 0.188891 2.631649
v 0.897767 0.238597 -2.904910
v -0.292514 0.127829 2.632633
v 0.904849 0.177534 -2.903926
v -0.306268 0.068010 2.629121
v 0.891096 0.117716 -2.907438
v -0.339199 0.016651 2.621538
v 0.858164 0.066356 -2.915021
v -0.387335 -0.020055 2.610799
v 0.810028 0.029650 -2.925761
v -0.444870 -0.037680 2.598197
v 0.752492 0.012025 -2.938362
v -0.504866 -0.034098 2.585255
v 0.692497 0.015607 -2.951304
v -0.560084 -0.009741 2.573532
v 0.637279 0.039964 -2.963027
v -0.603866 0.032452 2.564442
v 0.593497 0.082158 -2.972117
v -0.624259 0.208275 2.561610
v -0.638012 0.148456 2.558099
v -0.630930 0.087394 2.559082
v 0.559351 0.198162 -2.978460
v -0.624259 0.208275 2.561610
v 0.573105 0.257980 -2.974949
v -0.339199 0.016651 2.621538
v -0.306268 0.068010 2.629121
v -0.292514 0.127829 2.632633
v -0.326660 0.243833 2.626289
v -0.444870 -0.037680 2.598197
v -0.387335 -0.020055 2.610799
v -0.560084 -0.009741 2.573532
v -0.504866 -0.034098 2.585255
v -0.630930 0.087394 2.559082
v -0.603866 0.032452 2.564442
v -0.624259 0.208275 2.561610
v -0.370442 0.286027 2.617200
v -0.425660 0.310383 2.605477
v -0.543191 0.296340 2.579933
v -0.485655 0.313965 2.592534
v -0.591327 0.259634 2.569193
v 0.711707 0.363671 -2.944025
v 0.771703 0.360089 -2.931082
v 0.826921 0.335732 -2.919359
v 0.870703 0.293539 -2.910269
v 0.897767 0.238597 -2.904910
v 0.606036 0.309340 -2.967366
v 0.654172 0.346046 -2.956626
v 0.904849 0.177534 -2.903926
v 0.891096 0.117716 -2.907438
v 0.559351 0.198162 -2.978460
v 0.573105 0.257980 -2.974949
v 0.810028 0.029650 -2.925761
v 0.858164 0.066356 -2.915021
v 0.593497 0.082158 -2.972117
v 0.566433 0.137099 -2.977477
v 0.692497 0.015607 -2.951304
v 0.752492 0.012025 -2.938362
v 0.637279 0.039964 -2.963027
vt 0.680700 0.000500
vt 0.680700 2.002000
vt 0.663600 2.002000
vt 0.776400 0.764200
vt 0.775400 0.769400
vt 0.775400 0.766700
vt 0.959000 0.000500
vt 0.959000 2.002000
vt 0.941400 2.002000
vt 0.941400 0.000500
vt 0.924300 2.002000
vt 0.924300 0.000500
vt 0.906700 2.002000
vt 0.906700 0.000500
vt 0.889600 2.002000
vt 0.889600 0.000500
vt 0.872100 2.002000
vt 0.872100 0.000500
vt 0.854500 2.002000
vt 0.854500 0.000500
vt 0.837400 2.002000
vt 0.837400 0.000500
vt 0.819800 2.002000
vt 0.819800 0.000500
vt 0.802200 2.002000
vt 0.802200 0.000500
vt 0.785200 2.002000
vt 0.785200 0.000500
vt 0.767600 2.002000
vt 0.767600 0.000500
vt 0.750500 2.002000
vt 0.750500 0.000500
vt 0.732900 2.002000
vt 0.732900 0.000500
vt 0.715300 2.002000
vt 0.715300 0.000500
vt 0.698200 2.002000
vt 0.698200 0.000500
vt 0.789600 0.764200
vt 0.790500 0.766700
vt 0.790500 0.769400
vt 0.663600 0.000500
vt 0.646000 2.002000
vt 0.646000 0.000500
vt 0.777800 0.773900
vt 0.776400 0.771900
vt 0.775400 0.769400
vt 0.776400 0.764200
vt 0.782700 0.775600
vt 0.780300 0.775300
vt 0.788100 0.773900
vt 0.785600 0.775300
vt 0.790500 0.769400
vt 0.789600 0.771900
vt 0.789600 0.764200
vt 0.777800 0.762200
vt 0.780300 0.760900
vt 0.785600 0.760900
vt 0.782700 0.760400
vt 0.788100 0.762200
vt 0.798800 0.760400
vt 0.801300 0.760900
vt 0.803700 0.762200
vt 0.805700 0.764200
vt 0.806200 0.766700
vt 0.793900 0.762200
vt 0.796400 0.760900
vt 0.806200 0.769400
vt 0.805700 0.771900
vt 0.791500 0.766700
vt 0.792000 0.764200
vt 0.801300 0.775300
vt 0.803700 0.773900
vt 0.792000 0.771900
vt 0.791500 0.769400
vt 0.796400 0.775300
vt 0.798800 0.775600
vt 0.793900 0.773900
vn -0.9358 -0.2867 -0.2050
vn -0.9361 -0.2858 -0.2050
vn -0.9759 0.0575 -0.2105
vn -0.2114 -0.0088 0.9774
vn -0.8995 0.3930 -0.1910
vn -0.7147 0.6835 -0.1484
vn -0.4388 0.8944 -0.0868
vn -0.4387 0.8944 -0.0868
vn -0.1152 0.9932 -0.0160
vn 0.2221 0.9734 0.0568
vn 0.2219 0.9734 0.0567
vn 0.5387 0.8333 0.1240
vn 0.7850 0.5942 0.1751
vn 0.7850 0.5943 0.1751
vn 0.9358 0.2867 0.2050
vn 0.9361 0.2859 0.2050
vn 0.9759 -0.0583 0.2105
vn 0.8968 -0.3994 0.1904
vn 0.8968 -0.3993 0.1904
vn 0.7146 -0.6836 0.1484
vn 0.4388 -0.8944 0.0869
vn 0.4384 -0.8946 0.0868
vn 0.1152 -0.9932 0.0160
vn -0.2218 -0.9734 -0.0567
vn -0.2220 -0.9734 -0.0567
vn -0.5388 -0.8333 -0.1240
vn -0.5387 -0.8334 -0.1240
vn -0.7850 -0.5942 -0.1751
vn -0.7809 -0.5998 -0.1743
vn -0.2113 -0.0088 0.9774
vn -0.9759 0.0583 -0.2105
vn -0.2114 -0.0087 0.9774
vn 0.2114 0.0088 -0.9774
vn 0.2115 0.0088 -0.9773
usemtl /Game/SpaceshipInterior/Materials/MI_Scifi_Pipe_01_MI_Scifi.001
s 1
f 1/1/1 2/2/2 3/3/3
f 4/4/4 5/5/4 6/6/4
f 7/7/5 8/8/5 9/9/6
f 9/9/6 10/10/6 7/7/5
f 10/10/6 9/9/6 11/11/7
f 11/11/7 12/12/8 10/10/6
f 12/12/8 11/11/7 13/13/9
f 13/13/9 14/14/9 12/12/8
f 14/14/9 13/13/9 15/15/10
f 15/15/10 16/16/11 14/14/9
f 16/16/11 15/15/10 17/17/12
f 17/17/12 18/18/12 16/16/11
f 18/18/12 17/17/12 19/19/13
f 19/19/13 20/20/14 18/18/12
f 20/20/14 19/19/13 21/21/15
f 21/21/15 22/22/16 20/20/14
f 22/22/16 21/21/15 23/23/17
f 23/23/17 24/24/17 22/22/16
f 24/24/17 23/23/17 25/25/18
f 25/25/18 26/26/19 24/24/17
f 26/26/19 25/25/18 27/27/20
f 27/27/20 28/28/20 26/26/19
f 28/28/20 27/27/20 29/29/21
f 29/29/21 30/30/22 28/28/20
f 30/30/22 29/29/21 31/31/23
f 31/31/23 32/32/23 30/30/22
f 32/32/23 31/31/23 33/33/24
f 33/33/24 34/34/25 32/32/23
f 34/34/25 33/33/24 35/35/26
f 35/35/26 36/36/27 34/34/25
f 36/36/27 35/35/26 37/37/28
f 37/37/28 38/38/29 36/36/27
f 38/38/29 37/37/28 2/2/2
f 2/2/2 1/1/1 38/38/29
f 39/39/30 40/40/30 41/41/30
f 3/3/3 42/42/31 1/1/1
f 42/42/31 3/3/3 43/43/5
f 43/43/5 44/44/5 42/42/31
f 45/45/4 46/46/4 47/47/4
f 48/48/4 45/45/4 47/47/4
f 49/49/4 50/50/32 45/45/4
f 51/51/4 49/49/4 45/45/4
f 51/51/4 52/52/4 49/49/4
f 48/48/4 51/51/4 45/45/4
f 53/53/4 54/54/4 51/51/4
f 55/55/4 53/53/4 51/51/4
f 48/48/4 55/55/4 51/51/4
f 48/48/4 56/56/4 57/57/4
f 48/48/4 57/57/4 55/55/4
f 57/57/4 58/58/4 55/55/4
f 57/57/4 59/59/4 58/58/4
f 58/58/4 60/60/4 55/55/4
f 61/61/33 62/62/33 63/63/33
f 63/63/33 64/64/33 65/65/33
f 61/61/33 63/63/33 65/65/33
f 66/66/33 67/67/33 61/61/33
f 66/66/33 61/61/33 65/65/33
f 65/65/33 68/68/34 69/69/33
f 66/66/33 70/70/33 71/71/33
f 65/65/33 69/69/33 72/72/33
f 66/66/33 65/65/33 72/72/33
f 69/69/33 73/73/33 72/72/33
f 66/66/33 74/74/33 70/70/33
f 66/66/33 72/72/33 74/74/33
f 74/74/33 75/75/33 70/70/33
f 72/72/33 76/76/33 74/74/33
f 72/72/33 77/77/33 76/76/33
f 76/76/33 78/78/33 74/74/33
