# Blender v2.82 (sub 7) OBJ File: ''
# www.blender.org
o Head
v 0.216391 2.066951 0.085755
v 0.142106 2.089729 -0.022996
v 0.094551 2.066951 0.085755
v 0.258384 1.964764 0.304895
v 0.216391 1.778688 0.365177
v 0.258384 1.786096 0.321887
v 0.216391 2.033995 0.296642
v 0.216391 1.982337 0.345320
v 0.256609 2.036820 0.069538
v 0.216391 2.089729 -0.022996
v -0.216391 1.982337 0.345321
v -0.216391 1.778688 0.365178
v 0.259128 2.001622 0.270382
v -0.206478 1.771878 0.357887
v 0.272065 1.958323 0.044423
v 0.272065 1.808532 0.036179
v 0.000000 1.687623 0.402909
v 0.072130 1.486582 0.366745
v 0.098780 1.698493 0.387761
v 0.216391 1.752632 0.351932
v 0.256609 1.509784 0.295790
v 0.259163 1.765499 0.301219
v 0.216391 1.499139 0.328682
v 0.256609 1.652546 0.028497
v 0.256609 1.784261 0.038805
v 0.177061 1.780520 0.334205
v 0.186626 1.720025 0.307939
v 0.177061 1.720025 0.307939
v 0.179700 1.772548 0.336389
v 0.179700 1.716650 0.328307
v 0.179700 1.722151 0.315214
v 0.158363 1.702901 0.322530
v 0.158363 1.708402 0.309437
v 0.158363 1.786297 0.342165
v 0.179700 1.767047 0.349481
v -0.158363 1.780796 0.355259
v -0.158363 1.786297 0.342166
v 0.181844 1.719602 0.317494
v -0.158363 1.702901 0.322531
v 0.122348 1.458650 0.377830
v 0.166513 1.530214 0.333242
v 0.198729 1.647894 0.342107
v 0.100882 1.430755 0.381781
v 0.134187 1.449274 0.348379
v 0.000000 1.413276 0.356011
v 0.107683 1.416641 0.353001
v 0.089743 1.450546 0.378978
v 0.000000 1.427389 0.384792
v 0.102959 1.470684 0.376126
v 0.175846 1.647894 0.342107
v -0.252179 2.037742 0.027788
v 0.252179 2.002184 0.253828
v 0.252179 2.037742 0.027787
v -0.252179 1.899878 -0.250533
v 0.252180 1.497822 -0.250534
v -0.252180 1.497822 -0.250533
v -0.252180 1.497822 0.253829
v 0.252180 1.497822 0.253828
v 0.247559 1.779124 0.315536
v 0.260941 1.947608 0.042940
v 0.133808 2.076157 -0.023013
v 0.087774 2.034285 0.083373
v 0.260941 1.801073 0.034876
v 0.245822 2.043954 -0.034219
v 0.256609 2.056810 -0.034451
v 0.245822 2.024399 0.067509
v 0.206478 2.076157 -0.023013
v 0.221307 1.511019 0.255900
v 0.240511 1.652465 0.011807
v 0.240511 1.782965 0.022020
v 0.200663 1.751628 0.332754
v 0.088341 1.697869 0.368298
v 0.241776 1.763701 0.290026
v 0.000000 1.486130 0.368975
v 0.000000 1.493177 0.268316
v 0.000000 1.687218 0.383260
v 0.000000 1.447181 0.351352
v 0.000000 1.447181 0.381988
v 0.089743 1.450546 0.348341
v 0.132968 1.543644 0.331483
v 0.102959 1.470684 0.345489
v 0.206478 2.027031 0.059253
v 0.186626 1.780520 0.334205
v 0.181844 1.790690 0.356792
v 0.181844 1.774447 0.341595
v 0.186626 1.798121 0.350770
v 0.177061 1.798121 0.350770
v 0.177061 1.683036 0.324426
v 0.186626 1.683036 0.324426
v 0.181844 1.687572 0.332847
v 0.000000 1.677557 0.363710
v 0.034257 1.686674 0.359216
v 0.034189 1.677109 0.359235
v 0.000000 1.682295 0.391098
v 0.045694 1.681889 0.388312
v 0.074144 1.686674 0.346467
v 0.074076 1.677109 0.346486
v 0.097359 1.681889 0.365196
v 0.080141 1.686674 0.341290
v 0.080109 1.677109 0.341354
v 0.116363 1.715039 0.304808
v 0.099145 1.721104 0.283632
v 0.099113 1.712649 0.279162
v 0.252179 1.899878 0.253828
v -0.252179 1.899878 0.253829
v 0.252179 1.899878 -0.250534
v 0.252179 2.002184 -0.250534
v -0.157376 1.931587 -0.248814
v 0.141797 1.914219 -0.273067
v -0.141797 1.914219 -0.273066
v -0.157376 1.661643 -0.248814
v 0.141797 1.679011 -0.273067
v 0.157376 1.661643 -0.248815
v -0.252179 2.002184 -0.250533
v -0.252179 2.002184 0.253829
v -0.142106 2.089729 -0.022995
v -0.216391 2.066951 0.085756
v -0.094551 2.066951 0.085756
v -0.258384 1.964764 0.304896
v -0.258384 1.786096 0.321888
v -0.216391 2.033995 0.296643
v -0.216391 2.089729 -0.022995
v -0.256609 2.036820 0.069539
v -0.259128 2.001622 0.270383
v -0.272065 1.958323 0.044424
v -0.272065 1.808532 0.036180
v -0.072130 1.486582 0.366745
v -0.216391 1.752632 0.351933
v -0.256609 1.509784 0.295791
v -0.216391 1.499139 0.328683
v -0.098780 1.698493 0.387762
v -0.259163 1.765499 0.301220
v -0.256609 1.652546 0.028498
v -0.186626 1.720025 0.307940
v -0.177061 1.780520 0.334206
v -0.177061 1.720025 0.307940
v -0.179700 1.716650 0.328308
v -0.179700 1.772548 0.336390
v -0.179700 1.722151 0.315215
v -0.158363 1.708402 0.309438
v -0.179700 1.767047 0.349482
v -0.181844 1.719602 0.317495
v -0.181844 1.774447 0.341596
v -0.166513 1.530214 0.333243
v -0.122348 1.458650 0.377830
v -0.198729 1.647894 0.342108
v -0.134187 1.449274 0.348379
v -0.100882 1.430755 0.381781
v -0.089743 1.450546 0.378978
v -0.102959 1.470684 0.376126
v -0.175846 1.647894 0.342108
v -0.247559 1.779124 0.315537
v -0.260941 1.947608 0.042941
v -0.133808 2.076157 -0.023012
v -0.245822 2.043954 -0.034218
v -0.256609 2.056810 -0.034450
v -0.245822 2.024399 0.067510
v -0.206478 2.076157 -0.023012
v -0.221307 1.511019 0.255901
v -0.240511 1.782965 0.022021
v -0.256609 1.784261 0.038806
v -0.200663 1.751628 0.332755
v -0.241776 1.763701 0.290027
v -0.088341 1.697869 0.368299
v -0.089743 1.450546 0.348341
v -0.132968 1.543644 0.331484
v -0.107683 1.416641 0.353001
v -0.102959 1.470684 0.345489
v -0.206478 2.027031 0.059254
v -0.087774 2.034285 0.083374
v -0.186626 1.780520 0.334206
v -0.181844 1.790690 0.356793
v -0.186626 1.798121 0.350771
v -0.177061 1.683036 0.324427
v -0.186626 1.683036 0.324427
v -0.034257 1.686674 0.359216
v -0.034189 1.677109 0.359235
v 0.000000 1.687122 0.363710
v -0.074144 1.686674 0.346467
v -0.045694 1.681889 0.388312
v -0.074076 1.677109 0.346486
v -0.097359 1.681889 0.365196
v -0.085582 1.681889 0.375563
v -0.080109 1.677109 0.341354
v -0.080141 1.686674 0.341290
v -0.116363 1.715039 0.304808
v -0.099113 1.712649 0.279162
v -0.141797 1.679011 -0.273066
v 0.206478 1.771878 0.357886
v 0.158363 1.780796 0.355258
v 0.085582 1.681889 0.375562
v 0.157376 1.931587 -0.248815
v -0.260941 1.801073 0.034877
v -0.240511 1.652465 0.011808
v -0.177061 1.798121 0.350771
v -0.181844 1.687572 0.332848
v -0.099145 1.721104 0.283633
v 0.188513 0.144129 0.146784
v 0.252195 0.199284 0.129340
v 0.170004 0.201799 0.146784
v 0.065747 0.144129 0.146784
v 0.128910 0.196320 0.146784
v -0.001496 0.199284 0.129340
v -0.001496 0.133825 0.129340
v 0.062381 0.307358 0.150894
v 0.083523 0.201936 0.146784
v 0.093570 0.276764 0.163507
v 0.123176 0.271209 0.163591
v 0.189469 0.316528 0.152765
v 0.152783 0.276287 0.165844
v 0.125925 0.299324 0.149254
v 0.254264 0.313266 0.129340
v -0.001496 0.297811 0.129340
v 0.194568 0.077816 0.166349
v 0.059691 0.077816 0.166349
v -0.003342 0.370989 0.128128
v 0.123984 0.370879 0.178983
v 0.255044 0.370989 0.130801
v 0.172551 0.381347 0.174207
v 0.078559 0.380310 0.178983
v 0.124223 0.415382 0.183329
v 0.124223 0.455764 0.182052
v 0.202191 0.492856 0.143389
v 0.123683 0.520937 0.146226
v 0.045174 0.480937 0.153790
v -0.001496 0.037076 0.148905
v 0.252195 0.133825 0.129340
v 0.255833 0.370989 -0.129692
v 0.267215 0.370989 0.079544
v 0.273455 0.311446 0.078996
v 0.260575 0.028310 0.078996
v 0.260575 0.037536 -0.131044
v 0.265405 0.200361 0.078996
v 0.252195 0.024116 0.148905
v 0.193969 0.033269 0.192325
v 0.059092 0.033269 0.192325
v 0.260575 -0.001782 -0.131044
v 0.252195 -0.001782 0.148905
v 0.193869 -0.001782 0.192767
v 0.127131 -0.001782 -0.151418
v -0.003657 0.037536 -0.131996
v 0.127131 0.037536 -0.151418
v -0.004362 0.370989 -0.129692
v 0.156052 0.370989 -0.141689
v -0.001496 -0.001778 0.148905
v 0.059691 -0.001782 0.192767
v -0.003657 -0.001782 -0.131996
v 0.059333 1.176910 0.208032
v 0.000000 1.273291 0.184863
v 0.000000 1.176910 0.198618
v 0.058714 0.904601 0.185466
v 0.000000 0.904601 0.176052
v 0.141941 0.904601 0.179122
v 0.151355 1.177890 0.197689
v 0.070767 1.269392 0.196711
v 0.204234 1.318479 0.200185
v 0.074258 1.425488 0.201494
v 0.070767 1.345614 0.216203
v 0.000000 1.349513 0.200185
v 0.282159 1.329073 0.145683
v 0.232788 1.381782 0.185643
v 0.278251 1.294387 0.141739
v 0.176840 1.246080 0.183690
v 0.262325 1.220418 0.130293
v 0.235218 1.197416 0.153222
v 0.197666 1.169316 0.164179
v 0.257690 0.904601 0.134576
v 0.274424 0.904601 0.075985
v 0.287148 1.274008 -0.068952
v 0.268791 1.410867 -0.156360
v 0.280246 1.358337 0.138929
v 0.255976 1.471283 0.149978
v 0.275976 0.904601 -0.062191
v 0.195486 0.904601 0.156241
v 0.165432 1.295336 -0.191504
v 0.092294 1.325352 -0.245758
v 0.128391 1.394665 -0.197543
v 0.077405 1.181567 -0.230180
v 0.124368 1.151410 -0.182753
v 0.000000 1.100840 -0.189014
v 0.000000 1.310457 -0.244852
v 0.000000 1.152927 -0.230759
v 0.073980 1.339100 -0.238353
v 0.000000 1.431167 -0.199762
v 0.000000 1.354864 -0.237632
v 0.255125 0.904601 -0.140572
v 0.081776 0.907340 -0.157769
v 0.264573 1.288734 -0.155353
v 0.000000 1.505796 0.183558
v 0.000000 1.428425 0.184955
v 0.000000 1.546856 -0.151969
v 0.253175 1.504924 0.137257
v 0.253074 1.511781 -0.138990
v 0.000000 1.431154 -0.193663
v -0.059333 1.176910 0.208032
v -0.070767 1.269392 0.196711
v -0.058714 0.904601 0.185466
v -0.141941 0.904601 0.179122
v -0.151355 1.177890 0.197689
v -0.176840 1.246080 0.183690
v -0.204234 1.318479 0.200185
v -0.074258 1.425488 0.201494
v -0.232788 1.381782 0.185643
v -0.070767 1.345614 0.216203
v -0.282159 1.329073 0.145683
v -0.278251 1.294387 0.141739
v -0.262325 1.220418 0.130293
v -0.235218 1.197416 0.153222
v -0.197666 1.169316 0.164179
v -0.257690 0.904601 0.134576
v -0.274424 0.904601 0.075985
v -0.287148 1.274008 -0.068952
v -0.255976 1.471283 0.149978
v -0.280246 1.358337 0.138929
v -0.275976 0.904601 -0.062191
v -0.268791 1.410867 -0.156360
v -0.195486 0.904601 0.156241
v -0.165432 1.295336 -0.191504
v -0.128391 1.394665 -0.197543
v -0.092294 1.325352 -0.245758
v -0.077405 1.181567 -0.230180
v -0.073980 1.339100 -0.238353
v -0.124368 1.151410 -0.182753
v -0.081776 0.907340 -0.157769
v -0.255125 0.904601 -0.140572
v -0.264573 1.288734 -0.155353
v -0.253175 1.504924 0.137257
v -0.253074 1.511781 -0.138990
v 0.000000 0.906961 -0.155397
v 0.523785 1.431430 0.000000
v 0.500575 1.501726 -0.133908
v 0.509767 1.510344 0.000000
v 0.457312 1.537575 0.000000
v 0.500575 1.501726 0.133908
v 0.503406 1.426882 0.135286
v 0.453865 1.527234 0.133908
v 0.464206 1.367040 0.125574
v 0.500575 1.349645 0.125574
v 0.500575 1.349645 -0.125574
v 0.502298 1.349645 0.000000
v 0.383937 1.528613 0.133908
v 0.453865 1.527234 -0.133908
v 0.290107 1.527431 0.000000
v 0.383937 1.528613 -0.133908
v 0.246620 1.509876 -0.125574
v 0.385086 1.538954 0.000000
v 0.464206 1.367040 -0.125574
v 0.503406 1.426882 -0.131061
v 0.246620 1.509876 0.125574
v 0.248036 1.114063 -0.125574
v 0.506864 1.114063 -0.125574
v 0.505775 1.114063 0.125574
v 0.523815 1.121929 -0.047551
v 0.248078 1.114063 0.125574
v 0.243276 1.113583 0.131664
v 0.500574 0.748280 0.125574
v 0.510300 1.113583 0.131664
v 0.299180 1.088246 -0.144646
v 0.245610 1.125408 -0.128575
v 0.382390 1.166858 -0.128575
v 0.476360 1.089625 -0.129996
v 0.511429 1.125408 -0.128575
v 0.500574 0.748280 -0.125574
v 0.249426 0.748280 -0.125574
v 0.243235 1.124688 -0.128575
v 0.528993 1.121734 -0.047727
v 0.387855 1.120408 -0.155446
v 0.249426 0.748280 0.125574
v 0.201338 0.491688 0.141902
v 0.253413 0.371613 0.129499
v 0.260702 0.595282 0.141229
v 0.157347 0.618200 0.153759
v 0.123984 0.519356 0.144697
v 0.252579 0.793996 0.135181
v 0.279939 0.595282 0.078997
v 0.277569 0.826195 0.080176
v 0.277569 0.806876 -0.068741
v -0.000325 0.757156 0.126064
v -0.000325 0.549694 0.145713
v 0.279939 0.595282 -0.070815
v 0.265405 0.371613 0.078997
v 0.254190 0.371613 -0.127162
v 0.046630 0.479944 0.152151
v -0.001172 0.371613 0.126866
v 0.249896 0.776152 -0.125669
v 0.259035 0.595282 -0.137414
v 0.163055 0.750802 -0.127374
v 0.166465 0.588575 -0.147292
v -0.002772 0.590534 -0.133602
v 0.155877 0.371613 -0.138983
v 0.243458 0.825062 0.119909
v 0.265556 0.836451 -0.060417
v 0.265556 0.853535 0.071268
v 0.192797 0.770650 0.146849
v 0.183595 0.800141 0.130227
v -0.002178 0.371613 -0.127162
v -0.002273 0.752019 -0.126973
v 0.000000 0.823759 0.177208
v 0.059180 0.904597 0.186602
v 0.000000 0.904597 0.177113
v 0.110731 0.833864 0.178918
v 0.144516 0.782427 0.149712
v 0.168407 0.870818 0.154219
v 0.000000 0.767380 0.147725
v 0.197037 0.904597 0.157145
v 0.245618 0.845744 0.137970
v 0.259735 0.904597 0.135308
v 0.248874 0.747501 0.124890
v 0.180514 0.744457 0.139158
v 0.091297 0.735226 0.158545
v 0.000000 0.723832 0.158545
v 0.115409 0.589833 0.124248
v 0.143067 0.904597 0.180207
v 0.203793 0.766262 -0.136476
v 0.071955 0.851059 -0.151957
v 0.257149 0.904597 -0.142024
v 0.000000 0.867557 -0.148515
v 0.082425 0.907358 -0.159315
v 0.065895 0.845328 -0.152596
v 0.000000 0.798535 -0.170471
v 0.000000 0.860993 -0.152522
v 0.000000 0.742152 -0.137672
v 0.076263 0.788875 -0.145572
v 0.083567 0.786723 -0.144763
v 0.278166 0.904597 -0.063021
v 0.258869 0.747342 -0.124635
v 0.277004 0.751916 0.076074
v 0.277004 0.747829 -0.062762
v 0.276602 0.904597 0.076252
v 0.187139 0.710102 -0.006649
v 0.000000 0.702625 -0.021084
v -0.059180 0.904597 0.186602
v -0.110731 0.833864 0.178918
v -0.168407 0.870818 0.154219
v -0.144516 0.782427 0.149712
v -0.197037 0.904597 0.157145
v -0.245618 0.845744 0.137970
v -0.248874 0.747501 0.124890
v -0.180514 0.744457 0.139158
v -0.091297 0.735226 0.158545
v -0.115409 0.589833 0.124248
v -0.143067 0.904597 0.180207
v -0.071955 0.851059 -0.151957
v -0.203793 0.766262 -0.136476
v -0.257149 0.904597 -0.142024
v -0.082425 0.907358 -0.159315
v -0.065895 0.845328 -0.152596
v -0.076263 0.788875 -0.145572
v -0.083567 0.786723 -0.144763
v -0.258869 0.747342 -0.124635
v -0.278166 0.904597 -0.063021
v -0.277004 0.751916 0.076074
v -0.276602 0.904597 0.076252
v -0.259735 0.904597 0.135308
v -0.187139 0.710102 -0.006649
v -0.277004 0.747829 -0.062762
v 0.000000 0.580068 0.124248
v 0.000000 0.906977 -0.156925
v -0.188513 0.144129 0.146784
v -0.252195 0.199284 0.129340
v -0.170004 0.201799 0.146784
v -0.065747 0.144129 0.146784
v -0.128910 0.196320 0.146784
v 0.001496 0.199284 0.129340
v 0.001496 0.133825 0.129340
v -0.062381 0.307358 0.150894
v -0.083523 0.201936 0.146784
v -0.093570 0.276764 0.163507
v -0.123176 0.271209 0.163591
v -0.189469 0.316528 0.152765
v -0.152783 0.276287 0.165844
v -0.125925 0.299324 0.149254
v -0.254264 0.313266 0.129340
v 0.001496 0.297811 0.129340
v -0.194568 0.077816 0.166349
v -0.059691 0.077816 0.166349
v 0.003342 0.370989 0.128128
v -0.123984 0.370879 0.178983
v -0.255044 0.370989 0.130801
v -0.172551 0.381347 0.174207
v -0.078559 0.380310 0.178983
v -0.124223 0.415382 0.183329
v -0.124223 0.455764 0.182052
v -0.202191 0.492856 0.143389
v -0.123683 0.520937 0.146226
v -0.045174 0.480937 0.153790
v 0.001496 0.037076 0.148905
v -0.252195 0.133825 0.129340
v -0.255833 0.370989 -0.129692
v -0.267215 0.370989 0.079544
v -0.273455 0.311446 0.078996
v -0.260575 0.028310 0.078996
v -0.260575 0.037536 -0.131044
v -0.265405 0.200361 0.078996
v -0.252195 0.024116 0.148905
v -0.193969 0.033269 0.192325
v -0.059092 0.033269 0.192325
v -0.260575 -0.001782 -0.131044
v -0.252195 -0.001782 0.148905
v -0.193869 -0.001782 0.192767
v -0.127131 -0.001782 -0.151418
v 0.003657 0.037536 -0.131996
v -0.127131 0.037536 -0.151418
v 0.004362 0.370989 -0.129692
v -0.156052 0.370989 -0.141689
v 0.001496 -0.001778 0.148905
v -0.059691 -0.001782 0.192767
v 0.003657 -0.001782 -0.131996
v -0.523785 1.431430 0.000001
v -0.500575 1.501726 -0.133907
v -0.509767 1.510344 0.000001
v -0.457312 1.537575 0.000001
v -0.500575 1.501726 0.133909
v -0.503406 1.426882 0.135287
v -0.453865 1.527234 0.133909
v -0.464206 1.367040 0.125575
v -0.500575 1.349645 0.125575
v -0.500575 1.349645 -0.125573
v -0.502298 1.349645 0.000001
v -0.383937 1.528613 0.133908
v -0.453865 1.527234 -0.133907
v -0.290107 1.527431 0.000000
v -0.383937 1.528613 -0.133908
v -0.246620 1.509876 -0.125574
v -0.385086 1.538954 0.000001
v -0.464206 1.367040 -0.125573
v -0.503406 1.426882 -0.131060
v -0.246620 1.509876 0.125574
v -0.248036 1.114063 -0.125574
v -0.506864 1.114063 -0.125573
v -0.505775 1.114063 0.125574
v -0.523815 1.121929 -0.047550
v -0.248078 1.114063 0.125574
v -0.243276 1.113583 0.131664
v -0.500574 0.748280 0.125574
v -0.510300 1.113583 0.131664
v -0.299180 1.088246 -0.144646
v -0.245610 1.125408 -0.128575
v -0.382390 1.166858 -0.128575
v -0.476360 1.089625 -0.129996
v -0.511429 1.125408 -0.128574
v -0.500574 0.748280 -0.125574
v -0.249426 0.748280 -0.125574
v -0.243235 1.124688 -0.128575
v -0.528993 1.121734 -0.047726
v -0.387855 1.120408 -0.155446
v -0.249426 0.748280 0.125574
v -0.201338 0.491688 0.141902
v -0.253413 0.371613 0.129499
v -0.260702 0.595282 0.141229
v -0.157347 0.618200 0.153759
v -0.123984 0.519356 0.144697
v -0.252579 0.793996 0.135181
v -0.279939 0.595282 0.078997
v -0.277569 0.826195 0.080176
v -0.277569 0.806876 -0.068741
v 0.000325 0.757156 0.126064
v 0.000325 0.549694 0.145713
v -0.279939 0.595282 -0.070815
v -0.265405 0.371613 0.078997
v -0.254190 0.371613 -0.127162
v -0.046630 0.479944 0.152151
v 0.001172 0.371613 0.126866
v -0.249896 0.776152 -0.125669
v -0.259035 0.595282 -0.137414
v -0.163055 0.750802 -0.127374
v -0.166465 0.588575 -0.147292
v 0.002772 0.590534 -0.133602
v -0.155877 0.371613 -0.138983
v -0.243458 0.825062 0.119909
v -0.265556 0.836451 -0.060417
v -0.265556 0.853535 0.071268
v -0.192797 0.770650 0.146849
v -0.183595 0.800141 0.130227
v 0.002178 0.371613 -0.127162
v 0.002273 0.752019 -0.126973
vt 0.402134 0.668536
vt 0.425970 0.626233
vt 0.446269 0.665166
vt 0.471438 0.415138
vt 0.403268 0.436315
vt 0.407398 0.415030
vt 0.481607 0.415255
vt 0.501606 0.436315
vt 0.476279 0.436315
vt 0.382140 0.665054
vt 0.400191 0.630716
vt 0.476279 0.590740
vt 0.403268 0.590740
vt 0.509080 0.416367
vt 0.577767 0.436315
vt 0.399708 0.587203
vt 0.937580 0.943723
vt 0.915884 0.864414
vt 0.928043 0.851115
vt 0.991095 0.942490
vt 0.991130 0.840114
vt 0.211315 0.818079
vt 0.237308 0.746040
vt 0.246812 0.822709
vt 0.292640 0.838883
vt 0.308678 0.750392
vt 0.316603 0.841158
vt 0.289908 0.748251
vt 0.408828 0.790650
vt 0.410254 0.837688
vt 0.136061 0.945353
vt 0.159421 0.941957
vt 0.159461 0.945353
vt 0.952177 0.350617
vt 0.957244 0.370123
vt 0.952177 0.370123
vt 0.957244 0.379412
vt 0.952177 0.379412
vt 0.952177 0.332816
vt 0.957244 0.342105
vt 0.952177 0.342105
vt 0.957244 0.219803
vt 0.952177 0.219803
vt 0.004076 0.520445
vt 0.011690 0.545272
vt 0.004076 0.539951
vt 0.159582 0.937878
vt 0.135725 0.935188
vt 0.159376 0.933874
vt 0.957244 0.492425
vt 0.165802 0.881458
vt 0.197915 0.873893
vt 0.239408 0.892835
vt 0.155722 0.879622
vt 0.167532 0.871148
vt 0.121921 0.869257
vt 0.156271 0.870723
vt 0.155280 0.887368
vt 0.121921 0.881617
vt 0.164563 0.889005
vt 0.234980 0.900299
vt 0.208348 0.085770
vt 0.388313 0.004122
vt 0.388313 0.085770
vt 0.208348 0.222392
vt 0.388313 0.365853
vt 0.208348 0.365853
vt 0.208348 0.545818
vt 0.388313 0.545819
vt 0.402290 0.415423
vt 0.941517 0.947615
vt 0.431716 0.625617
vt 0.457969 0.661888
vt 0.995896 0.841994
vt 0.995896 0.942558
vt 0.376848 0.627340
vt 0.382902 0.626493
vt 0.910953 0.942167
vt 0.908472 0.936798
vt 0.402022 0.625357
vt 0.428106 0.620847
vt 0.314653 0.864988
vt 0.219290 0.850896
vt 0.319893 0.858583
vt 0.194266 0.949387
vt 0.140815 0.989596
vt 0.142682 0.963289
vt 0.418467 0.836512
vt 0.286918 0.845534
vt 0.242963 0.829755
vt 0.128152 0.975414
vt 0.314866 0.848345
vt 0.293322 0.847699
vt 0.320822 0.847230
vt 0.220003 0.948582
vt 0.220003 0.984587
vt 0.211315 0.825002
vt 0.121921 0.898393
vt 0.121921 0.888053
vt 0.155168 0.899135
vt 0.194060 0.904962
vt 0.164380 0.900397
vt 0.157632 0.857641
vt 0.168210 0.857234
vt 0.124703 0.515124
vt 0.124703 0.545272
vt 0.404663 0.058291
vt 0.438852 0.032361
vt 0.438852 0.058291
vt 0.436394 0.076704
vt 0.135958 0.941916
vt 0.128677 0.938652
vt 0.136153 0.938533
vt 0.128165 0.942110
vt 0.128203 0.935357
vt 0.173958 0.944940
vt 0.173808 0.941157
vt 0.173853 0.934883
vt 0.173555 0.938013
vt 0.140207 0.719217
vt 0.152139 0.717037
vt 0.151634 0.720344
vt 0.140207 0.706987
vt 0.154813 0.707025
vt 0.167381 0.720336
vt 0.165957 0.723444
vt 0.172788 0.710454
vt 0.170257 0.721856
vt 0.168085 0.724583
vt 0.193709 0.725810
vt 0.194604 0.734318
vt 0.193102 0.737001
vt 0.427086 0.743367
vt 0.607051 0.886828
vt 0.427086 0.886828
vt 0.710046 0.810559
vt 0.759239 0.909869
vt 0.722734 0.909869
vt 0.950928 0.507896
vt 0.940284 0.614646
vt 0.940284 0.513455
vt 0.845714 0.507896
vt 0.856358 0.614646
vt 0.845714 0.620205
vt 0.208348 0.185887
vt 0.388313 0.185887
vt 0.850160 0.624932
vt 0.388313 0.222392
vt 0.722734 0.729904
vt 0.759239 0.729904
vt 0.607051 0.923333
vt 0.427086 0.923333
vt 0.902700 0.909869
vt 0.902700 0.729904
vt 0.438886 0.229335
vt 0.398279 0.255245
vt 0.399217 0.211345
vt 0.471438 0.611917
vt 0.407398 0.612025
vt 0.501606 0.590740
vt 0.481608 0.611799
vt 0.435847 0.255113
vt 0.402815 0.274861
vt 0.577767 0.590740
vt 0.509080 0.610688
vt 0.577767 0.479790
vt 0.946409 0.662502
vt 0.867100 0.640806
vt 0.939484 0.633394
vt 0.853801 0.652965
vt 0.945176 0.716017
vt 0.842800 0.716052
vt 0.185323 0.746040
vt 0.211315 0.745906
vt 0.129991 0.838883
vt 0.113953 0.750392
vt 0.132723 0.748251
vt 0.175819 0.822709
vt 0.106028 0.841158
vt 0.013803 0.790650
vt 0.155786 0.523208
vt 0.179145 0.526604
vt 0.155745 0.526604
vt 0.957244 0.191009
vt 0.952177 0.210514
vt 0.952177 0.191009
vt 0.957244 0.181720
vt 0.952177 0.181720
vt 0.957244 0.210514
vt 0.132317 0.539951
vt 0.132317 0.520445
vt 0.155624 0.519129
vt 0.179481 0.516440
vt 0.179053 0.519784
vt 0.045927 0.873893
vt 0.078039 0.881458
vt 0.004433 0.892835
vt 0.076309 0.871148
vt 0.088120 0.879622
vt 0.088561 0.887368
vt 0.079279 0.889005
vt 0.008862 0.900299
vt 0.942512 0.301458
vt 0.762547 0.444919
vt 0.762547 0.301458
vt 0.402290 0.611632
vt 0.950301 0.666439
vt 0.439184 0.223610
vt 0.844679 0.720818
vt 0.440460 0.278052
vt 0.440970 0.272009
vt 0.944853 0.635875
vt 0.441055 0.253008
vt 0.308820 0.721380
vt 0.213456 0.735471
vt 0.200693 0.721380
vt 0.299192 0.989596
vt 0.245741 0.949387
vt 0.297325 0.963289
vt 0.004164 0.836512
vt 0.012377 0.837688
vt 0.135713 0.845534
vt 0.311855 0.975415
vt 0.107764 0.848345
vt 0.101809 0.847230
vt 0.179668 0.829755
vt 0.193096 0.925274
vt 0.128039 0.913587
vt 0.195514 0.913587
vt 0.088674 0.899135
vt 0.049781 0.904962
vt 0.086209 0.857641
vt 0.121921 0.856215
vt 0.087571 0.870723
vt 0.075631 0.857234
vt 0.407295 0.294792
vt 0.440324 0.323024
vt 0.398279 0.337700
vt 0.441857 0.296812
vt 0.179248 0.523168
vt 0.186529 0.519903
vt 0.187041 0.523361
vt 0.141248 0.526192
vt 0.141398 0.522408
vt 0.141354 0.516135
vt 0.155830 0.515126
vt 0.128276 0.717037
vt 0.128780 0.720344
vt 0.140207 0.716046
vt 0.113033 0.720336
vt 0.125602 0.707025
vt 0.114458 0.723444
vt 0.107627 0.710454
vt 0.112375 0.708613
vt 0.112330 0.724583
vt 0.110158 0.721855
vt 0.086705 0.725810
vt 0.087313 0.737001
vt 0.861857 0.494111
vt 0.762547 0.481424
vt 0.850160 0.503169
vt 0.856358 0.513455
vt 0.942512 0.444919
vt 0.942512 0.481424
vt 0.577767 0.547265
vt 0.499626 0.415105
vt 0.581826 0.417916
vt 0.399709 0.439852
vt 0.957244 0.350617
vt 0.957244 0.332816
vt 0.011690 0.515124
vt 0.952177 0.492425
vt 0.208348 0.004122
vt 0.398250 0.436245
vt 0.993869 0.946409
vt 0.376102 0.665063
vt 0.939428 0.948942
vt 0.384440 0.620847
vt 0.206527 0.864988
vt 0.417055 0.789908
vt 0.416449 0.843208
vt 0.199124 0.859934
vt 0.398247 0.015470
vt 0.399757 0.071803
vt 0.128125 0.945251
vt 0.168040 0.708613
vt 0.607051 0.743367
vt 0.950928 0.620205
vt 0.946481 0.624932
vt 0.499626 0.611950
vt 0.581826 0.609139
vt 0.398250 0.590810
vt 0.949095 0.718791
vt 0.401829 0.199577
vt 0.945243 0.720818
vt 0.403134 0.280842
vt 0.951627 0.664350
vt 0.444105 0.226926
vt 0.446479 0.270179
vt 0.314059 0.727784
vt 0.005576 0.789908
vt 0.129309 0.847699
vt 0.006182 0.843208
vt 0.130457 0.925274
vt 0.079462 0.900397
vt 0.044718 0.859934
vt 0.187081 0.526502
vt 0.187003 0.516608
vt 0.141651 0.519265
vt 0.085811 0.734318
vt 0.946481 0.503169
vt 0.541306 0.186819
vt 0.519383 0.212568
vt 0.518311 0.179855
vt 0.539927 0.138164
vt 0.520139 0.163690
vt 0.517044 0.112151
vt 0.542369 0.110207
vt 0.476604 0.139527
vt 0.517378 0.145913
vt 0.488868 0.151668
vt 0.491112 0.162251
vt 0.474540 0.187358
vt 0.489535 0.172927
vt 0.479640 0.163347
vt 0.476119 0.213245
vt 0.479374 0.113618
vt 0.568201 0.187541
vt 0.566757 0.136463
vt 0.451768 0.113850
vt 0.452798 0.163509
vt 0.454812 0.213686
vt 0.449702 0.180512
vt 0.448718 0.148158
vt 0.437707 0.164106
vt 0.424173 0.164588
vt 0.409651 0.194741
vt 0.397931 0.165782
vt 0.412155 0.135968
vt 0.580799 0.111226
vt 0.544985 0.213206
vt 0.455454 0.309189
vt 0.455458 0.232858
vt 0.477203 0.233075
vt 0.583796 0.235569
vt 0.576354 0.312250
vt 0.518598 0.232190
vt 0.587231 0.210302
vt 0.586547 0.184825
vt 0.586062 0.137763
vt 0.590653 0.312926
vt 0.596438 0.211075
vt 0.598840 0.185376
vt 0.588506 0.361865
vt 0.572102 0.409089
vt 0.574265 0.361231
vt 0.451409 0.403906
vt 0.454019 0.345647
vt 0.446366 0.017535
vt 0.569091 0.005917
vt 0.595483 0.109433
vt 0.598840 0.137241
vt 0.583927 0.004279
vt 0.972287 0.004100
vt 0.922324 0.015484
vt 0.937462 0.004100
vt 0.988728 0.088389
vt 0.920149 0.088143
vt 0.954783 0.093430
vt 0.759213 0.921339
vt 0.730721 0.976158
vt 0.727532 0.935323
vt 0.720270 0.955722
vt 0.826821 0.920867
vt 0.830037 0.946752
vt 0.772504 0.918128
vt 0.760172 0.988398
vt 0.827088 0.988398
vt 0.586336 0.409735
vt 0.988167 0.015484
vt 0.114554 0.350854
vt 0.085878 0.331854
vt 0.114992 0.332634
vt 0.198592 0.352905
vt 0.199223 0.334334
vt 0.197819 0.379622
vt 0.113118 0.378567
vt 0.086370 0.353352
vt 0.069452 0.390923
vt 0.038647 0.353268
vt 0.062911 0.352808
vt 0.062383 0.331130
vt 0.065328 0.416649
vt 0.051385 0.398989
vt 0.075459 0.417619
vt 0.091917 0.386226
vt 0.098091 0.418432
vt 0.105910 0.407600
vt 0.115214 0.395945
vt 0.196815 0.418930
vt 0.196411 0.437473
vt 0.079882 0.479204
vt 0.035397 0.504060
vt 0.057013 0.417603
vt 0.024957 0.409170
vt 0.194970 0.480986
vt 0.197424 0.398063
vt 0.076806 0.036290
vt 0.070843 0.062136
vt 0.047757 0.050558
vt 0.108778 0.064067
vt 0.120587 0.046645
vt 0.136515 0.084133
vt 0.075503 0.086103
vt 0.116639 0.084646
vt 0.066848 0.066941
vt 0.042221 0.087880
vt 0.063903 0.086680
vt 0.196632 0.004078
vt 0.196627 0.058293
vt 0.076873 0.004162
vt 0.194280 0.506426
vt 0.073828 0.506685
vt 0.038428 0.006547
vt 0.012940 0.329430
vt 0.037722 0.330303
vt 0.061837 0.912760
vt 0.005064 0.979260
vt 0.004126 0.916779
vt 0.007640 0.013457
vt 0.013850 0.410545
vt 0.040497 0.087976
vt 0.115462 0.314454
vt 0.087599 0.310470
vt 0.199310 0.315760
vt 0.199548 0.289060
vt 0.115418 0.286940
vt 0.094925 0.278339
vt 0.073155 0.272407
vt 0.040206 0.307519
vt 0.055981 0.263270
vt 0.064279 0.309581
vt 0.070825 0.247077
vt 0.080688 0.246847
vt 0.102490 0.247248
vt 0.109636 0.258106
vt 0.118268 0.269898
vt 0.199881 0.249859
vt 0.200055 0.231392
vt 0.088487 0.188982
vt 0.030709 0.251273
vt 0.062855 0.245508
vt 0.199130 0.188075
vt 0.049800 0.164693
vt 0.199796 0.270672
vt 0.081148 0.134100
vt 0.052083 0.123631
vt 0.073186 0.110070
vt 0.110028 0.105439
vt 0.068824 0.105796
vt 0.122447 0.121773
vt 0.197362 0.108378
vt 0.198526 0.163127
vt 0.083614 0.163432
vt 0.019887 0.248938
vt 0.119602 0.978401
vt 0.062410 0.989199
vt 0.020154 0.165600
vt 0.197187 0.083313
vt 0.596296 0.975904
vt 0.600106 0.934937
vt 0.600636 0.992224
vt 0.707410 0.934937
vt 0.711220 0.975905
vt 0.706880 0.992224
vt 0.694459 0.930427
vt 0.670784 0.995799
vt 0.613057 0.930427
vt 0.636732 0.995799
vt 0.624206 0.925664
vt 0.683311 0.925664
vt 0.665982 0.924343
vt 0.641534 0.924343
vt 0.653758 0.926303
vt 0.653758 0.995305
vt 0.004243 0.495906
vt 0.004243 0.090568
vt 0.119602 0.915912
vt 0.596621 0.947136
vt 0.710895 0.947136
vt 0.708860 0.580495
vt 0.737426 0.629315
vt 0.737218 0.580378
vt 0.758065 0.580290
vt 0.737013 0.531448
vt 0.794706 0.292611
vt 0.757344 0.274078
vt 0.817148 0.277748
vt 0.823711 0.291271
vt 0.679228 0.628078
vt 0.678044 0.580621
vt 0.756747 0.248029
vt 0.678828 0.533195
vt 0.708432 0.530037
vt 0.757611 0.629394
vt 0.818833 0.580032
vt 0.784006 0.629764
vt 0.836289 0.626585
vt 0.783996 0.580181
vt 0.823714 0.008627
vt 0.817178 0.022152
vt 0.794864 0.007428
vt 0.757383 0.025768
vt 0.766943 0.008387
vt 0.783583 0.530601
vt 0.757194 0.531198
vt 0.835889 0.533332
vt 0.911080 0.103151
vt 0.763561 0.103131
vt 0.756767 0.051834
vt 0.911523 0.006668
vt 0.589037 0.532858
vt 0.591725 0.599286
vt 0.911067 0.196753
vt 0.763548 0.196733
vt 0.911523 0.292759
vt 0.940413 0.100843
vt 0.985524 0.105988
vt 0.920080 0.105704
vt 0.920080 0.173150
vt 0.985524 0.173139
vt 0.708808 0.629397
vt 0.766815 0.291503
vt 0.589474 0.629764
vt 0.606596 0.212232
vt 0.746683 0.316457
vt 0.603875 0.316533
vt 0.622221 0.500447
vt 0.609167 0.523516
vt 0.586155 0.471302
vt 0.616140 0.432444
vt 0.601274 0.419402
vt 0.748619 0.414571
vt 0.755086 0.510950
vt 0.609634 0.524286
vt 0.601703 0.387046
vt 0.606770 0.468351
vt 0.989613 0.778517
vt 0.911856 0.729646
vt 0.984526 0.729646
vt 0.984833 0.800542
vt 0.911845 0.800533
vt 0.911652 0.801196
vt 0.701468 0.102025
vt 0.603596 0.004153
vt 0.701468 0.004153
vt 0.755086 0.120398
vt 0.749243 0.218357
vt 0.949745 0.811913
vt 0.603596 0.102025
vt 0.608321 0.110469
vt 0.167487 0.596282
vt 0.186661 0.554614
vt 0.186361 0.630252
vt 0.153151 0.638567
vt 0.141712 0.605813
vt 0.187914 0.692189
vt 0.207893 0.629901
vt 0.206392 0.702707
vt 0.254590 0.697912
vt 0.100392 0.689468
vt 0.100512 0.616652
vt 0.256450 0.629424
vt 0.204697 0.554126
vt 0.278128 0.554560
vt 0.115671 0.592856
vt 0.096603 0.555398
vt 0.276326 0.690217
vt 0.279165 0.629653
vt 0.307632 0.683884
vt 0.309695 0.627939
vt 0.004153 0.634571
vt 0.312532 0.554135
vt 0.367633 0.630197
vt 0.189136 0.703769
vt 0.252598 0.708806
vt 0.207870 0.712802
vt 0.168047 0.687426
vt 0.166427 0.699539
vt 0.064875 0.760720
vt 0.049262 0.699584
vt 0.064789 0.701175
vt 0.076645 0.742791
vt 0.075050 0.711265
vt 0.005406 0.555140
vt 0.043396 0.761849
vt 0.004401 0.701683
vt 0.389187 0.943582
vt 0.452602 0.932453
vt 0.452602 0.992841
vt 0.415019 0.995502
vt 0.391659 0.992600
vt 0.009551 0.692358
vt 0.367582 0.554126
vt 0.365270 0.686553
vt 0.004093 0.761849
vt 0.392086 0.931588
vt 0.666713 0.673031
vt 0.685889 0.647200
vt 0.666655 0.647200
vt 0.701690 0.670090
vt 0.713308 0.688795
vt 0.722514 0.660689
vt 0.666759 0.693385
vt 0.731572 0.649892
vt 0.747452 0.669652
vt 0.752757 0.650872
vt 0.747617 0.701492
vt 0.725225 0.701609
vt 0.695760 0.704043
vt 0.666791 0.707742
vt 0.704098 0.751817
vt 0.712851 0.648190
vt 0.359228 0.743617
vt 0.393246 0.706492
vt 0.331120 0.705773
vt 0.413904 0.695512
vt 0.385273 0.689773
vt 0.395617 0.707759
vt 0.419247 0.716189
vt 0.414508 0.697851
vt 0.424166 0.735221
vt 0.396922 0.726479
vt 0.394825 0.727754
vt 0.816196 0.660030
vt 0.829775 0.712662
vt 0.842092 0.663593
vt 0.765561 0.702427
vt 0.809374 0.709691
vt 0.772066 0.654043
vt 0.343900 0.754723
vt 0.355289 0.910990
vt 0.310972 0.883086
vt 0.366294 0.880741
vt 0.372930 0.892268
vt 0.335218 0.949601
vt 0.369284 0.942455
vt 0.384380 0.921320
vt 0.382453 0.933879
vt 0.310972 0.909031
vt 0.647422 0.647287
vt 0.631724 0.670247
vt 0.610857 0.660939
vt 0.620189 0.689004
vt 0.601751 0.650183
vt 0.585960 0.670015
vt 0.585937 0.701855
vt 0.608330 0.701871
vt 0.637806 0.704173
vt 0.629682 0.751984
vt 0.620464 0.648397
vt 0.437295 0.695109
vt 0.485041 0.711103
vt 0.491294 0.664379
vt 0.436170 0.676619
vt 0.435835 0.697365
vt 0.443763 0.714374
vt 0.446215 0.714473
vt 0.503830 0.713393
vt 0.517173 0.660701
vt 0.567998 0.702870
vt 0.561276 0.654516
vt 0.580570 0.651259
vt 0.266655 0.910990
vt 0.249013 0.892268
vt 0.255650 0.880741
vt 0.286726 0.949601
vt 0.252660 0.942455
vt 0.237564 0.921320
vt 0.310972 0.950547
vt 0.672476 0.888006
vt 0.628190 0.883887
vt 0.690118 0.883314
vt 0.628190 0.767888
vt 0.672476 0.763769
vt 0.690118 0.768461
vt 0.623314 0.781889
vt 0.693983 0.807482
vt 0.618164 0.793940
vt 0.623314 0.869886
vt 0.693983 0.844293
vt 0.618164 0.857835
vt 0.616737 0.839102
vt 0.616737 0.812672
vt 0.618855 0.825887
vt 0.693449 0.825887
vt 0.666897 0.755086
vt 0.410706 0.683137
vt 0.524218 0.710331
vt 0.239491 0.933879
vt 0.641376 0.887654
vt 0.641376 0.764120
vt 0.541306 0.186819
vt 0.518311 0.179855
vt 0.519383 0.212568
vt 0.539927 0.138164
vt 0.520139 0.163690
vt 0.542369 0.110207
vt 0.517044 0.112151
vt 0.476604 0.139527
vt 0.488868 0.151668
vt 0.517378 0.145913
vt 0.491112 0.162251
vt 0.489535 0.172927
vt 0.474540 0.187358
vt 0.479640 0.163347
vt 0.476119 0.213245
vt 0.479374 0.113618
vt 0.568201 0.187541
vt 0.566757 0.136463
vt 0.451768 0.113850
vt 0.452798 0.163509
vt 0.454812 0.213686
vt 0.449702 0.180512
vt 0.448718 0.148158
vt 0.437707 0.164106
vt 0.424173 0.164588
vt 0.397931 0.165782
vt 0.409651 0.194741
vt 0.412155 0.135968
vt 0.580799 0.111226
vt 0.544985 0.213206
vt 0.455454 0.309189
vt 0.477203 0.233075
vt 0.455458 0.232858
vt 0.583796 0.235569
vt 0.518598 0.232190
vt 0.576354 0.312250
vt 0.587231 0.210302
vt 0.586547 0.184825
vt 0.586062 0.137763
vt 0.590653 0.312926
vt 0.596438 0.211075
vt 0.598840 0.185376
vt 0.588506 0.361865
vt 0.574265 0.361231
vt 0.572102 0.409089
vt 0.451409 0.403906
vt 0.454019 0.345647
vt 0.569091 0.005917
vt 0.446366 0.017535
vt 0.598840 0.137241
vt 0.595483 0.109433
vt 0.583927 0.004279
vt 0.972287 0.004100
vt 0.937462 0.004100
vt 0.922324 0.015484
vt 0.920149 0.088143
vt 0.988728 0.088389
vt 0.954783 0.093430
vt 0.759213 0.921339
vt 0.727532 0.935323
vt 0.730721 0.976158
vt 0.720270 0.955722
vt 0.826821 0.920867
vt 0.772504 0.918128
vt 0.830037 0.946752
vt 0.760172 0.988398
vt 0.827088 0.988398
vt 0.586336 0.409735
vt 0.988167 0.015484
vt 0.708860 0.580495
vt 0.737218 0.580378
vt 0.737426 0.629315
vt 0.758065 0.580290
vt 0.737013 0.531448
vt 0.794706 0.292611
vt 0.817148 0.277748
vt 0.757344 0.274078
vt 0.823711 0.291271
vt 0.679228 0.628078
vt 0.678044 0.580621
vt 0.756747 0.248029
vt 0.678828 0.533195
vt 0.708432 0.530037
vt 0.757611 0.629394
vt 0.818833 0.580032
vt 0.836289 0.626585
vt 0.784006 0.629764
vt 0.783996 0.580181
vt 0.823714 0.008627
vt 0.794864 0.007428
vt 0.817178 0.022152
vt 0.766943 0.008387
vt 0.757383 0.025768
vt 0.783583 0.530601
vt 0.757194 0.531198
vt 0.835889 0.533332
vt 0.911080 0.103151
vt 0.756767 0.051834
vt 0.763561 0.103131
vt 0.911523 0.006668
vt 0.591725 0.599286
vt 0.589037 0.532858
vt 0.911067 0.196753
vt 0.763548 0.196733
vt 0.911523 0.292759
vt 0.940413 0.100843
vt 0.920080 0.105704
vt 0.985524 0.105988
vt 0.920080 0.173150
vt 0.985524 0.173139
vt 0.708808 0.629397
vt 0.766815 0.291503
vt 0.589474 0.629764
vt 0.606596 0.212232
vt 0.603875 0.316533
vt 0.746683 0.316457
vt 0.622221 0.500447
vt 0.586155 0.471302
vt 0.609167 0.523516
vt 0.616140 0.432444
vt 0.601274 0.419402
vt 0.748619 0.414571
vt 0.609634 0.524286
vt 0.755086 0.510950
vt 0.601703 0.387046
vt 0.606770 0.468351
vt 0.989613 0.778517
vt 0.984526 0.729646
vt 0.911856 0.729646
vt 0.984833 0.800542
vt 0.911845 0.800533
vt 0.911652 0.801196
vt 0.701468 0.102025
vt 0.701468 0.004153
vt 0.603596 0.004153
vt 0.749243 0.218357
vt 0.755086 0.120398
vt 0.949745 0.811913
vt 0.603596 0.102025
vt 0.608321 0.110469
vt 0.167487 0.596282
vt 0.186361 0.630252
vt 0.186661 0.554614
vt 0.141712 0.605813
vt 0.153151 0.638567
vt 0.187914 0.692189
vt 0.206392 0.702707
vt 0.207893 0.629901
vt 0.254590 0.697912
vt 0.100512 0.616652
vt 0.100392 0.689468
vt 0.256450 0.629424
vt 0.278128 0.554560
vt 0.204697 0.554126
vt 0.115671 0.592856
vt 0.096603 0.555398
vt 0.276326 0.690217
vt 0.279165 0.629653
vt 0.307632 0.683884
vt 0.309695 0.627939
vt 0.004153 0.634571
vt 0.312532 0.554135
vt 0.367633 0.630197
vt 0.189136 0.703769
vt 0.207870 0.712802
vt 0.252598 0.708806
vt 0.166427 0.699539
vt 0.168047 0.687426
vt 0.064875 0.760720
vt 0.064789 0.701175
vt 0.049262 0.699584
vt 0.076645 0.742791
vt 0.075050 0.711265
vt 0.005406 0.555140
vt 0.043396 0.761849
vt 0.004401 0.701683
vt 0.389187 0.943582
vt 0.452602 0.992841
vt 0.452602 0.932453
vt 0.391659 0.992600
vt 0.415019 0.995502
vt 0.009551 0.692358
vt 0.367582 0.554126
vt 0.365270 0.686553
vt 0.004093 0.761849
vt 0.392086 0.931588
vn 0.3365 0.9263 0.1696
vn 0.0000 0.9788 0.2050
vn 0.0000 0.9858 0.1681
vn 0.8907 0.1840 0.4158
vn 0.3592 0.0899 0.9289
vn 0.8967 0.0419 0.4407
vn 0.3506 0.8239 0.4452
vn 0.3672 0.3841 0.8471
vn 0.7994 0.5915 0.1053
vn 0.3527 0.9168 0.1870
vn -0.3672 0.3841 0.8471
vn -0.3592 0.0899 0.9289
vn 0.8764 0.4278 0.2209
vn -0.1615 -0.8212 0.5474
vn 0.2981 -0.8653 0.4029
vn -0.2981 -0.8653 0.4029
vn 0.9967 0.0696 0.0407
vn 0.9987 -0.0001 0.0509
vn 0.0000 -0.1290 0.9916
vn 0.1568 -0.1424 0.9773
vn 0.2505 -0.1071 0.9622
vn 0.5969 -0.0534 0.8006
vn 0.8649 -0.0464 0.4998
vn 0.9502 -0.0144 0.3114
vn 0.4613 -0.0955 0.8821
vn 1.0000 -0.0040 -0.0077
vn 1.0000 0.0008 -0.0097
vn -0.8104 0.3189 -0.4915
vn 0.7573 -0.0064 -0.6531
vn -0.7573 -0.0064 -0.6530
vn 0.8868 0.4261 0.1790
vn 0.6983 -0.5742 0.4273
vn 0.8868 -0.4261 -0.1790
vn 0.3003 -0.8794 -0.3695
vn 0.3003 0.8794 0.3695
vn 0.6983 0.0967 0.7092
vn -0.3003 0.8794 0.3695
vn -0.0000 -0.3874 0.9219
vn 0.0001 0.0237 0.9997
vn -0.3003 -0.8794 -0.3695
vn 0.8044 -0.3913 0.4470
vn 0.8642 -0.2681 0.4257
vn 0.8644 -0.2687 0.4250
vn 0.4088 -0.7742 0.4832
vn 0.8086 -0.3885 0.4419
vn 0.0000 -0.8971 0.4418
vn 0.4326 -0.7649 0.4773
vn 0.0123 0.1462 0.9892
vn -0.0000 0.1422 0.9898
vn 0.0119 0.1468 0.9891
vn 0.0110 0.1590 0.9872
vn 0.0128 0.1604 0.9870
vn 0.0013 0.1851 0.9827
vn 0.0109 0.1592 0.9872
vn 0.0000 0.1855 0.9826
vn -0.6767 0.7362 0.0107
vn 0.5860 0.5266 0.6159
vn 0.6767 0.7362 0.0107
vn -0.7071 0.0000 -0.7071
vn 0.5774 -0.5773 -0.5774
vn -0.5774 -0.5773 -0.5773
vn -0.5774 -0.5773 0.5774
vn 0.5774 -0.5773 0.5773
vn 0.4945 -0.8629 0.1044
vn 0.4894 -0.8645 0.1149
vn 0.0799 0.0548 -0.9953
vn 0.0144 0.1224 -0.9924
vn -0.0808 0.2184 -0.9725
vn -0.9202 0.2364 -0.3121
vn -0.8426 0.4693 -0.2644
vn -0.9243 0.2148 -0.3154
vn 0.5595 -0.8279 -0.0381
vn 0.5596 -0.8279 -0.0381
vn 0.7591 -0.6392 -0.1229
vn 0.7592 -0.6392 -0.1229
vn -0.1397 0.2767 -0.9507
vn 0.0000 0.0013 -1.0000
vn -0.0741 0.0553 -0.9957
vn -0.1734 0.1279 -0.9765
vn -0.1077 0.0799 -0.9910
vn 0.4431 -0.7903 -0.4231
vn 0.2748 -0.9159 -0.2925
vn 0.4428 -0.7905 -0.4232
vn 0.0463 -0.9930 -0.1083
vn 0.0715 -0.9852 -0.1560
vn 0.7186 0.0543 -0.6933
vn -0.2684 0.9560 0.1182
vn -0.2739 0.9465 0.1708
vn -0.2255 0.9704 0.0864
vn 0.2519 -0.9344 -0.2519
vn -0.2585 0.9519 0.1643
vn -0.1594 0.9834 0.0867
vn -0.1538 0.9855 0.0716
vn -0.1607 0.9827 0.0918
vn 0.0000 -0.9976 -0.0698
vn -0.0000 -0.9949 -0.1008
vn 0.0000 0.9999 -0.0136
vn -0.0000 0.9998 -0.0206
vn -0.4691 0.8832 0.0000
vn 0.0000 1.0000 0.0000
vn -0.8801 0.4747 0.0000
vn -0.5124 0.8588 0.0000
vn -0.9248 0.3804 0.0000
vn -0.8885 0.4589 0.0000
vn 0.0000 -0.1390 -0.9903
vn -0.0133 -0.1419 -0.9898
vn -0.0129 -0.1428 -0.9897
vn -0.0147 -0.1546 -0.9879
vn -0.0154 -0.1578 -0.9874
vn -0.0225 -0.1783 -0.9837
vn -0.1500 -0.9226 -0.3553
vn -0.0741 -0.8837 -0.4622
vn -0.3294 -0.8106 -0.4841
vn -0.5184 -0.7763 -0.3587
vn 0.8103 0.3190 -0.4916
vn 0.0000 -0.6848 0.7287
vn 0.0000 -0.5408 0.8411
vn 0.8160 0.3962 -0.4210
vn -0.8160 0.3962 -0.4210
vn -0.8337 -0.2160 -0.5082
vn 0.8337 -0.2161 -0.5082
vn 0.0000 0.4322 0.9018
vn 0.0000 -0.0002 -1.0000
vn -0.1362 0.7813 -0.6092
vn -0.2179 -0.0004 -0.9760
vn -0.0000 0.9863 0.1652
vn 0.0340 0.9882 0.1492
vn -0.2841 0.8095 -0.5138
vn -0.4849 0.0017 -0.8746
vn -0.0385 0.9742 0.2224
vn -0.7090 0.6892 -0.1493
vn -0.8045 0.0008 -0.5940
vn -0.2471 0.8684 0.4299
vn -0.8516 0.5232 0.0317
vn -0.9624 0.1207 -0.2434
vn 0.7071 0.0000 0.7071
vn -0.7071 0.0000 0.7071
vn 0.7071 0.0000 -0.7071
vn 0.5843 0.5362 -0.6091
vn -0.0000 0.8130 -0.5822
vn -0.0000 -0.8130 -0.5822
vn -0.5843 0.5362 -0.6091
vn 0.8414 0.0000 -0.5405
vn -0.5860 0.5266 0.6159
vn -0.3365 0.9263 0.1696
vn -0.8907 0.1840 0.4158
vn -0.8967 0.0419 0.4407
vn -0.3506 0.8239 0.4452
vn -0.3527 0.9168 0.1870
vn -0.7994 0.5915 0.1053
vn -0.8764 0.4278 0.2209
vn -0.9967 0.0696 0.0407
vn -0.9987 -0.0001 0.0509
vn -0.1568 -0.1424 0.9773
vn 0.0000 -0.1661 0.9861
vn -0.5969 -0.0534 0.8006
vn -0.8649 -0.0464 0.4998
vn -0.4613 -0.0955 0.8821
vn -0.2505 -0.1071 0.9622
vn -0.9502 -0.0144 0.3114
vn -1.0000 -0.0040 -0.0077
vn -0.7573 -0.0064 -0.6531
vn 0.8104 0.3189 -0.4915
vn 0.7573 -0.0064 -0.6530
vn -0.6983 -0.5742 0.4273
vn -0.8868 0.4261 0.1790
vn -0.8868 -0.4261 -0.1790
vn -0.6983 0.0967 0.7092
vn -0.0001 0.0237 0.9997
vn -0.8642 -0.2681 0.4257
vn -0.8044 -0.3913 0.4470
vn -0.8644 -0.2687 0.4250
vn -0.8086 -0.3885 0.4419
vn -0.4088 -0.7742 0.4832
vn 0.0000 -0.8979 0.4403
vn -0.0123 0.1462 0.9892
vn 0.0000 0.1403 0.9901
vn -0.0110 0.1592 0.9872
vn -0.0128 0.1604 0.9870
vn -0.0014 0.1851 0.9827
vn -0.4945 -0.8629 0.1044
vn -0.4894 -0.8645 0.1149
vn -0.0144 0.1224 -0.9924
vn -0.0799 0.0548 -0.9953
vn 0.0807 0.2184 -0.9725
vn 0.9202 0.2364 -0.3121
vn 0.7568 -0.3010 -0.5803
vn 0.8248 0.5046 -0.2550
vn -0.5595 -0.8279 -0.0381
vn -0.7592 -0.6392 -0.1229
vn -0.7591 -0.6392 -0.1229
vn 0.1397 0.2767 -0.9507
vn 0.0741 0.0553 -0.9957
vn 0.1077 0.0799 -0.9910
vn 0.1734 0.1279 -0.9765
vn -0.4431 -0.7903 -0.4231
vn -0.2748 -0.9159 -0.2925
vn -0.2519 -0.9344 -0.2519
vn -0.0463 -0.9930 -0.1083
vn -0.0715 -0.9852 -0.1560
vn -0.7186 0.0543 -0.6933
vn 0.2684 0.9560 0.1182
vn 0.2739 0.9465 0.1708
vn 0.2585 0.9519 0.1643
vn 0.1594 0.9834 0.0867
vn 0.1607 0.9827 0.0918
vn 0.1538 0.9855 0.0716
vn 0.2255 0.9704 0.0864
vn -0.0000 0.0727 -0.9974
vn 0.4691 0.8832 0.0000
vn 0.5124 0.8588 0.0000
vn 0.8802 0.4747 0.0000
vn 0.9248 0.3804 -0.0000
vn 0.0133 -0.1419 -0.9898
vn 0.0000 -0.1361 -0.9907
vn 0.0147 -0.1546 -0.9879
vn 0.0129 -0.1428 -0.9897
vn 0.0225 -0.1783 -0.9837
vn 0.0154 -0.1579 -0.9873
vn 0.1500 -0.9226 -0.3553
vn 0.7713 -0.4032 -0.4925
vn 0.5184 -0.7763 -0.3587
vn 0.3294 -0.8106 -0.4841
vn -0.8103 0.3190 -0.4915
vn 0.8337 -0.2160 -0.5082
vn -0.8337 -0.2161 -0.5082
vn 0.1363 0.7813 -0.6092
vn 0.2180 -0.0004 -0.9760
vn 0.0000 0.8005 -0.5993
vn 0.2841 0.8095 -0.5138
vn -0.0340 0.9882 0.1492
vn 0.4849 0.0017 -0.8746
vn 0.0385 0.9742 0.2224
vn -0.0731 0.9883 0.1338
vn 0.8045 0.0008 -0.5940
vn 0.7090 0.6892 -0.1493
vn 0.2471 0.8684 0.4299
vn 0.9624 0.1207 -0.2434
vn -0.8414 0.0000 -0.5405
vn -0.0000 0.0000 -1.0000
vn 0.6510 0.7454 0.1433
vn 0.1615 -0.8211 0.5474
vn 0.0014 0.1851 0.9827
vn -0.8248 0.5046 -0.2550
vn -0.1398 0.2767 -0.9507
vn -0.1540 0.9855 0.0716
vn -0.0154 -0.1579 -0.9873
vn -0.0206 -0.1803 -0.9834
vn -0.1391 -0.8995 -0.4142
vn -0.0261 -0.9817 -0.1887
vn 0.0731 0.9883 0.1338
vn -0.6510 0.7454 0.1433
vn -1.0000 0.0008 -0.0097
vn -0.4326 -0.7649 0.4773
vn -0.0119 0.1468 0.9891
vn -0.5596 -0.8279 -0.0381
vn -0.4428 -0.7905 -0.4232
vn 0.1540 0.9855 0.0716
vn 0.8885 0.4589 0.0000
vn 0.0206 -0.1803 -0.9834
vn 0.0261 -0.9817 -0.1887
vn 0.8516 0.5232 0.0317
vn 0.1426 0.1546 0.9776
vn 0.2456 -0.0134 0.9693
vn 0.1234 -0.0685 0.9900
vn -0.1355 0.1540 0.9787
vn 0.0010 -0.1012 0.9949
vn -0.2363 -0.0105 0.9716
vn -0.2967 0.1312 0.9459
vn -0.2950 -0.1659 0.9410
vn -0.1216 -0.0675 0.9903
vn -0.3031 -0.1689 0.9379
vn -0.0255 -0.2286 0.9732
vn 0.2952 -0.1613 0.9417
vn 0.2479 -0.1860 0.9508
vn -0.0487 0.4517 0.8909
vn 0.0802 0.4477 0.8906
vn -0.0275 0.4562 0.8894
vn 0.3392 -0.0170 0.9406
vn -0.3202 0.0035 0.9473
vn 0.2311 0.2435 0.9420
vn -0.2038 0.2553 0.9451
vn -0.4623 -0.0533 0.8851
vn 0.0253 -0.3451 0.9382
vn 0.0126 -0.3834 0.9235
vn 0.4240 -0.0159 0.9055
vn 0.3447 -0.1235 0.9305
vn -0.3516 -0.1929 0.9160
vn -0.1594 0.4478 0.8798
vn 0.0452 -0.0071 0.9990
vn 0.0489 -0.0973 0.9940
vn 0.2499 0.0327 0.9677
vn 0.0389 0.2543 0.9663
vn 0.2943 0.3201 0.9005
vn 0.0331 0.4817 0.8757
vn -0.1547 0.0253 0.9876
vn -0.2314 0.3090 0.9225
vn -0.3805 0.1833 0.9064
vn 0.3167 0.1267 0.9400
vn 0.9984 0.0079 -0.0559
vn 0.9900 0.0706 0.1217
vn 0.9905 0.0062 0.1371
vn 0.9943 -0.0895 0.0573
vn 0.9999 -0.0021 -0.0101
vn 0.9937 -0.0224 0.1101
vn 0.9497 -0.0044 0.3131
vn 0.9673 -0.0086 0.2536
vn 0.9780 -0.0127 0.2080
vn 0.9928 0.0097 0.1196
vn 0.0000 0.5037 0.8639
vn 0.5872 0.4018 0.7027
vn -0.5047 0.4399 0.7428
vn 0.9998 -0.0189 0.0027
vn 0.9939 -0.0537 0.0960
vn 0.5992 0.0066 0.8006
vn 0.6004 0.0023 0.7997
vn 0.5986 0.0084 0.8010
vn 0.0020 0.0000 -1.0000
vn -0.1469 0.0033 -0.9891
vn 0.0033 0.0077 -1.0000
vn -0.0920 0.0286 -0.9954
vn 0.1480 0.0069 -0.9890
vn 0.0319 0.0212 -0.9993
vn 0.1194 0.0057 -0.9928
vn 0.1509 0.0000 -0.9885
vn -1.0000 -0.0008 0.0096
vn -0.9999 -0.0058 0.0089
vn -1.0000 -0.0005 0.0084
vn -0.9997 -0.0252 0.0040
vn -0.9999 -0.0103 0.0082
vn -1.0000 0.0007 0.0080
vn -1.0000 0.0007 0.0077
vn -0.5826 0.0002 0.8128
vn -0.5825 0.0001 0.8128
vn -0.5826 0.0003 0.8127
vn -1.0000 0.0000 0.0077
vn -0.0000 -1.0000 -0.0001
vn -0.0000 -1.0000 -0.0000
vn 0.0000 0.0126 0.9999
vn -0.0371 0.1362 -0.9900
vn -0.0201 0.1421 -0.9896
vn -0.0695 0.0465 -0.9965
vn -0.0607 -0.0691 -0.9958
vn 0.0797 0.4483 0.8903
vn 0.4738 0.1153 0.8730
vn -0.5301 0.0362 0.8471
vn -0.1678 0.4397 0.8823
vn 0.4191 0.1594 0.8938
vn 0.9728 -0.0190 0.2310
vn 0.6010 0.0000 0.7992
vn -0.1469 0.0000 -0.9892
vn -0.5825 0.0000 0.8128
vn 0.0101 0.2231 -0.9748
vn -0.0294 0.0235 0.9993
vn 0.0000 0.1409 0.9900
vn 0.0000 0.0300 0.9995
vn -0.0416 -0.0826 0.9957
vn 0.0000 -0.0826 0.9966
vn 0.2530 -0.0597 0.9656
vn 0.3343 -0.0052 0.9424
vn -0.0157 0.1325 0.9911
vn 0.3256 -0.1267 0.9370
vn 0.0226 0.2343 0.9719
vn -0.0478 -0.0164 0.9987
vn 0.0000 0.0031 1.0000
vn 0.9022 -0.0382 0.4297
vn 0.4427 0.1434 0.8851
vn 0.8638 -0.1972 0.4637
vn 0.2269 -0.2972 0.9275
vn -0.0000 -0.2239 0.9746
vn -0.0453 -0.2471 0.9679
vn 0.8539 -0.0839 0.5137
vn 0.3779 -0.0030 0.9258
vn 0.5147 0.0152 0.8572
vn 0.4387 -0.0683 0.8960
vn 0.7313 -0.0224 0.6817
vn 0.9886 -0.0134 0.1498
vn 0.9969 0.0229 -0.0751
vn 0.7775 0.1361 -0.6140
vn 0.9391 0.1495 0.3093
vn 0.7274 0.2896 0.6221
vn 0.9919 -0.0322 -0.1228
vn 0.3609 -0.0309 0.9321
vn 0.6342 0.1909 -0.7493
vn 0.5968 -0.1973 -0.7778
vn 0.5709 -0.1685 -0.8036
vn 0.6184 -0.2223 -0.7537
vn 0.2604 -0.6250 -0.7359
vn 0.2792 -0.6350 -0.7202
vn 0.2975 -0.6445 -0.7044
vn -0.0000 0.0336 -0.9994
vn 0.0301 -0.0952 -0.9950
vn -0.0000 -0.0891 -0.9960
vn 0.1035 0.5030 -0.8581
vn 0.1370 0.4957 -0.8576
vn 0.0708 0.5445 -0.8358
vn 0.1204 0.4645 -0.8773
vn 0.0857 0.4429 -0.8925
vn -0.0517 0.3460 -0.9368
vn 0.0000 0.1605 -0.9870
vn 0.1906 -0.0891 -0.9776
vn 0.6672 -0.0760 -0.7410
vn 0.0504 -0.1380 -0.9892
vn 0.7231 -0.0541 -0.6887
vn 0.3179 -0.0620 -0.9461
vn 0.0000 0.7059 0.7083
vn 0.0000 0.1009 0.9949
vn -0.0000 0.8478 -0.5303
vn 0.6145 0.6611 0.4305
vn 0.6074 0.6474 -0.4604
vn 0.1810 0.2420 -0.9532
vn 0.0000 1.0000 0.0021
vn -0.0000 0.7737 -0.6336
vn 0.0294 0.0235 0.9993
vn 0.0157 0.1325 0.9911
vn 0.0416 -0.0826 0.9957
vn -0.2530 -0.0597 0.9656
vn -0.3343 -0.0052 0.9424
vn -0.3779 -0.0030 0.9258
vn -0.3256 -0.1267 0.9370
vn -0.0226 0.2343 0.9719
vn -0.4427 0.1434 0.8851
vn 0.0478 -0.0164 0.9987
vn -0.9022 -0.0382 0.4297
vn -0.8638 -0.1972 0.4637
vn -0.2269 -0.2972 0.9275
vn 0.0453 -0.2471 0.9679
vn -0.8539 -0.0839 0.5137
vn -0.5147 0.0152 0.8572
vn -0.4387 -0.0683 0.8960
vn -0.7313 -0.0224 0.6817
vn -0.9886 -0.0134 0.1498
vn -0.9969 0.0229 -0.0751
vn -0.7274 0.2896 0.6221
vn -0.9391 0.1495 0.3093
vn -0.9919 -0.0322 -0.1228
vn -0.7775 0.1361 -0.6140
vn -0.3609 -0.0309 0.9321
vn -0.6342 0.1909 -0.7493
vn -0.5968 -0.1973 -0.7778
vn -0.5709 -0.1685 -0.8036
vn -0.5500 -0.1460 -0.8223
vn -0.2604 -0.6250 -0.7359
vn -0.2792 -0.6350 -0.7202
vn -0.2308 -0.6085 -0.7592
vn -0.0301 -0.0952 -0.9950
vn -0.1035 0.5030 -0.8581
vn -0.0708 0.5445 -0.8358
vn -0.1370 0.4957 -0.8576
vn -0.1204 0.4645 -0.8773
vn -0.0857 0.4429 -0.8925
vn 0.0517 0.3460 -0.9368
vn 0.0247 0.0926 -0.9954
vn -0.1906 -0.0891 -0.9776
vn -0.0504 -0.1380 -0.9892
vn -0.6672 -0.0760 -0.7410
vn -0.7231 -0.0541 -0.6887
vn -0.3179 -0.0620 -0.9461
vn -0.1810 0.2420 -0.9532
vn -0.6145 0.6611 0.4305
vn -0.6074 0.6474 -0.4604
vn 0.0000 -0.1294 -0.9916
vn 0.0000 -0.1708 -0.9853
vn -0.0118 -0.9999 -0.0024
vn 0.0118 -0.9999 -0.0024
vn 0.0043 -1.0000 -0.0044
vn 0.0040 -1.0000 -0.0058
vn -0.0043 -1.0000 -0.0044
vn -0.0040 -1.0000 -0.0058
vn -0.0019 -1.0000 -0.0078
vn 0.0019 -1.0000 -0.0078
vn -0.0003 -1.0000 -0.0080
vn 0.0003 -1.0000 -0.0080
vn 0.0000 -1.0000 -0.0078
vn 0.0000 -1.0000 -0.0071
vn 0.5500 -0.1460 -0.8223
vn 0.2308 -0.6085 -0.7592
vn -0.0247 0.0926 -0.9954
vn -0.6184 -0.2223 -0.7537
vn -0.2975 -0.6445 -0.7044
vn 0.9997 -0.0231 -0.0008
vn 0.9884 0.0809 -0.1289
vn 0.9846 0.1749 0.0000
vn 0.2496 0.9683 0.0000
vn 0.4729 0.8773 0.0821
vn 0.4607 0.8875 0.0000
vn -0.1129 -0.0611 0.9917
vn -0.0210 -0.0372 0.9991
vn -0.0171 -0.0479 0.9987
vn -0.0213 -0.0446 0.9988
vn 0.9965 -0.0223 -0.0809
vn 0.9954 -0.0956 0.0114
vn -0.0131 -0.0276 0.9995
vn 0.9968 -0.0543 0.0595
vn 0.9889 -0.0067 0.1487
vn 0.4729 0.8773 -0.0821
vn 0.2552 0.9635 -0.0809
vn 0.9883 0.0850 0.1267
vn -0.2269 0.9739 0.0000
vn -0.0554 0.9952 -0.0806
vn -0.1921 0.9789 -0.0703
vn -0.0502 0.9987 0.0000
vn -0.0121 -0.0253 -0.9996
vn -0.0013 -0.0351 -0.9994
vn -0.0465 -0.0556 -0.9974
vn -0.0137 -0.0495 -0.9987
vn -0.0212 -0.0388 -0.9990
vn -0.0554 0.9952 0.0806
vn 0.2552 0.9635 0.0809
vn -0.1921 0.9789 0.0703
vn -0.0029 -0.0081 -1.0000
vn -0.0606 -0.0002 -0.9982
vn -0.0131 -0.0276 -0.9995
vn 0.9955 0.0557 0.0770
vn 0.9973 0.0578 -0.0442
vn -0.0029 -0.0081 1.0000
vn -0.0606 -0.0002 0.9982
vn 0.0000 -0.0000 1.0000
vn -1.0000 -0.0036 0.0001
vn -1.0000 -0.0037 0.0002
vn 0.4141 -0.9102 0.0018
vn 0.0270 -0.9996 0.0001
vn 0.0554 -0.9985 0.0002
vn 0.9881 -0.0073 -0.1534
vn 0.0103 0.0188 0.9998
vn -1.0000 -0.0036 0.0000
vn 0.9763 0.0261 -0.2147
vn 0.0000 -0.0167 0.9999
vn -0.2039 0.1700 -0.9641
vn -0.0870 0.2871 -0.9539
vn -0.2097 0.4040 -0.8904
vn 0.0331 0.0072 -0.9994
vn 0.0097 0.0302 -0.9995
vn 0.0260 0.0142 -0.9996
vn 0.0256 -0.0409 -0.9988
vn 0.0557 -0.1161 -0.9917
vn 0.0828 -0.1023 -0.9913
vn 0.0500 -0.0094 -0.9987
vn -0.2835 -0.0123 -0.9589
vn -0.1937 0.1314 -0.9722
vn 0.9971 -0.0697 -0.0295
vn 0.9765 -0.0298 -0.2135
vn 0.9974 -0.0391 -0.0606
vn 0.9976 -0.0624 0.0292
vn 0.0753 -0.4978 -0.8640
vn -0.0015 0.9990 0.0448
vn -0.0011 0.9990 0.0436
vn 0.0000 0.9990 0.0454
vn -0.0027 0.9989 0.0460
vn -0.0019 0.9991 0.0432
vn -0.9999 -0.0166 -0.0003
vn -0.9999 -0.0167 -0.0002
vn -0.9999 -0.0168 0.0000
vn -0.2694 0.4583 -0.8470
vn 0.3947 0.4944 -0.7744
vn 0.0000 -0.0560 -0.9984
vn 0.9944 -0.0282 0.1023
vn -0.9999 -0.0164 -0.0005
vn 0.0790 -0.0574 0.9952
vn 0.0568 -0.1141 0.9918
vn 0.1208 -0.0226 0.9924
vn 0.0112 0.0029 0.9999
vn 0.0240 -0.0075 0.9997
vn 0.8707 0.1542 0.4671
vn 0.9882 -0.0158 0.1521
vn 0.9156 0.2818 0.2870
vn 0.9200 0.2468 -0.3045
vn -0.1044 0.1209 0.9871
vn -0.0832 0.0245 0.9962
vn 0.9878 -0.0140 -0.1549
vn 0.9921 -0.0759 0.0997
vn 0.9910 -0.0887 -0.1006
vn 0.9684 -0.0602 0.2421
vn 0.9554 0.0011 0.2953
vn -0.0780 -0.0586 0.9952
vn -0.0820 -0.1921 0.9779
vn 0.8910 0.0833 -0.4463
vn 0.9540 0.0164 -0.2994
vn -0.0042 0.0819 -0.9966
vn 0.0874 0.0316 -0.9957
vn 0.0145 0.0383 -0.9992
vn 0.1167 -0.0449 -0.9921
vn -1.0000 0.0015 0.0085
vn -1.0000 -0.0001 0.0083
vn -1.0000 0.0011 0.0073
vn 0.0181 -0.0376 -0.9991
vn -0.0592 0.0244 -0.9979
vn 0.6594 0.4786 0.5798
vn 0.8851 0.4174 -0.2056
vn 0.8723 0.4475 0.1972
vn 0.0026 0.2425 0.9701
vn -0.0729 0.4645 0.8826
vn 0.0619 0.2855 0.9564
vn -0.2942 0.9415 -0.1645
vn -0.3032 0.9366 -0.1756
vn -0.4050 0.8946 -0.1888
vn -0.9280 0.3612 -0.0909
vn -0.8789 0.4706 -0.0780
vn -0.8420 0.5349 -0.0694
vn -1.0000 -0.0000 0.0068
vn -1.0000 0.0043 0.0040
vn -0.1735 0.9778 -0.1175
vn -0.1405 0.9834 -0.1152
vn 0.0007 0.0648 -0.9979
vn -1.0000 0.0028 0.0076
vn -0.0745 -0.0295 -0.9968
vn -0.0259 0.4349 0.9001
vn -0.0021 0.0410 -0.9992
vn -0.9347 0.3432 -0.0929
vn 0.0073 0.9998 -0.0204
vn 0.0000 -0.2812 0.9597
vn -0.0267 -0.0607 0.9978
vn 0.0000 0.0012 1.0000
vn 0.1964 -0.2575 0.9461
vn 0.1934 -0.1414 0.9709
vn 0.3273 -0.2258 0.9176
vn 0.0000 -0.1000 0.9950
vn 0.2609 -0.2155 0.9410
vn 0.5918 -0.0948 0.8005
vn 0.7537 -0.1519 0.6395
vn 0.5912 -0.0813 0.8024
vn 0.2147 -0.1017 0.9714
vn 0.0700 -0.0170 0.9974
vn -0.0000 -0.0118 0.9999
vn 0.0797 -0.2189 0.9725
vn 0.3218 -0.2187 0.9212
vn 0.0877 -0.2358 -0.9678
vn 0.0225 -0.1120 -0.9935
vn 0.6233 -0.0688 -0.7789
vn -0.0000 -0.1738 -0.9848
vn 0.0268 -0.1468 -0.9888
vn 0.1213 0.0512 -0.9913
vn 0.1726 0.1299 -0.9764
vn 0.0000 0.4186 -0.9082
vn 0.2046 -0.4784 -0.8540
vn 0.2135 -0.4912 -0.8445
vn 0.1266 -0.1931 -0.9730
vn 0.0000 0.4949 -0.8689
vn 0.0813 0.0251 -0.9964
vn 0.0680 -0.1582 -0.9851
vn 0.9915 -0.0088 -0.1298
vn 0.5595 -0.5568 -0.6140
vn 0.7629 -0.6172 0.1928
vn 0.8252 -0.5571 -0.0931
vn 0.9796 -0.0483 0.1951
vn 0.0000 -0.8600 -0.5103
vn 0.3802 -0.9137 -0.1432
vn 0.3834 -0.7792 -0.4959
vn 0.6226 -0.7744 0.1127
vn 0.0291 -0.9969 -0.0734
vn 0.0000 -0.8722 -0.4892
vn 0.0267 -0.0607 0.9978
vn -0.1964 -0.2575 0.9461
vn -0.3273 -0.2258 0.9176
vn -0.1934 -0.1414 0.9709
vn -0.2609 -0.2155 0.9410
vn -0.5918 -0.0948 0.8005
vn -0.5912 -0.0813 0.8024
vn -0.2147 -0.1017 0.9714
vn -0.0700 -0.0170 0.9974
vn -0.0797 -0.2189 0.9725
vn -0.3218 -0.2187 0.9212
vn -0.0225 -0.1120 -0.9935
vn -0.0877 -0.2358 -0.9678
vn -0.6233 -0.0688 -0.7789
vn -0.0268 -0.1468 -0.9888
vn -0.1213 0.0512 -0.9913
vn -0.1726 0.1299 -0.9764
vn -0.1266 -0.1931 -0.9730
vn -0.2046 -0.4784 -0.8540
vn -0.2135 -0.4912 -0.8445
vn -0.0813 0.0251 -0.9964
vn -0.0680 -0.1582 -0.9851
vn -0.5595 -0.5568 -0.6140
vn -0.9915 -0.0088 -0.1298
vn -0.7629 -0.6172 0.1928
vn -0.9796 -0.0483 0.1951
vn -0.7537 -0.1519 0.6395
vn -0.0399 -0.1648 -0.9855
vn -0.3802 -0.9137 -0.1432
vn -0.8252 -0.5571 -0.0931
vn -0.3834 -0.7792 -0.4959
vn -0.6226 -0.7744 0.1127
vn 0.0000 -0.7645 -0.6447
vn -0.0118 0.9999 0.0024
vn 0.0118 0.9999 0.0024
vn 0.0043 1.0000 0.0044
vn 0.0040 1.0000 0.0058
vn 0.0019 1.0000 0.0078
vn -0.0043 1.0000 0.0044
vn -0.0040 1.0000 0.0058
vn -0.0019 1.0000 0.0078
vn 0.0003 1.0000 0.0080
vn -0.0003 1.0000 0.0080
vn 0.0000 1.0000 0.0078
vn 0.0000 1.0000 0.0071
vn -0.0000 -0.2321 0.9727
vn 0.0399 -0.1648 -0.9855
vn -0.0000 -0.2086 -0.9780
vn -0.0291 -0.9969 -0.0734
vn -0.1426 0.1546 0.9776
vn -0.1234 -0.0685 0.9900
vn -0.2456 -0.0134 0.9693
vn 0.1355 0.1540 0.9787
vn -0.0010 -0.1012 0.9949
vn 0.2967 0.1312 0.9459
vn 0.2363 -0.0105 0.9716
vn 0.2950 -0.1659 0.9410
vn 0.3031 -0.1689 0.9379
vn 0.1216 -0.0675 0.9903
vn 0.0255 -0.2286 0.9732
vn -0.2479 -0.1860 0.9508
vn -0.2952 -0.1613 0.9417
vn 0.0487 0.4517 0.8909
vn 0.0275 0.4562 0.8894
vn -0.0802 0.4477 0.8906
vn -0.3392 -0.0170 0.9406
vn 0.3202 0.0035 0.9473
vn -0.2311 0.2435 0.9420
vn 0.2038 0.2553 0.9451
vn 0.4623 -0.0533 0.8851
vn -0.0126 -0.3834 0.9235
vn -0.0253 -0.3451 0.9382
vn -0.4240 -0.0159 0.9055
vn -0.3447 -0.1235 0.9305
vn 0.3516 -0.1929 0.9160
vn 0.1594 0.4478 0.8798
vn -0.0452 -0.0071 0.9990
vn -0.2499 0.0327 0.9677
vn -0.0489 -0.0973 0.9940
vn -0.0389 0.2543 0.9663
vn -0.0331 0.4817 0.8757
vn -0.2943 0.3201 0.9005
vn 0.1547 0.0253 0.9876
vn 0.2314 0.3090 0.9225
vn 0.3805 0.1833 0.9064
vn -0.3167 0.1267 0.9400
vn -0.9984 0.0079 -0.0559
vn -0.9905 0.0062 0.1371
vn -0.9900 0.0706 0.1217
vn -0.9943 -0.0895 0.0573
vn -0.9937 -0.0224 0.1101
vn -0.9999 -0.0021 -0.0101
vn -0.9497 -0.0044 0.3131
vn -0.9673 -0.0086 0.2536
vn -0.9780 -0.0127 0.2080
vn -0.9928 0.0097 0.1196
vn -0.5872 0.4018 0.7027
vn 0.5047 0.4399 0.7428
vn -0.9998 -0.0189 0.0027
vn -0.9939 -0.0537 0.0960
vn -0.5992 0.0066 0.8006
vn -0.5986 0.0084 0.8010
vn -0.6004 0.0023 0.7997
vn -0.0020 0.0000 -1.0000
vn -0.0033 0.0077 -1.0000
vn 0.1469 0.0033 -0.9891
vn 0.0920 0.0286 -0.9954
vn -0.1480 0.0069 -0.9890
vn -0.1194 0.0057 -0.9928
vn -0.0319 0.0212 -0.9993
vn -0.1509 0.0000 -0.9885
vn 1.0000 -0.0008 0.0096
vn 1.0000 -0.0005 0.0084
vn 0.9999 -0.0058 0.0089
vn 0.9997 -0.0252 0.0040
vn 0.9999 -0.0103 0.0082
vn 1.0000 0.0007 0.0080
vn 1.0000 0.0007 0.0077
vn 0.5826 0.0002 0.8128
vn 0.5826 0.0003 0.8127
vn 0.5825 0.0001 0.8128
vn 1.0000 0.0000 0.0077
vn 0.0371 0.1362 -0.9900
vn 0.0695 0.0465 -0.9965
vn 0.0201 0.1421 -0.9896
vn 0.0607 -0.0691 -0.9958
vn -0.0797 0.4483 0.8903
vn -0.4738 0.1153 0.8730
vn 0.5301 0.0362 0.8471
vn 0.1678 0.4397 0.8823
vn -0.4191 0.1594 0.8938
vn -0.9728 -0.0190 0.2310
vn -0.6010 0.0000 0.7992
vn 0.1469 0.0000 -0.9892
vn 0.5825 0.0000 0.8128
vn -0.0101 0.2231 -0.9748
vn -0.9997 -0.0231 -0.0008
vn -0.9846 0.1749 0.0000
vn -0.9884 0.0809 -0.1289
vn -0.2496 0.9683 0.0000
vn -0.4607 0.8875 0.0000
vn -0.4729 0.8773 0.0821
vn 0.1129 -0.0611 0.9917
vn 0.0171 -0.0479 0.9987
vn 0.0210 -0.0372 0.9991
vn 0.0213 -0.0446 0.9988
vn -0.9965 -0.0223 -0.0809
vn -0.9954 -0.0956 0.0114
vn 0.0131 -0.0276 0.9995
vn -0.9968 -0.0543 0.0595
vn -0.9889 -0.0067 0.1487
vn -0.2552 0.9635 -0.0809
vn -0.4729 0.8773 -0.0821
vn -0.9883 0.0850 0.1267
vn 0.2269 0.9739 -0.0000
vn 0.1921 0.9789 -0.0703
vn 0.0554 0.9952 -0.0806
vn 0.0502 0.9987 0.0000
vn 0.0121 -0.0253 -0.9996
vn 0.0465 -0.0556 -0.9974
vn 0.0013 -0.0351 -0.9994
vn 0.0212 -0.0388 -0.9990
vn 0.0137 -0.0495 -0.9987
vn 0.0554 0.9952 0.0806
vn -0.2552 0.9635 0.0809
vn 0.1921 0.9789 0.0703
vn 0.0029 -0.0081 -1.0000
vn 0.0131 -0.0276 -0.9995
vn 0.0606 -0.0002 -0.9982
vn -0.9973 0.0578 -0.0442
vn -0.9955 0.0557 0.0770
vn 0.0029 -0.0081 1.0000
vn 0.0606 -0.0002 0.9982
vn 1.0000 -0.0036 0.0001
vn 1.0000 -0.0037 0.0002
vn -0.4141 -0.9102 0.0018
vn -0.0554 -0.9985 0.0002
vn -0.0270 -0.9996 0.0001
vn -0.9881 -0.0073 -0.1534
vn -0.0103 0.0188 0.9998
vn 1.0000 -0.0036 0.0000
vn -0.9763 0.0261 -0.2147
vn 0.2039 0.1700 -0.9641
vn 0.2097 0.4040 -0.8904
vn 0.0870 0.2871 -0.9539
vn -0.0332 0.0072 -0.9994
vn -0.0260 0.0142 -0.9996
vn -0.0097 0.0302 -0.9995
vn -0.0256 -0.0409 -0.9988
vn -0.0828 -0.1023 -0.9913
vn -0.0557 -0.1161 -0.9917
vn -0.0501 -0.0094 -0.9987
vn 0.1937 0.1314 -0.9722
vn 0.2835 -0.0123 -0.9589
vn -0.9971 -0.0697 -0.0295
vn -0.9974 -0.0391 -0.0606
vn -0.9765 -0.0298 -0.2135
vn -0.9976 -0.0624 0.0292
vn -0.0753 -0.4978 -0.8640
vn 0.0015 0.9990 0.0448
vn 0.0011 0.9990 0.0436
vn 0.0027 0.9989 0.0460
vn 0.0019 0.9991 0.0432
vn 0.9999 -0.0166 -0.0003
vn 0.9999 -0.0168 0.0000
vn 0.9999 -0.0167 -0.0002
vn 0.2694 0.4583 -0.8470
vn -0.3947 0.4944 -0.7744
vn -0.9944 -0.0282 0.1023
vn 0.9999 -0.0164 -0.0005
vn -0.0790 -0.0574 0.9952
vn -0.1208 -0.0226 0.9924
vn -0.0568 -0.1141 0.9918
vn -0.0240 -0.0075 0.9997
vn -0.0112 0.0029 0.9999
vn -0.8707 0.1542 0.4671
vn -0.9156 0.2818 0.2870
vn -0.9882 -0.0158 0.1521
vn -0.9200 0.2468 -0.3045
vn 0.0832 0.0245 0.9962
vn 0.1044 0.1209 0.9871
vn -0.9878 -0.0140 -0.1549
vn -0.9910 -0.0887 -0.1006
vn -0.9921 -0.0759 0.0997
vn -0.9684 -0.0602 0.2421
vn -0.9554 0.0011 0.2953
vn 0.0780 -0.0586 0.9952
vn 0.0820 -0.1921 0.9779
vn -0.8910 0.0833 -0.4463
vn -0.9540 0.0164 -0.2994
vn 0.0042 0.0819 -0.9966
vn -0.0145 0.0383 -0.9992
vn -0.0874 0.0316 -0.9957
vn -0.1167 -0.0449 -0.9921
vn 1.0000 0.0015 0.0085
vn 1.0000 0.0011 0.0073
vn 1.0000 -0.0001 0.0083
vn -0.0181 -0.0376 -0.9991
vn 0.0592 0.0244 -0.9979
vn -0.6594 0.4786 0.5798
vn -0.8723 0.4475 0.1972
vn -0.8851 0.4174 -0.2056
vn 0.0729 0.4645 0.8826
vn -0.0026 0.2425 0.9701
vn -0.0619 0.2855 0.9564
vn 0.2942 0.9415 -0.1645
vn 0.4050 0.8946 -0.1888
vn 0.3032 0.9366 -0.1756
vn 0.9280 0.3612 -0.0909
vn 0.8420 0.5349 -0.0694
vn 0.8789 0.4706 -0.0780
vn 1.0000 0.0043 0.0040
vn 1.0000 -0.0000 0.0068
vn 0.1735 0.9778 -0.1175
vn 0.1405 0.9834 -0.1152
vn -0.0007 0.0648 -0.9979
vn 1.0000 0.0028 0.0076
vn 0.0745 -0.0295 -0.9968
vn 0.0259 0.4349 0.9001
vn 0.0021 0.0410 -0.9992
vn 0.9347 0.3432 -0.0929
vn -0.0073 0.9998 -0.0204
s 1
f 1/1/1 2/2/2 3/3/3
f 4/4/4 5/5/5 6/6/6
f 4/7/4 7/8/7 8/9/8
f 9/10/9 10/11/10 1/1/1
f 5/5/5 11/12/11 12/13/12
f 13/14/13 1/15/1 7/8/7
f 14/16/14 5/5/15 12/13/16
f 15/17/17 13/18/13 4/19/4
f 16/20/18 4/19/4 6/21/6
f 17/22/19 18/23/20 19/24/21
f 20/25/22 21/26/23 22/27/24
f 19/24/21 23/28/25 20/25/22
f 22/27/24 24/29/26 25/30/27
f 26/31/28 27/32/29 28/33/30
f 29/34/31 30/35/32 31/36/33
f 31/36/33 32/37/34 33/38/34
f 34/39/35 35/40/36 29/41/31
f 36/42/37 34/39/35 37/43/37
f 35/44/36 32/45/38 30/46/32
f 38/47/39 26/48/28 28/49/30
f 39/50/40 33/38/34 32/37/34
f 40/51/41 41/52/42 42/53/43
f 43/54/44 44/55/45 40/51/41
f 43/54/44 45/56/46 46/57/47
f 47/58/48 48/59/49 43/54/50
f 47/58/48 40/51/51 49/60/52
f 50/61/53 40/51/54 42/53/55
f 51/62/56 52/63/57 53/64/58
f 54/65/59 55/66/60 56/67/61
f 57/68/62 55/66/60 58/69/63
f 5/5/15 59/70/64 6/6/65
f 16/20/66 60/71/67 15/17/68
f 3/3/69 61/72/70 62/73/71
f 16/20/72 59/74/64 63/75/73
f 9/10/74 64/76/75 65/77/75
f 15/17/68 66/78/76 9/79/76
f 2/2/77 67/80/78 61/81/77
f 65/77/79 67/80/78 10/11/80
f 24/82/81 68/83/82 69/84/83
f 18/85/84 68/86/82 23/87/85
f 24/29/86 70/88/86 25/30/86
f 19/24/87 71/89/88 72/90/89
f 21/91/90 23/87/85 68/86/82
f 20/25/91 73/92/92 71/93/88
f 25/30/93 73/94/92 22/27/94
f 18/85/84 74/95/95 75/96/96
f 17/22/97 72/90/89 76/97/98
f 47/58/99 77/98/100 78/99/100
f 49/60/101 79/100/102 47/58/99
f 49/60/101 80/101/103 81/102/104
f 45/56/105 79/103/106 46/57/107
f 79/103/106 44/55/108 46/57/107
f 81/104/109 41/52/110 44/55/108
f 32/45/38 36/105/38 39/106/38
f 82/107/111 61/108/112 67/109/113
f 64/110/114 82/107/111 67/109/113
f 83/111/115 38/47/39 27/32/29
f 83/111/115 84/112/116 85/113/117
f 26/31/28 86/114/118 83/111/115
f 26/48/28 84/112/116 87/115/119
f 27/32/29 88/116/120 28/33/30
f 38/47/39 89/117/121 27/32/29
f 38/47/39 88/118/120 90/119/122
f 91/120/123 92/121/124 93/122/125
f 92/121/124 94/123/126 95/124/127
f 95/124/127 96/125/128 92/121/124
f 92/121/124 97/126/129 93/122/125
f 96/125/128 98/127/130 99/128/131
f 96/125/128 100/129/132 97/126/129
f 99/128/131 101/130/133 102/131/134
f 99/128/131 103/132/135 100/129/132
f 57/133/62 104/134/136 105/135/137
f 53/136/58 106/137/138 107/138/139
f 108/139/140 109/140/140 110/141/140
f 111/142/141 112/143/141 113/144/141
f 114/145/142 53/64/58 107/146/139
f 109/140/143 113/147/143 112/143/143
f 54/65/59 107/146/139 106/148/138
f 53/136/58 52/149/57 104/150/136
f 105/135/137 52/151/57 115/152/144
f 55/153/60 104/150/136 58/154/63
f 116/155/2 117/156/145 118/157/3
f 12/13/12 119/158/146 120/159/147
f 121/160/148 119/161/146 11/12/11
f 122/162/149 123/163/150 117/156/145
f 117/164/145 124/165/151 121/160/148
f 121/160/148 8/9/8 7/8/7
f 3/166/3 121/160/148 7/8/7
f 125/167/152 124/168/151 123/169/150
f 119/170/146 126/171/153 120/172/147
f 17/22/19 127/173/154 74/174/155
f 128/175/156 129/176/157 130/177/158
f 131/178/159 130/177/158 127/173/154
f 132/179/160 133/180/161 129/176/157
f 134/181/162 135/182/163 136/183/164
f 137/184/165 138/185/166 139/186/167
f 39/187/40 139/186/167 140/188/40
f 141/189/168 37/43/37 138/185/166
f 137/190/165 36/105/38 141/191/168
f 142/192/169 135/193/163 143/194/117
f 144/195/170 145/196/171 146/197/172
f 147/198/173 148/199/174 145/196/171
f 148/199/174 45/56/46 48/59/175
f 149/200/176 48/59/49 78/99/177
f 145/196/178 149/200/176 150/201/179
f 151/202/180 145/196/178 150/201/179
f 57/203/62 54/204/59 56/205/61
f 152/206/181 12/13/16 120/159/182
f 153/207/183 126/171/184 125/167/185
f 118/157/186 154/208/187 116/155/188
f 126/171/189 152/209/181 120/172/182
f 155/210/190 123/163/191 156/211/190
f 157/212/192 125/167/185 123/169/192
f 116/155/77 158/213/193 122/162/194
f 158/213/193 156/211/195 122/162/194
f 133/214/196 159/215/197 129/216/198
f 159/217/197 127/218/199 130/219/200
f 160/220/201 133/180/201 161/221/201
f 131/178/202 162/222/203 128/175/204
f 129/223/198 159/217/197 130/219/200
f 128/175/204 163/224/205 132/179/206
f 163/225/205 161/221/207 132/179/206
f 127/218/199 75/96/96 74/95/95
f 17/22/97 164/226/208 131/178/202
f 62/227/209 118/228/209 3/229/209
f 77/98/100 149/200/210 78/99/100
f 165/230/211 150/201/212 149/200/210
f 150/201/212 166/231/213 151/202/213
f 45/56/105 165/232/214 77/233/215
f 147/198/216 165/232/214 167/234/217
f 144/195/218 168/235/219 147/198/216
f 169/236/220 154/237/187 170/238/221
f 169/236/220 155/210/222 158/239/223
f 142/192/169 171/240/224 134/181/162
f 172/241/116 171/240/224 143/194/117
f 173/242/119 135/182/163 171/240/224
f 135/193/163 172/241/116 143/194/117
f 174/243/225 134/181/162 136/183/164
f 175/244/226 142/192/169 134/181/162
f 142/192/169 174/245/225 136/246/164
f 176/247/227 91/120/123 177/248/228
f 176/247/227 94/123/126 178/249/229
f 179/250/230 180/251/231 176/247/227
f 181/252/232 176/247/227 177/248/228
f 179/250/230 182/253/233 183/254/234
f 184/255/235 179/250/230 181/252/232
f 185/256/236 186/257/237 182/253/233
f 187/258/238 185/256/236 184/255/235
f 54/204/59 51/259/56 114/260/142
f 111/261/239 110/141/239 188/262/239
f 51/259/56 105/263/137 115/264/144
f 110/141/240 112/143/240 188/262/240
f 121/160/148 118/265/3 117/164/145
f 3/166/3 7/8/7 1/15/1
f 1/1/1 10/11/10 2/2/2
f 4/4/4 8/9/8 5/5/5
f 4/7/4 13/266/13 7/8/7
f 9/10/9 65/77/241 10/11/10
f 5/5/5 8/9/8 11/12/11
f 13/14/13 9/267/9 1/15/1
f 14/16/14 189/268/242 5/5/15
f 15/17/17 9/79/9 13/18/13
f 16/20/18 15/17/17 4/19/4
f 17/22/19 74/174/155 18/23/20
f 20/25/22 23/28/25 21/26/23
f 19/24/21 18/23/20 23/28/25
f 22/27/24 21/26/23 24/29/26
f 26/31/28 83/111/115 27/32/29
f 29/34/31 35/269/36 30/35/32
f 31/36/33 30/35/32 32/37/34
f 34/39/35 190/270/35 35/40/36
f 36/42/37 190/270/35 34/39/35
f 35/44/36 190/271/38 32/45/38
f 38/47/39 85/113/117 26/48/28
f 39/50/40 140/272/40 33/38/34
f 40/51/41 44/55/45 41/52/42
f 43/54/44 46/57/47 44/55/45
f 43/54/44 48/59/175 45/56/46
f 47/58/48 78/99/177 48/59/49
f 47/58/48 43/54/50 40/51/51
f 50/61/243 49/60/52 40/51/51
f 51/62/56 115/273/144 52/63/57
f 54/65/59 106/148/138 55/66/60
f 57/68/62 56/67/61 55/66/60
f 5/5/15 189/274/242 59/70/64
f 16/20/66 63/275/66 60/71/67
f 3/3/69 2/2/244 61/72/70
f 16/20/72 6/21/65 59/74/64
f 9/10/74 66/276/74 64/76/75
f 15/17/68 60/277/67 66/78/245
f 2/2/77 10/11/80 67/80/78
f 65/77/79 64/278/79 67/80/78
f 24/82/81 21/279/90 68/83/82
f 18/85/84 75/96/96 68/86/82
f 24/29/86 69/280/86 70/88/86
f 19/24/87 20/25/91 71/89/88
f 20/25/91 22/27/94 73/92/92
f 25/30/93 70/281/246 73/94/92
f 17/22/97 19/24/87 72/90/89
f 47/58/99 79/100/102 77/98/100
f 49/60/101 81/102/104 79/100/102
f 49/60/101 50/61/103 80/101/103
f 45/56/105 77/233/215 79/103/106
f 79/103/106 81/104/109 44/55/108
f 81/104/247 80/282/248 41/52/110
f 32/45/38 190/271/38 36/105/38
f 82/107/111 62/283/249 61/108/112
f 64/110/114 66/284/250 82/107/111
f 83/111/115 85/113/117 38/47/39
f 83/111/115 86/114/118 84/112/116
f 26/31/28 87/285/119 86/114/118
f 26/48/28 85/113/117 84/112/116
f 27/32/29 89/117/121 88/116/120
f 38/47/39 90/119/122 89/117/121
f 38/47/39 28/49/30 88/118/120
f 91/120/123 178/249/229 92/121/124
f 92/121/124 178/249/229 94/123/126
f 95/124/127 191/286/251 96/125/128
f 92/121/124 96/125/128 97/126/129
f 96/125/128 191/286/251 98/127/130
f 96/125/128 99/128/131 100/129/132
f 99/128/131 98/127/130 101/130/133
f 99/128/131 102/131/134 103/132/135
f 57/133/62 58/287/63 104/134/136
f 53/136/58 104/150/136 106/137/138
f 108/139/140 192/288/140 109/140/140
f 111/142/141 188/262/141 112/143/141
f 114/145/142 51/62/56 53/64/58
f 109/140/143 192/289/143 113/147/143
f 54/65/59 114/145/142 107/146/139
f 105/135/137 104/134/136 52/151/57
f 55/153/60 106/137/138 104/150/136
f 116/155/2 122/162/149 117/156/145
f 12/13/12 11/12/11 119/158/146
f 121/160/148 124/290/151 119/161/146
f 122/162/149 156/211/252 123/163/150
f 117/164/145 123/291/150 124/165/151
f 121/160/148 11/12/11 8/9/8
f 3/166/3 118/265/3 121/160/148
f 125/167/152 119/170/146 124/168/151
f 119/170/146 125/167/152 126/171/153
f 17/22/19 131/178/159 127/173/154
f 128/175/156 132/179/160 129/176/157
f 131/178/159 128/175/156 130/177/158
f 132/179/160 161/221/253 133/180/161
f 134/181/162 171/240/224 135/182/163
f 137/184/165 141/189/168 138/185/166
f 39/187/40 137/184/165 139/186/167
f 141/189/168 36/42/37 37/43/37
f 137/190/165 39/106/38 36/105/38
f 142/192/169 136/246/164 135/193/163
f 144/195/170 147/198/173 145/196/171
f 147/198/173 167/234/254 148/199/174
f 148/199/174 167/234/254 45/56/46
f 149/200/176 148/199/255 48/59/49
f 145/196/178 148/199/255 149/200/176
f 151/202/180 146/197/55 145/196/178
f 57/203/62 105/263/137 54/204/59
f 152/206/181 14/292/14 12/13/16
f 153/207/183 193/293/184 126/171/184
f 118/157/186 170/294/221 154/208/187
f 126/171/189 193/295/256 152/209/181
f 155/210/190 157/296/191 123/163/191
f 157/212/192 153/297/183 125/167/185
f 116/155/77 154/298/77 158/213/193
f 158/213/193 155/299/195 156/211/195
f 133/214/196 194/300/257 159/215/197
f 159/217/197 75/96/96 127/218/199
f 160/220/201 194/301/201 133/180/201
f 131/178/202 164/226/208 162/222/203
f 128/175/204 162/302/203 163/224/205
f 163/225/205 160/303/258 161/221/207
f 17/22/97 76/97/98 164/226/208
f 62/227/209 170/304/209 118/228/209
f 77/98/100 165/230/211 149/200/210
f 165/230/211 168/305/259 150/201/212
f 150/201/212 168/305/259 166/231/213
f 45/56/105 167/234/217 165/232/214
f 147/198/216 168/235/219 165/232/214
f 144/195/218 166/306/260 168/235/219
f 169/236/220 158/239/223 154/237/187
f 169/236/220 157/296/261 155/210/222
f 142/192/169 143/194/117 171/240/224
f 172/241/116 173/242/119 171/240/224
f 173/242/119 195/307/118 135/182/163
f 135/193/163 195/308/118 172/241/116
f 174/243/225 175/244/226 134/181/162
f 175/244/226 196/309/122 142/192/169
f 142/192/169 196/309/122 174/245/225
f 176/247/227 178/249/229 91/120/123
f 176/247/227 180/251/231 94/123/126
f 179/250/230 183/254/234 180/251/231
f 181/252/232 179/250/230 176/247/227
f 179/250/230 185/256/236 182/253/233
f 184/255/235 185/256/236 179/250/230
f 185/256/236 197/310/262 186/257/237
f 187/258/238 197/310/262 185/256/236
f 54/204/59 105/263/137 51/259/56
f 111/261/239 108/311/239 110/141/239
f 110/141/240 109/140/240 112/143/240
f 198/312/263 199/313/264 200/314/265
f 201/315/266 198/312/263 202/316/267
f 198/312/263 200/314/265 202/316/267
f 201/315/266 203/317/268 204/318/269
f 205/319/270 206/320/271 207/321/272
f 200/314/265 208/322/273 202/316/267
f 200/314/265 209/323/274 210/324/275
f 211/325/276 207/321/277 208/322/278
f 209/323/274 199/313/264 212/326/279
f 203/317/268 205/319/270 213/327/280
f 214/328/281 201/315/266 215/329/282
f 205/319/270 216/330/283 213/327/280
f 209/323/274 217/331/284 211/325/285
f 218/332/286 219/333/287 209/323/274
f 220/334/288 216/330/283 205/319/270
f 205/319/270 217/331/284 220/334/288
f 210/324/289 211/325/276 208/322/278
f 221/335/290 217/331/291 219/333/292
f 222/336/293 223/337/294 224/338/295
f 222/336/293 219/333/292 223/337/294
f 222/336/293 220/334/296 221/335/290
f 221/335/290 220/334/296 217/331/291
f 222/336/293 224/338/295 225/339/297
f 215/329/282 204/318/269 226/340/298
f 214/328/281 227/341/299 198/312/263
f 212/326/279 218/332/286 209/323/274
f 228/342/300 229/343/301 230/344/302
f 231/345/303 232/346/304 233/347/305
f 229/343/301 212/326/306 230/344/302
f 233/347/305 212/326/306 199/313/307
f 233/347/305 199/313/307 227/341/308
f 231/345/303 227/341/308 234/348/309
f 215/329/310 235/349/310 214/328/310
f 214/328/311 235/349/311 234/348/311
f 215/329/312 226/340/312 236/350/312
f 231/345/303 237/351/313 232/346/304
f 231/345/303 234/348/309 238/352/314
f 239/353/315 234/348/316 235/349/317
f 240/354/318 241/355/319 242/356/320
f 243/357/321 242/356/320 241/355/319
f 232/346/322 244/358/323 228/342/324
f 237/351/325 242/356/320 232/346/322
f 203/317/326 243/359/327 241/360/328
f 216/330/329 243/359/327 213/327/330
f 204/318/331 203/317/326 241/360/328
f 226/340/332 204/318/331 241/360/328
f 236/350/333 245/361/334 246/362/335
f 247/363/336 226/340/332 241/360/328
f 246/364/337 238/365/338 239/366/338
f 238/365/338 247/367/338 237/368/338
f 240/369/338 237/368/338 247/367/338
f 235/349/339 246/362/339 239/353/339
f 208/322/273 206/320/271 202/316/267
f 233/347/305 228/342/300 230/344/302
f 202/316/267 206/320/271 201/315/266
f 218/370/340 225/371/341 223/372/342
f 224/373/343 223/372/342 225/371/341
f 228/374/100 244/375/100 229/376/100
f 229/376/100 216/377/100 218/370/100
f 216/377/100 244/375/100 243/378/100
f 198/312/263 227/341/299 199/313/264
f 201/315/266 206/320/271 203/317/268
f 200/314/265 210/324/275 208/322/273
f 211/325/276 205/319/344 207/321/277
f 209/323/274 200/314/265 199/313/264
f 203/317/268 206/320/271 205/319/270
f 214/328/281 198/312/263 201/315/266
f 209/323/274 219/333/287 217/331/284
f 218/332/286 223/337/345 219/333/287
f 220/334/288 225/339/346 216/330/283
f 205/319/270 211/325/285 217/331/284
f 210/324/289 209/323/347 211/325/276
f 222/336/293 221/335/290 219/333/292
f 222/336/293 225/339/297 220/334/296
f 215/329/282 201/315/266 204/318/269
f 214/328/281 234/348/348 227/341/299
f 229/343/301 218/332/349 212/326/306
f 233/347/305 230/344/302 212/326/306
f 231/345/303 233/347/305 227/341/308
f 215/329/310 236/350/310 235/349/310
f 231/345/303 238/352/314 237/351/313
f 239/353/315 238/352/350 234/348/316
f 240/354/318 247/379/351 241/355/319
f 243/357/321 244/358/323 242/356/320
f 232/346/322 242/356/320 244/358/323
f 237/351/325 240/354/318 242/356/320
f 203/317/326 213/327/330 243/359/327
f 236/350/333 226/340/352 245/361/334
f 247/363/336 245/361/336 226/340/332
f 246/364/337 245/380/338 238/365/338
f 238/365/338 245/380/338 247/367/338
f 235/349/339 236/350/339 246/362/339
f 208/322/273 207/321/272 206/320/271
f 233/347/305 232/346/304 228/342/300
f 218/370/340 216/377/353 225/371/341
f 216/377/100 229/376/100 244/375/100
f 248/381/354 249/382/355 250/383/356
f 251/384/357 250/383/356 252/385/358
f 253/386/359 248/381/354 251/384/357
f 254/387/360 255/388/361 248/381/354
f 256/389/362 257/390/363 258/391/364
f 257/390/363 259/392/365 258/391/364
f 260/393/366 261/394/367 256/389/362
f 262/395/368 256/389/362 263/396/369
f 258/391/364 249/382/370 255/388/371
f 256/389/362 255/388/371 263/396/369
f 264/397/372 263/396/373 265/398/374
f 263/396/373 266/399/375 265/398/374
f 253/386/359 266/399/375 254/387/360
f 267/400/376 264/397/372 265/398/374
f 264/397/372 267/400/376 268/401/377
f 262/395/368 269/402/378 270/403/379
f 261/394/367 271/404/380 272/405/381
f 268/401/377 273/406/382 269/402/378
f 260/393/366 270/403/379 271/404/380
f 267/400/376 266/399/375 274/407/383
f 264/397/372 268/401/377 269/402/378
f 275/408/384 276/409/384 277/410/384
f 278/411/385 275/408/386 279/412/387
f 280/413/388 278/411/389 279/412/390
f 281/414/391 278/411/392 282/415/393
f 283/416/394 277/410/395 276/409/396
f 284/417/397 283/416/394 285/418/398
f 283/416/399 281/414/391 285/418/400
f 279/412/401 286/419/402 287/420/403
f 279/412/401 288/421/404 286/419/402
f 286/422/402 269/402/378 273/406/382
f 288/423/404 270/403/379 269/402/378
f 275/408/405 270/424/379 288/421/404
f 270/403/379 260/393/366 262/395/368
f 289/425/406 290/426/407 257/390/363
f 272/405/381 271/404/380 270/403/379
f 291/427/408 292/428/409 293/429/410
f 293/430/410 270/424/379 277/410/411
f 292/431/409 289/425/406 257/390/363
f 284/417/412 294/432/413 277/410/411
f 295/433/414 249/382/355 296/434/415
f 297/435/416 250/383/356 295/433/414
f 298/436/417 295/433/414 299/437/418
f 299/437/418 296/434/415 300/438/419
f 301/439/420 302/440/421 303/441/422
f 259/392/365 302/440/421 304/442/423
f 303/441/422 305/443/424 301/439/420
f 301/439/420 306/444/425 300/438/426
f 249/382/370 304/442/423 296/434/427
f 296/434/427 301/439/420 300/438/426
f 300/438/419 307/445/428 308/446/429
f 300/438/419 309/447/430 299/437/418
f 309/447/430 298/436/417 299/437/418
f 310/448/431 308/446/429 307/445/428
f 307/445/428 311/449/432 310/448/431
f 306/444/425 312/450/433 307/445/428
f 303/441/422 313/451/434 314/452/435
f 311/449/432 312/450/433 315/453/436
f 305/443/424 314/452/435 316/454/437
f 309/447/430 310/448/431 317/455/438
f 307/445/428 312/450/433 311/449/432
f 318/456/439 319/457/439 320/458/439
f 321/459/440 318/456/441 320/458/442
f 280/413/443 321/459/444 282/415/445
f 321/459/446 281/414/391 282/415/393
f 322/460/447 320/458/448 319/457/449
f 322/460/447 284/417/450 285/418/451
f 322/460/452 281/414/391 320/458/453
f 323/461/454 324/462/455 325/463/456
f 323/461/454 326/464/457 318/456/458
f 312/450/433 325/463/456 315/453/436
f 326/464/457 312/450/433 316/454/437
f 318/456/458 316/454/437 319/457/459
f 316/454/437 306/444/425 305/443/424
f 289/425/406 302/440/421 290/426/407
f 316/454/437 313/451/434 327/465/460
f 291/427/408 327/466/460 289/467/406
f 319/457/459 316/454/437 328/468/461
f 302/440/421 289/425/406 327/465/460
f 284/417/412 319/457/459 294/432/413
f 324/462/455 280/413/462 329/469/463
f 287/420/403 280/413/462 279/412/401
f 273/470/338 267/471/338 286/472/464
f 310/473/338 315/474/338 325/475/465
f 317/476/466 325/475/465 324/477/467
f 286/472/464 274/478/468 287/479/469
f 274/478/468 253/480/470 287/479/469
f 317/476/466 324/477/467 298/481/471
f 297/482/472 298/481/471 324/477/467
f 251/483/473 287/479/469 253/480/470
f 287/479/469 252/484/474 329/485/475
f 324/477/467 252/484/474 297/482/472
f 248/381/354 255/388/361 249/382/355
f 251/384/357 248/381/354 250/383/356
f 253/386/359 254/387/360 248/381/354
f 254/387/360 263/396/373 255/388/361
f 256/389/362 261/394/367 257/390/363
f 257/390/363 290/426/407 259/392/365
f 260/393/366 271/404/380 261/394/367
f 262/395/368 260/393/366 256/389/362
f 258/391/364 259/392/365 249/382/370
f 256/389/362 258/391/364 255/388/371
f 264/397/372 262/395/368 263/396/373
f 263/396/373 254/387/360 266/399/375
f 253/386/359 274/407/383 266/399/375
f 262/395/368 264/397/372 269/402/378
f 267/400/376 265/398/374 266/399/375
f 278/411/385 276/409/476 275/408/386
f 280/413/388 282/415/477 278/411/389
f 281/414/391 276/409/478 278/411/392
f 284/417/397 277/410/395 283/416/394
f 283/416/399 276/409/478 281/414/391
f 279/412/401 275/408/405 288/421/404
f 286/422/402 288/423/404 269/402/378
f 275/408/405 277/410/411 270/424/379
f 270/403/379 293/486/410 292/431/409
f 292/431/409 272/405/381 270/403/379
f 291/427/408 289/467/406 292/428/409
f 294/432/413 291/487/408 277/410/411
f 291/487/408 293/430/410 277/410/411
f 261/394/367 272/405/381 257/390/363
f 272/405/381 292/431/409 257/390/363
f 295/433/414 250/383/356 249/382/355
f 297/435/416 252/385/358 250/383/356
f 298/436/417 297/435/416 295/433/414
f 299/437/418 295/433/414 296/434/415
f 301/439/420 304/442/423 302/440/421
f 259/392/365 290/426/407 302/440/421
f 303/441/422 314/452/435 305/443/424
f 301/439/420 305/443/424 306/444/425
f 249/382/370 259/392/365 304/442/423
f 296/434/427 304/442/423 301/439/420
f 300/438/419 306/444/425 307/445/428
f 300/438/419 308/446/429 309/447/430
f 309/447/430 317/455/438 298/436/417
f 306/444/425 316/454/437 312/450/433
f 309/447/430 308/446/429 310/448/431
f 321/459/440 323/461/479 318/456/441
f 280/413/443 323/461/480 321/459/444
f 321/459/446 320/458/453 281/414/391
f 322/460/447 319/457/449 284/417/450
f 322/460/452 285/418/400 281/414/391
f 323/461/454 325/463/456 326/464/457
f 312/450/433 326/464/457 325/463/456
f 318/456/458 326/464/457 316/454/437
f 327/465/460 328/468/461 316/454/437
f 316/454/437 314/452/435 313/451/434
f 291/427/408 328/488/461 327/466/460
f 328/468/461 291/487/408 319/457/459
f 291/487/408 294/432/413 319/457/459
f 327/465/460 313/451/434 302/440/421
f 313/451/434 303/441/422 302/440/421
f 324/462/455 323/461/454 280/413/462
f 287/420/403 329/469/463 280/413/462
f 273/470/338 268/489/338 267/471/338
f 310/473/338 311/490/338 315/474/338
f 317/476/466 310/473/338 325/475/465
f 286/472/464 267/471/338 274/478/468
f 287/479/469 251/483/473 252/484/474
f 324/477/467 329/485/475 252/484/474
f 330/491/481 331/492/482 332/493/483
f 333/494/484 334/495/485 332/493/486
f 335/496/487 336/497/488 337/498/489
f 337/498/489 338/499/490 335/496/487
f 339/500/491 330/491/481 340/501/492
f 337/498/489 336/497/488 341/502/493
f 338/503/494 330/491/481 335/504/495
f 333/494/484 331/492/496 342/505/497
f 330/491/481 334/495/498 335/504/495
f 343/506/499 344/507/500 345/508/501
f 346/509/502 342/505/497 344/507/500
f 339/510/503 347/511/504 348/512/505
f 348/512/505 342/513/506 331/514/507
f 343/506/499 341/515/508 346/509/502
f 346/509/502 336/516/509 333/494/484
f 345/508/501 349/517/510 343/506/499
f 350/518/511 345/519/512 344/520/513
f 350/518/511 347/511/504 351/521/240
f 351/521/240 347/511/504 339/510/503
f 340/501/492 352/522/514 353/523/515
f 354/524/516 337/498/489 341/502/493
f 347/511/504 344/520/513 342/513/506
f 354/524/516 341/502/493 349/525/517
f 352/526/518 338/499/490 337/498/489
f 349/525/519 350/518/519 354/524/520
f 353/527/521 352/528/522 351/529/523
f 350/530/338 351/529/523 354/531/338
f 352/528/522 354/531/338 351/529/523
f 353/523/515 339/500/491 340/501/492
f 330/491/481 348/532/524 331/492/482
f 333/494/484 336/516/509 334/495/485
f 335/496/487 334/533/525 336/497/488
f 339/500/491 348/532/524 330/491/481
f 338/503/494 340/501/492 330/491/481
f 333/494/484 332/493/486 331/492/496
f 330/491/481 332/493/483 334/495/498
f 343/506/499 346/509/502 344/507/500
f 346/509/502 333/494/484 342/505/497
f 348/512/505 347/511/504 342/513/506
f 343/506/499 349/517/510 341/515/508
f 346/509/502 341/515/508 336/516/509
f 350/518/511 344/520/513 347/511/504
f 340/501/492 338/503/494 352/522/514
f 354/524/516 352/526/518 337/498/489
f 349/525/519 345/519/526 350/518/519
f 353/523/515 351/534/527 339/500/491
f 355/535/528 356/536/528 357/537/528
f 358/538/529 359/539/530 360/540/531
f 361/541/532 360/540/533 362/542/534
f 363/543/535 358/538/536 361/541/537
f 363/543/538 361/541/532 362/542/534
f 358/538/529 364/544/539 365/545/540
f 363/543/541 362/542/542 366/546/543
f 366/546/543 356/536/544 363/543/541
f 361/541/537 358/538/536 367/547/545
f 366/548/546 355/549/547 357/550/548
f 362/551/549 365/552/550 366/548/546
f 362/551/518 359/553/518 365/552/518
f 368/554/338 363/555/338 356/556/338
f 355/535/551 364/557/552 368/558/553
f 355/535/528 368/558/528 356/536/528
f 360/540/531 367/547/554 358/538/529
f 358/538/529 365/545/540 359/539/530
f 361/541/555 367/547/555 360/540/555
f 363/543/535 364/544/556 358/538/536
f 366/546/543 357/537/557 356/536/544
f 366/548/546 365/552/550 355/549/547
f 362/551/518 360/559/518 359/553/518
f 368/554/338 364/560/338 363/555/338
f 355/535/551 365/561/558 364/557/552
f 369/562/559 370/563/560 371/564/561
f 369/562/559 372/565/562 373/566/563
f 374/567/564 375/568/565 376/569/566
f 375/568/565 377/570/567 376/569/566
f 372/565/562 378/571/568 379/572/569
f 380/573/570 381/574/571 382/575/572
f 370/563/573 375/568/565 371/564/574
f 383/576/575 379/572/569 384/577/576
f 373/566/563 379/572/569 383/576/575
f 380/573/570 385/578/577 377/570/567
f 380/573/570 382/575/572 386/579/578
f 387/580/579 386/579/580 388/581/581
f 382/575/582 388/581/581 386/579/580
f 378/571/583 389/582/584 379/572/585
f 390/583/586 389/584/587 388/581/581
f 376/569/566 391/585/588 374/567/564
f 376/569/566 392/586/589 393/587/590
f 378/571/568 394/588/591 395/589/592
f 374/567/593 395/589/592 394/588/591
f 377/570/567 385/578/577 392/586/589
f 389/584/587 387/580/579 388/581/581
f 385/590/594 395/591/595 391/592/596
f 392/593/597 391/592/598 393/594/599
f 371/564/561 394/588/591 372/565/562
f 379/572/585 396/595/600 384/577/601
f 373/566/563 383/576/575 369/562/559
f 383/576/575 370/563/560 369/562/559
f 387/596/602 378/597/603 395/591/595
f 381/598/338 384/599/338 396/600/338
f 381/598/338 390/601/338 382/602/338
f 369/562/559 371/564/561 372/565/562
f 374/567/564 371/564/574 375/568/565
f 375/568/565 380/573/570 377/570/567
f 372/565/562 394/588/591 378/571/568
f 380/573/570 375/568/565 381/574/571
f 370/563/573 381/574/571 375/568/565
f 373/566/563 372/565/562 379/572/569
f 380/573/570 386/579/578 385/578/577
f 387/580/579 385/578/604 386/579/580
f 382/575/582 390/583/586 388/581/581
f 378/571/583 397/603/605 389/582/584
f 390/583/586 396/604/606 389/584/587
f 376/569/566 393/587/590 391/585/588
f 376/569/566 377/570/567 392/586/589
f 374/567/593 391/585/607 395/589/592
f 389/584/587 397/605/608 387/580/579
f 385/590/594 387/596/602 395/591/595
f 392/593/597 385/590/609 391/592/598
f 371/564/561 374/567/593 394/588/591
f 379/572/585 389/582/584 396/595/600
f 383/576/575 384/577/576 370/563/560
f 387/596/602 397/606/610 378/597/603
f 381/598/338 370/607/338 384/599/338
f 381/598/338 396/600/338 390/601/338
f 398/608/611 399/609/612 400/610/613
f 401/611/614 402/612/615 403/613/616
f 401/611/614 404/614/617 402/612/615
f 405/615/618 406/616/619 407/617/620
f 402/612/615 406/616/619 403/613/616
f 408/618/621 402/612/615 409/619/622
f 410/620/623 409/619/622 402/612/615
f 411/621/624 412/622/625 410/620/623
f 404/614/617 410/620/623 402/612/615
f 413/623/626 403/613/616 405/615/618
f 401/611/614 399/609/612 398/608/611
f 414/624/627 415/625/628 416/626/629
f 417/627/630 418/628/631 415/625/628
f 419/629/632 420/630/633 421/631/634
f 422/632/635 420/630/636 423/633/637
f 419/629/632 417/627/638 415/625/639
f 424/634/640 419/629/632 415/625/639
f 425/635/641 426/636/642 416/637/629
f 425/635/641 427/638/643 428/639/644
f 429/640/645 406/616/619 427/638/643
f 416/626/629 426/641/642 414/624/627
f 406/616/619 408/618/621 427/638/643
f 422/632/646 414/624/627 426/641/642
f 430/642/647 422/643/646 426/644/642
f 430/642/647 426/644/642 428/645/644
f 412/646/648 430/642/647 409/647/649
f 409/647/649 427/648/643 408/649/650
f 412/646/648 431/650/651 430/642/647
f 409/647/649 430/642/647 428/645/644
f 424/634/640 422/632/635 423/633/637
f 398/608/611 400/610/613 432/651/652
f 433/652/653 434/653/654 435/654/655
f 433/652/653 404/614/617 398/608/611
f 436/655/656 437/656/657 434/653/654
f 437/656/657 435/654/655 434/653/654
f 438/657/658 439/658/659 435/654/655
f 439/658/659 440/659/660 435/654/655
f 441/660/661 411/621/624 440/659/660
f 440/659/660 404/614/617 435/654/655
f 442/661/662 434/653/654 433/652/653
f 433/652/653 432/651/652 442/661/662
f 443/662/663 444/663/664 445/664/665
f 446/665/666 417/627/630 443/662/663
f 447/666/667 420/630/668 448/667/669
f 422/632/670 448/667/669 420/630/671
f 417/627/638 447/666/667 443/662/672
f 449/668/673 447/666/667 448/667/669
f 450/669/674 451/670/675 445/664/665
f 451/670/675 452/671/676 453/672/677
f 453/672/677 437/656/657 454/673/678
f 445/664/665 444/663/664 450/669/674
f 437/656/657 452/671/676 438/657/658
f 422/632/646 444/663/664 449/668/679
f 455/674/680 422/643/646 431/650/651
f 455/674/680 456/675/681 450/676/674
f 441/677/682 439/678/683 455/674/680
f 439/678/683 452/679/676 456/675/681
f 441/677/682 431/650/651 457/680/684
f 439/678/683 456/675/681 455/674/680
f 449/668/673 448/667/669 422/632/670
f 418/628/631 416/626/629 415/625/628
f 445/664/665 446/665/666 443/662/663
f 451/681/100 454/682/100 445/683/685
f 407/684/100 425/685/100 416/686/686
f 405/687/687 416/686/686 418/688/688
f 405/687/687 418/688/688 413/689/689
f 445/683/685 436/690/690 446/691/691
f 436/690/690 442/692/692 446/691/691
f 432/693/693 446/691/691 442/692/692
f 399/694/694 413/689/689 418/688/688
f 400/695/695 418/688/688 458/696/696
f 400/695/695 446/691/691 432/693/693
f 401/611/614 398/608/611 404/614/617
f 405/615/618 403/613/616 406/616/619
f 402/612/615 408/618/621 406/616/619
f 410/620/623 412/622/625 409/619/622
f 411/621/624 457/697/697 412/622/625
f 404/614/617 411/621/624 410/620/623
f 413/623/626 401/611/614 403/613/616
f 401/611/614 413/623/626 399/609/612
f 414/624/627 424/634/698 415/625/628
f 417/627/630 458/698/699 418/628/631
f 419/629/632 423/633/637 420/630/633
f 419/629/632 421/631/634 417/627/638
f 424/634/640 423/633/637 419/629/632
f 425/635/641 428/639/644 426/636/642
f 425/635/641 429/640/645 427/638/643
f 429/640/645 407/617/620 406/616/619
f 422/632/646 424/634/698 414/624/627
f 430/642/647 431/650/651 422/643/646
f 409/647/649 428/645/644 427/648/643
f 412/646/648 457/680/684 431/650/651
f 433/652/653 435/654/655 404/614/617
f 436/655/656 454/673/678 437/656/657
f 437/656/657 438/657/658 435/654/655
f 439/658/659 441/660/661 440/659/660
f 441/660/661 457/697/697 411/621/624
f 440/659/660 411/621/624 404/614/617
f 442/661/662 436/655/656 434/653/654
f 433/652/653 398/608/611 432/651/652
f 443/662/663 449/668/679 444/663/664
f 446/665/666 458/698/699 417/627/630
f 447/666/667 421/631/634 420/630/668
f 417/627/638 421/631/634 447/666/667
f 449/668/673 443/662/672 447/666/667
f 450/669/674 456/699/681 451/670/675
f 451/670/675 456/699/681 452/671/676
f 453/672/677 452/671/676 437/656/657
f 422/632/646 450/669/674 444/663/664
f 455/674/680 450/676/674 422/643/646
f 439/678/683 438/700/700 452/679/676
f 441/677/682 455/674/680 431/650/651
f 451/681/100 453/701/100 454/682/100
f 407/684/100 429/702/100 425/685/100
f 405/687/687 407/684/100 416/686/686
f 445/683/685 454/682/100 436/690/690
f 400/695/695 399/694/694 418/688/688
f 400/695/695 458/696/696 446/691/691
f 459/703/701 461/704/702 460/705/703
f 462/706/704 463/707/705 459/703/701
f 459/703/701 463/707/705 461/704/702
f 462/706/704 465/708/706 464/709/707
f 466/710/708 468/711/709 467/712/710
f 461/704/702 463/707/705 469/713/711
f 461/704/702 471/714/712 470/715/713
f 472/716/714 469/713/715 468/711/716
f 470/715/713 473/717/717 460/705/703
f 464/709/707 474/718/718 466/710/708
f 475/719/719 476/720/720 462/706/704
f 466/710/708 474/718/718 477/721/721
f 470/715/713 472/716/722 478/722/723
f 479/723/724 470/715/713 480/724/725
f 481/725/726 466/710/708 477/721/721
f 466/710/708 481/725/726 478/722/723
f 471/714/727 469/713/715 472/716/714
f 482/726/728 480/724/729 478/722/730
f 483/727/731 485/728/732 484/729/733
f 483/727/731 484/729/733 480/724/729
f 483/727/731 482/726/728 481/725/734
f 482/726/728 478/722/730 481/725/734
f 483/727/731 486/730/735 485/728/732
f 476/720/720 487/731/736 465/708/706
f 475/719/719 459/703/701 488/732/737
f 473/717/717 470/715/713 479/723/724
f 489/733/738 491/734/739 490/735/740
f 492/736/741 494/737/742 493/738/743
f 490/735/740 491/734/739 473/717/744
f 494/737/742 460/705/745 473/717/744
f 494/737/742 488/732/746 460/705/745
f 492/736/741 495/739/747 488/732/746
f 476/720/310 475/719/310 496/740/310
f 475/719/748 495/739/748 496/740/748
f 476/720/749 497/741/749 487/731/749
f 492/736/741 493/738/743 498/742/750
f 492/736/741 499/743/751 495/739/747
f 500/744/752 496/740/753 495/739/754
f 501/745/755 503/746/756 502/747/757
f 504/748/758 502/747/757 503/746/756
f 493/738/759 489/733/760 505/749/761
f 498/742/762 493/738/759 503/746/756
f 464/709/763 502/750/764 504/751/765
f 477/721/766 474/718/767 504/751/765
f 465/708/768 502/750/764 464/709/763
f 487/731/769 502/750/764 465/708/768
f 497/741/770 507/752/771 506/753/772
f 508/754/773 502/750/764 487/731/769
f 507/755/337 500/756/338 499/757/338
f 499/757/338 498/758/338 508/759/338
f 501/760/338 508/759/338 498/758/338
f 496/740/339 500/744/339 507/752/339
f 469/713/711 463/707/705 467/712/710
f 494/737/742 491/734/739 489/733/738
f 463/707/705 462/706/704 467/712/710
f 479/761/774 484/762/775 486/763/776
f 485/764/777 486/763/776 484/762/775
f 489/765/100 490/766/100 505/767/100
f 490/766/100 479/761/100 477/768/100
f 477/768/100 504/769/100 505/767/100
f 459/703/701 460/705/703 488/732/737
f 462/706/704 464/709/707 467/712/710
f 461/704/702 469/713/711 471/714/712
f 472/716/714 468/711/716 466/710/778
f 470/715/713 460/705/703 461/704/702
f 464/709/707 466/710/708 467/712/710
f 475/719/719 462/706/704 459/703/701
f 470/715/713 478/722/723 480/724/725
f 479/723/724 480/724/725 484/729/779
f 481/725/726 477/721/721 486/730/780
f 466/710/708 478/722/723 472/716/722
f 471/714/727 472/716/714 470/715/781
f 483/727/731 480/724/729 482/726/728
f 483/727/731 481/725/734 486/730/735
f 476/720/720 465/708/706 462/706/704
f 475/719/719 488/732/737 495/739/782
f 490/735/740 473/717/744 479/723/783
f 494/737/742 473/717/744 491/734/739
f 492/736/741 488/732/746 494/737/742
f 476/720/310 496/740/310 497/741/310
f 492/736/741 498/742/750 499/743/751
f 500/744/752 495/739/754 499/743/784
f 501/745/755 502/747/757 508/770/785
f 504/748/758 503/746/756 505/749/761
f 493/738/759 505/749/761 503/746/756
f 498/742/762 503/746/756 501/745/755
f 464/709/763 504/751/765 474/718/767
f 497/741/770 506/753/772 487/731/786
f 508/754/773 487/731/769 506/753/773
f 507/755/337 499/757/338 506/771/338
f 499/757/338 508/759/338 506/771/338
f 496/740/339 507/752/339 497/741/339
f 469/713/711 467/712/710 468/711/709
f 494/737/742 489/733/738 493/738/743
f 479/761/774 486/763/776 477/768/787
f 477/768/100 505/767/100 490/766/100
f 509/772/788 511/773/789 510/774/790
f 512/775/791 511/773/792 513/776/793
f 514/777/794 516/778/795 515/779/796
f 516/778/795 514/777/794 517/780/797
f 518/781/798 519/782/799 509/772/788
f 516/778/795 520/783/800 515/779/796
f 517/784/801 514/785/802 509/772/788
f 512/775/791 521/786/803 510/774/804
f 509/772/788 514/785/802 513/776/805
f 522/787/806 524/788/807 523/789/808
f 525/790/809 523/789/808 521/786/803
f 518/791/810 527/792/811 526/793/812
f 527/792/811 510/794/813 521/795/814
f 522/787/806 525/790/809 520/796/815
f 525/790/809 512/775/791 515/797/816
f 524/788/807 522/787/806 528/798/817
f 529/799/818 523/800/819 524/801/820
f 529/799/818 530/802/240 526/793/812
f 530/802/240 518/791/810 526/793/812
f 519/782/799 532/803/821 531/804/822
f 533/805/823 520/783/800 516/778/795
f 526/793/812 521/795/814 523/800/819
f 533/805/823 528/806/824 520/783/800
f 531/807/518 516/778/795 517/780/797
f 528/806/825 533/805/826 529/799/825
f 532/808/827 530/809/828 531/810/829
f 529/811/338 533/812/338 530/809/828
f 531/810/829 530/809/828 533/812/338
f 532/803/821 519/782/799 518/781/798
f 509/772/788 510/774/790 527/813/830
f 512/775/791 513/776/793 515/797/816
f 514/777/794 515/779/796 513/814/831
f 518/781/798 509/772/788 527/813/830
f 517/784/801 509/772/788 519/782/799
f 512/775/791 510/774/804 511/773/792
f 509/772/788 513/776/805 511/773/789
f 522/787/806 523/789/808 525/790/809
f 525/790/809 521/786/803 512/775/791
f 527/792/811 521/795/814 526/793/812
f 522/787/806 520/796/815 528/798/817
f 525/790/809 515/797/816 520/796/815
f 529/799/818 526/793/812 523/800/819
f 519/782/799 531/804/822 517/784/801
f 533/805/823 516/778/795 531/807/518
f 528/806/825 529/799/825 524/801/832
f 532/803/821 518/781/798 530/815/833
f 534/816/528 536/817/528 535/818/528
f 537/819/834 539/820/835 538/821/836
f 540/822/837 541/823/838 539/820/839
f 542/824/840 540/822/841 537/819/842
f 542/824/843 541/823/838 540/822/837
f 537/819/834 544/825/844 543/826/845
f 542/824/846 545/827/847 541/823/848
f 545/827/847 542/824/846 535/818/849
f 540/822/841 546/828/850 537/819/842
f 545/829/851 536/830/548 534/831/852
f 541/832/853 545/829/851 544/833/854
f 541/832/518 544/833/518 538/834/518
f 547/835/338 535/836/338 542/837/338
f 534/816/855 547/838/856 543/839/857
f 534/816/528 535/818/528 547/838/528
f 539/820/835 537/819/834 546/828/858
f 537/819/834 538/821/836 544/825/844
f 540/822/859 539/820/859 546/828/859
f 542/824/840 537/819/842 543/826/556
f 545/827/847 535/818/849 536/817/860
f 545/829/851 534/831/852 544/833/854
f 541/832/518 538/834/518 539/840/518
f 547/835/338 542/837/338 543/841/338
f 534/816/855 543/839/857 544/842/861
f 548/843/862 550/844/863 549/845/864
f 548/843/862 552/846/865 551/847/866
f 553/848/867 555/849/868 554/850/869
f 554/850/869 555/849/868 556/851/870
f 551/847/866 558/852/871 557/853/872
f 559/854/873 561/855/874 560/856/875
f 549/845/876 550/844/877 554/850/869
f 562/857/878 563/858/879 558/852/871
f 552/846/865 562/857/878 558/852/871
f 559/854/873 556/851/870 564/859/880
f 559/854/873 565/860/881 561/855/874
f 566/861/882 567/862/883 565/860/884
f 561/855/885 565/860/884 567/862/883
f 557/853/886 558/852/887 568/863/888
f 569/864/889 567/862/883 568/865/890
f 555/849/868 553/848/867 570/866/891
f 555/849/868 572/867/892 571/868/893
f 557/853/872 574/869/894 573/870/895
f 553/848/896 573/870/895 574/869/894
f 556/851/870 571/868/893 564/859/880
f 568/865/890 567/862/883 566/861/882
f 564/871/897 570/872/898 574/873/899
f 571/874/900 572/875/901 570/872/902
f 550/844/863 551/847/866 573/870/895
f 558/852/887 563/858/903 575/876/904
f 552/846/865 548/843/862 562/857/878
f 562/857/878 548/843/862 549/845/864
f 566/877/905 574/873/899 557/878/906
f 560/879/338 575/880/338 563/881/338
f 560/879/338 561/882/338 569/883/338
f 548/843/862 551/847/866 550/844/863
f 553/848/867 554/850/869 550/844/877
f 554/850/869 556/851/870 559/854/873
f 551/847/866 557/853/872 573/870/895
f 559/854/873 560/856/875 554/850/869
f 549/845/876 554/850/869 560/856/875
f 552/846/865 558/852/871 551/847/866
f 559/854/873 564/859/880 565/860/881
f 566/861/882 565/860/884 564/859/907
f 561/855/885 567/862/883 569/864/889
f 557/853/886 568/863/888 576/884/908
f 569/864/889 568/865/890 575/885/909
f 555/849/868 570/866/891 572/867/892
f 555/849/868 571/868/893 556/851/870
f 553/848/896 574/869/894 570/866/910
f 568/865/890 566/861/882 576/886/911
f 564/871/897 574/873/899 566/877/905
f 571/874/900 570/872/902 564/871/912
f 550/844/863 573/870/895 553/848/896
f 558/852/887 575/876/904 568/863/888
f 562/857/878 549/845/864 563/858/879
f 566/877/905 557/878/906 576/887/913
f 560/879/338 563/881/338 549/888/338
f 560/879/338 569/883/338 575/880/338
