# Blender v2.83.1 OBJ File: ''
# www.blender.org
mtllib Slash-Devices.mtl
o laser
v -0.271090 0.117214 2.321640
v -0.179659 0.117214 2.321640
v -0.271090 0.117214 2.021691
v -0.179660 0.117214 2.021691
v -0.179660 -0.061206 2.021691
v -0.179659 -0.061206 2.321640
v -0.271090 -0.061206 2.021691
v -0.271090 -0.061206 2.321640
v -0.299747 -0.027233 2.021691
v -0.299747 -0.027233 2.321640
v -0.299747 0.083241 2.021691
v -0.299747 0.083241 2.321640
v -0.179660 0.084151 2.066016
v -0.179659 0.084151 2.274501
v -0.163451 0.084151 2.066016
v -0.163451 0.084151 2.274501
v -0.163451 -0.029929 2.066016
v -0.163451 -0.029929 2.274501
v -0.179660 -0.029929 2.066016
v -0.179659 -0.029929 2.274501
vt 0.864286 0.991591
vt 0.820387 0.991591
vt 0.864286 0.847577
vt 0.820387 0.847577
vt 0.879239 0.993434
vt 0.879239 0.849421
vt 0.923137 0.993434
vt 0.923137 0.849421
vt 0.573996 0.955663
vt 0.429982 0.955663
vt 0.573995 0.902621
vt 0.429982 0.902621
vt 0.101135 0.499802
vt 0.101135 0.543701
vt 0.015471 0.499802
vt 0.015471 0.543701
vt 0.014873 0.600890
vt 0.014873 0.556992
vt 0.100538 0.600890
vt 0.100538 0.556992
vt 0.573996 0.971974
vt 0.429982 0.971974
vt 0.084823 0.486043
vt 0.031782 0.486043
vt 0.573995 0.886310
vt 0.429982 0.886310
vt 0.084226 0.614649
vt 0.031185 0.614649
vt 0.789282 0.316737
vt 0.789282 0.460750
vt 0.703617 0.316737
vt 0.703617 0.460750
vt 0.579261 0.385668
vt 0.579261 0.235879
vt 0.590906 0.385667
vt 0.590906 0.235878
vt 0.590879 0.004127
vt 0.590897 0.153916
vt 0.579234 0.004129
vt 0.579252 0.153917
vt 0.579280 0.467631
vt 0.590925 0.467628
vn 0.0000 1.0000 0.0000
vn 0.0000 -1.0000 -0.0000
vn -0.9809 -0.1946 -0.0002
vn -0.9809 -0.1946 -0.0000
vn -0.9809 0.1946 0.0000
vn -0.9809 0.1946 0.0001
vn -0.0000 0.0000 1.0000
vn -0.0000 0.0000 -1.0000
vn -0.7644 -0.6448 -0.0000
vn -0.7644 0.6448 0.0000
vn 1.0000 0.0000 -0.0000
vn 0.0000 0.8772 -0.4801
vn -0.0002 0.8773 0.4800
vn 0.0002 0.8773 -0.4800
vn 0.0000 0.8772 0.4800
vn 0.0001 -0.8773 0.4800
vn -0.0000 -0.8772 0.4800
vn 0.0000 0.8773 -0.4800
usemtl Default_OBJ.012
s 1
f 1/1/1 2/2/1 3/3/1
f 3/3/1 2/2/1 4/4/1
f 5/5/2 6/6/2 7/7/2
f 7/7/2 6/6/2 8/8/2
f 9/9/3 10/10/4 11/11/5
f 11/11/5 10/10/4 12/12/6
f 8/13/7 6/14/7 1/15/7
f 1/15/7 6/14/7 2/16/7
f 3/17/8 4/18/8 7/19/8
f 7/19/8 4/18/8 5/20/8
f 9/9/3 7/21/9 10/10/4
f 10/10/4 7/21/9 8/22/9
f 10/23/7 8/13/7 12/24/7
f 12/24/7 8/13/7 1/15/7
f 3/25/10 11/11/5 1/26/10
f 1/26/10 11/11/5 12/12/6
f 7/19/8 9/27/8 3/17/8
f 3/17/8 9/27/8 11/28/8
f 6/29/11 5/30/11 2/31/11
f 2/31/11 5/30/11 4/32/11
f 13/33/12 14/34/13 15/35/14
f 15/35/14 14/34/13 16/36/15
f 17/37/2 18/38/16 19/39/2
f 19/39/2 18/38/16 20/40/17
f 14/34/13 20/40/17 16/36/15
f 16/36/15 20/40/17 18/38/16
f 19/41/8 13/33/18 17/42/8
f 17/42/8 13/33/12 15/35/14
o grip
v 0.000001 -1.004264 1.585717
v 0.000001 -0.898202 1.533037
v 0.066411 -1.004264 1.613225
v 0.103661 -0.898202 1.575974
v 0.093919 -1.004264 1.679635
v 0.146599 -0.898202 1.679635
v 0.066411 -1.004264 1.746045
v 0.103661 -0.898202 1.783295
v 0.000001 -1.004264 1.773553
v 0.000001 -0.898202 1.826233
v 0.109810 -0.785420 1.569826
v 0.155295 -0.785420 1.679635
v 0.000001 -0.785420 1.524341
v 0.109810 -0.785420 1.789444
v 0.000001 -0.785420 1.834929
v 0.000001 -0.475580 1.555349
v 0.087884 -0.475580 1.591752
v 0.124286 -0.475580 1.679635
v 0.087884 -0.475580 1.767518
v 0.000001 -0.475580 1.803921
v 0.000001 -0.462739 1.593143
v 0.061160 -0.462739 1.618476
v 0.086492 -0.462739 1.679635
v 0.061160 -0.462739 1.740794
v 0.000001 -0.462739 1.766126
v 0.163453 -0.312348 1.281300
v 0.163453 -0.173559 1.231824
v 0.163453 -0.312325 1.416599
v 0.163453 -0.173559 1.747102
v 0.163453 -0.342220 1.809914
v 0.163453 -0.409207 1.765244
v 0.163453 -0.409162 1.451179
v 0.129233 -0.312348 1.281300
v 0.130549 -0.173559 1.231824
v 0.129233 -0.312325 1.416599
v 0.115938 -0.342220 1.809914
v 0.115562 -0.409207 1.765244
v 0.163453 -0.230714 1.810243
v 0.115938 -0.302375 1.809982
v 0.124353 -0.173562 1.367049
v 0.115562 -0.409183 1.490663
v 0.093817 -0.173559 1.747103
v 0.093817 -0.230714 1.810243
v 0.045909 -0.302375 1.809982
v 0.093881 -0.173563 1.367047
v 0.093817 -0.230729 1.387462
v 0.000001 -0.435103 1.593143
v 0.061160 -0.435103 1.618476
v 0.086492 -0.435103 1.679635
v 0.061160 -0.435103 1.740794
v 0.000001 -0.435103 1.766126
v 0.115562 -0.435088 1.490663
v 0.115562 -0.435112 1.838574
v 0.115938 -0.416533 1.856670
v 0.115938 -0.303009 1.856670
v -0.066410 -1.004264 1.613225
v -0.103660 -0.898202 1.575974
v -0.093918 -1.004264 1.679635
v -0.146597 -0.898202 1.679635
v -0.066410 -1.004264 1.746045
v -0.103660 -0.898202 1.783295
v -0.109809 -0.785420 1.569826
v -0.155293 -0.785420 1.679635
v -0.109809 -0.785420 1.789444
v -0.087883 -0.475580 1.591752
v -0.124285 -0.475580 1.679635
v -0.087882 -0.475580 1.767518
v -0.061158 -0.462739 1.618476
v -0.086491 -0.462739 1.679635
v -0.061158 -0.462739 1.740794
v -0.163452 -0.173559 1.747103
v -0.163452 -0.173559 1.231824
v -0.163452 -0.312325 1.416600
v -0.163452 -0.312348 1.281300
v -0.163452 -0.342220 1.809914
v -0.163452 -0.409207 1.765244
v -0.163452 -0.409163 1.451179
v -0.129232 -0.312348 1.281300
v -0.130548 -0.173559 1.231824
v -0.129232 -0.312325 1.416600
v -0.115561 -0.409207 1.765244
v -0.115937 -0.342220 1.809914
v -0.115937 -0.302375 1.809982
v -0.163452 -0.230714 1.810243
v -0.124351 -0.173562 1.367050
v -0.115561 -0.409183 1.490663
v -0.093880 -0.173564 1.367046
v -0.093816 -0.230729 1.387460
v -0.093816 -0.173559 1.747103
v -0.093816 -0.230714 1.810243
v -0.045908 -0.302375 1.809982
v -0.061158 -0.435103 1.618476
v -0.086491 -0.435103 1.679635
v -0.061158 -0.435103 1.740794
v -0.115561 -0.435112 1.838574
v -0.115561 -0.435088 1.490663
v -0.115937 -0.416533 1.856670
v -0.115937 -0.303009 1.856670
vt -0.444266 0.700029
vt -0.393325 0.733827
vt -0.444266 0.653070
vt -0.393325 0.669972
vt -0.444266 0.606096
vt -0.393325 0.606096
vt -0.444266 0.559123
vt -0.393325 0.542220
vt -0.444266 0.512163
vt -0.393325 0.478365
vt -0.339171 0.669972
vt -0.339171 0.606096
vt -0.339171 0.733827
vt -0.339171 0.542220
vt -0.339171 0.478365
vt -0.190480 0.699707
vt -0.190482 0.653067
vt -0.190482 0.606096
vt -0.190482 0.559125
vt -0.190481 0.512485
vt -0.522143 0.672900
vt -0.505378 0.665633
vt -0.522144 0.626260
vt -0.505380 0.626259
vt -0.522144 0.579289
vt -0.505379 0.579289
vt -0.522144 0.532318
vt -0.505379 0.532320
vt -0.522143 0.485678
vt -0.505378 0.492945
vt -0.111968 0.444548
vt -0.098760 0.412663
vt -0.111968 0.380778
vt -0.143853 0.367570
vt -0.143853 0.457756
vt -0.246515 0.267507
vt -0.179878 0.291262
vt -0.246503 0.202546
vt -0.179878 0.043862
vt -0.260858 0.013705
vt -0.293020 0.035152
vt -0.292998 0.185944
vt -0.519485 0.104261
vt -0.519485 0.037625
vt -0.535608 0.104261
vt -0.535608 0.037625
vt -0.519485 0.169223
vt -0.535608 0.169223
vt -0.174725 0.491306
vt -0.151991 0.491306
vt -0.174725 0.453892
vt -0.151991 0.453892
vt -0.174725 0.543162
vt -0.151991 0.509907
vt -0.207320 0.013547
vt -0.332230 0.472991
vt -0.398867 0.449237
vt -0.332232 0.408066
vt -0.398856 0.384276
vt -0.151991 0.327203
vt -0.174725 0.307862
vt -0.142920 0.582739
vt -0.142920 0.543162
vt -0.174725 0.582739
vt -0.120241 0.510162
vt -0.367330 0.230187
vt -0.339883 0.220385
vt -0.367331 0.047711
vt -0.339890 0.017396
vt -0.972669 0.189041
vt -0.958008 0.006567
vt -0.991442 0.006567
vt -0.991442 0.253967
vt -0.972669 0.253967
vt -0.958039 0.189043
vt -0.271514 0.970095
vt -0.271514 0.956826
vt -0.300878 0.970095
vt -0.300878 0.956826
vt -0.330242 0.970095
vt -0.330242 0.956826
vt -0.359606 0.970095
vt -0.359606 0.956826
vt -0.388970 0.970095
vt -0.388970 0.956826
vt -0.553932 0.851811
vt -0.553944 0.719977
vt -0.566370 0.851811
vt -0.566381 0.684770
vt -0.521781 0.698530
vt -0.557461 0.676081
vt -0.502650 0.698497
vt -0.502955 0.676081
vt 0.555734 0.700029
vt 0.555734 0.653070
vt 0.606675 0.733827
vt 0.606675 0.669972
vt 0.555734 0.606096
vt 0.606675 0.606096
vt 0.555734 0.559123
vt 0.606675 0.542220
vt 0.555734 0.512163
vt 0.606675 0.478365
vt 0.660829 0.669972
vt 0.660829 0.606096
vt 0.660829 0.733827
vt 0.660829 0.542220
vt 0.660829 0.478365
vt 0.809520 0.699707
vt 0.809518 0.653067
vt 0.809518 0.606096
vt 0.809518 0.559125
vt 0.809519 0.512485
vt 0.477857 0.672900
vt 0.477856 0.626260
vt 0.494622 0.665633
vt 0.494620 0.626259
vt 0.477856 0.579289
vt 0.494621 0.579289
vt 0.477856 0.532318
vt 0.494621 0.532320
vt 0.477857 0.485678
vt 0.494622 0.492945
vt 0.888032 0.444548
vt 0.888032 0.380778
vt 0.901240 0.412663
vt 0.856147 0.367570
vt 0.856147 0.457756
vt 0.820122 0.043862
vt 0.820122 0.291262
vt 0.753497 0.202546
vt 0.753485 0.267507
vt 0.739142 0.013705
vt 0.706980 0.035152
vt 0.707002 0.185944
vt 0.480515 0.104261
vt 0.464392 0.104261
vt 0.480515 0.037625
vt 0.464392 0.037625
vt 0.480515 0.169223
vt 0.464392 0.169223
vt 0.848009 0.453892
vt 0.848009 0.491306
vt 0.825275 0.453892
vt 0.825275 0.491306
vt 0.848009 0.509907
vt 0.825275 0.543162
vt 0.792680 0.013547
vt 0.667770 0.472991
vt 0.667768 0.408066
vt 0.601133 0.449237
vt 0.601144 0.384276
vt 0.825275 0.307862
vt 0.848009 0.327203
vt 0.256046 0.841771
vt 0.209551 0.824170
vt 0.256046 0.824170
vt 0.322669 0.857573
vt 0.295222 0.857604
vt 0.322669 0.841771
vt 0.956202 0.327203
vt 0.978597 0.307862
vt 0.209551 0.981126
vt 0.256046 0.963524
vt 0.256046 0.981126
vt 0.857080 0.582739
vt 0.825275 0.582739
vt 0.857080 0.543162
vt 0.879759 0.510162
vt 0.660110 0.017396
vt 0.660117 0.220385
vt 0.632669 0.047711
vt 0.632670 0.230187
vt 0.295222 0.947692
vt 0.027331 0.189041
vt 0.008558 0.006567
vt 0.041992 0.006567
vt 0.027331 0.253967
vt 0.008558 0.253967
vt 0.041961 0.189043
vt 0.728486 0.970095
vt 0.699122 0.970095
vt 0.728486 0.956826
vt 0.699122 0.956826
vt 0.669758 0.970095
vt 0.669758 0.956826
vt 0.640394 0.970095
vt 0.640394 0.956826
vt 0.611030 0.970095
vt 0.611030 0.956826
vt 0.433619 0.684770
vt 0.446056 0.719977
vt 0.433630 0.851811
vt 0.446068 0.851811
vt 0.478219 0.698530
vt 0.442539 0.676081
vt 0.497045 0.676081
vt 0.497350 0.698497
vt 0.235828 0.798268
vt 0.235828 0.635952
vt 0.343657 0.798268
vt 0.343658 0.635952
vt 0.235828 0.623866
vt 0.343658 0.623866
vt 0.942354 0.346435
vt 0.996860 0.346435
vt 0.942354 0.457765
vt 0.996860 0.457765
vt 0.235653 0.810368
vt 0.343833 0.810368
vt 0.196737 0.870558
vt 0.196737 0.981888
vt 0.174321 0.870558
vt 0.174321 0.981888
vt 0.322669 0.963524
vt 0.322669 0.947722
vn 0.0000 -0.4448 -0.8956
vn 0.0000 -0.2448 -0.9696
vn 0.6015 -0.4444 -0.6639
vn 0.6738 -0.2499 -0.6954
vn 0.8947 -0.4444 -0.0441
vn 0.9682 -0.2499 -0.0152
vn 0.6639 -0.4444 0.6015
vn 0.6954 -0.2499 0.6738
vn 0.0000 -0.4448 0.8956
vn 0.0000 -0.2545 0.9671
vn 0.7092 0.0523 -0.7031
vn 0.9986 0.0523 0.0043
vn -0.0000 0.0535 -0.9986
vn 0.7031 0.0523 0.7092
vn -0.0000 0.0512 0.9987
vn 0.0000 0.0996 -0.9950
vn 0.7117 0.0996 -0.6954
vn 0.9950 0.0996 0.0114
vn 0.6954 0.0996 0.7117
vn -0.0000 0.0996 0.9950
vn 0.0000 0.9468 -0.3217
vn 0.2376 0.9467 -0.2173
vn 0.2411 0.9467 -0.2137
vn 0.3217 0.9467 0.0143
vn 0.3216 0.9467 0.0194
vn 0.2173 0.9467 0.2376
vn 0.2137 0.9467 0.2411
vn 0.0000 0.9468 0.3217
vn 0.0000 -1.0000 0.0000
vn 1.0000 0.0000 0.0000
vn 0.0003 -0.8008 -0.5989
vn 0.0000 -0.3358 -0.9419
vn 0.0000 -0.8008 -0.5990
vn 0.0000 -1.0000 0.0002
vn -0.0004 -0.2926 0.9562
vn -0.0005 -0.3870 0.9221
vn -0.0005 -0.9793 0.2022
vn 0.0000 -0.9788 0.2048
vn -0.0002 0.4342 0.9008
vn -0.0005 -0.0028 1.0000
vn -0.9989 -0.0068 -0.0458
vn -0.9995 -0.0219 -0.0214
vn -0.9995 -0.0201 -0.0243
vn -0.9994 -0.0351 0.0000
vn 0.0003 -1.0000 -0.0000
vn 0.0002 -1.0000 -0.0003
vn 0.0000 0.7414 0.6711
vn 0.0000 0.3735 0.9276
vn 0.0000 -0.0036 1.0000
vn -1.0000 0.0011 -0.0002
vn -1.0000 0.0010 -0.0002
vn -1.0000 0.0001 -0.0000
vn -1.0000 0.0000 0.0000
vn -0.0001 1.0000 -0.0000
vn -0.0000 1.0000 -0.0000
vn 0.0000 0.0000 -1.0000
vn 0.7071 0.0000 -0.7071
vn 0.7071 0.0000 0.7071
vn -0.0000 0.0000 1.0000
vn 1.0000 -0.0007 -0.0010
vn 1.0000 -0.0082 -0.0029
vn 1.0000 -0.0011 -0.0017
vn 1.0000 -0.0038 -0.0033
vn -0.6015 -0.4444 -0.6639
vn -0.6738 -0.2499 -0.6954
vn -0.8947 -0.4444 -0.0441
vn -0.9682 -0.2499 -0.0152
vn -0.6639 -0.4444 0.6015
vn -0.6954 -0.2499 0.6738
vn -0.7092 0.0523 -0.7031
vn -0.9986 0.0523 0.0043
vn -0.7031 0.0523 0.7092
vn -0.7117 0.0996 -0.6954
vn -0.9950 0.0996 0.0115
vn -0.6954 0.0996 0.7117
vn -0.2376 0.9467 -0.2173
vn -0.2411 0.9467 -0.2137
vn -0.3217 0.9467 0.0143
vn -0.3216 0.9467 0.0193
vn -0.2173 0.9467 0.2376
vn -0.2137 0.9467 0.2411
vn 0.0000 -0.8008 -0.5989
vn -0.0000 -0.3870 0.9221
vn -0.0000 -0.9793 0.2022
vn 0.0004 -0.2922 0.9564
vn 0.0005 -0.0028 1.0000
vn 0.0002 0.4342 0.9008
vn 0.9989 -0.0068 -0.0458
vn 0.9995 -0.0201 -0.0243
vn 0.9995 -0.0219 -0.0214
vn 0.9994 -0.0352 0.0000
vn -0.0002 -1.0000 -0.0003
vn -0.0001 -1.0000 -0.0003
vn -0.0000 -0.3363 -0.9418
vn -0.0001 -0.3363 -0.9418
vn 0.0004 -0.0030 1.0000
vn 1.0000 0.0006 -0.0002
vn 1.0000 0.0006 -0.0000
vn 1.0000 0.0011 -0.0002
vn 0.0001 1.0000 -0.0000
vn -0.7071 0.0000 -0.7071
vn -0.7071 0.0000 0.7071
vn -1.0000 -0.0082 -0.0029
vn -1.0000 -0.0007 -0.0010
vn -1.0000 -0.0008 -0.0013
vn -1.0000 -0.0038 -0.0033
vn 0.0000 -0.9987 0.0511
vn 0.0006 -0.9972 -0.0743
vn 0.0000 -0.9987 0.0512
vn 0.0000 -0.9972 -0.0743
vn 0.0000 -0.6977 0.7164
vn 0.0000 0.9999 0.0136
vn 0.0001 -0.3363 -0.9418
vn 0.0001 -0.3363 -0.9417
usemtl Default_OBJ.012
s 1
f 21/43/19 22/44/20 23/45/21
f 23/45/21 22/44/20 24/46/22
f 23/45/21 24/46/22 25/47/23
f 25/47/23 24/46/22 26/48/24
f 25/47/23 26/48/24 27/49/25
f 27/49/25 26/48/24 28/50/26
f 27/49/25 28/50/26 29/51/27
f 29/51/27 28/50/26 30/52/28
f 24/46/22 31/53/29 26/48/24
f 26/48/24 31/53/29 32/54/30
f 22/44/20 33/55/31 24/46/22
f 24/46/22 33/55/31 31/53/29
f 28/50/26 34/56/32 30/52/28
f 30/52/28 34/56/32 35/57/33
f 26/48/24 32/54/30 28/50/26
f 28/50/26 32/54/30 34/56/32
f 33/55/31 36/58/34 31/53/29
f 31/53/29 36/58/34 37/59/35
f 31/53/29 37/59/35 32/54/30
f 32/54/30 37/59/35 38/60/36
f 32/54/30 38/60/36 34/56/32
f 34/56/32 38/60/36 39/61/37
f 34/56/32 39/61/37 35/57/33
f 35/57/33 39/61/37 40/62/38
f 36/63/39 41/64/39 37/65/40
f 37/65/40 41/64/39 42/66/41
f 37/65/40 42/66/41 38/67/42
f 38/67/42 42/66/41 43/68/43
f 38/67/42 43/68/43 39/69/44
f 39/69/44 43/68/43 44/70/45
f 39/69/44 44/70/45 40/71/46
f 40/71/46 44/70/45 45/72/46
f 23/73/47 25/74/47 27/75/47
f 29/76/47 21/77/47 27/75/47
f 46/78/48 47/79/48 48/80/48
f 48/80/48 47/79/48 49/81/48
f 50/82/48 51/83/48 48/80/48
f 48/80/48 51/83/48 52/84/48
f 53/85/49 54/86/50 46/87/51
f 46/87/51 54/86/50 47/88/50
f 55/89/52 53/85/49 48/90/52
f 48/90/52 53/85/49 46/87/51
f 50/91/53 56/92/54 51/93/55
f 51/93/55 56/92/54 57/94/56
f 58/95/57 59/96/58 50/91/53
f 50/91/53 59/96/58 56/92/54
f 50/82/48 48/80/48 58/97/48
f 48/80/48 49/81/48 58/97/48
f 54/98/59 53/99/60 60/100/61
f 60/100/61 53/99/60 55/101/62
f 57/94/56 61/102/63 51/93/55
f 51/93/55 61/102/63 52/103/64
f 62/104/65 63/105/66 49/106/65
f 49/106/65 63/105/66 58/95/57
f 64/107/67 59/96/67 63/105/66
f 63/105/66 59/96/58 58/95/57
f 65/108/68 66/109/69 62/110/70
f 62/110/70 66/109/69 63/111/71
f 60/112/72 62/113/73 49/114/73
f 49/114/73 47/115/73 60/112/72
f 60/112/72 47/115/73 54/116/73
f 60/112/72 65/117/73 62/113/73
f 41/118/74 67/119/74 42/120/75
f 42/120/75 67/119/74 68/121/75
f 42/120/75 68/121/75 43/122/48
f 43/122/48 68/121/75 69/123/48
f 43/122/48 69/123/48 44/124/76
f 44/124/76 69/123/48 70/125/76
f 44/124/76 70/125/76 45/126/77
f 45/126/77 70/125/76 71/127/77
f 21/77/47 23/73/47 27/75/47
f 61/128/48 57/129/78 72/130/48
f 72/130/48 57/129/78 73/131/79
f 56/132/80 74/133/81 57/129/78
f 57/129/78 74/133/81 73/131/79
f 59/134/48 75/135/48 56/132/80
f 56/132/80 75/135/48 74/133/81
f 21/136/19 76/137/82 22/138/20
f 22/138/20 76/137/82 77/139/83
f 76/137/82 78/140/84 77/139/83
f 77/139/83 78/140/84 79/141/85
f 78/140/84 80/142/86 79/141/85
f 79/141/85 80/142/86 81/143/87
f 80/142/86 29/144/27 81/143/87
f 81/143/87 29/144/27 30/145/28
f 77/139/83 79/141/85 82/146/88
f 82/146/88 79/141/85 83/147/89
f 22/138/20 77/139/83 33/148/31
f 33/148/31 77/139/83 82/146/88
f 81/143/87 30/145/28 84/149/90
f 84/149/90 30/145/28 35/150/33
f 79/141/85 81/143/87 83/147/89
f 83/147/89 81/143/87 84/149/90
f 33/148/31 82/146/88 36/151/34
f 36/151/34 82/146/88 85/152/91
f 82/146/88 83/147/89 85/152/91
f 85/152/91 83/147/89 86/153/92
f 83/147/89 84/149/90 86/153/92
f 86/153/92 84/149/90 87/154/93
f 84/149/90 35/150/33 87/154/93
f 87/154/93 35/150/33 40/155/38
f 36/156/39 85/157/94 41/158/39
f 41/158/39 85/157/94 88/159/95
f 85/157/94 86/160/96 88/159/95
f 88/159/95 86/160/96 89/161/97
f 86/160/96 87/162/98 89/161/97
f 89/161/97 87/162/98 90/163/99
f 87/162/98 40/164/46 90/163/99
f 90/163/99 40/164/46 45/165/46
f 76/166/47 80/167/47 78/168/47
f 29/169/47 80/167/47 21/170/47
f 91/171/71 92/172/71 93/173/71
f 93/173/71 92/172/71 94/174/71
f 95/175/71 93/173/71 96/176/71
f 96/176/71 93/173/71 97/177/71
f 98/178/100 94/179/51 99/180/50
f 99/180/50 94/179/51 92/181/50
f 100/182/52 93/183/52 98/178/100
f 98/178/100 93/183/52 94/179/51
f 101/184/56 102/185/101 96/186/102
f 96/186/102 102/185/101 95/187/103
f 102/185/101 103/188/104 95/187/103
f 95/187/103 103/188/104 104/189/105
f 95/175/71 104/190/71 93/173/71
f 93/173/71 104/190/71 91/171/71
f 99/191/106 105/192/107 98/193/108
f 98/193/108 105/192/107 100/194/109
f 97/195/110 106/196/111 96/186/102
f 96/186/102 106/196/111 101/184/56
f 100/197/112 97/198/112 93/199/112
f 107/200/113 108/201/113 105/202/113
f 105/202/113 108/201/113 100/197/112
f 61/203/63 106/196/111 52/204/64
f 52/204/64 106/196/111 97/195/110
f 52/205/112 97/198/112 55/206/112
f 55/206/112 97/198/112 100/197/112
f 55/206/112 48/207/112 52/205/112
f 109/208/65 91/209/65 110/210/66
f 110/210/66 91/209/65 104/189/105
f 111/211/67 110/210/66 103/188/114
f 103/188/104 110/210/66 104/189/105
f 110/212/48 108/213/115 109/214/48
f 109/214/116 108/213/117 107/215/117
f 100/197/112 108/201/113 55/206/112
f 55/206/112 108/201/113 66/216/112
f 105/217/118 91/218/73 109/219/73
f 99/220/73 92/221/73 105/217/118
f 105/217/118 92/221/73 91/218/73
f 105/217/118 109/219/73 107/222/118
f 41/223/74 88/224/119 67/225/74
f 67/225/74 88/224/119 112/226/119
f 88/224/119 89/227/71 112/226/119
f 112/226/119 89/227/71 113/228/71
f 89/227/71 90/229/120 113/228/71
f 113/228/71 90/229/120 114/230/120
f 90/229/120 45/231/77 114/230/120
f 114/230/120 45/231/77 71/232/77
f 21/170/47 80/167/47 76/166/47
f 115/233/121 101/234/122 116/235/71
f 116/235/71 101/234/122 106/236/71
f 102/237/123 101/234/122 117/238/124
f 117/238/124 101/234/122 115/233/121
f 117/238/124 118/239/71 102/237/123
f 102/237/123 118/239/71 103/240/71
f 115/241/125 116/242/126 73/243/127
f 73/243/127 116/242/126 72/244/128
f 116/242/126 106/245/74 72/244/128
f 72/244/128 106/245/74 61/246/74
f 118/247/77 117/248/77 75/249/77
f 75/249/77 117/248/77 74/250/77
f 115/241/125 73/243/127 117/251/129
f 117/251/129 73/243/127 74/252/129
f 118/253/130 75/254/130 103/255/130
f 103/255/130 75/254/130 59/256/130
f 55/206/112 66/216/112 60/257/131
f 60/257/131 66/216/112 65/258/132
o suppressor
v -0.045260 0.023558 3.064384
v -0.033132 0.002551 3.064384
v -0.079239 0.014453 3.064384
v -0.058007 -0.022323 3.064384
v -0.058007 -0.022323 2.869832
v -0.033133 0.002551 2.869832
v -0.045260 0.023557 2.869832
v -0.079239 0.014453 2.869832
v 0.045263 0.023558 3.064384
v 0.079242 0.014453 3.064384
v 0.033135 0.002551 3.064384
v 0.058010 -0.022323 3.064384
v 0.058010 -0.022323 2.869832
v 0.033136 0.002551 2.869832
v 0.045263 0.023557 2.869832
v 0.079242 0.014453 2.869832
v 0.012547 -0.011140 3.109313
v 0.034277 0.001406 3.109313
v 0.046823 0.023136 3.109313
v 0.045263 0.047812 3.064384
v 0.046823 0.048227 3.109313
v 0.033135 0.068819 3.064384
v 0.034277 0.069957 3.109313
v 0.033401 0.069085 2.727784
v 0.033136 0.068819 2.869832
v 0.000001 0.081148 2.727785
v 0.045626 0.035685 2.727784
v 0.045263 0.047813 2.869831
v 0.033401 0.002286 2.727784
v 0.000001 -0.009778 2.727785
v 0.012547 0.082503 3.109313
v 0.021234 -0.043559 3.111205
v 0.058010 -0.022327 3.111205
v 0.079242 0.014449 3.111205
v 0.079242 0.056917 3.064384
v 0.079242 0.056914 3.111205
v 0.058010 0.093694 3.064384
v 0.058010 0.093690 3.111205
v 0.021234 0.114922 3.111205
v 0.021233 -0.043555 2.721782
v 0.021233 0.114926 2.721782
v 0.058010 0.093694 2.869832
v 0.058010 0.093694 2.721782
v 0.079242 0.056918 2.721782
v 0.079242 0.056918 2.869831
v 0.079242 0.014453 2.721782
v 0.058010 -0.022323 2.721782
v 0.000001 0.035685 2.721782
v -0.034274 0.001406 3.109313
v -0.012544 -0.011140 3.109313
v -0.046820 0.023136 3.109313
v -0.045260 0.047812 3.064384
v -0.046820 0.048227 3.109313
v -0.033132 0.068819 3.064384
v -0.034274 0.069957 3.109313
v -0.012544 0.082503 3.109313
v -0.033398 0.069085 2.727784
v -0.033133 0.068819 2.869832
v -0.045623 0.035685 2.727784
v -0.045260 0.047813 2.869831
v -0.033398 0.002286 2.727784
v -0.021231 -0.043559 3.111205
v -0.058007 -0.022327 3.111205
v -0.079239 0.014449 3.111205
v -0.079239 0.056917 3.064384
v -0.079239 0.056914 3.111205
v -0.058007 0.093694 3.064384
v -0.058007 0.093690 3.111205
v -0.021231 0.114922 3.111205
v -0.021231 -0.043555 2.721782
v -0.021231 0.114926 2.721782
v -0.058007 0.093694 2.721782
v -0.058007 0.093694 2.869832
v -0.079239 0.056918 2.721782
v -0.079239 0.056918 2.869831
v -0.079239 0.014453 2.721782
v -0.058007 -0.022323 2.721782
vt -0.923706 0.130361
vt -0.923706 0.109930
vt -0.909174 0.130361
vt -0.909174 0.109930
vt -0.909174 0.016520
vt -0.923706 0.016520
vt -0.923706 0.223759
vt -0.909174 0.223759
vt -0.923706 0.239297
vt -0.909174 0.239297
vt -0.932954 0.124900
vt -0.947485 0.124900
vt -0.932954 0.104469
vt -0.947485 0.104469
vt -0.947485 0.011059
vt -0.932954 0.011059
vt -0.932954 0.218298
vt -0.947485 0.218298
vt -0.932954 0.233837
vt -0.947485 0.233837
vt -0.593191 0.646049
vt -0.581385 0.625185
vt -0.592965 0.625059
vt -0.604585 0.646049
vt -0.604520 0.624908
vt -0.615971 0.646049
vt -0.616078 0.625029
vt -0.627383 0.646049
vt -0.627634 0.625015
vt -0.626842 0.802464
vt -0.627213 0.736331
vt -0.643353 0.802525
vt -0.610303 0.802357
vt -0.615940 0.736331
vt -0.604657 0.736331
vt -0.593384 0.736331
vt -0.593766 0.802423
vt -0.577257 0.802477
vt -0.639187 0.625269
vt 0.821709 0.597111
vt 0.843452 0.616832
vt 0.821709 0.616832
vt 0.843452 0.636553
vt 0.821709 0.636553
vt 0.843452 0.656274
vt 0.821708 0.656274
vt 0.843452 0.675996
vt 0.821708 0.675995
vt 0.821708 0.695717
vt 0.080116 0.903671
vt 0.068721 0.892276
vt 0.090310 0.886014
vt 0.074744 0.881843
vt 0.062459 0.913865
vt 0.058288 0.898300
vt 0.042070 0.913866
vt 0.046241 0.898300
vt 0.024413 0.903672
vt 0.035807 0.892277
vt 0.014218 0.886014
vt 0.029784 0.881843
vt 1.002560 0.597112
vt 0.933805 0.616833
vt 1.002560 0.695718
vt 0.933804 0.675996
vt 1.002560 0.675997
vt 1.002560 0.656276
vt 0.933804 0.656275
vt 1.002560 0.636554
vt 0.933804 0.636554
vt 1.002560 0.616834
vt 0.765656 0.769719
vt 0.727611 0.779914
vt 0.755462 0.752062
vt 0.765656 0.790108
vt 0.755462 0.807765
vt 0.737804 0.817959
vt 0.737805 0.741868
vt 0.076294 0.130361
vt 0.076294 0.109930
vt 0.090826 0.130361
vt 0.090826 0.109930
vt 0.090826 0.016520
vt 0.076294 0.016520
vt 0.076294 0.223759
vt 0.090826 0.223759
vt 0.076294 0.239297
vt 0.090826 0.239297
vt 0.406809 0.646049
vt 0.407035 0.625059
vt 0.418615 0.625185
vt 0.395415 0.646049
vt 0.395480 0.624908
vt 0.384029 0.646049
vt 0.383922 0.625029
vt 0.372617 0.646049
vt 0.372366 0.625015
vt 0.422743 0.802477
vt 0.430296 0.625274
vt 0.360813 0.625269
vt 0.356647 0.802525
vt 0.349131 0.625354
vt 0.373158 0.802464
vt 0.372786 0.736331
vt 0.389697 0.802357
vt 0.384060 0.736331
vt 0.395343 0.736331
vt 0.406234 0.802423
vt 0.406616 0.736331
vt 0.821708 0.814044
vt 0.821708 0.794323
vt 0.843451 0.794323
vt 0.843451 0.774602
vt 0.821708 0.774602
vt 0.843451 0.754881
vt 0.821708 0.754881
vt 0.843451 0.735160
vt 0.821708 0.735159
vt 0.821708 0.715438
vt 0.090310 0.865626
vt 0.074744 0.869797
vt 0.080115 0.847968
vt 0.068721 0.859363
vt 0.062458 0.837774
vt 0.058288 0.853339
vt 0.042070 0.837774
vt 0.046240 0.853340
vt 0.024413 0.847968
vt 0.035807 0.859363
vt 0.014218 0.865626
vt 0.029784 0.869797
vt 0.933803 0.794323
vt 1.002559 0.814045
vt 0.821708 0.833765
vt 1.002559 0.833765
vt 1.002560 0.715439
vt 1.002560 0.735160
vt 0.933804 0.735160
vt 1.002560 0.754881
vt 0.933804 0.754881
vt 1.002560 0.774602
vt 0.933804 0.774602
vt 1.002559 0.794323
vt 0.717417 0.817959
vt 0.717417 0.741868
vt 0.689565 0.769719
vt 0.699759 0.752062
vt 0.689565 0.790108
vt 0.699759 0.807765
vt 0.067046 0.124900
vt 0.052515 0.124900
vt 0.067046 0.104469
vt 0.052515 0.104469
vt 0.052515 0.011059
vt 0.067046 0.011059
vt 0.067046 0.218298
vt 0.052515 0.218298
vt 0.067046 0.233837
vt 0.052515 0.233837
vn 0.2563 -0.9565 -0.1391
vn -0.6934 0.6933 -0.1963
vn 0.2561 -0.9558 -0.1446
vn -0.6964 0.6965 -0.1730
vn -0.6997 0.6997 0.1446
vn -0.7002 0.7002 0.1391
vn 0.2542 -0.9470 0.1963
vn 0.2549 -0.9514 0.1730
vn -0.2563 -0.9565 -0.1391
vn -0.2561 -0.9558 -0.1446
vn 0.6934 0.6933 -0.1963
vn 0.6966 0.6963 -0.1730
vn 0.6997 0.6997 0.1446
vn 0.6998 0.7007 0.1391
vn -0.2538 -0.9471 0.1963
vn -0.2548 -0.9514 0.1730
vn -0.5939 0.8045 0.0054
vn -0.1218 0.9925 0.0064
vn -0.7058 0.7075 0.0359
vn -0.9966 0.0814 0.0113
vn -0.9653 0.2587 0.0359
vn -0.9967 -0.0807 0.0112
vn -0.9653 -0.2586 0.0359
vn -0.5943 -0.8042 0.0054
vn -0.7067 -0.7066 0.0359
vn -0.6956 -0.7183 0.0120
vn -0.4822 -0.8760 0.0137
vn -0.0000 -1.0000 0.0031
vn -0.9996 0.0000 0.0269
vn -0.9876 -0.1571 0.0005
vn -0.9876 0.1570 0.0005
vn -0.4823 0.8759 0.0137
vn -0.6956 0.7183 0.0120
vn -0.0000 1.0000 0.0031
vn -0.1218 -0.9925 0.0064
vn 0.1341 -0.9910 -0.0000
vn 0.5551 -0.8318 0.0001
vn 0.7071 -0.7071 -0.0000
vn 0.9966 -0.0828 -0.0000
vn 0.9659 -0.2588 -0.0000
vn 0.9966 0.0827 0.0000
vn 0.9659 0.2588 0.0000
vn 0.5551 0.8318 -0.0000
vn 0.7071 0.7071 0.0000
vn 0.1341 0.9910 0.0000
vn -0.0390 0.0406 0.9984
vn -0.0380 0.0415 0.9984
vn -0.0146 0.0544 0.9984
vn -0.0540 0.0159 0.9984
vn -0.0537 0.0170 0.9984
vn -0.0547 -0.0135 0.9984
vn -0.0550 -0.0123 0.9984
vn -0.0406 -0.0390 0.9984
vn -0.0416 -0.0380 0.9984
vn -0.0146 -0.0544 0.9984
vn 0.1696 -0.9855 0.0000
vn 0.5739 -0.8189 -0.0000
vn 0.1696 0.9855 0.0000
vn 0.5738 0.8190 0.0000
vn 0.9879 0.1553 0.0000
vn 0.9879 -0.1553 0.0000
vn 0.0000 0.0000 -1.0000
vn -0.2563 0.9565 -0.1391
vn 0.6934 -0.6933 -0.1963
vn -0.2559 0.9558 -0.1446
vn 0.6964 -0.6965 -0.1730
vn 0.6997 -0.6996 0.1446
vn 0.7002 -0.7002 0.1391
vn -0.2541 0.9471 0.1963
vn -0.2549 0.9514 0.1730
vn 0.5939 0.8045 0.0054
vn 0.7056 0.7077 0.0359
vn 0.1218 0.9925 0.0063
vn 0.9966 0.0814 0.0113
vn 0.9653 0.2587 0.0359
vn 0.9967 -0.0807 0.0112
vn 0.9653 -0.2586 0.0359
vn 0.5943 -0.8042 0.0054
vn 0.7067 -0.7066 0.0359
vn 0.1218 -0.9925 0.0063
vn 0.6955 -0.7184 0.0120
vn 0.4822 -0.8760 0.0137
vn 0.9996 0.0000 0.0269
vn 0.9876 -0.1571 0.0005
vn 0.9876 0.1570 0.0005
vn 0.6956 0.7183 0.0120
vn 0.4823 0.8759 0.0137
vn -0.1341 -0.9910 -0.0000
vn -0.7071 -0.7071 -0.0000
vn -0.5551 -0.8318 0.0000
vn -0.9966 -0.0828 0.0000
vn -0.9659 -0.2588 -0.0000
vn -0.9966 0.0827 0.0000
vn -0.9659 0.2588 0.0000
vn -0.5551 0.8318 0.0000
vn -0.7071 0.7071 0.0000
vn -0.1341 0.9910 0.0000
vn 0.0135 0.0547 0.9984
vn 0.0123 0.0550 0.9984
vn 0.0388 0.0408 0.9984
vn 0.0380 0.0415 0.9984
vn 0.0540 0.0158 0.9984
vn 0.0537 0.0170 0.9984
vn 0.0547 -0.0135 0.9984
vn 0.0550 -0.0123 0.9984
vn 0.0406 -0.0390 0.9984
vn 0.0415 -0.0380 0.9984
vn 0.0158 -0.0540 0.9984
vn 0.0170 -0.0537 0.9984
vn -0.5739 -0.8189 0.0000
vn -0.1696 -0.9855 -0.0000
vn -0.1696 0.9855 -0.0001
vn -0.5738 0.8190 -0.0000
vn -0.9879 0.1553 0.0000
vn -0.9879 -0.1553 0.0000
vn 0.2565 0.9565 -0.1391
vn 0.2561 0.9558 -0.1446
vn -0.6934 -0.6933 -0.1963
vn -0.6965 -0.6964 -0.1730
vn -0.6997 -0.6997 0.1446
vn -0.7002 -0.7002 0.1391
vn 0.2538 0.9471 0.1963
vn 0.2549 0.9514 0.1730
usemtl Default_OBJ.012
s 1
f 119/259/133 120/260/134 121/261/135
f 121/261/135 120/260/134 122/262/136
f 123/263/137 122/262/136 124/264/138
f 124/264/138 122/262/136 120/260/134
f 125/265/139 119/259/133 126/266/140
f 126/266/140 119/259/133 121/261/135
f 124/267/138 125/265/139 123/268/137
f 123/268/137 125/265/139 126/266/140
f 127/269/141 128/270/142 129/271/143
f 129/271/143 128/270/142 130/272/144
f 131/273/145 132/274/146 130/272/144
f 130/272/144 132/274/146 129/271/143
f 133/275/147 134/276/148 127/269/141
f 127/269/141 134/276/148 128/270/142
f 132/277/146 131/278/145 133/275/147
f 133/275/147 131/278/145 134/276/148
f 129/279/149 135/280/150 136/281/151
f 129/279/149 136/281/151 127/282/152
f 127/282/152 136/281/151 137/283/153
f 138/284/154 127/282/152 139/285/155
f 139/285/155 127/282/152 137/283/153
f 138/284/154 139/285/155 140/286/156
f 140/286/156 139/285/155 141/287/157
f 142/288/158 143/289/159 144/290/160
f 145/291/161 146/292/162 142/288/158
f 142/288/158 146/292/162 143/289/159
f 145/291/161 133/293/163 146/292/162
f 132/294/164 133/293/163 147/295/165
f 147/295/165 133/293/163 145/291/161
f 148/296/166 132/294/164 147/295/165
f 140/286/156 149/297/167 143/289/159
f 143/289/159 149/297/167 144/290/160
f 146/292/162 133/293/163 138/284/154
f 138/284/154 133/293/163 127/282/152
f 148/296/166 135/280/150 132/294/164
f 132/294/164 135/280/150 129/279/149
f 140/286/156 141/287/157 149/297/167
f 150/298/168 130/299/169 151/300/170
f 130/299/169 128/301/171 151/300/170
f 151/300/170 128/301/171 152/302/172
f 128/301/171 153/303/173 152/302/172
f 152/302/172 153/303/173 154/304/174
f 153/303/173 155/305/175 154/304/174
f 154/304/174 155/305/175 156/306/176
f 155/305/175 157/307/177 156/306/176
f 151/308/178 136/309/179 150/310/180
f 150/310/180 136/309/179 135/311/180
f 152/312/181 137/313/182 151/308/178
f 151/308/178 137/313/182 136/309/179
f 154/314/183 139/315/184 152/312/181
f 152/312/181 139/315/184 137/313/182
f 156/316/185 141/317/186 154/314/183
f 154/314/183 141/317/186 139/315/184
f 157/318/187 149/319/187 156/316/185
f 156/316/185 149/319/187 141/317/186
f 158/320/188 131/321/189 150/298/168
f 150/298/168 131/321/189 130/299/169
f 159/322/190 160/323/191 161/324/176
f 161/324/176 160/323/191 162/325/174
f 162/325/174 160/323/191 163/326/192
f 162/325/174 163/326/192 164/327/172
f 164/327/172 163/326/192 134/328/193
f 164/327/172 134/328/193 165/329/170
f 165/329/170 134/328/193 131/321/189
f 165/329/170 131/321/189 158/320/188
f 159/322/190 157/307/177 160/323/191
f 160/323/191 157/307/177 155/305/175
f 134/328/193 163/326/192 128/301/171
f 128/301/171 163/326/192 153/303/173
f 162/330/194 166/331/194 161/332/194
f 164/333/194 166/331/194 162/330/194
f 165/334/194 166/331/194 164/333/194
f 158/335/194 166/331/194 165/334/194
f 161/332/194 166/331/194 159/336/194
f 138/337/195 140/338/196 153/339/197
f 153/339/197 140/338/196 155/340/198
f 160/341/199 155/340/198 143/342/200
f 143/342/200 155/340/198 140/338/196
f 146/343/201 138/337/195 163/344/202
f 163/344/202 138/337/195 153/339/197
f 143/345/200 146/343/201 160/346/199
f 160/346/199 146/343/201 163/344/202
f 120/347/203 167/348/204 168/349/205
f 120/347/203 119/350/206 167/348/204
f 167/348/204 119/350/206 169/351/207
f 170/352/208 171/353/209 119/350/206
f 119/350/206 171/353/209 169/351/207
f 170/352/208 172/354/210 171/353/209
f 171/353/209 172/354/210 173/355/211
f 148/356/166 168/349/205 135/357/150
f 174/358/212 144/359/160 149/360/167
f 175/361/213 144/359/160 176/362/214
f 177/363/215 175/361/213 178/364/216
f 178/364/216 175/361/213 176/362/214
f 177/363/215 178/364/216 125/365/217
f 177/363/215 125/365/217 179/366/218
f 179/366/218 125/365/217 124/367/219
f 148/356/166 179/366/218 124/367/219
f 180/368/220 181/369/221 122/370/222
f 122/370/222 181/369/221 121/371/223
f 121/371/223 181/369/221 182/372/224
f 121/371/223 182/372/224 183/373/225
f 183/373/225 182/372/224 184/374/226
f 183/373/225 184/374/226 185/375/227
f 185/375/227 184/374/226 186/376/228
f 185/375/227 186/376/228 187/377/229
f 180/378/230 150/310/180 168/379/231
f 168/379/231 150/310/180 135/311/180
f 181/380/232 180/378/230 167/381/233
f 167/381/233 180/378/230 168/379/231
f 182/382/234 181/380/232 169/383/235
f 169/383/235 181/380/232 167/381/233
f 184/384/236 182/382/234 171/385/237
f 171/385/237 182/382/234 169/383/235
f 186/386/238 184/384/236 173/387/239
f 173/387/239 184/384/236 171/385/237
f 187/388/240 186/386/238 174/389/241
f 174/389/241 186/386/238 173/387/239
f 157/318/187 187/388/240 149/319/187
f 149/319/187 187/388/240 174/389/241
f 122/370/222 123/390/242 180/368/220
f 180/368/220 123/390/242 188/391/243
f 150/392/168 180/368/220 158/393/188
f 158/393/188 180/368/220 188/391/243
f 189/394/244 190/395/228 191/396/245
f 190/395/228 192/397/226 191/396/245
f 191/396/245 192/397/226 193/398/246
f 192/397/226 194/399/224 193/398/246
f 193/398/246 194/399/224 126/400/247
f 194/399/224 195/401/221 126/400/247
f 126/400/247 195/401/221 123/390/242
f 195/401/221 188/391/243 123/390/242
f 172/354/210 176/362/214 174/358/212
f 174/358/212 176/362/214 144/359/160
f 178/364/216 170/352/208 125/365/217
f 125/365/217 170/352/208 119/350/206
f 120/347/203 168/349/205 124/367/219
f 124/367/219 168/349/205 148/356/166
f 185/375/227 187/377/229 191/396/245
f 191/396/245 187/377/229 189/394/244
f 126/400/247 121/371/223 193/398/246
f 193/398/246 121/371/223 183/373/225
f 189/394/244 187/377/229 159/322/190
f 159/322/190 187/377/229 157/307/177
f 172/354/210 174/358/212 173/355/211
f 158/335/194 188/402/194 166/331/194
f 189/403/194 159/336/194 166/331/194
f 192/404/194 190/405/194 166/331/194
f 194/406/194 192/404/194 166/331/194
f 195/407/194 194/406/194 166/331/194
f 188/402/194 195/407/194 166/331/194
f 190/405/194 189/403/194 166/331/194
f 170/408/248 183/409/249 172/410/250
f 172/410/250 183/409/249 185/411/251
f 191/412/252 176/413/253 185/411/251
f 185/411/251 176/413/253 172/410/250
f 178/414/254 193/415/255 170/408/248
f 170/408/248 193/415/255 183/409/249
f 176/416/253 191/417/252 178/414/254
f 178/414/254 191/417/252 193/415/255
o scope
v 0.096448 0.580777 -0.674410
v 0.126013 0.625030 -0.674410
v 0.110794 0.604222 -0.575755
v 0.000000 0.540835 0.388743
v 0.000000 0.540835 0.116204
v 0.052209 0.551214 0.388739
v 0.052206 0.551214 0.110711
v 0.154948 0.613045 -0.674410
v 0.136395 0.677228 -0.674410
v 0.167713 0.677227 -0.674410
v 0.118594 0.558631 -0.674410
v 0.052197 0.551214 -0.674410
v 0.064183 0.522279 -0.674410
v 0.000000 0.540835 -0.674411
v 0.000000 0.509518 -0.674412
v 0.052197 0.803240 -0.674410
v 0.064183 0.832174 -0.674410
v 0.000000 0.813623 -0.674411
v 0.000000 0.844941 -0.674412
v 0.096448 0.773673 -0.674410
v 0.118594 0.795818 -0.674410
v 0.126013 0.729422 -0.674410
v 0.154948 0.741406 -0.674410
v 0.154947 0.613045 -0.791487
v 0.167713 0.677227 -0.791488
v 0.118594 0.558631 -0.791487
v 0.064183 0.522279 -0.791487
v 0.000000 0.509518 -0.791489
v 0.064183 0.832174 -0.791487
v 0.000000 0.844941 -0.791489
v 0.118594 0.795818 -0.791487
v 0.154947 0.741406 -0.791487
v 0.189549 0.598712 -0.798443
v 0.205165 0.677227 -0.798443
v 0.145077 0.532147 -0.798443
v 0.078515 0.487678 -0.798443
v 0.000000 0.472067 -0.798445
v 0.078515 0.866774 -0.798443
v 0.000000 0.882392 -0.798445
v 0.145077 0.822300 -0.798443
v 0.189549 0.755738 -0.798443
v 0.189548 0.598712 -1.083784
v 0.205165 0.677227 -1.083784
v 0.145077 0.532147 -1.083784
v 0.078515 0.487678 -1.083784
v -0.000001 0.472067 -1.083786
v 0.078515 0.866774 -1.083784
v -0.000001 0.882392 -1.083786
v 0.145077 0.822300 -1.083784
v 0.189548 0.755738 -1.083784
v 0.170477 0.606612 -1.115672
v 0.184522 0.677227 -1.115672
v 0.130480 0.546744 -1.115672
v 0.070615 0.506749 -1.115672
v -0.000001 0.492709 -1.115673
v 0.070615 0.847703 -1.115671
v -0.000001 0.861750 -1.115673
v 0.130480 0.807703 -1.115672
v 0.170477 0.747839 -1.115672
v 0.134741 0.621415 -1.115671
v 0.145842 0.677228 -1.115672
v 0.103128 0.574097 -1.115672
v 0.055812 0.542486 -1.115671
v -0.000001 0.531389 -1.115673
v 0.055812 0.811968 -1.115671
v -0.000001 0.823070 -1.115673
v 0.103128 0.780353 -1.115672
v 0.134741 0.733037 -1.115671
v 0.158624 0.627826 0.388738
v 0.117979 0.559229 0.388738
v 0.124360 0.625280 0.389411
v 0.096435 0.580777 0.388738
v 0.063872 0.523061 0.388738
v 0.000000 0.510364 0.388743
v 0.154155 0.613369 0.561978
v 0.117979 0.559229 0.561978
v 0.063872 0.523061 0.561978
v 0.000000 0.510364 0.561983
v 0.096547 0.580471 0.176831
v 0.136396 0.660242 -0.622185
v 0.052203 0.551214 -0.340762
v 0.096441 0.580777 -0.358157
v 0.000000 0.540863 -0.334942
v 0.052198 0.803240 -0.622185
v 0.000000 0.813623 -0.622186
v 0.096448 0.773673 -0.622185
v 0.126013 0.729422 -0.622185
v 0.110794 0.604222 -0.371760
v 0.166997 0.678264 0.561978
v 0.096646 0.580165 0.095469
v 0.189074 0.593296 0.249967
v 0.189074 0.721936 0.626930
v 0.166804 0.715011 0.626930
v 0.189074 0.678264 0.561978
v 0.174268 0.767415 0.651478
v 0.150647 0.755521 0.651478
v 0.135789 0.815769 0.663628
v 0.072400 0.855216 0.674185
v 0.118555 0.797598 0.663628
v 0.063544 0.835001 0.674185
v 0.158801 0.580165 0.176854
v 0.158801 0.580165 0.095434
v 0.000000 0.869844 0.678633
v 0.000000 0.847469 0.678633
v 0.158801 0.604222 -0.575755
v 0.158801 0.604222 -0.371760
v 0.158801 0.708578 -0.622185
v 0.115803 0.792023 -0.622185
v 0.059133 0.824862 -0.622185
v 0.158801 0.663808 -0.622185
v 0.158801 0.368099 -0.234442
v 0.158801 0.368099 0.060091
v 0.130276 0.368099 -0.234442
v 0.078847 0.368099 0.060091
v 0.146699 0.751133 -0.622185
v 0.000000 0.835017 -0.622185
v 0.078847 0.368099 -0.350436
v 0.130276 0.513608 -0.319063
v 0.130276 0.368099 -0.350436
v 0.130276 0.478142 -0.350436
v 0.154155 0.741083 0.561978
v 0.063872 0.831392 0.561979
v 0.117979 0.795219 0.561978
v 0.000000 0.844094 0.561983
v 0.158801 0.708578 0.116453
v 0.189074 0.721936 0.190630
v 0.146699 0.751133 0.099503
v 0.174267 0.767415 0.174286
v 0.059133 0.824862 0.075861
v 0.072400 0.855216 0.145049
v 0.115803 0.792023 0.085271
v 0.135788 0.815769 0.157017
v 0.000000 0.869844 0.140364
v 0.000000 0.835017 0.073706
v 0.158801 0.437740 0.141239
v 0.158801 0.493867 0.140968
v 0.114997 0.635832 -1.029030
v 0.114997 0.718621 -1.029030
v 0.067825 0.575720 -1.029030
v 0.000000 0.552759 -1.029031
v 0.000000 0.801700 -1.029031
v 0.067825 0.778733 -1.029030
v -0.096449 0.580777 -0.674410
v -0.110794 0.604222 -0.575755
v -0.126014 0.625030 -0.674410
v -0.052208 0.551214 0.388739
v -0.052205 0.551214 0.110711
v -0.136396 0.677228 -0.674410
v -0.154948 0.613045 -0.674410
v -0.167714 0.677227 -0.674410
v -0.118595 0.558631 -0.674410
v -0.052198 0.551214 -0.674410
v -0.064183 0.522279 -0.674410
v -0.052198 0.803240 -0.674410
v -0.064183 0.832174 -0.674410
v -0.096449 0.773673 -0.674410
v -0.118595 0.795818 -0.674410
v -0.126014 0.729422 -0.674410
v -0.154948 0.741406 -0.674410
v -0.154948 0.613045 -0.791487
v -0.167714 0.677227 -0.791488
v -0.118595 0.558631 -0.791487
v -0.064183 0.522279 -0.791487
v -0.064183 0.832174 -0.791487
v -0.118595 0.795818 -0.791487
v -0.154948 0.741406 -0.791487
v -0.189549 0.598712 -0.798442
v -0.205166 0.677227 -0.798443
v -0.145078 0.532147 -0.798443
v -0.078516 0.487678 -0.798442
v -0.078516 0.866774 -0.798442
v -0.145078 0.822300 -0.798443
v -0.189549 0.755738 -0.798442
v -0.189550 0.598712 -1.083784
v -0.205166 0.677227 -1.083784
v -0.145078 0.532147 -1.083784
v -0.078516 0.487678 -1.083784
v -0.078516 0.866774 -1.083784
v -0.145078 0.822300 -1.083784
v -0.189550 0.755738 -1.083784
v -0.170478 0.606612 -1.115671
v -0.184523 0.677227 -1.115672
v -0.130481 0.546744 -1.115672
v -0.070616 0.506749 -1.115672
v -0.070616 0.847703 -1.115671
v -0.130481 0.807703 -1.115672
v -0.170478 0.747839 -1.115671
v -0.134742 0.621415 -1.115671
v -0.145843 0.677228 -1.115672
v -0.103129 0.574097 -1.115672
v -0.055814 0.542486 -1.115671
v -0.055814 0.811968 -1.115671
v -0.103129 0.780353 -1.115672
v -0.134742 0.733037 -1.115671
v -0.114998 0.635832 -1.029030
v -0.114998 0.718621 -1.029030
v -0.067826 0.575720 -1.029030
v -0.067826 0.778733 -1.029030
v -0.096435 0.580777 0.388738
v -0.117979 0.559229 0.388738
v -0.124359 0.625280 0.389411
v -0.158623 0.627826 0.388738
v -0.063872 0.523061 0.388738
v -0.154154 0.613369 0.561978
v -0.117979 0.559229 0.561978
v -0.063872 0.523061 0.561978
v -0.096547 0.580471 0.176831
v -0.136397 0.660242 -0.622185
v -0.052204 0.551214 -0.340762
v -0.096441 0.580777 -0.358157
v -0.052198 0.803240 -0.622185
v -0.096449 0.773673 -0.622185
v -0.126013 0.729422 -0.622185
v -0.110794 0.604222 -0.371760
v -0.166996 0.678264 0.561978
v -0.096646 0.580165 0.095469
v -0.189073 0.593296 0.249967
v -0.189073 0.721936 0.190631
v -0.158801 0.580165 0.176855
v -0.158801 0.708578 0.116453
v -0.146699 0.751133 0.099503
v -0.174267 0.767415 0.174286
v -0.059133 0.824862 0.075861
v -0.115803 0.792023 0.085272
v -0.072400 0.855216 0.145050
v -0.135788 0.815769 0.157018
v -0.166803 0.715011 0.626930
v -0.189073 0.678264 0.561978
v -0.189073 0.721936 0.626930
v -0.150646 0.755521 0.651478
v -0.174267 0.767415 0.651478
v -0.135788 0.815769 0.663629
v -0.118555 0.797598 0.663629
v -0.072399 0.855216 0.674185
v -0.063543 0.835001 0.674185
v -0.158801 0.580165 0.095434
v -0.146700 0.751133 -0.622185
v -0.158801 0.708578 -0.622185
v -0.059134 0.824862 -0.622185
v -0.115803 0.792023 -0.622185
v -0.158801 0.437740 0.141239
v -0.158801 0.368099 0.060091
v -0.158801 0.604222 -0.575755
v -0.158801 0.604222 -0.371760
v -0.158801 0.663808 -0.622185
v -0.078847 0.368099 0.060091
v -0.130276 0.368099 -0.234442
v -0.158801 0.368099 -0.234442
v -0.158801 0.493867 0.140968
v -0.078848 0.368099 -0.350436
v -0.130276 0.513608 -0.319063
v -0.130276 0.478142 -0.350436
v -0.130276 0.368099 -0.350436
v -0.154154 0.741083 0.561978
v -0.063872 0.831392 0.561979
v -0.117979 0.795219 0.561978
v -0.078847 0.429882 -0.350436
v -0.066607 0.469058 -0.350436
v 0.066606 0.469058 -0.350436
v 0.078847 0.429882 -0.350436
vt -0.196231 0.850450
vt -0.196231 0.829203
vt -0.243598 0.839194
vt -0.398105 0.246195
vt -0.398105 0.377048
vt -0.373038 0.246196
vt -0.373040 0.379686
vt -0.381014 0.083916
vt -0.395762 0.083916
vt -0.381014 0.110035
vt -0.395762 0.110035
vt -0.381014 0.055439
vt -0.395762 0.055439
vt -0.381014 0.030179
vt -0.395762 0.030179
vt -0.381014 0.001787
vt -0.395762 0.001787
vt -0.381014 0.193191
vt -0.395762 0.193191
vt -0.381014 0.221161
vt -0.395762 0.221161
vt -0.381014 0.166305
vt -0.395762 0.166305
vt -0.381014 0.137873
vt -0.395762 0.137873
vt -0.514451 0.157899
vt -0.461228 0.157898
vt -0.514451 0.128150
vt -0.461229 0.128150
vt -0.514451 0.187647
vt -0.461228 0.187647
vt -0.514451 0.217395
vt -0.461228 0.217395
vt -0.514451 0.247143
vt -0.461228 0.247143
vt -0.514451 0.038907
vt -0.461229 0.038907
vt -0.514451 0.009158
vt -0.461229 0.009158
vt -0.514451 0.068655
vt -0.461229 0.068655
vt -0.514451 0.098403
vt -0.461229 0.098403
vt -0.468670 0.978864
vt -0.468670 0.997257
vt -0.435552 0.978864
vt -0.435552 0.997257
vt -0.500515 0.978864
vt -0.500515 0.997257
vt -0.533118 0.978864
vt -0.533118 0.997257
vt -0.566318 0.978864
vt -0.566318 0.997257
vt -0.339306 0.978864
vt -0.339306 0.997257
vt -0.305706 0.978864
vt -0.305706 0.997257
vt -0.371053 0.978864
vt -0.371053 0.997257
vt -0.403155 0.978864
vt -0.403155 0.997257
vt -0.022234 0.124458
vt -0.150839 0.124458
vt -0.022234 0.159324
vt -0.150839 0.159324
vt -0.022234 0.089659
vt -0.150839 0.089659
vt -0.022234 0.055041
vt -0.150839 0.055041
vt -0.022234 0.021047
vt -0.150839 0.021047
vt -0.022234 0.263628
vt -0.150839 0.263628
vt -0.022234 0.297777
vt -0.150839 0.297777
vt -0.022234 0.228987
vt -0.150839 0.228987
vt -0.022234 0.194191
vt -0.150839 0.194191
vt -0.167451 0.124458
vt -0.167451 0.159324
vt -0.167451 0.089659
vt -0.167451 0.055041
vt -0.167451 0.021047
vt -0.167451 0.263629
vt -0.167451 0.297777
vt -0.167451 0.228987
vt -0.167451 0.194191
vt -0.450980 0.176644
vt -0.433259 0.176643
vt -0.450980 0.146934
vt -0.433258 0.146934
vt -0.450980 0.207517
vt -0.433258 0.207517
vt -0.450980 0.234209
vt -0.433258 0.234209
vt -0.450980 0.265027
vt -0.433258 0.265027
vt -0.450980 0.064193
vt -0.433259 0.064193
vt -0.450980 0.034096
vt -0.433259 0.034096
vt -0.450980 0.094753
vt -0.433258 0.094753
vt -0.450980 0.121079
vt -0.433259 0.121079
vt -0.554841 0.002711
vt -0.554841 0.037929
vt -0.540746 0.010559
vt -0.540746 0.041644
vt -0.540746 0.067138
vt -0.554841 0.069120
vt -0.540746 0.094793
vt -0.554841 0.102172
vt -0.104846 0.505458
vt -0.097073 0.584025
vt -0.068114 0.505458
vt -0.068114 0.584025
vt -0.038597 0.505458
vt -0.038597 0.584025
vt -0.009063 0.505458
vt -0.009063 0.584025
vt -0.351804 0.246197
vt -0.351750 0.347939
vt -0.338397 0.245874
vt -0.196231 0.804141
vt -0.221306 0.812297
vt -0.356425 0.864644
vt -0.196231 0.864644
vt -0.348073 0.850450
vt -0.196230 0.889706
vt -0.359219 0.889708
vt -0.221306 0.743639
vt -0.196231 0.743640
vt -0.221303 0.718576
vt -0.196228 0.718579
vt -0.221305 0.757835
vt -0.196231 0.757835
vt -0.221306 0.779081
vt -0.196231 0.779081
vt -0.341542 0.839194
vt -0.127076 0.585253
vt -0.351703 0.387004
vt -0.307325 0.312825
vt -0.321946 0.246197
vt -0.309179 0.144541
vt -0.320075 0.144536
vt -0.308257 0.163023
vt -0.321014 0.163017
vt -0.309169 0.122613
vt -0.320065 0.122608
vt -0.309155 0.093105
vt -0.309139 0.059396
vt -0.320051 0.093099
vt -0.320035 0.059391
vt -0.321860 0.347928
vt -0.321860 0.387020
vt -0.309123 0.024382
vt -0.320019 0.024377
vt -0.884854 0.950169
vt -0.861805 0.950169
vt -0.884854 0.852225
vt -0.861805 0.852225
vt -0.186760 0.443052
vt -0.199532 0.466357
vt -0.199532 0.423993
vt -0.186760 0.396811
vt -0.199532 0.398462
vt -0.186760 0.373651
vt -0.199532 0.372988
vt -0.186760 0.464546
vt -0.492070 0.528869
vt -0.492070 0.670283
vt -0.478374 0.528869
vt -0.453682 0.670283
vt -0.186760 0.421414
vt -0.186760 0.344935
vt -0.199532 0.347471
vt -0.211576 0.493366
vt -0.186760 0.493154
vt -0.453682 0.473177
vt -0.004138 0.490143
vt -0.004138 0.476447
vt -0.074001 0.476447
vt -0.382791 0.746108
vt -0.327099 0.746108
vt -0.342162 0.815971
vt -0.327099 0.798943
vt -0.117507 0.490143
vt -0.902644 0.951299
vt -0.896915 0.992796
vt -0.883190 0.962770
vt -0.867977 0.992796
vt -0.956502 0.940614
vt -0.955725 0.992796
vt -0.926480 0.945535
vt -0.926328 0.992796
vt -0.985762 0.938789
vt -0.985139 0.992796
vt -0.478374 0.473177
vt 0.406728 0.276353
vt 0.406728 0.240868
vt 0.472450 0.238845
vt 0.468035 0.201408
vt 0.384154 0.276353
vt 0.384154 0.240868
vt 0.321413 0.276353
vt 0.321413 0.240868
vt 0.355947 0.276353
vt 0.355947 0.240868
vt 0.384154 0.013814
vt 0.406728 0.024989
vt 0.321413 0.004356
vt 0.355947 0.008445
vt 0.287702 0.003396
vt 0.287702 0.240868
vt 0.287702 0.276353
vt 0.427511 0.054938
vt 0.406728 0.606991
vt 0.384154 0.606991
vt 0.355947 0.606991
vt 0.321413 0.606991
vt 0.287702 0.606991
vt 0.458511 0.490489
vt 0.431918 0.606404
vt 0.459353 0.584755
vt 0.534204 0.253816
vt 0.566847 0.290995
vt 0.508235 0.254252
vt 0.468561 0.275792
vt 0.566847 0.427135
vt 0.141070 0.665540
vt 0.096526 0.665548
vt 0.118805 0.616088
vt 0.199178 0.648679
vt 0.161688 0.626170
vt 0.223837 0.684865
vt 0.173825 0.691275
vt 0.230806 0.728249
vt 0.186939 0.728257
vt 0.013786 0.684812
vt 0.050662 0.728261
vt 0.006774 0.728268
vt 0.038380 0.648727
vt 0.063760 0.691272
vt 0.075908 0.626156
vt 0.803769 0.850450
vt 0.756402 0.839194
vt 0.803769 0.829203
vt 0.601895 0.246195
vt 0.626962 0.246196
vt 0.601895 0.377048
vt 0.626960 0.379686
vt 0.618986 0.083916
vt 0.618986 0.110035
vt 0.604238 0.083916
vt 0.604238 0.110035
vt 0.618986 0.055439
vt 0.604238 0.055439
vt 0.618986 0.030179
vt 0.604238 0.030179
vt 0.618986 0.001787
vt 0.604238 0.001787
vt 0.618986 0.193191
vt 0.618986 0.221161
vt 0.604238 0.193191
vt 0.604238 0.221161
vt 0.618986 0.166305
vt 0.604238 0.166305
vt 0.618986 0.137873
vt 0.604238 0.137873
vt 0.485549 0.157899
vt 0.485549 0.128150
vt 0.538772 0.157898
vt 0.538771 0.128150
vt 0.485549 0.187647
vt 0.538772 0.187647
vt 0.485549 0.217395
vt 0.538772 0.217395
vt 0.485549 0.247143
vt 0.538772 0.247143
vt 0.485549 0.038907
vt 0.485549 0.009158
vt 0.538771 0.038907
vt 0.538771 0.009158
vt 0.485549 0.068655
vt 0.538771 0.068655
vt 0.485549 0.098403
vt 0.538771 0.098403
vt 0.531330 0.978864
vt 0.564448 0.978864
vt 0.531330 0.997257
vt 0.564448 0.997257
vt 0.499485 0.978864
vt 0.499485 0.997257
vt 0.466882 0.978864
vt 0.466882 0.997257
vt 0.433682 0.978864
vt 0.433682 0.997257
vt 0.660694 0.978864
vt 0.694294 0.978864
vt 0.660694 0.997257
vt 0.694294 0.997257
vt 0.628947 0.978864
vt 0.628947 0.997257
vt 0.596845 0.978864
vt 0.596845 0.997257
vt 0.977766 0.124458
vt 0.977766 0.159324
vt 0.849161 0.124458
vt 0.849161 0.159324
vt 0.977766 0.089659
vt 0.849161 0.089659
vt 0.977766 0.055041
vt 0.849161 0.055041
vt 0.977766 0.021047
vt 0.849161 0.021047
vt 0.977766 0.263628
vt 0.977766 0.297777
vt 0.849161 0.263628
vt 0.849161 0.297777
vt 0.977766 0.228987
vt 0.849161 0.228987
vt 0.977766 0.194191
vt 0.849161 0.194191
vt 0.832549 0.124458
vt 0.832549 0.159324
vt 0.832549 0.089659
vt 0.832549 0.055041
vt 0.832549 0.021047
vt 0.832549 0.263629
vt 0.832549 0.297777
vt 0.832549 0.228987
vt 0.832549 0.194191
vt 0.549020 0.176644
vt 0.549020 0.146934
vt 0.566741 0.176643
vt 0.566742 0.146934
vt 0.549020 0.207517
vt 0.566742 0.207517
vt 0.549020 0.234209
vt 0.566742 0.234209
vt 0.549020 0.265027
vt 0.566742 0.265027
vt 0.549020 0.064193
vt 0.549020 0.034096
vt 0.566741 0.064193
vt 0.566741 0.034096
vt 0.549020 0.094753
vt 0.566742 0.094753
vt 0.549020 0.121079
vt 0.566741 0.121079
vt 0.141071 0.790978
vt 0.118824 0.840430
vt 0.096527 0.790971
vt 0.199192 0.807826
vt 0.161678 0.830353
vt 0.223833 0.771663
vt 0.173828 0.765242
vt 0.013781 0.771697
vt 0.038393 0.807805
vt 0.063763 0.765248
vt 0.075897 0.830357
vt 0.459254 0.041644
vt 0.445159 0.037929
vt 0.459254 0.010559
vt 0.445159 0.002711
vt 0.459254 0.067138
vt 0.445159 0.069120
vt 0.459254 0.094793
vt 0.445159 0.102172
vt 0.895154 0.505458
vt 0.931886 0.505458
vt 0.902927 0.584025
vt 0.931886 0.584025
vt 0.961403 0.505458
vt 0.961403 0.584025
vt 0.990937 0.505458
vt 0.990937 0.584025
vt 0.648196 0.246197
vt 0.661603 0.245874
vt 0.648250 0.347939
vt 0.778694 0.812297
vt 0.803769 0.804141
vt 0.643575 0.864644
vt 0.651927 0.850450
vt 0.803769 0.864644
vt 0.640781 0.889708
vt 0.803770 0.889706
vt 0.778694 0.743639
vt 0.778697 0.718576
vt 0.803769 0.743640
vt 0.803772 0.718579
vt 0.778695 0.757835
vt 0.803769 0.757835
vt 0.778694 0.779081
vt 0.803769 0.779081
vt 0.658458 0.839194
vt 0.872924 0.585253
vt 0.648297 0.387004
vt 0.107370 0.201407
vt 0.168677 0.240868
vt 0.102955 0.238844
vt 0.168677 0.276353
vt 0.191251 0.276353
vt 0.191251 0.240868
vt 0.253992 0.276353
vt 0.219458 0.276353
vt 0.253992 0.240868
vt 0.219458 0.240868
vt 0.692675 0.312825
vt 0.678054 0.246197
vt 0.678986 0.163017
vt 0.679925 0.144536
vt 0.691743 0.163023
vt 0.690821 0.144541
vt 0.679935 0.122608
vt 0.690831 0.122613
vt 0.690845 0.093105
vt 0.679949 0.093099
vt 0.690861 0.059396
vt 0.679965 0.059391
vt 0.168677 0.024989
vt 0.191251 0.013813
vt 0.253992 0.004356
vt 0.219458 0.008445
vt 0.678140 0.347928
vt 0.678140 0.387020
vt 0.690877 0.024382
vt 0.679981 0.024377
vt 0.147894 0.054938
vt 0.191251 0.606990
vt 0.168677 0.606991
vt 0.253992 0.606991
vt 0.219458 0.606991
vt 0.340213 0.975488
vt 0.340213 0.822998
vt 0.373649 0.975488
vt 0.373649 0.822998
vt 0.115146 0.950169
vt 0.115146 0.852225
vt 0.138195 0.950169
vt 0.138195 0.852225
vt 0.813240 0.443052
vt 0.800468 0.423993
vt 0.800468 0.466357
vt 0.800468 0.372988
vt 0.800468 0.398462
vt 0.813240 0.373651
vt 0.813240 0.396811
vt 0.813240 0.464546
vt 0.546318 0.670283
vt 0.507930 0.670283
vt 0.521626 0.528869
vt 0.507930 0.528869
vt 0.813240 0.421414
vt 0.813240 0.344935
vt 0.800468 0.347471
vt 0.623628 0.944624
vt 0.593786 0.944624
vt 0.593786 0.903190
vt 0.143487 0.606404
vt 0.116894 0.490488
vt 0.116052 0.584755
vt 0.106844 0.275792
vt 0.008558 0.290994
vt 0.067170 0.254252
vt 0.041201 0.253816
vt 0.788424 0.493366
vt 0.813240 0.493154
vt 0.008558 0.427135
vt 0.546318 0.473177
vt 0.995862 0.490143
vt 0.925999 0.476447
vt 0.995862 0.476447
vt 0.672901 0.798943
vt 0.672901 0.746108
vt 0.657838 0.815971
vt 0.617209 0.746108
vt 0.100879 0.008357
vt 0.117907 0.008357
vt 0.100879 0.133455
vt 0.117907 0.133455
vt 0.882493 0.467093
vt 0.893749 0.460202
vt 0.882493 0.490143
vt 0.097356 0.951299
vt 0.116810 0.962770
vt 0.103085 0.992796
vt 0.132023 0.992796
vt 0.043498 0.940614
vt 0.073520 0.945535
vt 0.044275 0.992796
vt 0.073672 0.992796
vt 0.014238 0.938789
vt 0.014861 0.992796
vt 0.907944 0.438962
vt 0.644965 0.930723
vt 0.670031 0.925740
vt 0.746275 0.903190
vt 0.938519 0.974519
vt 0.961690 0.949826
vt 0.991354 0.974519
vt 0.991354 0.949826
vt 0.942880 0.943949
vt 0.521626 0.473177
vt 0.716433 0.944624
vt 0.746275 0.944624
vt 0.925999 0.351348
vt 0.893749 0.367594
vt 0.882493 0.337653
vt 0.882493 0.360702
vt 0.907944 0.388833
vt 0.912913 0.413897
vt 0.695096 0.930723
vt 0.938519 0.849420
vt 0.942880 0.879990
vt 0.961690 0.874113
vt 0.991354 0.874113
vt 0.991353 0.849420
vt 0.410979 0.829496
vt 0.410979 0.981985
vt 0.384031 0.829496
vt 0.384031 0.981986
vn 0.6380 -0.7700 0.0022
vn 0.9007 -0.4343 0.0133
vn 0.8605 -0.5094 0.0081
vn -0.0000 -1.0000 0.0000
vn 0.3632 -0.9317 0.0006
vn 0.3463 -0.9381 0.0005
vn 0.0000 0.0000 1.0000
vn 0.9239 -0.3826 -0.0000
vn 1.0000 0.0000 -0.0000
vn 0.7071 -0.7071 0.0000
vn 0.3826 -0.9239 0.0000
vn 0.3827 0.9239 0.0000
vn 0.0000 1.0000 0.0000
vn 0.7071 0.7071 -0.0000
vn 0.9239 0.3827 -0.0000
vn 0.1677 -0.0723 0.9832
vn 0.1678 -0.0720 0.9832
vn 0.1826 -0.0024 0.9832
vn 0.1826 -0.0022 0.9832
vn 0.1272 -0.1310 0.9832
vn 0.1275 -0.1307 0.9832
vn 0.0673 -0.1697 0.9832
vn 0.0677 -0.1696 0.9832
vn 0.0000 -0.1826 0.9832
vn 0.0724 0.1676 0.9832
vn 0.0719 0.1678 0.9832
vn 0.0000 0.1826 0.9832
vn 0.1310 0.1272 0.9832
vn 0.1307 0.1275 0.9832
vn 0.1697 0.0674 0.9832
vn 0.1696 0.0679 0.9832
vn 0.9225 -0.3814 -0.0591
vn 0.9983 0.0000 -0.0591
vn 0.7063 -0.7054 -0.0591
vn 0.3825 -0.9221 -0.0591
vn 0.0000 -0.9981 -0.0610
vn 0.3814 0.9225 -0.0591
vn -0.0000 0.9984 -0.0571
vn 0.7054 0.7063 -0.0591
vn 0.9220 0.3826 -0.0591
vn 0.7780 -0.3152 -0.5434
vn 0.8394 0.0065 -0.5434
vn 0.5982 -0.5890 -0.5434
vn 0.3272 -0.7731 -0.5434
vn -0.0000 -0.8395 -0.5434
vn 0.3152 0.7780 -0.5434
vn -0.0000 0.8395 -0.5434
vn 0.5890 0.5982 -0.5434
vn 0.7731 0.3272 -0.5434
vn -0.0000 0.0000 -1.0000
vn -0.0205 0.0122 -0.9997
vn -0.0015 0.0053 -1.0000
vn -0.0158 0.0117 -0.9998
vn 0.0047 0.0047 -1.0000
vn 0.8883 -0.4590 -0.0154
vn 0.9218 -0.3877 0.0008
vn 0.7345 -0.6785 -0.0091
vn 0.7072 -0.7070 -0.0000
vn 0.3827 -0.9239 -0.0000
vn 0.1950 -0.9808 -0.0000
vn 0.7170 -0.6971 0.0014
vn 0.3674 -0.9284 0.0562
vn 0.4748 -0.8697 0.1347
vn 0.9994 0.0351 -0.0029
vn 0.9816 -0.1870 0.0392
vn 0.3544 -0.9351 0.0000
vn 0.3783 -0.9257 -0.0000
vn 0.6127 -0.7903 -0.0000
vn 0.0000 -1.0000 0.0001
vn 0.9344 0.3560 0.0149
vn 0.8529 -0.5221 -0.0000
vn 0.9809 -0.1941 0.0091
vn 0.2335 -0.9724 0.0026
vn -0.0187 -0.9770 0.2123
vn 0.0951 -0.9608 0.2605
vn 0.2210 -0.6707 0.7081
vn 0.1922 -0.7037 0.6841
vn 0.0311 -0.9403 0.3389
vn -0.0000 -0.9395 0.3425
vn 0.1464 -0.2908 0.9455
vn 0.1453 -0.2879 0.9466
vn 0.1195 -0.1272 0.9847
vn 0.0958 -0.0495 0.9942
vn 0.1332 -0.1204 0.9837
vn 0.1004 -0.0415 0.9941
vn -0.0040 -0.9953 0.0968
vn -0.0000 -0.0059 1.0000
vn 0.0359 -0.4462 -0.8942
vn 0.0603 -0.3791 -0.9234
vn 0.0000 -0.6381 -0.7699
vn 0.0101 -0.6357 -0.7719
vn -0.0000 -0.5027 -0.8644
vn -0.0002 -0.5026 -0.8645
vn 0.0003 -0.5026 -0.8645
vn -0.8373 -0.5458 0.0313
vn -0.9029 -0.4240 0.0708
vn -0.9479 -0.3129 0.0590
vn -0.9738 -0.1991 0.1097
vn -0.3672 -0.9297 0.0278
vn -0.3800 -0.9246 0.0279
vn -0.6511 -0.7587 0.0225
vn -0.6899 -0.7231 0.0335
vn 0.0000 -0.9996 0.0289
vn 0.0000 -0.9995 0.0307
vn 0.9969 0.0603 -0.0510
vn 0.9926 0.0888 -0.0825
vn 0.9688 -0.1044 -0.2250
vn 0.9981 -0.0260 -0.0564
vn 0.9075 0.4179 -0.0414
vn 0.8597 0.5078 -0.0550
vn 0.3599 0.9319 -0.0450
vn 0.3644 0.9297 -0.0533
vn 0.6674 0.7435 -0.0421
vn 0.6442 0.7631 -0.0517
vn 0.8490 0.5284 -0.0000
vn 0.9680 0.2510 -0.0000
vn 0.3544 0.9351 0.0000
vn 0.6354 0.7722 0.0000
vn -0.0000 0.9986 -0.0532
vn 0.0000 0.9990 -0.0458
vn 0.9890 0.1477 0.0000
vn 0.8897 0.4565 0.0000
vn 0.6451 0.7641 0.0000
vn 0.3483 0.9374 0.0000
vn -0.8300 0.3785 -0.4098
vn -0.8353 -0.4289 -0.3439
vn -0.9590 0.0000 -0.2835
vn -0.6947 0.6644 -0.2756
vn -0.8879 0.3762 -0.2649
vn -0.3647 0.8945 -0.2587
vn -0.4486 0.8357 -0.3167
vn 0.0000 0.9709 -0.2395
vn 0.1291 0.9382 -0.3210
vn -0.3648 -0.8944 -0.2587
vn -0.1330 -0.9520 -0.2756
vn 0.0000 -0.9709 -0.2395
vn -0.6948 -0.6644 -0.2756
vn -0.6346 -0.7077 -0.3106
vn -0.8879 -0.3761 -0.2649
vn -0.6380 -0.7700 0.0022
vn -0.8605 -0.5094 0.0081
vn -0.9007 -0.4343 0.0133
vn -0.3632 -0.9317 0.0005
vn -0.3463 -0.9381 0.0005
vn -0.9239 -0.3826 0.0000
vn -1.0000 0.0000 0.0000
vn -0.7071 -0.7071 0.0000
vn -0.3826 -0.9239 0.0000
vn -0.3827 0.9239 0.0000
vn -0.7071 0.7071 0.0000
vn -0.9239 0.3827 0.0000
vn -0.1677 -0.0723 0.9832
vn -0.1826 -0.0027 0.9832
vn -0.1678 -0.0720 0.9832
vn -0.1826 -0.0019 0.9832
vn -0.1272 -0.1310 0.9832
vn -0.1276 -0.1306 0.9832
vn -0.0673 -0.1697 0.9832
vn -0.0677 -0.1696 0.9832
vn -0.0724 0.1676 0.9832
vn -0.0719 0.1678 0.9832
vn -0.1310 0.1272 0.9832
vn -0.1307 0.1275 0.9832
vn -0.1697 0.0673 0.9832
vn -0.1696 0.0678 0.9832
vn -0.9239 -0.3827 0.0000
vn -0.9223 -0.3820 -0.0591
vn -0.9983 0.0006 -0.0591
vn -0.7059 -0.7059 -0.0591
vn -0.3820 -0.9223 -0.0591
vn -0.3820 0.9223 -0.0591
vn -0.7059 0.7059 -0.0591
vn -0.9223 0.3820 -0.0591
vn -0.7780 -0.3152 -0.5434
vn -0.8394 0.0065 -0.5434
vn -0.5982 -0.5890 -0.5434
vn -0.3272 -0.7731 -0.5434
vn -0.3152 0.7780 -0.5434
vn -0.5890 0.5982 -0.5434
vn -0.7731 0.3272 -0.5434
vn 0.8353 0.4289 -0.3439
vn 0.9590 0.0000 -0.2835
vn 0.8300 -0.3785 -0.4098
vn 0.6948 0.6643 -0.2756
vn 0.8878 0.3763 -0.2649
vn 0.3647 0.8945 -0.2587
vn 0.6346 0.7077 -0.3106
vn 0.3648 -0.8944 -0.2587
vn 0.6948 -0.6644 -0.2756
vn 0.4487 -0.8357 -0.3167
vn 0.8879 -0.3762 -0.2649
vn -0.0047 0.0047 -1.0000
vn 0.0015 0.0053 -1.0000
vn 0.0158 0.0117 -0.9998
vn 0.0205 0.0122 -0.9997
vn -0.8883 -0.4590 -0.0154
vn -0.7345 -0.6785 -0.0091
vn -0.9218 -0.3876 0.0008
vn -0.7072 -0.7070 -0.0000
vn -0.3827 -0.9239 -0.0000
vn -0.1950 -0.9808 -0.0000
vn -0.7172 -0.6969 0.0014
vn -0.4748 -0.8697 0.1347
vn -0.3674 -0.9284 0.0562
vn -0.9816 -0.1870 0.0392
vn -0.9994 0.0351 -0.0029
vn -0.3544 -0.9351 0.0000
vn -0.6127 -0.7903 -0.0000
vn -0.3783 -0.9257 0.0000
vn -0.9344 0.3560 0.0149
vn -0.8529 -0.5221 -0.0000
vn -0.9809 -0.1941 0.0091
vn -0.2335 -0.9724 0.0026
vn -0.9981 -0.0260 -0.0564
vn -0.9926 0.0888 -0.0825
vn -0.9688 -0.1044 -0.2249
vn -0.9969 0.0603 -0.0510
vn -0.9075 0.4179 -0.0414
vn -0.8597 0.5078 -0.0549
vn -0.3599 0.9319 -0.0450
vn -0.6674 0.7435 -0.0421
vn -0.3644 0.9297 -0.0533
vn -0.6442 0.7631 -0.0517
vn 0.0187 -0.9770 0.2123
vn -0.0951 -0.9608 0.2605
vn -0.1922 -0.7037 0.6841
vn -0.0311 -0.9403 0.3389
vn -0.2210 -0.6707 0.7081
vn -0.1453 -0.2879 0.9466
vn -0.1464 -0.2908 0.9455
vn -0.1195 -0.1272 0.9847
vn -0.1332 -0.1204 0.9837
vn -0.0959 -0.0494 0.9942
vn -0.1004 -0.0415 0.9941
vn -0.9680 0.2510 -0.0000
vn -0.8490 0.5284 0.0000
vn -0.3544 0.9351 0.0000
vn -0.6354 0.7722 -0.0000
vn 0.0040 -0.9953 0.0968
vn -0.8897 0.4565 0.0000
vn -0.9890 0.1477 0.0000
vn -0.3483 0.9374 0.0000
vn -0.6451 0.7641 0.0000
vn 0.0000 -0.7589 0.6513
vn -0.0359 -0.4462 -0.8942
vn -0.0603 -0.3791 -0.9234
vn -0.0000 0.4664 0.8846
vn -0.0005 0.4667 0.8844
vn -0.0001 0.4665 0.8845
vn -0.0101 -0.6357 -0.7719
vn 0.0002 -0.5026 -0.8645
vn 0.0000 0.6626 -0.7490
vn 0.0000 -0.5019 -0.8650
vn 0.0008 -0.5031 -0.8642
vn -0.0003 -0.5026 -0.8645
vn 0.8373 -0.5458 0.0313
vn 0.9479 -0.3129 0.0590
vn 0.9029 -0.4240 0.0708
vn 0.9738 -0.1991 0.1097
vn 0.3672 -0.9297 0.0278
vn 0.6511 -0.7587 0.0225
vn 0.3800 -0.9246 0.0279
vn 0.6899 -0.7231 0.0335
vn -0.0003 -0.4993 -0.8664
vn -0.0000 0.4667 0.8844
vn -0.0000 0.4666 0.8845
vn 0.0001 0.4665 0.8845
vn 0.0005 0.4667 0.8844
vn -0.0008 -0.5031 -0.8642
vn 0.0003 -0.4993 -0.8664
vn -0.0000 -0.5025 -0.8646
vn 0.0000 0.0048 1.0000
usemtl Default_OBJ.012
s 1
f 196/418/256 197/419/257 198/420/258
f 199/421/259 200/422/259 201/423/260
f 201/423/260 200/422/259 202/424/261
f 197/425/262 203/426/262 204/427/262
f 204/427/262 203/426/262 205/428/262
f 196/429/262 206/430/262 197/425/262
f 197/425/262 206/430/262 203/426/262
f 207/431/262 208/432/262 196/429/262
f 196/429/262 208/432/262 206/430/262
f 209/433/262 210/434/262 207/431/262
f 207/431/262 210/434/262 208/432/262
f 211/435/262 212/436/262 213/437/262
f 213/437/262 212/436/262 214/438/262
f 215/439/262 216/440/262 211/435/262
f 211/435/262 216/440/262 212/436/262
f 217/441/262 218/442/262 215/439/262
f 215/439/262 218/442/262 216/440/262
f 204/427/262 205/428/262 217/441/262
f 217/441/262 205/428/262 218/442/262
f 203/443/263 219/444/263 205/445/264
f 205/445/264 219/444/263 220/446/264
f 206/447/265 221/448/265 203/443/263
f 203/443/263 221/448/265 219/444/263
f 208/449/266 222/450/266 206/447/265
f 206/447/265 222/450/266 221/448/265
f 210/451/259 223/452/259 208/449/266
f 208/449/266 223/452/259 222/450/266
f 212/453/267 224/454/267 214/455/268
f 214/455/268 224/454/267 225/456/268
f 216/457/269 226/458/269 212/453/267
f 212/453/267 226/458/269 224/454/267
f 218/459/270 227/460/270 216/457/269
f 216/457/269 227/460/270 226/458/269
f 205/445/264 220/446/264 218/459/270
f 218/459/270 220/446/264 227/460/270
f 219/461/271 228/462/272 220/463/273
f 220/463/273 228/462/272 229/464/274
f 221/465/275 230/466/276 219/461/271
f 219/461/271 230/466/276 228/462/272
f 222/467/277 231/468/278 221/465/275
f 221/465/275 231/468/278 230/466/276
f 223/469/279 232/470/279 222/467/277
f 222/467/277 232/470/279 231/468/278
f 224/471/280 233/472/281 225/473/282
f 225/473/282 233/472/281 234/474/282
f 226/475/283 235/476/284 224/471/280
f 224/471/280 235/476/284 233/472/281
f 227/477/285 236/478/286 226/475/283
f 226/475/283 236/478/286 235/476/284
f 220/463/273 229/464/274 227/477/285
f 227/477/285 229/464/274 236/478/286
f 228/479/263 237/480/287 229/481/264
f 229/481/264 237/480/287 238/482/288
f 230/483/265 239/484/289 228/479/263
f 228/479/263 239/484/289 237/480/287
f 231/485/266 240/486/290 230/483/265
f 230/483/265 240/486/290 239/484/289
f 232/487/259 241/488/291 231/485/266
f 231/485/266 241/488/291 240/486/290
f 233/489/267 242/490/292 234/491/268
f 234/491/268 242/490/292 243/492/293
f 235/493/269 244/494/294 233/489/267
f 233/489/267 244/494/294 242/490/292
f 236/495/270 245/496/295 235/493/269
f 235/493/269 245/496/295 244/494/294
f 229/481/264 238/482/288 236/495/270
f 236/495/270 238/482/288 245/496/295
f 237/480/287 246/497/296 238/482/288
f 238/482/288 246/497/296 247/498/297
f 239/484/289 248/499/298 237/480/287
f 237/480/287 248/499/298 246/497/296
f 240/486/290 249/500/299 239/484/289
f 239/484/289 249/500/299 248/499/298
f 241/488/291 250/501/300 240/486/290
f 240/486/290 250/501/300 249/500/299
f 242/490/292 251/502/301 243/492/293
f 243/492/293 251/502/301 252/503/302
f 244/494/294 253/504/303 242/490/292
f 242/490/292 253/504/303 251/502/301
f 245/496/295 254/505/304 244/494/294
f 244/494/294 254/505/304 253/504/303
f 238/482/288 247/498/297 245/496/295
f 245/496/295 247/498/297 254/505/304
f 246/506/305 255/507/305 247/508/305
f 247/508/305 255/507/305 256/509/305
f 248/510/305 257/511/305 246/506/305
f 246/506/305 257/511/305 255/507/305
f 249/512/305 258/513/305 248/510/305
f 248/510/305 258/513/305 257/511/305
f 250/514/305 259/515/305 249/512/305
f 249/512/305 259/515/305 258/513/305
f 251/516/305 260/517/305 252/518/305
f 252/518/305 260/517/305 261/519/305
f 253/520/305 262/521/305 251/516/305
f 251/516/305 262/521/305 260/517/305
f 254/522/305 263/523/305 253/520/305
f 253/520/305 263/523/305 262/521/305
f 247/508/305 256/509/305 254/522/305
f 254/522/305 256/509/305 263/523/305
f 264/524/306 265/525/307 266/526/308
f 266/526/308 265/525/307 267/527/309
f 267/527/309 265/525/307 201/528/305
f 201/528/305 265/525/307 268/529/305
f 201/528/305 268/529/305 199/530/305
f 199/530/305 268/529/305 269/531/305
f 264/532/310 270/533/311 265/534/312
f 265/534/312 270/533/311 271/535/313
f 265/534/312 271/535/313 268/536/314
f 268/536/314 271/535/313 272/537/314
f 268/536/314 272/537/314 269/538/315
f 269/538/315 272/537/314 273/539/315
f 267/540/316 274/541/317 266/542/318
f 202/424/261 274/541/317 201/423/260
f 201/423/260 274/541/317 267/540/316
f 197/419/257 204/543/319 275/544/320
f 276/545/321 207/546/322 277/547/323
f 277/547/323 207/546/322 196/418/256
f 207/546/322 276/545/321 209/548/259
f 209/548/259 276/545/321 278/549/324
f 279/550/267 211/551/267 280/552/268
f 280/552/268 211/551/267 213/553/268
f 281/554/269 215/555/269 279/550/267
f 279/550/267 215/555/269 211/551/267
f 282/556/325 217/557/270 281/554/269
f 281/554/269 217/557/270 215/555/269
f 275/544/320 204/543/319 282/556/325
f 282/556/325 204/543/319 217/557/270
f 277/547/323 196/418/256 198/420/258
f 198/420/258 197/419/257 275/544/320
f 277/547/323 198/420/258 283/558/326
f 284/559/327 270/533/311 264/532/310
f 202/424/261 285/560/328 274/541/317
f 286/561/329 264/562/330 266/542/318
f 287/563/331 288/564/332 289/565/333
f 289/565/333 288/564/332 284/566/334
f 290/567/335 291/568/336 287/563/331
f 287/563/331 291/568/336 288/564/332
f 292/569/337 293/570/338 294/571/339
f 294/571/339 293/570/338 295/572/340
f 274/541/317 285/560/328 296/573/341
f 296/573/341 285/560/328 297/574/259
f 290/567/335 292/569/337 291/568/336
f 291/568/336 292/569/337 294/571/339
f 293/570/338 298/575/342 295/572/340
f 295/572/340 298/575/342 299/576/262
f 198/577/259 300/578/259 283/579/259
f 283/579/259 300/578/259 301/580/259
f 302/581/305 275/582/343 282/583/305
f 303/584/305 281/585/305 304/586/305
f 304/586/305 281/585/305 279/587/305
f 302/581/305 305/588/344 275/582/343
f 306/589/259 307/590/259 308/591/259
f 308/591/259 307/590/259 309/592/259
f 303/584/305 310/593/305 281/585/305
f 281/585/305 310/593/305 282/583/305
f 311/594/305 304/586/305 280/595/305
f 280/595/305 304/586/305 279/587/305
f 198/596/345 275/582/343 300/597/346
f 300/597/346 275/582/343 305/588/344
f 309/592/259 312/598/259 308/591/259
f 306/599/347 308/600/347 313/601/348
f 308/602/264 314/603/264 313/604/264
f 313/604/264 314/603/264 315/605/264
f 301/606/349 306/599/347 313/601/348
f 286/561/329 274/541/317 296/573/341
f 286/561/329 266/542/318 274/541/317
f 291/607/350 316/608/351 288/609/352
f 288/609/352 316/608/351 284/610/353
f 295/611/354 317/612/355 294/613/356
f 294/613/356 317/612/355 318/614/357
f 294/613/356 318/614/357 291/607/350
f 291/607/350 318/614/357 316/608/351
f 299/615/358 319/616/359 295/611/354
f 295/611/354 319/616/359 317/612/355
f 310/593/305 302/581/305 282/583/305
f 312/598/259 314/617/259 308/591/259
f 289/565/333 284/566/334 264/562/330
f 286/561/329 289/565/333 264/562/330
f 320/618/360 321/619/361 296/620/362
f 296/620/362 321/619/361 286/621/363
f 322/622/364 323/623/365 320/618/360
f 320/618/360 323/623/365 321/619/361
f 324/624/366 325/625/367 326/626/368
f 326/626/368 325/625/367 327/627/369
f 290/628/370 287/629/371 323/623/365
f 323/623/365 287/629/371 321/619/361
f 325/625/367 293/630/372 327/627/369
f 327/627/369 293/630/372 292/631/373
f 290/628/370 323/623/365 292/631/373
f 292/631/373 323/623/365 327/627/369
f 326/626/368 327/627/369 322/622/364
f 322/622/364 327/627/369 323/623/365
f 298/632/268 293/630/372 328/633/374
f 328/633/374 293/630/372 325/625/367
f 329/634/375 328/633/374 324/624/366
f 324/624/366 328/633/374 325/625/367
f 286/621/363 321/619/361 289/635/264
f 289/635/264 321/619/361 287/629/371
f 320/618/360 302/636/376 322/622/364
f 322/622/364 302/636/376 310/637/377
f 326/626/368 303/638/378 324/624/366
f 324/624/366 303/638/378 304/639/379
f 322/622/364 310/637/377 326/626/368
f 326/626/368 310/637/377 303/638/378
f 324/624/366 304/639/379 329/634/375
f 329/634/375 304/639/379 311/640/268
f 302/636/376 301/641/264 305/642/264
f 301/641/264 300/643/264 305/642/264
f 330/644/264 307/645/264 331/646/264
f 331/646/264 307/645/264 297/647/264
f 320/618/360 296/620/362 297/647/264
f 320/618/360 301/641/264 302/636/376
f 320/618/360 297/647/264 301/641/264
f 307/645/264 306/648/264 297/647/264
f 297/647/264 306/648/264 301/641/264
f 332/649/380 333/650/381 256/651/382
f 257/652/383 332/649/380 255/653/384
f 258/654/385 334/655/386 257/652/383
f 259/656/387 335/657/388 258/654/385
f 260/658/389 336/659/390 261/660/391
f 262/661/392 337/662/393 260/658/389
f 263/663/394 333/650/381 262/661/392
f 255/653/384 332/649/380 256/651/382
f 256/651/382 333/650/381 263/663/394
f 333/650/381 337/662/393 262/661/392
f 257/652/383 334/655/386 332/649/380
f 335/657/388 334/655/386 258/654/385
f 260/658/389 337/662/393 336/659/390
f 338/664/395 339/665/396 340/666/397
f 199/667/259 341/668/398 200/669/259
f 200/669/259 341/668/398 342/670/399
f 340/671/262 343/672/262 344/673/262
f 344/673/262 343/672/262 345/674/262
f 338/675/262 340/671/262 346/676/262
f 346/676/262 340/671/262 344/673/262
f 347/677/262 338/675/262 348/678/262
f 348/678/262 338/675/262 346/676/262
f 209/679/262 347/677/262 210/680/262
f 210/680/262 347/677/262 348/678/262
f 349/681/262 213/682/262 350/683/262
f 350/683/262 213/682/262 214/684/262
f 351/685/262 349/681/262 352/686/262
f 352/686/262 349/681/262 350/683/262
f 353/687/262 351/685/262 354/688/262
f 354/688/262 351/685/262 352/686/262
f 343/672/262 353/687/262 345/674/262
f 345/674/262 353/687/262 354/688/262
f 344/689/400 345/690/401 355/691/400
f 355/691/400 345/690/401 356/692/401
f 346/693/402 344/689/400 357/694/402
f 357/694/402 344/689/400 355/691/400
f 348/695/403 346/693/402 358/696/403
f 358/696/403 346/693/402 357/694/402
f 210/697/259 348/695/403 223/698/259
f 223/698/259 348/695/403 358/696/403
f 350/699/404 214/700/268 359/701/404
f 359/701/404 214/700/268 225/702/268
f 352/703/405 350/699/404 360/704/405
f 360/704/405 350/699/404 359/701/404
f 354/705/406 352/703/405 361/706/406
f 361/706/406 352/703/405 360/704/405
f 345/690/401 354/705/406 356/692/401
f 356/692/401 354/705/406 361/706/406
f 355/707/407 356/708/408 362/709/409
f 362/709/409 356/708/408 363/710/410
f 357/711/411 355/707/407 364/712/412
f 364/712/412 355/707/407 362/709/409
f 358/713/413 357/711/411 365/714/414
f 365/714/414 357/711/411 364/712/412
f 223/715/279 358/713/413 232/716/279
f 232/716/279 358/713/413 365/714/414
f 359/717/415 225/718/282 366/719/416
f 366/719/416 225/718/282 234/720/282
f 360/721/417 359/717/415 367/722/418
f 367/722/418 359/717/415 366/719/416
f 361/723/419 360/721/417 368/724/420
f 368/724/420 360/721/417 367/722/418
f 356/708/408 361/723/419 363/710/410
f 363/710/410 361/723/419 368/724/420
f 362/725/421 363/726/401 369/727/422
f 369/727/422 363/726/401 370/728/423
f 364/729/402 362/725/421 371/730/424
f 371/730/424 362/725/421 369/727/422
f 365/731/403 364/729/402 372/732/425
f 372/732/425 364/729/402 371/730/424
f 232/733/259 365/731/403 241/734/291
f 241/734/291 365/731/403 372/732/425
f 366/735/404 234/736/268 373/737/426
f 373/737/426 234/736/268 243/738/293
f 367/739/405 366/735/404 374/740/427
f 374/740/427 366/735/404 373/737/426
f 368/741/406 367/739/405 375/742/428
f 375/742/428 367/739/405 374/740/427
f 363/726/401 368/741/406 370/728/423
f 370/728/423 368/741/406 375/742/428
f 369/727/422 370/728/423 376/743/429
f 376/743/429 370/728/423 377/744/430
f 371/730/424 369/727/422 378/745/431
f 378/745/431 369/727/422 376/743/429
f 372/732/425 371/730/424 379/746/432
f 379/746/432 371/730/424 378/745/431
f 241/734/291 372/732/425 250/747/300
f 250/747/300 372/732/425 379/746/432
f 373/737/426 243/738/293 380/748/433
f 380/748/433 243/738/293 252/749/302
f 374/740/427 373/737/426 381/750/434
f 381/750/434 373/737/426 380/748/433
f 375/742/428 374/740/427 382/751/435
f 382/751/435 374/740/427 381/750/434
f 370/728/423 375/742/428 377/744/430
f 377/744/430 375/742/428 382/751/435
f 376/752/305 377/753/305 383/754/305
f 383/754/305 377/753/305 384/755/305
f 378/756/305 376/752/305 385/757/305
f 385/757/305 376/752/305 383/754/305
f 379/758/305 378/756/305 386/759/305
f 386/759/305 378/756/305 385/757/305
f 250/760/305 379/758/305 259/761/305
f 259/761/305 379/758/305 386/759/305
f 380/762/305 252/763/305 387/764/305
f 387/764/305 252/763/305 261/765/305
f 381/766/305 380/762/305 388/767/305
f 388/767/305 380/762/305 387/764/305
f 382/768/305 381/766/305 389/769/305
f 389/769/305 381/766/305 388/767/305
f 377/753/305 382/768/305 384/755/305
f 384/755/305 382/768/305 389/769/305
f 390/770/436 384/771/437 391/772/438
f 385/773/439 383/774/440 390/770/436
f 386/775/441 385/773/439 392/776/442
f 259/656/387 386/775/441 335/657/388
f 387/777/443 261/660/391 336/659/390
f 388/778/444 387/777/443 393/779/445
f 389/780/446 388/778/444 391/772/438
f 394/781/447 395/782/448 396/783/449
f 396/783/449 395/782/448 397/784/450
f 394/781/447 341/785/305 395/782/448
f 395/782/448 341/785/305 398/786/305
f 341/785/305 199/787/305 398/786/305
f 398/786/305 199/787/305 269/788/305
f 397/789/451 395/790/452 399/791/453
f 399/791/453 395/790/452 400/792/454
f 395/790/452 398/793/455 400/792/454
f 400/792/454 398/793/455 401/794/455
f 398/793/455 269/795/456 401/794/455
f 401/794/455 269/795/456 273/796/456
f 394/797/457 396/798/458 402/799/459
f 394/797/457 402/799/459 341/668/398
f 341/668/398 402/799/459 342/670/399
f 340/666/397 403/800/460 343/801/461
f 404/802/462 405/803/463 347/804/464
f 347/804/464 405/803/463 338/664/395
f 278/805/324 404/802/462 209/806/259
f 209/806/259 404/802/462 347/804/464
f 406/807/404 280/808/268 349/809/404
f 349/809/404 280/808/268 213/810/268
f 407/811/405 406/807/404 351/812/405
f 351/812/405 406/807/404 349/809/404
f 408/813/465 407/811/405 353/814/406
f 353/814/406 407/811/405 351/812/405
f 403/800/460 408/813/465 343/801/461
f 343/801/461 408/813/465 353/814/406
f 405/803/463 339/665/396 338/664/395
f 339/665/396 403/800/460 340/666/397
f 405/803/463 409/815/466 339/665/396
f 410/816/467 397/789/451 399/791/453
f 342/670/399 402/799/459 411/817/468
f 383/774/440 384/771/437 390/770/436
f 384/771/437 389/780/446 391/772/438
f 391/772/438 388/778/444 393/779/445
f 385/773/439 390/770/436 392/776/442
f 335/657/388 386/775/441 392/776/442
f 387/777/443 336/659/390 393/779/445
f 412/818/469 413/819/470 414/820/471
f 414/820/471 413/819/470 415/821/472
f 416/822/473 415/821/472 417/823/474
f 417/823/474 415/821/472 413/819/470
f 418/824/475 419/825/476 420/826/477
f 420/826/477 419/825/476 421/827/478
f 412/828/479 396/798/458 397/829/480
f 410/830/334 422/831/481 423/832/482
f 423/832/482 422/831/481 424/833/483
f 422/831/481 425/834/484 424/833/483
f 424/833/483 425/834/484 426/835/485
f 427/836/486 428/837/487 429/838/488
f 429/838/488 428/837/487 430/839/489
f 413/819/470 424/840/490 417/823/474
f 417/823/474 424/840/490 426/841/491
f 420/826/477 421/827/478 429/842/492
f 429/842/492 421/827/478 427/843/493
f 402/799/459 414/844/494 411/817/468
f 411/817/468 414/844/494 431/845/259
f 426/835/485 425/834/484 427/836/486
f 427/836/486 425/834/484 428/837/487
f 421/827/478 417/823/474 427/843/493
f 427/843/493 417/823/474 426/841/491
f 419/825/476 416/822/473 421/827/478
f 421/827/478 416/822/473 417/823/474
f 429/838/488 430/839/489 298/846/342
f 298/846/342 430/839/489 299/847/262
f 298/632/268 328/633/374 429/842/492
f 429/842/492 328/633/374 420/826/477
f 329/634/375 418/824/475 328/633/374
f 328/633/374 418/824/475 420/826/477
f 412/818/469 423/848/401 413/819/470
f 413/819/470 423/848/401 424/840/490
f 432/849/495 433/850/496 416/822/473
f 416/822/473 433/850/496 415/821/472
f 434/851/497 435/852/498 418/824/475
f 418/824/475 435/852/498 419/825/476
f 330/853/499 436/854/499 307/855/499
f 307/855/499 436/854/499 437/856/499
f 339/857/259 409/858/259 438/859/259
f 438/859/259 409/858/259 439/860/259
f 433/861/305 408/862/305 403/863/500
f 406/864/305 407/865/305 434/866/305
f 434/866/305 407/865/305 435/867/305
f 433/861/305 403/863/500 440/868/501
f 441/869/259 437/870/259 442/871/259
f 442/871/259 437/870/259 443/872/259
f 435/867/305 407/865/305 432/873/305
f 432/873/305 407/865/305 408/862/305
f 435/852/498 432/849/495 419/825/476
f 419/825/476 432/849/495 416/822/473
f 311/874/305 280/875/305 434/866/305
f 434/866/305 280/875/305 406/864/305
f 311/640/268 434/851/497 329/634/375
f 329/634/375 434/851/497 418/824/475
f 411/876/502 431/877/503 444/878/504
f 433/850/496 440/879/401 439/880/401
f 439/880/401 440/879/401 438/881/401
f 431/882/401 437/883/401 444/884/401
f 444/884/401 437/883/401 436/885/401
f 339/886/345 438/887/505 403/863/500
f 403/863/500 438/887/505 440/868/501
f 415/821/472 431/882/401 414/820/471
f 415/821/472 433/850/496 439/880/401
f 415/821/472 439/880/401 431/882/401
f 439/880/401 443/888/401 431/882/401
f 431/882/401 443/888/401 437/883/401
f 441/869/259 442/871/259 445/889/259
f 443/890/347 446/891/506 442/892/347
f 447/893/401 448/894/401 446/895/401
f 446/895/401 448/894/401 442/896/401
f 447/897/507 446/898/507 315/899/507
f 315/899/507 446/898/507 313/900/507
f 409/901/508 405/902/509 439/903/510
f 439/903/510 405/902/509 446/891/506
f 439/903/510 446/891/506 443/890/347
f 412/828/479 414/844/494 402/799/459
f 412/828/479 402/799/459 396/798/458
f 425/904/511 422/905/512 449/906/513
f 449/906/513 422/905/512 410/907/514
f 430/908/515 428/909/516 450/910/517
f 450/910/517 428/909/516 451/911/518
f 428/909/516 425/904/511 451/911/518
f 451/911/518 425/904/511 449/906/513
f 299/912/358 430/908/515 319/913/359
f 319/913/359 430/908/515 450/910/517
f 432/873/305 408/862/305 433/861/305
f 446/891/506 405/902/509 404/914/519
f 411/876/502 444/878/504 342/915/520
f 200/916/521 444/878/504 331/917/522
f 342/915/520 444/878/504 200/916/521
f 447/918/305 452/919/305 448/920/305
f 448/920/305 452/919/305 445/921/305
f 447/918/305 453/922/305 452/919/305
f 445/889/259 442/871/259 448/923/259
f 423/832/482 397/829/480 410/830/334
f 412/828/479 397/829/480 423/832/482
f 285/924/502 331/917/522 297/925/523
f 313/926/348 277/927/524 301/928/349
f 301/928/349 277/927/524 283/929/508
f 313/926/348 276/930/525 277/927/524
f 278/931/526 313/926/348 446/891/506
f 285/924/502 202/932/520 331/917/522
f 202/932/520 200/916/521 331/917/522
f 447/918/305 315/933/305 453/922/305
f 453/922/305 315/933/305 454/934/305
f 315/933/305 455/935/305 454/934/305
f 312/936/305 455/935/305 314/937/305
f 314/937/305 455/935/305 315/933/305
f 436/938/527 330/939/527 444/940/527
f 444/940/527 330/939/527 331/941/527
f 446/891/506 404/914/519 278/931/526
f 313/926/348 278/931/526 276/930/525
o glass
v 0.000000 0.677227 -1.003135
v 0.114997 0.718621 -1.029030
v 0.114997 0.635832 -1.029030
v 0.067825 0.575720 -1.029030
v 0.000000 0.552759 -1.029031
v 0.067825 0.778733 -1.029030
v 0.000000 0.801700 -1.029031
v 0.166997 0.678264 0.561978
v 0.000000 0.510364 0.561983
v 0.154155 0.613369 0.561978
v 0.117979 0.559229 0.561978
v 0.063872 0.523061 0.561978
v 0.000000 0.844094 0.561983
v 0.063872 0.831392 0.561979
v 0.117979 0.795219 0.561978
v 0.154155 0.741083 0.561978
v -0.114998 0.635832 -1.029030
v -0.114998 0.718621 -1.029030
v -0.067826 0.575720 -1.029030
v -0.067826 0.778733 -1.029030
v -0.166996 0.678264 0.561978
v -0.154154 0.613369 0.561978
v -0.117979 0.559229 0.561978
v -0.063872 0.523061 0.561978
v -0.063872 0.831392 0.561979
v -0.117979 0.795219 0.561978
v -0.154154 0.741083 0.561978
vt 0.500801 0.500650
vt 0.081282 0.651660
vt 0.081282 0.349638
vt 0.253370 0.130344
vt 0.500801 0.075699
vt 0.253370 0.870953
vt 0.500801 0.923540
vt 0.925732 0.508466
vt 0.499661 0.080091
vt 0.892967 0.342895
vt 0.800669 0.204764
vt 0.662622 0.112486
vt 0.499661 0.931560
vt 0.662622 0.899153
vt 0.800669 0.806862
vt 0.892967 0.668741
vt 0.920324 0.349638
vt 0.920324 0.651660
vt 0.748236 0.130344
vt 0.748236 0.870953
vt 0.073592 0.508466
vt 0.106357 0.342895
vt 0.198653 0.204764
vt 0.336700 0.112486
vt 0.336700 0.899153
vt 0.198653 0.806862
vt 0.106357 0.668741
vn -0.0000 0.0000 -1.0000
vn -0.3080 0.0194 -0.9512
vn -0.3338 0.0439 -0.9416
vn -0.2402 0.1474 -0.9595
vn -0.1233 0.2819 -0.9515
vn -0.0529 -0.2736 -0.9604
vn 0.1407 -0.2471 -0.9587
vn 0.0000 0.0000 1.0000
vn 0.0001 -0.0000 1.0000
vn 0.0001 -0.0002 1.0000
vn 0.3080 -0.0194 -0.9512
vn 0.3338 -0.0439 -0.9416
vn 0.0529 0.2736 -0.9604
vn 0.2402 -0.1474 -0.9595
vn -0.0001 -0.0000 1.0000
vn -0.0001 -0.0002 1.0000
usemtl Default_OBJ.012
s 1
f 456/942/528 457/943/529 458/944/530
f 459/945/531 456/942/528 458/944/530
f 460/946/532 456/942/528 459/945/531
f 461/947/533 456/942/528 462/948/534
f 457/943/529 456/942/528 461/947/533
f 463/949/535 464/950/535 465/951/535
f 465/951/535 464/950/535 466/952/536
f 466/952/536 464/950/535 467/953/537
f 468/954/535 464/950/535 469/955/535
f 469/955/535 464/950/535 470/956/535
f 470/956/535 464/950/535 471/957/535
f 471/957/535 464/950/535 463/949/535
f 456/942/528 472/958/538 473/959/539
f 474/960/540 472/958/538 456/942/528
f 460/946/532 474/960/540 456/942/528
f 475/961/541 462/948/534 456/942/528
f 473/959/539 475/961/541 456/942/528
f 476/962/535 477/963/535 464/950/535
f 477/963/535 478/964/542 464/950/535
f 478/964/542 479/965/543 464/950/535
f 468/954/535 480/966/535 464/950/535
f 480/966/535 481/967/535 464/950/535
f 481/967/535 482/968/535 464/950/535
f 482/968/535 476/962/535 464/950/535
