# Blender v2.82 (sub 7) OBJ File: ''
# www.blender.org
o default_Меш
v 0.000000 1.188703 0.620931
v 0.000000 1.232390 0.561918
v 0.548864 1.231316 0.561516
v -0.548864 1.231316 0.561516
v 0.488275 1.188056 0.620569
v -0.488275 1.188056 0.620569
v 0.532783 0.489529 0.682706
v -0.532783 0.489529 0.682706
v 0.601938 0.444575 0.633529
v -0.601938 0.444575 0.633529
v 0.000000 0.440894 0.632147
v 0.000000 0.488149 0.684440
v -0.582316 1.258581 0.588844
v 0.582316 1.258581 0.588844
v 0.000000 1.254976 0.586564
v -0.636886 0.420769 0.664392
v 0.636886 0.420769 0.664392
v 0.000000 0.421039 0.660940
v -0.646971 1.077159 0.626959
v 0.646971 1.077159 0.626959
v -0.636847 1.072889 0.606686
v 0.636847 1.072889 0.606686
v -0.635828 1.279047 0.588342
v 0.635828 1.279047 0.588342
v -0.641683 1.280924 0.607477
v 0.641683 1.280924 0.607477
v 0.000000 1.283561 0.608036
v 0.000000 1.275678 0.588662
v 0.719643 1.074360 0.603877
v -0.719643 1.074360 0.603877
v 0.736548 1.076653 0.624447
v -0.736548 1.076653 0.624447
v 0.732169 1.271621 0.610984
v -0.732169 1.271621 0.610984
v 0.738897 1.271876 0.599447
v -0.738897 1.271876 0.599447
v 0.738197 1.078049 0.611713
v -0.738197 1.078049 0.611713
v 0.729271 0.912859 0.618674
v -0.729271 0.912859 0.618674
v 0.756070 0.478233 0.657541
v -0.756070 0.478233 0.657541
v 0.759192 0.393181 0.666615
v -0.759192 0.393181 0.666615
v 0.762256 0.389920 0.653205
v -0.762256 0.389920 0.653205
v 0.757238 0.473328 0.645569
v -0.757238 0.473328 0.645569
v 0.730749 0.909156 0.603021
v -0.730749 0.909156 0.603021
v 0.720221 1.074754 0.592710
v -0.720221 1.074754 0.592710
v -0.646175 0.390744 0.668344
v 0.646175 0.390744 0.668344
v 0.000000 0.390628 0.668351
v 0.649504 0.389033 0.705485
v -0.649504 0.389033 0.705485
v 0.809017 0.389052 0.703701
v -0.809017 0.389052 0.703701
v 0.808908 0.389707 0.646606
v -0.808908 0.389707 0.646606
v 0.810344 0.389452 0.217594
v -0.810344 0.389452 0.217594
v 0.809842 0.389763 -0.208166
v -0.809842 0.389763 -0.208166
v 0.808865 0.389822 -0.668310
v -0.808865 0.389822 -0.668310
v 0.810328 0.389392 -0.696171
v -0.810328 0.389392 -0.696171
v 0.753940 0.389610 -0.698318
v -0.753940 0.389610 -0.698318
v 0.505364 0.389494 -0.699050
v -0.505364 0.389494 -0.699050
v 0.000000 0.389466 -0.701004
v 0.000000 0.390003 -0.670470
v 0.504703 0.389918 -0.669626
v -0.504703 0.389918 -0.669626
v 0.765154 0.389867 -0.213038
v -0.765154 0.389867 -0.213038
v 0.763911 0.389907 0.220392
v -0.763911 0.389907 0.220392
v 0.764406 0.389925 -0.657458
v -0.764406 0.389925 -0.657458
v 0.757639 0.389973 -0.669893
v -0.757639 0.389973 -0.669893
v 0.741727 0.644442 -0.644491
v -0.741727 0.644442 -0.644491
v 0.722285 0.949784 -0.617101
v -0.722285 0.949784 -0.617101
v 0.712452 1.162030 -0.597651
v -0.712452 1.162030 -0.597651
v 0.703760 1.279595 -0.587224
v -0.703760 1.279595 -0.587224
v 0.708583 1.280661 -0.583301
v -0.708583 1.280661 -0.583301
v 0.715677 1.162388 -0.592941
v -0.715677 1.162388 -0.592941
v 0.728607 0.951146 -0.613347
v -0.728607 0.951146 -0.613347
v 0.747414 0.644726 -0.638864
v -0.747414 0.644726 -0.638864
v 0.721280 1.076760 0.541225
v -0.721280 1.076760 0.541225
v 0.709276 1.279590 0.332741
v -0.709276 1.279590 0.332741
v 0.709093 1.279832 -0.241145
v -0.709093 1.279832 -0.241145
v 0.734534 1.282580 -0.599028
v -0.734534 1.282580 -0.599028
v 0.733316 1.282007 -0.247690
v -0.733316 1.282007 -0.247690
v 0.736024 1.281682 0.328464
v -0.736024 1.281682 0.328464
v 0.735522 1.079536 0.537674
v -0.735522 1.079536 0.537674
v 0.738966 1.084765 0.538834
v -0.738966 1.084765 0.538834
v 0.739017 1.288395 0.328260
v -0.739017 1.288395 0.328260
v 0.739171 1.287460 -0.246756
v -0.739171 1.287460 -0.246756
v 0.738786 1.288423 -0.601395
v -0.738786 1.288423 -0.601395
v 0.729896 1.289774 -0.609241
v -0.729896 1.289774 -0.609241
v 0.461317 1.289617 -0.609558
v -0.461317 1.289617 -0.609558
v 0.172939 1.290436 -0.609622
v -0.172939 1.290436 -0.609622
v 0.000000 1.291260 -0.609685
v 0.000000 1.283160 -0.606267
v 0.173460 1.282509 -0.603425
v -0.173460 1.282509 -0.603425
v 0.463529 1.282768 -0.604635
v -0.463529 1.282768 -0.604635
v 0.728951 1.282692 -0.604329
v -0.728951 1.282692 -0.604329
v 0.000000 1.282050 -0.588225
v 0.169503 1.281574 -0.587644
v -0.169503 1.281574 -0.587644
v 0.460089 1.282043 -0.588847
v -0.460089 1.282043 -0.588847
v 0.000000 1.214462 -0.661762
v 0.103409 1.197529 -0.665084
v -0.103409 1.197529 -0.665084
v 0.217081 1.136946 -0.671200
v -0.217081 1.136946 -0.671200
v 0.286616 1.070672 -0.674586
v -0.286616 1.070672 -0.674586
v 0.335028 0.981604 -0.682543
v -0.335028 0.981604 -0.682543
v 0.356712 0.879637 -0.691327
v -0.356712 0.879637 -0.691327
v 0.334904 0.740881 -0.705031
v -0.334904 0.740881 -0.705031
v 0.261179 0.613311 -0.713477
v -0.261179 0.613311 -0.713477
v 0.148662 0.531782 -0.719599
v -0.148662 0.531782 -0.719599
v 0.000000 0.499525 -0.722106
v 0.000000 0.469480 -0.660878
v 0.147692 0.496200 -0.658459
v -0.147692 0.496200 -0.658459
v 0.228643 0.538802 -0.654628
v -0.228643 0.538802 -0.654628
v 0.288177 0.591492 -0.649913
v -0.288177 0.591492 -0.649913
v 0.343118 0.670455 -0.642804
v -0.343118 0.670455 -0.642804
v 0.376110 0.749638 -0.635703
v -0.376110 0.749638 -0.635703
v 0.385619 0.820126 -0.629299
v -0.385619 0.820126 -0.629299
v 0.383718 0.882669 -0.623679
v -0.383718 0.882669 -0.623679
v 0.379275 0.941735 -0.618370
v -0.379275 0.941735 -0.618370
v 0.359806 0.995217 -0.613568
v -0.359806 0.995217 -0.613568
v 0.331218 1.050551 -0.608608
v -0.331218 1.050551 -0.608608
v 0.299389 1.095935 -0.604508
v -0.299389 1.095935 -0.604508
v 0.241603 1.157805 -0.599094
v -0.241603 1.157805 -0.599094
v 0.181182 1.193685 -0.595837
v -0.181182 1.193685 -0.595837
v 0.121624 1.218570 -0.593611
v -0.121624 1.218570 -0.593611
v 0.057625 1.231999 -0.592358
v -0.057625 1.231999 -0.592358
v 0.000000 1.236223 -0.592042
v 0.299958 0.815920 -0.698512
v -0.299958 0.815920 -0.698512
v 0.272921 0.725916 -0.706342
v -0.272921 0.725916 -0.706342
v 0.217973 0.648523 -0.712535
v -0.217973 0.648523 -0.712535
v 0.147128 0.595217 -0.716454
v -0.147128 0.595217 -0.716454
v 0.065050 0.561552 -0.720760
v -0.065050 0.561552 -0.720760
v 0.000000 0.551995 -0.722448
v 0.302830 0.878974 -0.693352
v -0.302830 0.878974 -0.693352
v 0.291220 0.951729 -0.688048
v -0.291220 0.951729 -0.688048
v 0.265841 1.012286 -0.683194
v -0.265841 1.012286 -0.683194
v 0.213919 1.077883 -0.677571
v -0.213919 1.077883 -0.677571
v 0.143882 1.126657 -0.672935
v -0.143882 1.126657 -0.672935
v 0.061135 1.157110 -0.670726
v -0.061135 1.157110 -0.670726
v 0.000000 1.160622 -0.669565
v 0.270973 0.819980 -0.681087
v -0.270973 0.819980 -0.681087
v 0.273947 0.879276 -0.676282
v -0.273947 0.879276 -0.676282
v 0.257779 0.952425 -0.669494
v -0.257779 0.952425 -0.669494
v 0.193226 1.047171 -0.658671
v -0.193226 1.047171 -0.658671
v 0.119993 1.099330 -0.652043
v -0.119993 1.099330 -0.652043
v 0.000000 1.118545 -0.648200
v 0.000000 0.591543 -0.692800
v 0.098353 0.601386 -0.692803
v -0.098353 0.601386 -0.692803
v 0.179233 0.657494 -0.692139
v -0.179233 0.657494 -0.692139
v 0.235841 0.737170 -0.690939
v -0.235841 0.737170 -0.690939
v 0.000000 0.633425 -0.699640
v 0.081842 0.663043 -0.701571
v -0.081842 0.663043 -0.701571
v 0.158382 0.757669 -0.699481
v -0.158382 0.757669 -0.699481
v 0.187418 0.858052 -0.694034
v -0.187418 0.858052 -0.694034
v 0.152493 0.990004 -0.677978
v -0.152493 0.990004 -0.677978
v 0.065516 1.039449 -0.670619
v -0.065516 1.039449 -0.670619
v 0.000000 1.043380 -0.670295
v 0.000000 0.966051 -0.683309
v 0.092651 0.928569 -0.687543
v -0.092651 0.928569 -0.687543
v 0.099462 0.823195 -0.697444
v -0.099462 0.823195 -0.697444
v 0.055418 0.734536 -0.702034
v -0.055418 0.734536 -0.702034
v 0.000000 0.729655 -0.702069
v 0.000000 0.843034 -0.696028
v 0.000000 0.383551 -0.709554
v 0.505514 0.384267 -0.709559
v -0.505514 0.384267 -0.709559
v 0.753511 0.383473 -0.709683
v -0.753511 0.383473 -0.709683
v 0.810718 0.383816 -0.709104
v -0.810718 0.383816 -0.709104
v 0.817775 0.382864 -0.703291
v -0.817775 0.382864 -0.703291
v 0.818434 0.383412 -0.668891
v -0.818434 0.383412 -0.668891
v 0.818320 0.384383 -0.209503
v -0.818320 0.384383 -0.209503
v 0.818402 0.383536 0.220114
v -0.818402 0.383536 0.220114
v 0.818119 0.384427 0.643553
v -0.818119 0.384427 0.643553
v 0.817762 0.383590 0.704259
v -0.817762 0.383590 0.704259
v 0.807244 0.383439 0.709255
v -0.807244 0.383439 0.709255
v 0.649424 0.381885 0.710269
v -0.649424 0.381885 0.710269
v 0.000000 0.377891 0.710641
v 0.000000 0.387847 0.707905
v 0.000000 0.133748 0.710558
v 0.617567 0.129002 0.710630
v -0.617567 0.129002 0.710630
v 0.715545 -0.042102 0.710274
v -0.715545 -0.042102 0.710274
v 0.815484 -0.044422 0.709756
v -0.815484 -0.044422 0.709756
v 0.811943 0.113301 0.710097
v -0.811943 0.113301 0.710097
v 0.818354 0.109948 0.702159
v -0.818354 0.109948 0.702159
v 0.818224 -0.045225 0.702348
v -0.818224 -0.045225 0.702348
v 0.819089 -0.042415 0.656895
v -0.819089 -0.042415 0.656895
v 0.818305 0.124744 0.538709
v -0.818305 0.124744 0.538709
v 0.818045 0.126399 0.226046
v -0.818045 0.126399 0.226046
v 0.817370 0.123693 -0.217061
v -0.817370 0.123693 -0.217061
v 0.818489 0.116852 -0.513534
v -0.818489 0.116852 -0.513534
v 0.819308 -0.038691 -0.633820
v -0.819308 -0.038691 -0.633820
v 0.819178 -0.042308 -0.708118
v -0.819178 -0.042308 -0.708118
v 0.818252 0.107720 -0.703341
v -0.818252 0.107720 -0.703341
v 0.808823 0.104719 -0.710191
v -0.808823 0.104719 -0.710191
v 0.809482 -0.040419 -0.712632
v -0.809482 -0.040419 -0.712632
v 0.714758 -0.040022 -0.712717
v -0.714758 -0.040022 -0.712717
v 0.618444 0.125714 -0.710049
v -0.618444 0.125714 -0.710049
v 0.503544 0.126946 -0.709233
v -0.503544 0.126946 -0.709233
v 0.000000 0.129552 -0.709600
v 0.000000 0.121785 -0.699424
v -0.502950 0.122006 -0.700872
v 0.502950 0.122006 -0.700872
v -0.611881 0.119940 -0.700334
v 0.611881 0.119940 -0.700334
v -0.707223 -0.042075 -0.704877
v 0.707223 -0.042075 -0.704877
v -0.716073 -0.046793 -0.705500
v 0.716073 -0.046793 -0.705500
v -0.811369 -0.046877 -0.704214
v 0.811369 -0.046877 -0.704214
v -0.814353 -0.046180 -0.632998
v 0.814353 -0.046180 -0.632998
v -0.810959 -0.039243 -0.626144
v 0.810959 -0.039243 -0.626144
v -0.809345 0.109480 -0.509898
v 0.809345 0.109480 -0.509898
v -0.804932 0.120579 -0.219876
v 0.804932 0.120579 -0.219876
v -0.804904 0.121606 0.224259
v 0.804904 0.121606 0.224259
v -0.806878 0.119628 0.533790
v 0.806878 0.119628 0.533790
v -0.812981 -0.045253 0.652322
v 0.812981 -0.045253 0.652322
v -0.810868 -0.046938 0.661507
v 0.810868 -0.046938 0.661507
v -0.809433 -0.046861 0.702999
v 0.809433 -0.046861 0.702999
v -0.715833 -0.046756 0.705039
v 0.715833 -0.046756 0.705039
v -0.704544 -0.036627 0.702785
v 0.704544 -0.036627 0.702785
v -0.611411 0.120264 0.700914
v 0.611411 0.120264 0.700914
v 0.000000 0.122378 0.704857
v -0.614284 0.118994 0.538725
v 0.614284 0.118994 0.538725
v -0.710579 -0.042543 0.650014
v 0.710579 -0.042543 0.650014
v -0.622722 0.108634 -0.517439
v 0.622722 0.108634 -0.517439
v -0.711440 -0.046207 -0.635760
v 0.711440 -0.046207 -0.635760
v -0.612741 0.121580 0.025600
v 0.612741 0.121580 0.025600
v 0.000000 0.121666 0.010758
v 0.000000 0.121550 0.538549
v 0.000000 0.121539 -0.472334
v -0.730189 1.366910 -0.609269
v 0.730189 1.366910 -0.609269
v -0.737985 1.365516 -0.605368
v 0.737985 1.365516 -0.605368
v -0.739247 1.364722 -0.243527
v 0.739247 1.364722 -0.243527
v -0.739176 1.368791 0.320256
v 0.739176 1.368791 0.320256
v -0.739028 1.380320 0.337276
v 0.739028 1.380320 0.337276
v -0.738295 1.672929 0.463290
v 0.738295 1.672929 0.463290
v -0.738712 1.679892 0.474505
v 0.738712 1.679892 0.474505
v -0.738866 1.678903 0.600755
v 0.738866 1.678903 0.600755
v -0.738724 1.673312 0.607277
v 0.738724 1.673312 0.607277
v -0.739234 1.373760 0.599608
v 0.739234 1.373760 0.599608
v -0.730146 1.373906 0.609664
v 0.730146 1.373906 0.609664
v -0.729260 1.676607 0.609447
v 0.729260 1.676607 0.609447
v -0.728568 1.682906 0.603965
v 0.728568 1.682906 0.603965
v -0.722393 1.682981 0.473366
v 0.722393 1.682981 0.473366
v -0.726056 1.675077 0.461975
v 0.726056 1.675077 0.461975
v -0.726859 1.387685 0.330577
v 0.726859 1.387685 0.330577
v -0.720298 1.376521 0.312409
v 0.720298 1.376521 0.312409
v -0.730005 1.371736 -0.240638
v 0.730005 1.371736 -0.240638
v -0.731971 1.371212 -0.600875
v 0.731971 1.371212 -0.600875
v -0.490476 1.369408 -0.603808
v 0.490476 1.369408 -0.603808
v -0.222575 1.369723 -0.602238
v 0.222575 1.369723 -0.602238
v 0.000000 1.370026 -0.600920
v 0.000000 1.363611 -0.609533
v -0.222013 1.362173 -0.609842
v 0.222013 1.362173 -0.609842
v -0.491407 1.362760 -0.609714
v 0.491407 1.362760 -0.609714
v -0.633856 1.381224 0.322669
v 0.633856 1.381224 0.322669
v -0.638375 1.400085 0.339552
v 0.638375 1.400085 0.339552
v -0.646850 1.669006 0.459826
v 0.646850 1.669006 0.459826
v -0.646909 1.682518 0.473769
v 0.646909 1.682518 0.473769
v -0.645226 1.682360 0.598433
v 0.645226 1.682360 0.598433
v -0.646639 1.676020 0.609475
v 0.646639 1.676020 0.609475
v -0.638560 1.383005 0.608775
v 0.638560 1.383005 0.608775
v -0.614850 1.372056 0.607970
v 0.614850 1.372056 0.607970
v -0.531683 1.368135 0.609344
v 0.531683 1.368135 0.609344
v 0.000000 1.366673 0.609728
v 0.000000 1.375051 0.601901
v -0.531096 1.373903 0.601900
v 0.531096 1.373903 0.601900
v -0.622963 1.382707 0.601831
v 0.622963 1.382707 0.601831
v -0.636531 1.671330 0.600440
v 0.636531 1.671330 0.600440
v -0.641711 1.671824 0.478304
v 0.641711 1.671824 0.478304
v -0.640357 1.666903 0.469506
v 0.640357 1.666903 0.469506
v -0.636507 1.392042 0.357846
v 0.636507 1.392042 0.357846
v -0.623104 1.376196 0.352318
v 0.623104 1.376196 0.352318
v -0.572508 1.368952 0.267719
v 0.572508 1.368952 0.267719
v -0.586901 1.369179 0.260003
v 0.586901 1.369179 0.260003
v -0.587738 1.369168 -0.145179
v 0.587738 1.369168 -0.145179
v -0.589023 1.369618 -0.533809
v 0.589023 1.369618 -0.533809
v -0.573769 1.369417 -0.547067
v 0.573769 1.369417 -0.547067
v -0.483454 1.366506 -0.541891
v 0.483454 1.366506 -0.541891
v -0.222972 1.367586 -0.543345
v 0.222972 1.367586 -0.543345
v 0.000000 1.366479 -0.541909
v 0.000000 1.354101 -0.536684
v -0.227732 1.354103 -0.538788
v 0.227732 1.354103 -0.538788
v -0.492675 1.354090 -0.535587
v 0.492675 1.354090 -0.535587
v -0.573678 1.354091 -0.534727
v 0.573678 1.354091 -0.534727
v -0.579286 1.354194 -0.144462
v 0.579286 1.354194 -0.144462
v -0.576927 1.354223 0.256175
v 0.576927 1.354223 0.256175
v 0.000000 1.354232 0.260527
v 0.000000 1.368721 0.267427
v 0.000000 1.354246 -0.134751
v -0.588567 1.371901 0.348066
v 0.588567 1.371901 0.348066
v -0.619840 1.376393 0.308087
v 0.619840 1.376393 0.308087
v 0.000000 1.371746 0.350119
v 0.407828 1.667025 0.468971
v -0.407828 1.667025 0.468971
v 0.408454 1.672259 0.476009
v -0.408454 1.672259 0.476009
v 0.000000 1.672134 0.474708
v 0.000000 1.668547 0.469768
v 0.000000 1.672123 0.598320
v 0.493455 1.507385 0.419456
v 0.480559 1.463014 0.400815
v 0.445327 1.430532 0.387169
v 0.397200 1.418643 0.382174
v 0.349073 1.430532 0.387169
v 0.313841 1.463014 0.400815
v 0.300945 1.507385 0.419456
v 0.313841 1.551755 0.438096
v 0.349073 1.584237 0.451742
v 0.397200 1.596126 0.456737
v 0.445327 1.584237 0.451742
v 0.480559 1.551755 0.438096
v 0.493455 1.526503 0.373947
v 0.480559 1.482133 0.355306
v 0.445327 1.449651 0.341660
v 0.397200 1.437762 0.336666
v 0.349073 1.449651 0.341660
v 0.313841 1.482133 0.355306
v 0.300945 1.526503 0.373947
v 0.313841 1.570874 0.392588
v 0.349073 1.603356 0.406234
v 0.397200 1.615245 0.411229
v 0.445327 1.603356 0.406234
v 0.480559 1.570874 0.392588
v -0.186834 1.507385 0.419456
v -0.198119 1.475362 0.406002
v -0.227666 1.455571 0.397688
v -0.264187 1.455571 0.397688
v -0.293733 1.475362 0.406002
v -0.305019 1.507385 0.419456
v -0.293733 1.539407 0.432909
v -0.264187 1.559198 0.441223
v -0.227666 1.559198 0.441223
v -0.198119 1.539407 0.432909
v -0.186834 1.519122 0.391517
v -0.198119 1.487099 0.378064
v -0.227666 1.467308 0.369749
v -0.264187 1.467308 0.369749
v -0.293733 1.487099 0.378064
v -0.305019 1.519122 0.391517
v -0.293733 1.551145 0.404970
v -0.264187 1.570936 0.413285
v -0.227666 1.570936 0.413285
v -0.198119 1.551145 0.404970
v -0.368511 1.507385 0.419456
v -0.379796 1.475362 0.406002
v -0.409343 1.455571 0.397688
v -0.445864 1.455571 0.397688
v -0.475411 1.475362 0.406002
v -0.486696 1.507385 0.419456
v -0.475411 1.539407 0.432909
v -0.445864 1.559198 0.441223
v -0.409343 1.559198 0.441223
v -0.379796 1.539407 0.432909
v -0.368511 1.519122 0.391517
v -0.379796 1.487099 0.378064
v -0.409343 1.467308 0.369749
v -0.445864 1.467308 0.369749
v -0.475411 1.487099 0.378064
v -0.486696 1.519122 0.391517
v -0.475411 1.551145 0.404970
v -0.445864 1.570936 0.413285
v -0.409343 1.570936 0.413285
v -0.379796 1.551145 0.404970
vt 0.175633 0.822264
vt 0.062410 0.820145
vt 0.073237 0.671972
vt 0.176621 0.672531
vt 0.280008 0.673332
vt 0.288872 0.821636
vt 0.295445 0.660352
vt 0.305932 0.832518
vt 0.175530 0.838024
vt 0.045224 0.830822
vt 0.176723 0.656724
vt 0.057960 0.658810
vt 0.176768 0.649751
vt 0.304187 0.653291
vt 0.049311 0.651635
vt 0.176795 0.645592
vt 0.315809 0.648834
vt 0.037747 0.647028
vt 0.017792 0.693078
vt 0.013952 0.688959
vt 0.032890 0.689381
vt 0.036420 0.692377
vt 0.320113 0.691248
vt 0.339055 0.691073
vt 0.335162 0.695141
vt 0.316545 0.694198
vt 0.314961 0.839397
vt 0.336325 0.730292
vt 0.036106 0.837583
vt 0.016170 0.728209
vt 0.341403 0.826793
vt 0.009832 0.824635
vt 0.175479 0.845875
vt 0.175433 0.852894
vt 0.033833 0.844183
vt 0.650935 0.906359
vt 0.653596 0.905248
vt 0.655710 0.924130
vt 0.652670 0.924906
vt 0.009026 0.843493
vt 0.361732 0.630194
vt 0.363340 0.611263
vt 0.366030 0.612301
vt 0.364792 0.630889
vt 0.341962 0.845661
vt 0.317148 0.846026
vt 0.011964 0.213589
vt 0.010459 0.212775
vt 0.016289 0.209056
vt 0.017627 0.209351
vt 0.342962 0.211197
vt 0.348742 0.214991
vt 0.347228 0.215785
vt 0.341621 0.211474
vt 0.646891 0.769374
vt 0.641944 0.772883
vt 0.644040 0.768886
vt 0.373955 0.478307
vt 0.371447 0.478629
vt 0.369245 0.474687
vt 0.639428 0.772627
vt 0.627998 0.768539
vt 0.628221 0.767151
vt 0.366407 0.475248
vt 0.385016 0.472535
vt 0.385275 0.473916
vt 0.214782 0.027363
vt 0.211536 0.042336
vt 0.180784 0.035409
vt 0.180882 0.020638
vt 0.106721 0.114607
vt 0.111264 0.085713
vt 0.118457 0.101323
vt 0.117856 0.114429
vt 0.242223 0.102135
vt 0.249628 0.086620
vt 0.253785 0.115574
vt 0.242653 0.115250
vt 0.124186 0.082568
vt 0.236753 0.083301
vt 0.126527 0.058877
vt 0.135564 0.066269
vt 0.234724 0.059588
vt 0.225592 0.066859
vt 0.150253 0.055114
vt 0.149942 0.041930
vt 0.211052 0.055514
vt 0.167266 0.048130
vt 0.194133 0.048307
vt 0.180713 0.046234
vt 0.180646 0.056300
vt 0.160887 0.058204
vt 0.200379 0.058464
vt 0.144312 0.069171
vt 0.216808 0.069647
vt 0.132426 0.085419
vt 0.228481 0.086038
vt 0.125287 0.102605
vt 0.235371 0.103326
vt 0.124724 0.114704
vt 0.235781 0.115435
vt 0.120242 0.129500
vt 0.111163 0.135766
vt 0.240069 0.130289
vt 0.249065 0.136674
vt 0.136112 0.155632
vt 0.135382 0.167827
vt 0.121203 0.154167
vt 0.238785 0.154940
vt 0.224429 0.168413
vt 0.223859 0.156210
vt 0.125507 0.142035
vt 0.128069 0.129629
vt 0.234640 0.142754
vt 0.232242 0.130316
vt 0.150436 0.165773
vt 0.209403 0.166161
vt 0.158717 0.180395
vt 0.167375 0.172081
vt 0.179801 0.184086
vt 0.179874 0.172938
vt 0.200931 0.180673
vt 0.192383 0.172246
vt 0.179937 0.163437
vt 0.155957 0.159376
vt 0.203967 0.159692
vt 0.141207 0.148894
vt 0.218853 0.149406
vt 0.166935 0.146898
vt 0.180040 0.147755
vt 0.193155 0.147071
vt 0.149527 0.136841
vt 0.210693 0.137245
vt 0.142508 0.110060
vt 0.218061 0.110567
vt 0.161573 0.124363
vt 0.160275 0.103024
vt 0.198814 0.124610
vt 0.200397 0.103292
vt 0.148393 0.089686
vt 0.212463 0.090114
vt 0.164095 0.070709
vt 0.169282 0.085160
vt 0.197006 0.070926
vt 0.191629 0.085308
vt 0.180590 0.064859
vt 0.180462 0.084246
vt 0.180144 0.132030
vt 0.180309 0.107151
vt 0.166538 0.198368
vt 0.151967 0.195159
vt 0.138329 0.189227
vt 0.140901 0.209608
vt 0.218362 0.210116
vt 0.207486 0.195524
vt 0.221201 0.189771
vt 0.124435 0.180816
vt 0.235203 0.181543
vt 0.111048 0.166733
vt 0.103767 0.156133
vt 0.256193 0.157135
vt 0.248774 0.167638
vt 0.073271 0.213465
vt 0.074044 0.209805
vt 0.285933 0.214859
vt 0.285207 0.211189
vt 0.139961 0.213267
vt 0.015673 0.182000
vt 0.097210 0.143301
vt 0.219254 0.213788
vt 0.343933 0.184155
vt 0.262918 0.144391
vt 0.013439 0.132695
vt 0.092960 0.130728
vt 0.091580 0.117021
vt 0.346816 0.134889
vt 0.267333 0.131875
vt 0.268894 0.118187
vt 0.146894 0.026915
vt 0.181006 0.002000
vt 0.128079 0.037036
vt 0.063885 0.002404
vt 0.114116 0.049340
vt 0.233461 0.037731
vt 0.298101 0.003953
vt 0.247258 0.050217
vt 0.101402 0.067745
vt 0.259727 0.068787
vt 0.008951 0.061689
vt 0.005259 0.002414
vt 0.356716 0.004739
vt 0.352241 0.063954
vt 0.002000 0.002795
vt 0.007109 0.061913
vt 0.093735 0.086108
vt 0.359970 0.005159
vt 0.354079 0.064200
vt 0.267149 0.087249
vt 0.091444 0.102523
vt 0.269222 0.103693
vt 0.179603 0.214109
vt 0.179631 0.209973
vt 0.179700 0.199497
vt 0.192874 0.198541
vt 0.014383 0.182219
vt 0.345220 0.184391
vt 0.011756 0.133100
vt 0.348494 0.135316
vt 0.377843 0.727377
vt 0.374352 0.721599
vt 0.452427 0.722010
vt 0.453846 0.727465
vt 0.559529 0.422704
vt 0.637580 0.420212
vt 0.634241 0.426079
vt 0.558258 0.428196
vt 0.460385 0.925361
vt 0.361732 0.925537
vt 0.365744 0.868842
vt 0.371272 0.800683
vt 0.375744 0.753687
vt 0.650115 0.567167
vt 0.655643 0.623735
vt 0.557020 0.626198
vt 0.642766 0.499180
vt 0.637040 0.452323
vt 0.644766 0.808620
vt 0.641283 0.809441
vt 0.627608 0.771839
vt 0.369582 0.514432
vt 0.373085 0.515160
vt 0.385752 0.477205
vt 0.556580 0.925137
vt 0.581095 0.727425
vt 0.582389 0.722119
vt 0.460853 0.628548
vt 0.431057 0.431565
vt 0.429622 0.426297
vt 0.783594 0.814602
vt 0.785585 0.670777
vt 0.793846 0.670045
vt 0.792415 0.814667
vt 0.783485 0.958364
vt 0.791730 0.959215
vt 0.782452 0.983280
vt 0.790386 0.994514
vt 0.784909 0.645829
vt 0.793010 0.634702
vt 0.309126 0.857989
vt 0.317116 0.869274
vt 0.304451 0.868949
vt 0.306036 0.858617
vt 0.757003 0.302222
vt 0.757202 0.314869
vt 0.746015 0.306780
vt 0.746672 0.303702
vt 0.210014 0.858020
vt 0.209286 0.868314
vt 0.747035 0.207820
vt 0.757323 0.207195
vt 0.114879 0.867167
vt 0.113898 0.857250
vt 0.747215 0.111789
vt 0.757118 0.112868
vt 0.015390 0.856179
vt 0.012909 0.866016
vt 0.747122 0.013273
vt 0.756983 0.010889
vt 0.012627 0.854655
vt 0.006725 0.866338
vt 0.745625 0.010495
vt 0.757365 0.004707
vt 0.776996 0.983352
vt 0.770711 0.995101
vt 0.770661 0.982379
vt 0.774345 0.648292
vt 0.774672 0.635593
vt 0.780691 0.647459
vt 0.777712 0.927175
vt 0.771183 0.927248
vt 0.780178 0.703571
vt 0.773657 0.703355
vt 0.771962 0.815275
vt 0.778727 0.815350
vt 0.891514 0.633251
vt 0.891427 0.635394
vt 0.889735 0.633915
vt 0.363027 0.634277
vt 0.361732 0.632650
vt 0.363717 0.632661
vt 0.677908 0.634964
vt 0.675595 0.634339
vt 0.677292 0.632650
vt 0.003215 0.962698
vt 0.004335 0.964598
vt 0.002000 0.964944
vt 0.759342 0.112572
vt 0.759540 0.207752
vt 0.817101 0.110889
vt 0.816497 0.209067
vt 0.114560 0.869390
vt 0.209822 0.870538
vt 0.112287 0.927158
vt 0.210557 0.927573
vt 0.759523 0.010778
vt 0.818621 0.045174
vt 0.012773 0.868554
vt 0.046549 0.927980
vt 0.759613 0.003155
vt 0.820592 0.003101
vt 0.853829 0.002000
vt 0.853037 0.018452
vt 0.005153 0.868571
vt 0.004516 0.929518
vt 0.019506 0.961981
vt 0.771479 0.648403
vt 0.771655 0.635827
vt 0.709981 0.635450
vt 0.772009 0.633934
vt 0.710693 0.632863
vt 0.767696 0.994800
vt 0.767795 0.982204
vt 0.705936 0.993829
vt 0.768009 0.996702
vt 0.706596 0.996426
vt 0.673360 0.996054
vt 0.673783 0.993686
vt 0.771054 0.703291
vt 0.677775 0.655804
vt 0.714074 0.677627
vt 0.768577 0.927254
vt 0.674060 0.972708
vt 0.710978 0.951667
vt 0.714089 0.703081
vt 0.711581 0.926193
vt 0.769658 0.815250
vt 0.713392 0.814623
vt 0.759342 0.301535
vt 0.303740 0.871285
vt 0.853769 0.304637
vt 0.854408 0.314668
vt 0.820081 0.314548
vt 0.816883 0.278343
vt 0.316166 0.932250
vt 0.315965 0.966614
vt 0.305901 0.965921
vt 0.279928 0.928677
vt 0.759501 0.314972
vt 0.317196 0.871579
vt 0.793952 0.632650
vt 0.794740 0.635071
vt 0.318892 0.869607
vt 0.854722 0.634396
vt 0.888950 0.655913
vt 0.851037 0.677524
vt 0.854226 0.316415
vt 0.819333 0.316806
vt 0.759530 0.317549
vt 0.886847 0.996628
vt 0.887564 0.997994
vt 0.852730 0.997998
vt 0.852006 0.995699
vt 0.792058 0.996751
vt 0.792121 0.994169
vt 0.794818 0.670080
vt 0.792700 0.959213
vt 0.848971 0.952611
vt 0.886444 0.974758
vt 0.794704 0.814690
vt 0.849050 0.815093
vt 0.675916 0.655599
vt 0.004886 0.985003
vt 0.002840 0.985579
vt 0.676407 0.657795
vt 0.004879 0.987138
vt 0.855827 0.002912
vt 0.854994 0.018784
vt 0.019550 0.963465
vt 0.853786 0.020830
vt 0.657472 0.634544
vt 0.659645 0.633755
vt 0.660385 0.656794
vt 0.021624 0.963269
vt 0.019866 0.985430
vt 0.821033 0.046376
vt 0.047739 0.930413
vt 0.711924 0.679510
vt 0.673293 0.970411
vt 0.708881 0.949746
vt 0.819251 0.276664
vt 0.854916 0.303328
vt 0.278227 0.931025
vt 0.304398 0.966870
vt 0.889838 0.655794
vt 0.887950 0.995593
vt 0.887334 0.974922
vt 0.855896 0.305419
vt 0.900628 0.635721
vt 0.901643 0.657971
vt 0.856427 0.314768
vt 0.897325 0.995855
vt 0.899477 0.996318
vt 0.898528 0.998000
vt 0.899432 0.973274
vt 0.889129 0.658902
vt 0.902715 0.635410
vt 0.886729 0.971769
vt 0.853692 0.679329
vt 0.851650 0.950848
vt 0.710556 0.814591
vt 0.711957 0.703189
vt 0.380657 0.016016
vt 0.385059 0.003030
vt 0.420896 0.012900
vt 0.410769 0.051845
vt 0.709449 0.926038
vt 0.722178 0.014919
vt 0.741035 0.021322
vt 0.732783 0.057912
vt 0.692389 0.050725
vt 0.682077 0.011984
vt 0.717737 0.002000
vt 0.662257 0.012414
vt 0.551788 0.062719
vt 0.551587 0.012780
vt 0.370162 0.059259
vt 0.361732 0.022522
vt 0.440729 0.013222
vt 0.111672 0.929994
vt 0.819941 0.110300
vt 0.210136 0.930658
vt 0.731298 0.118691
vt 0.689795 0.173437
vt 0.819583 0.208678
vt 0.371872 0.120478
vt 0.414937 0.174717
vt 0.723653 0.325725
vt 0.719288 0.334988
vt 0.685858 0.324750
vt 0.692274 0.289691
vt 0.552334 0.170802
vt 0.732893 0.217090
vt 0.420470 0.325643
vt 0.387213 0.335963
vt 0.382832 0.326753
vt 0.413872 0.290743
vt 0.373207 0.218875
vt 0.734304 0.282666
vt 0.743863 0.322202
vt 0.362714 0.323327
vt 0.372071 0.283962
vt 0.552906 0.288969
vt 0.851874 0.815115
vt 0.553037 0.325130
vt 0.559363 0.421817
vt 0.429543 0.425518
vt 0.430751 0.407409
vt 0.558040 0.404550
vt 0.580786 0.703277
vt 0.582475 0.721337
vt 0.452678 0.721118
vt 0.453539 0.703816
vt 0.638070 0.418603
vt 0.638333 0.401462
vt 0.373820 0.719999
vt 0.373103 0.702852
vt 0.349828 0.216938
vt 0.347200 0.217644
vt 0.349150 0.235438
vt 0.347110 0.235424
vt 0.009348 0.214709
vt 0.011967 0.215449
vt 0.009785 0.233220
vt 0.011825 0.233232
vt 0.285371 0.216823
vt 0.292028 0.233779
vt 0.073807 0.215437
vt 0.066928 0.232306
vt 0.219134 0.216131
vt 0.140052 0.215612
vt 0.179592 0.216124
vt 0.179483 0.232684
vt 0.230224 0.232705
vt 0.128745 0.232040
vt 0.369875 0.431893
vt 0.642282 0.726130
vt 0.366933 0.432078
vt 0.645227 0.726241
vt 0.426545 0.405181
vt 0.368849 0.409447
vt 0.584930 0.700938
vt 0.642715 0.703669
vt 0.395595 0.342267
vt 0.364084 0.343699
vt 0.365255 0.342635
vt 0.393313 0.341255
vt 0.614194 0.637229
vt 0.645730 0.637822
vt 0.616448 0.636156
vt 0.644532 0.636789
vt 0.428615 0.402633
vt 0.397241 0.340129
vt 0.582794 0.698447
vt 0.612492 0.635136
vt 0.394166 0.337725
vt 0.340961 0.530223
vt 0.324579 0.529698
vt 0.324308 0.525724
vt 0.342216 0.527339
vt 0.323636 0.457962
vt 0.343985 0.454472
vt 0.615502 0.632650
vt 0.030864 0.523833
vt 0.030535 0.527792
vt 0.014153 0.528107
vt 0.012935 0.525213
vt 0.012096 0.452320
vt 0.032400 0.456073
vt 0.362311 0.342457
vt 0.363881 0.340524
vt 0.341165 0.558016
vt 0.341408 0.559530
vt 0.323324 0.558586
vt 0.323197 0.556362
vt 0.647470 0.636533
vt 0.645848 0.634643
vt 0.031411 0.556688
vt 0.013318 0.557396
vt 0.013583 0.555884
vt 0.031567 0.554466
vt 0.365853 0.409555
vt 0.645711 0.703701
vt 0.318856 0.623475
vt 0.339005 0.626308
vt 0.035032 0.621630
vt 0.014848 0.624200
vt 0.338599 0.648912
vt 0.318718 0.646517
vt 0.315256 0.623016
vt 0.313481 0.625815
vt 0.014958 0.646808
vt 0.034869 0.644673
vt 0.040376 0.624040
vt 0.038638 0.621218
vt 0.176822 0.641376
vt 0.176939 0.623384
vt 0.294958 0.626216
vt 0.294932 0.624093
vt 0.058892 0.624682
vt 0.058946 0.622559
vt 0.127385 0.251250
vt 0.178761 0.343227
vt 0.047432 0.340826
vt 0.178179 0.432550
vt 0.048217 0.431733
vt 0.310105 0.342541
vt 0.231333 0.251931
vt 0.308138 0.433425
vt 0.179358 0.251866
vt 0.067026 0.251835
vt 0.048738 0.251999
vt 0.291678 0.253306
vt 0.309962 0.253709
vt 0.230334 0.235174
vt 0.179467 0.235179
vt 0.230276 0.248661
vt 0.179379 0.248735
vt 0.128604 0.234508
vt 0.128485 0.247994
vt 0.069009 0.248652
vt 0.067185 0.234389
vt 0.289737 0.250097
vt 0.291746 0.235859
vt 0.011093 0.235324
vt 0.347818 0.237525
vt 0.047864 0.247835
vt 0.044045 0.251186
vt 0.310890 0.249556
vt 0.314665 0.252953
vt 0.374116 0.701019
vt 0.454198 0.701224
vt 0.010716 0.318607
vt 0.043542 0.340655
vt 0.637274 0.399658
vt 0.557312 0.401977
vt 0.347110 0.320798
vt 0.314002 0.342414
vt 0.342298 0.449111
vt 0.321868 0.451851
vt 0.013853 0.446978
vt 0.034248 0.449982
vt 0.037696 0.445724
vt 0.044926 0.433918
vt 0.048617 0.435712
vt 0.307687 0.437399
vt 0.178156 0.436034
vt 0.045784 0.453637
vt 0.318477 0.447550
vt 0.310288 0.455359
vt 0.033407 0.525145
vt 0.035981 0.457863
vt 0.085898 0.525624
vt 0.038772 0.455168
vt 0.317282 0.456981
vt 0.320043 0.459714
vt 0.178036 0.454596
vt 0.177569 0.526371
vt 0.321900 0.529869
vt 0.321727 0.527021
vt 0.269240 0.526816
vt 0.033205 0.527993
vt 0.432821 0.403143
vt 0.311400 0.435651
vt 0.578604 0.699069
vt 0.269329 0.528854
vt 0.085784 0.527661
vt 0.177561 0.527557
vt 0.320300 0.557844
vt 0.177382 0.555092
vt 0.034442 0.555986
vt 0.176953 0.621232
vt 0.123598 0.968816
vt 0.134624 0.968803
vt 0.134639 0.979728
vt 0.123609 0.979742
vt 0.145650 0.968787
vt 0.145666 0.979711
vt 0.156676 0.968770
vt 0.156693 0.979693
vt 0.024322 0.968763
vt 0.035355 0.968779
vt 0.035339 0.979710
vt 0.024306 0.979693
vt 0.046387 0.968794
vt 0.046374 0.979725
vt 0.057420 0.968807
vt 0.057409 0.979738
vt 0.068452 0.968818
vt 0.068443 0.979748
vt 0.079483 0.968825
vt 0.079478 0.979755
vt 0.090514 0.968829
vt 0.090512 0.979758
vt 0.101543 0.968829
vt 0.101545 0.979757
vt 0.112571 0.968825
vt 0.112578 0.979752
vt 0.387895 0.632677
vt 0.397434 0.638216
vt 0.402926 0.647782
vt 0.402899 0.658813
vt 0.397361 0.668353
vt 0.387794 0.673845
vt 0.376763 0.673818
vt 0.367224 0.668279
vt 0.361732 0.658712
vt 0.361758 0.647682
vt 0.367297 0.638142
vt 0.376864 0.632650
vt 0.057882 0.941023
vt 0.065965 0.941024
vt 0.065965 0.947732
vt 0.057881 0.947731
vt 0.074049 0.941025
vt 0.074049 0.947733
vt 0.082134 0.941026
vt 0.082134 0.947734
vt 0.090219 0.941026
vt 0.090219 0.947735
vt 0.098305 0.941025
vt 0.098306 0.947735
vt 0.106392 0.941024
vt 0.106393 0.947734
vt 0.114479 0.941022
vt 0.114480 0.947733
vt 0.122566 0.941020
vt 0.122567 0.947731
vt 0.130653 0.941019
vt 0.130654 0.947730
vt 0.049799 0.941023
vt 0.049798 0.947730
vt 0.843403 0.099966
vt 0.835704 0.102437
vt 0.828023 0.099911
vt 0.823294 0.093353
vt 0.823323 0.085268
vt 0.828098 0.078743
vt 0.835797 0.076272
vt 0.843478 0.078798
vt 0.848207 0.085356
vt 0.848179 0.093442
vt 0.082151 0.932548
vt 0.090235 0.932548
vt 0.090236 0.939257
vt 0.082149 0.939258
vt 0.098320 0.932545
vt 0.098323 0.939254
vt 0.106405 0.932541
vt 0.106409 0.939250
vt 0.114488 0.932535
vt 0.114494 0.939243
vt 0.122572 0.932528
vt 0.122578 0.939235
vt 0.130655 0.932520
vt 0.130661 0.939227
vt 0.049807 0.932517
vt 0.057893 0.932528
vt 0.057885 0.939238
vt 0.049798 0.939227
vt 0.065980 0.932537
vt 0.065973 0.939247
vt 0.074065 0.932544
vt 0.074061 0.939254
vt 0.846988 0.054401
vt 0.849459 0.062100
vt 0.846933 0.069781
vt 0.840375 0.074510
vt 0.832290 0.074481
vt 0.825765 0.069706
vt 0.823294 0.062007
vt 0.825820 0.054326
vt 0.832378 0.049597
vt 0.840463 0.049625
vn -0.0000 0.0894 0.9960
vn 0.3805 0.1060 0.9187
vn 0.3862 0.1090 0.9160
vn -0.0000 0.0903 0.9959
vn -0.3886 0.1066 0.9152
vn -0.3826 0.1085 0.9175
vn -0.6501 0.1088 0.7520
vn -0.6235 0.1129 0.7736
vn 0.0000 -0.7415 0.6710
vn 0.0029 -0.7360 0.6770
vn 0.0030 -0.7364 0.6766
vn 0.0000 -0.7419 0.6705
vn -0.0030 -0.7364 0.6766
vn -0.0029 -0.7360 0.6770
vn -0.0020 0.8056 0.5925
vn 0.0000 0.8037 0.5950
vn 0.0000 0.8039 0.5947
vn -0.0020 0.8057 0.5923
vn 0.0020 0.8056 0.5925
vn 0.0020 0.8057 0.5923
vn 0.6251 0.1090 0.7729
vn 0.6511 0.1126 0.7506
vn 0.3469 -0.4173 0.8400
vn 0.0000 -0.7373 0.6756
vn 0.0000 -0.4491 0.8935
vn 0.1241 -0.0563 0.9907
vn -0.3469 -0.4173 0.8400
vn -0.1241 -0.0563 0.9907
vn 0.0000 -0.0981 0.9952
vn 0.0188 0.0736 0.9971
vn -0.0188 0.0736 0.9971
vn 0.1097 -0.9931 0.0416
vn 0.5645 -0.5493 0.6162
vn 0.0226 -0.6843 0.7289
vn 0.0240 -0.9806 0.1946
vn -0.0226 -0.6843 0.7289
vn -0.5645 -0.5493 0.6162
vn -0.1097 -0.9931 0.0416
vn -0.0240 -0.9806 0.1945
vn 0.3673 0.4883 0.7916
vn 0.0999 0.2033 0.9740
vn 0.0072 0.0893 0.9960
vn -0.0321 0.0931 0.9951
vn -0.0239 0.0890 0.9957
vn -0.3673 0.4883 0.7916
vn -0.0999 0.2033 0.9740
vn -0.0072 0.0893 0.9960
vn 0.0240 0.0890 0.9957
vn 0.0321 0.0931 0.9951
vn -0.0109 0.0960 0.9953
vn 0.0109 0.0960 0.9953
vn 0.0000 0.5669 0.8238
vn 0.0000 0.8232 0.5677
vn 0.0000 0.2336 0.9723
vn 0.0073 0.1327 0.9911
vn 0.9974 0.0583 0.0429
vn 0.9956 0.0582 0.0734
vn 0.9783 0.0746 0.1932
vn 0.9924 0.0691 0.1022
vn 0.0069 0.1107 0.9938
vn -0.9783 0.0746 0.1932
vn -0.9956 0.0582 0.0734
vn -0.9974 0.0583 0.0429
vn -0.9924 0.0691 0.1022
vn -0.0069 0.1107 0.9938
vn -0.0073 0.1327 0.9911
vn 0.2036 -0.8280 -0.5225
vn 0.4850 -0.8502 -0.2049
vn 0.1091 -0.9938 0.0222
vn 0.0553 -0.9939 -0.0959
vn -0.1091 -0.9938 0.0222
vn -0.4862 -0.8498 -0.2035
vn -0.2038 -0.8280 -0.5224
vn -0.0553 -0.9939 -0.0959
vn 0.8010 -0.5983 0.0201
vn -0.2051 -0.9784 -0.0269
vn -0.8010 -0.5983 0.0201
vn 0.2051 -0.9784 -0.0269
vn 0.4588 -0.8017 -0.3831
vn 0.9394 -0.3064 -0.1539
vn -0.9394 -0.3064 -0.1539
vn -0.4588 -0.8017 -0.3831
vn -0.2996 -0.8315 -0.4678
vn -0.3496 -0.7926 -0.4995
vn 0.0000 -0.8894 -0.4572
vn 0.0000 -0.8977 -0.4405
vn 0.0370 0.0860 -0.9956
vn 0.0059 0.0815 -0.9967
vn -0.2266 0.1257 -0.9658
vn -0.2284 0.0641 -0.9715
vn 0.2266 0.1257 -0.9658
vn -0.0059 0.0815 -0.9967
vn -0.0370 0.0860 -0.9956
vn 0.2284 0.0641 -0.9715
vn -0.1446 0.1569 -0.9770
vn 0.1446 0.1569 -0.9770
vn 0.0197 0.0554 -0.9983
vn -0.1525 0.1981 -0.9683
vn -0.0197 0.0554 -0.9983
vn 0.1525 0.1981 -0.9683
vn -0.1382 0.2899 -0.9470
vn 0.0237 0.0410 -0.9989
vn 0.1382 0.2899 -0.9470
vn -0.0237 0.0410 -0.9989
vn -0.0386 0.3147 -0.9484
vn 0.0386 0.3147 -0.9484
vn 0.0000 -0.0018 -1.0000
vn 0.0000 0.2844 -0.9587
vn -0.0000 0.2636 -0.9646
vn -0.1132 0.3293 -0.9374
vn 0.1132 0.3293 -0.9374
vn -0.1590 0.2108 -0.9645
vn 0.1590 0.2108 -0.9645
vn -0.1153 0.1452 -0.9827
vn 0.1194 0.1542 -0.9808
vn -0.1909 0.1201 -0.9742
vn 0.1980 0.1165 -0.9733
vn -0.2038 0.0693 -0.9766
vn 0.2038 0.0693 -0.9766
vn -0.2074 0.0211 -0.9780
vn 0.0583 0.1055 -0.9927
vn 0.2074 0.0211 -0.9780
vn -0.0583 0.1055 -0.9927
vn -0.1469 -0.0826 -0.9857
vn 0.0211 0.1077 -0.9940
vn 0.0559 0.1206 -0.9911
vn -0.0559 0.1206 -0.9911
vn -0.0211 0.1077 -0.9940
vn 0.1469 -0.0826 -0.9857
vn -0.1631 -0.0134 -0.9865
vn -0.2021 0.0178 -0.9792
vn 0.1631 -0.0134 -0.9865
vn 0.2021 0.0178 -0.9792
vn -0.1279 -0.1360 -0.9824
vn 0.1279 -0.1360 -0.9824
vn 0.0072 0.1276 -0.9918
vn -0.0470 -0.1219 -0.9914
vn -0.0000 0.1446 -0.9895
vn -0.0000 -0.1520 -0.9884
vn -0.0072 0.1276 -0.9918
vn 0.0470 -0.1219 -0.9914
vn 0.0000 -0.1111 -0.9938
vn -0.1210 -0.1318 -0.9839
vn 0.1210 -0.1318 -0.9839
vn -0.1568 -0.0533 -0.9862
vn 0.1568 -0.0533 -0.9862
vn 0.0215 0.2221 -0.9748
vn 0.0000 0.2266 -0.9740
vn -0.0215 0.2221 -0.9748
vn 0.0786 0.1882 -0.9790
vn -0.0786 0.1882 -0.9790
vn 0.0964 0.0871 -0.9915
vn -0.0990 0.0814 -0.9918
vn 0.0095 0.1217 -0.9925
vn 0.0071 0.0672 -0.9977
vn -0.0095 0.1217 -0.9925
vn -0.0071 0.0672 -0.9977
vn 0.0666 0.0038 -0.9978
vn -0.0732 0.0075 -0.9973
vn 0.0395 -0.0673 -0.9969
vn 0.0067 0.0231 -0.9997
vn -0.0395 -0.0673 -0.9969
vn -0.0067 0.0231 -0.9997
vn -0.0000 -0.1027 -0.9947
vn -0.0000 0.0165 -0.9999
vn -0.0000 0.1379 -0.9904
vn -0.0000 0.0785 -0.9969
vn 0.2687 0.8922 -0.3630
vn 0.1340 0.9358 -0.3260
vn 0.2770 0.9003 -0.3357
vn 0.0016 0.0930 -0.9957
vn 0.0008 0.0937 -0.9956
vn 0.0002 0.0908 -0.9959
vn 0.4081 0.8259 -0.3892
vn 0.5375 0.7434 -0.3981
vn -0.0002 0.0908 -0.9959
vn -0.0008 0.0937 -0.9956
vn -0.0016 0.0930 -0.9957
vn -0.4081 0.8259 -0.3892
vn -0.2770 0.9003 -0.3357
vn -0.2687 0.8922 -0.3630
vn -0.5375 0.7434 -0.3981
vn 0.0123 0.0992 -0.9950
vn 0.5586 0.7266 -0.4001
vn -0.0123 0.0992 -0.9950
vn -0.5586 0.7266 -0.4001
vn 0.6923 0.6226 -0.3648
vn 0.7846 0.4966 -0.3712
vn 0.7210 0.5853 -0.3710
vn -0.7210 0.5853 -0.3710
vn -0.7846 0.4966 -0.3712
vn -0.6923 0.6226 -0.3648
vn -0.0030 -0.8778 -0.4790
vn -0.0038 -0.9989 -0.0469
vn 0.0032 -0.8778 -0.4789
vn 0.0038 -0.9989 -0.0469
vn -0.0010 -0.9982 -0.0595
vn 0.0021 -0.8866 -0.4625
vn -0.0033 0.0879 -0.9961
vn 0.0018 0.0861 -0.9963
vn 0.3402 0.1006 -0.9350
vn 0.4634 0.1103 -0.8793
vn 0.0011 0.0881 -0.9961
vn -0.0040 0.0872 -0.9962
vn 0.8379 0.3603 -0.4100
vn 0.8330 0.4033 -0.3788
vn 0.0012 -0.8857 -0.4642
vn 0.0010 -0.9982 -0.0595
vn 0.0033 0.0879 -0.9961
vn -0.0018 0.0861 -0.9963
vn -0.4634 0.1103 -0.8793
vn -0.3402 0.1006 -0.9350
vn 0.0040 0.0872 -0.9962
vn -0.0011 0.0881 -0.9961
vn -0.8379 0.3603 -0.4100
vn -0.8330 0.4033 -0.3788
vn 0.2546 0.0995 -0.9619
vn 0.0016 0.0898 -0.9960
vn 0.8824 0.2322 -0.4092
vn 0.9242 0.0836 -0.3727
vn 0.8981 0.0677 -0.4345
vn -0.2546 0.0995 -0.9619
vn -0.0016 0.0898 -0.9960
vn -0.8981 0.0677 -0.4345
vn -0.9242 0.0836 -0.3727
vn -0.8824 0.2322 -0.4092
vn 0.2996 -0.8315 -0.4678
vn 0.3496 -0.7926 -0.4995
vn -0.0000 0.1154 -0.9933
vn -0.0000 0.1198 -0.9928
vn -0.0397 0.1666 -0.9852
vn 0.0397 0.1666 -0.9852
vn -0.0016 0.1017 -0.9948
vn 0.0001 0.0976 -0.9952
vn -0.0041 0.0930 -0.9957
vn 0.5173 -0.6870 -0.5103
vn 0.6533 -0.5545 -0.5155
vn 0.6800 -0.5549 -0.4793
vn 0.0016 0.1017 -0.9948
vn -0.0001 0.0976 -0.9952
vn 0.0041 0.0930 -0.9957
vn -0.5173 -0.6870 -0.5103
vn -0.6533 -0.5545 -0.5155
vn -0.6800 -0.5549 -0.4793
vn 0.7729 -0.3846 -0.5047
vn 0.8285 -0.2453 -0.5034
vn -0.7729 -0.3846 -0.5047
vn -0.8285 -0.2453 -0.5034
vn 0.3796 0.1064 -0.9190
vn 0.5083 0.1170 -0.8532
vn -0.0003 0.0923 -0.9957
vn -0.5063 0.1118 -0.8551
vn -0.3768 0.1107 -0.9197
vn 0.0003 0.0923 -0.9957
vn 0.9625 0.0877 -0.2568
vn 0.9170 0.0904 -0.3885
vn 0.0018 0.0894 -0.9960
vn 0.8568 -0.1653 -0.4884
vn -0.9636 0.0828 -0.2542
vn -0.9177 0.0944 -0.3859
vn -0.0018 0.0894 -0.9960
vn -0.8568 -0.1653 -0.4884
vn 0.0018 0.0898 -0.9960
vn 0.0016 0.0896 -0.9960
vn 0.8876 -0.0391 -0.4590
vn -0.0018 0.0898 -0.9960
vn -0.0016 0.0896 -0.9960
vn -0.8876 -0.0391 -0.4590
vn -0.0044 -0.8143 -0.5804
vn 0.0000 -0.9981 -0.0614
vn -0.0000 0.0846 -0.9964
vn -0.0000 0.0830 -0.9965
vn -0.0024 0.0873 -0.9962
vn -0.1340 0.9358 -0.3260
vn 0.0000 0.9546 -0.2980
vn 0.0000 0.9436 -0.3310
vn 0.0024 0.0873 -0.9962
vn 0.9127 0.0873 -0.3993
vn 0.9501 0.0883 -0.2991
vn -0.9501 0.0883 -0.2991
vn -0.9127 0.0873 -0.3993
vn 0.8601 0.0949 -0.5012
vn -0.8601 0.0949 -0.5012
vn 0.4070 -0.9134 -0.0003
vn 0.0888 -0.9960 -0.0016
vn -0.4071 -0.9134 -0.0026
vn -0.0888 -0.9960 -0.0016
vn 0.9980 0.0634 -0.0000
vn 0.9981 0.0618 -0.0009
vn -0.9980 0.0634 -0.0000
vn -0.9981 0.0618 -0.0009
vn 0.9972 0.0647 0.0382
vn 0.9965 0.0643 0.0539
vn 0.9947 0.0681 0.0772
vn 0.9971 0.0644 0.0409
vn 0.0999 -0.9378 -0.3326
vn -0.9947 0.0681 0.0772
vn -0.9965 0.0643 0.0539
vn -0.9972 0.0647 0.0382
vn -0.9971 0.0644 0.0409
vn -0.0999 -0.9378 -0.3326
vn 0.9983 0.0579 0.0042
vn -0.9983 0.0579 0.0042
vn 0.9981 0.0617 0.0027
vn 0.9982 0.0607 0.0008
vn 0.0063 -0.9124 -0.4092
vn 0.5919 -0.7396 -0.3203
vn -0.9981 0.0617 0.0027
vn -0.9982 0.0607 0.0008
vn -0.0063 -0.9124 -0.4092
vn -0.5916 -0.7405 -0.3189
vn 0.0007 0.9976 0.0697
vn 0.0100 0.9989 0.0469
vn 0.0056 0.8690 0.4948
vn -0.0009 0.7731 0.6342
vn -0.0107 0.9988 0.0474
vn -0.0046 0.8695 0.4939
vn 0.0096 0.9999 0.0064
vn 0.2619 0.8871 0.3802
vn -0.0096 0.9999 0.0064
vn -0.2619 0.8871 0.3802
vn 0.2729 0.9620 -0.0037
vn -0.0154 0.9900 -0.1405
vn -0.2726 0.9621 -0.0032
vn 0.0154 0.9900 -0.1405
vn 0.0094 1.0000 0.0000
vn 0.3161 0.9487 0.0008
vn -0.0096 1.0000 -0.0003
vn -0.3160 0.9488 -0.0005
vn 0.2803 0.9599 -0.0004
vn 0.0023 1.0000 0.0000
vn -0.0025 1.0000 0.0004
vn -0.2804 0.9599 0.0004
vn 0.0026 1.0000 0.0012
vn 0.2874 0.9578 -0.0002
vn -0.0026 1.0000 0.0012
vn -0.2873 0.9578 -0.0003
vn 0.0023 1.0000 -0.0095
vn 0.3051 0.9382 -0.1632
vn -0.0023 1.0000 -0.0095
vn -0.3051 0.9382 -0.1632
vn 0.0022 0.9682 -0.2502
vn -0.0018 0.9681 -0.2505
vn -0.0002 0.9999 -0.0144
vn -0.0002 0.9717 -0.2361
vn 0.0001 0.9999 -0.0144
vn -0.0010 0.9718 -0.2360
vn 0.0009 0.9519 -0.3065
vn 0.0001 0.9998 -0.0175
vn -0.2104 -0.9749 0.0734
vn -0.0649 -0.9845 0.1628
vn -0.0978 -0.9608 0.2593
vn 0.0978 -0.9608 0.2593
vn 0.0649 -0.9845 0.1628
vn 0.2104 -0.9749 0.0734
vn -0.0536 -0.7841 -0.6184
vn -0.2199 -0.9399 -0.2614
vn -0.3660 -0.8812 -0.2993
vn 0.3660 -0.8812 -0.2993
vn 0.2199 -0.9399 -0.2614
vn 0.0536 -0.7841 -0.6184
vn -0.8766 0.4812 0.0004
vn -0.8926 0.4509 -0.0005
vn -1.0000 -0.0037 0.0013
vn -1.0000 -0.0018 -0.0007
vn 0.8768 0.4809 0.0000
vn 0.8924 0.4512 0.0005
vn 1.0000 -0.0033 0.0017
vn 1.0000 -0.0014 -0.0012
vn -0.8848 0.4660 -0.0033
vn -1.0000 0.0007 0.0001
vn 0.8847 0.4661 -0.0031
vn 1.0000 0.0007 0.0001
vn -0.8107 0.5627 -0.1614
vn -1.0000 0.0032 -0.0022
vn -1.0000 0.0062 -0.0021
vn -1.0000 0.0064 -0.0018
vn 0.8107 0.5627 -0.1614
vn 1.0000 0.0032 -0.0022
vn 1.0000 0.0064 -0.0018
vn 1.0000 0.0062 -0.0021
vn -0.0003 0.8802 -0.4747
vn -0.1734 0.9032 -0.3927
vn -0.3326 0.0027 -0.9430
vn -0.0041 0.0026 -1.0000
vn -0.3047 0.0139 -0.9523
vn -0.5857 0.0118 -0.8104
vn -0.6359 0.0012 -0.7718
vn -0.4339 0.0179 -0.9008
vn -0.2299 0.0174 -0.9731
vn 0.1734 0.9032 -0.3927
vn 0.0011 0.8799 -0.4752
vn 0.3047 0.0139 -0.9523
vn 0.0041 0.0026 -1.0000
vn 0.3326 0.0027 -0.9430
vn 0.6359 0.0012 -0.7718
vn 0.5857 0.0118 -0.8104
vn 0.4339 0.0179 -0.9008
vn 0.2299 0.0174 -0.9731
vn -0.0021 0.8950 -0.4461
vn -0.0010 0.0168 -0.9999
vn 0.0020 0.0043 -1.0000
vn -0.0002 0.8951 -0.4458
vn 0.0010 0.0168 -0.9999
vn -0.0020 0.0043 -1.0000
vn 0.0011 -0.0002 -1.0000
vn 0.0035 -0.0010 -1.0000
vn -0.0009 0.0000 -1.0000
vn -0.0032 -0.0012 -1.0000
vn 0.0016 0.8230 -0.5681
vn -0.0003 -0.0000 -1.0000
vn -0.8647 0.5022 0.0055
vn 0.8644 0.5027 0.0046
vn -0.9999 0.0014 0.0114
vn -0.9830 -0.0006 0.1835
vn -0.9441 0.0057 0.3295
vn -1.0000 0.0012 0.0000
vn 0.9441 0.0057 0.3295
vn 0.9830 -0.0006 0.1835
vn 0.9999 0.0014 0.0114
vn 1.0000 0.0012 0.0000
vn -0.7817 0.4160 0.4647
vn 0.7817 0.4160 0.4647
vn -0.1904 0.3487 0.9177
vn 0.1904 0.3487 0.9177
vn -0.4299 0.0027 0.9029
vn -0.5957 -0.0010 0.8032
vn -0.0039 -0.0013 1.0000
vn -0.0018 0.0007 1.0000
vn 0.5957 -0.0010 0.8032
vn 0.4299 0.0027 0.9028
vn -0.0007 0.2911 0.9567
vn 0.0021 0.2903 0.9569
vn 0.0018 0.0007 1.0000
vn 0.0039 -0.0013 1.0000
vn -0.0010 0.1338 0.9910
vn 0.0000 -0.0003 1.0000
vn 0.2153 -0.9144 -0.3428
vn 0.3554 -0.6197 -0.6998
vn -0.2153 -0.9144 -0.3428
vn -0.3566 -0.6192 -0.6996
vn 0.6797 -0.6524 -0.3351
vn -0.6802 -0.6516 -0.3359
vn -0.7557 -0.5245 0.3922
vn -0.4505 -0.8098 0.3759
vn 0.7557 -0.5242 0.3926
vn 0.4505 -0.8098 0.3759
vn -0.2818 -0.6029 0.7464
vn 0.4104 -0.8446 0.3439
vn 0.2822 -0.6025 0.7466
vn -0.4104 -0.8446 0.3439
vn -0.3886 -0.8194 0.4214
vn -0.6629 -0.6637 0.3464
vn 0.6682 -0.6632 0.3372
vn 0.3855 -0.8238 0.4157
vn 0.4216 -0.6244 -0.6575
vn 0.4207 -0.8211 -0.3857
vn -0.4199 -0.8214 -0.3860
vn -0.4211 -0.6258 -0.6565
vn -0.5240 -0.4846 -0.7005
vn -0.2689 -0.5523 -0.7890
vn -0.3199 -0.8008 -0.5064
vn -0.5849 -0.7497 -0.3095
vn 0.2714 -0.5548 -0.7865
vn 0.5206 -0.4913 -0.6983
vn 0.5838 -0.7485 -0.3146
vn 0.3224 -0.7986 -0.5083
vn 0.4023 -0.6576 0.6369
vn 0.3249 -0.8922 0.3138
vn -0.4023 -0.6576 0.6369
vn -0.3249 -0.8922 0.3138
vn -0.2018 -0.9762 -0.0795
vn 0.4107 -0.8218 -0.3948
vn 0.2018 -0.9762 -0.0795
vn -0.4107 -0.8218 -0.3948
vn 0.7649 -0.5628 0.3133
vn -0.7649 -0.5628 0.3133
vn 0.3475 -0.5780 0.7384
vn 0.5327 -0.6302 0.5648
vn -0.3475 -0.5780 0.7384
vn -0.5327 -0.6302 0.5648
vn -0.0011 -0.7954 -0.6061
vn -0.0006 -0.9475 -0.3198
vn 0.0145 -0.9571 -0.2895
vn 0.0091 -0.8605 -0.5094
vn 0.1659 -0.9738 0.1553
vn -0.0077 -0.8601 -0.5101
vn -0.0137 -0.9572 -0.2890
vn -0.1659 -0.9738 0.1553
vn 0.0000 -1.0000 -0.0011
vn 0.2453 -0.9693 0.0186
vn 0.1272 -0.9916 0.0233
vn -0.1311 -0.9912 0.0184
vn -0.2415 -0.9703 0.0113
vn 0.1748 -0.9846 -0.0023
vn 0.3438 -0.9390 -0.0020
vn 0.4104 -0.9119 -0.0052
vn 0.2315 -0.9728 -0.0059
vn -0.0007 -1.0000 0.0052
vn -0.1748 -0.9846 -0.0023
vn -0.3438 -0.9390 -0.0020
vn -0.2315 -0.9728 -0.0059
vn -0.4104 -0.9119 -0.0052
vn 0.0007 -1.0000 0.0052
vn -0.5188 -0.6727 -0.5276
vn -0.0000 -1.0000 0.0000
vn 0.5188 -0.6727 -0.5276
vn -0.0015 -1.0000 -0.0011
vn 0.0015 -1.0000 -0.0011
vn 0.0000 -1.0000 0.0015
vn -0.0000 -0.4526 0.8917
vn -0.0000 -0.4482 0.8939
vn 0.0040 -1.0000 0.0073
vn 0.0000 -1.0000 0.0050
vn -0.0040 -1.0000 0.0073
vn -0.9171 -0.3986 -0.0026
vn -0.9858 -0.1596 -0.0514
vn -0.9088 0.3886 -0.1518
vn -0.8962 0.4437 0.0006
vn 0.9088 0.3886 -0.1518
vn 0.9857 -0.1603 -0.0525
vn 0.9168 -0.3994 0.0004
vn 0.8960 0.4440 0.0011
vn -0.8623 -0.3197 -0.3927
vn -0.7951 0.3762 -0.4757
vn 0.8618 -0.3195 -0.3940
vn 0.7947 0.3765 -0.4762
vn -0.3161 -0.2826 -0.9056
vn -0.2125 0.4898 -0.8455
vn 0.3160 -0.2827 -0.9056
vn 0.2084 0.4929 -0.8447
vn 0.0003 -0.3083 -0.9513
vn 0.0032 0.3527 -0.9357
vn -0.0002 -0.3084 -0.9513
vn 0.0013 0.3548 -0.9349
vn 0.0015 -0.3269 -0.9451
vn 0.0020 -0.3247 -0.9458
vn -0.0037 -0.1990 -0.9800
vn -0.0019 0.4498 -0.8931
vn 0.0013 0.3831 -0.9237
vn 0.0000 0.3818 -0.9243
vn -0.9665 0.0052 0.2567
vn 0.9653 0.0119 0.2608
vn -0.4905 0.0390 0.8706
vn 0.4939 0.0462 0.8683
vn -0.9321 0.2368 -0.2742
vn -0.9359 0.0015 0.3523
vn 0.9322 0.2365 -0.2740
vn 0.9344 -0.0053 0.3562
vn -0.7161 0.4510 -0.5328
vn -0.7424 0.2382 0.6262
vn -0.7915 0.5765 0.2029
vn -0.7397 0.6459 -0.1889
vn 0.7161 0.4510 -0.5328
vn 0.7424 0.2382 0.6262
vn 0.7397 0.6459 -0.1889
vn 0.7915 0.5765 0.2029
vn -0.3635 0.5938 -0.7178
vn -0.0892 0.6551 -0.7502
vn 0.3635 0.5938 -0.7178
vn 0.0892 0.6551 -0.7502
vn -0.0762 0.9519 -0.2969
vn 0.4728 0.8235 -0.3136
vn 0.4466 0.5028 -0.7401
vn 0.6238 0.5462 -0.5590
vn 0.0762 0.9519 -0.2969
vn -0.4397 0.5120 -0.7379
vn -0.4728 0.8235 -0.3136
vn -0.6230 0.5421 -0.5640
vn -0.1811 0.3826 0.9060
vn -0.2041 0.8911 0.4052
vn 0.3437 0.4517 0.8233
vn 0.4210 0.8800 0.2198
vn 0.1811 0.3826 0.9060
vn 0.2041 0.8911 0.4052
vn -0.3437 0.4517 0.8233
vn -0.4210 0.8800 0.2198
vn -0.3941 0.0018 0.9190
vn 0.3980 -0.0049 0.9174
vn 0.1472 0.0586 0.9874
vn -0.1472 0.0586 0.9874
vn 0.0173 0.0255 0.9995
vn 0.2269 0.3126 0.9224
vn 0.0557 0.2634 0.9631
vn -0.0173 0.0255 0.9995
vn -0.0557 0.2634 0.9631
vn -0.2269 0.3126 0.9224
vn 0.9012 0.0329 0.4322
vn 0.8970 0.0348 0.4406
vn 0.9530 0.0054 0.3031
vn 0.9563 0.0031 0.2923
vn 0.0038 -0.9946 0.1038
vn 0.0000 -0.9263 0.3769
vn 0.0000 -0.9283 0.3718
vn 0.0040 -0.9951 0.0988
vn 0.0000 -0.0204 0.9998
vn 0.0008 0.3572 0.9340
vn 0.0048 0.4261 0.9047
vn 0.0076 0.4461 0.8950
vn -0.9530 0.0054 0.3031
vn -0.8970 0.0348 0.4406
vn -0.9012 0.0329 0.4322
vn -0.9563 0.0031 0.2923
vn -0.0038 -0.9946 0.1038
vn -0.0040 -0.9951 0.0988
vn -0.0057 0.4265 0.9045
vn -0.0086 0.4455 0.8952
vn 0.0000 1.0000 -0.0003
vn -0.0000 1.0000 -0.0002
vn 0.0001 1.0000 -0.0002
vn 0.0000 1.0000 0.0000
vn 0.0001 1.0000 -0.0000
vn -0.0001 1.0000 -0.0002
vn -0.0001 1.0000 -0.0000
vn 0.0000 1.0000 -0.0004
vn 0.0012 0.9317 -0.3632
vn -0.0032 0.9580 -0.2867
vn -0.0020 0.8041 0.5944
vn -0.0015 0.8153 0.5790
vn 0.0014 0.9319 -0.3628
vn 0.0036 0.8036 0.5952
vn -0.0010 0.3227 0.9465
vn -0.0000 0.3862 0.9224
vn 0.0010 0.3227 0.9465
vn -0.0046 0.8341 0.5515
vn -0.0054 0.9191 -0.3940
vn 0.0176 0.4772 0.8786
vn 0.0046 0.8341 0.5515
vn 0.0097 0.9196 -0.3926
vn -0.0176 0.4772 0.8786
vn 0.3211 0.9254 -0.2013
vn -0.3238 0.9249 -0.1994
vn -0.1214 0.9323 0.3408
vn -0.2954 0.9494 0.1069
vn -0.4622 0.7155 0.5238
vn 0.1214 0.9323 0.3408
vn 0.2938 0.9502 0.1037
vn 0.4657 0.7156 0.5206
vn 0.3118 0.9501 0.0004
vn -0.5147 0.8574 -0.0050
vn -0.8686 0.4955 -0.0036
vn -0.3118 0.9501 0.0004
vn 0.5126 0.8587 -0.0008
vn 0.8708 0.4917 0.0034
vn -0.2229 0.9285 -0.2969
vn 0.2859 0.8964 -0.3387
vn 0.2229 0.9285 -0.2969
vn -0.2859 0.8964 -0.3387
vn -0.0939 0.9910 -0.0956
vn -0.2633 0.9634 -0.0512
vn -0.0510 0.9973 -0.0524
vn -0.0000 0.4340 -0.9009
vn 0.1769 0.5737 -0.7997
vn 0.1647 0.5756 -0.8010
vn 0.0000 0.4299 -0.9029
vn -0.1647 0.5756 -0.8010
vn -0.1769 0.5737 -0.7997
vn -0.0794 0.9968 -0.0128
vn 0.0510 0.9973 -0.0524
vn 0.0939 0.9910 -0.0956
vn 0.0794 0.9968 -0.0128
vn -0.8496 0.3635 -0.3822
vn -0.9335 0.3536 0.0601
vn 0.0175 0.3672 -0.9300
vn 0.0005 0.6122 -0.7907
vn 0.0061 0.6736 -0.7390
vn 0.0413 0.3551 -0.9339
vn -0.5316 0.8469 -0.0149
vn 0.0856 0.2629 -0.9610
vn 0.5316 0.8469 -0.0149
vn 0.9299 0.3633 0.0580
vn -0.0175 0.3672 -0.9300
vn -0.0856 0.2629 -0.9610
vn -0.0413 0.3551 -0.9339
vn 0.0000 0.9993 -0.0366
vn 0.0000 0.3754 -0.9269
vn 0.0001 0.6160 -0.7877
vn 0.9032 0.4266 -0.0475
vn 0.8480 0.3550 -0.3936
vn -0.0061 0.6736 -0.7390
vn -0.0005 0.6121 -0.7908
vn -0.9032 0.4266 -0.0475
vn 0.2633 0.9634 -0.0512
vn 0.4209 0.4780 -0.7710
vn 0.8328 0.5536 -0.0018
vn -0.4209 0.4780 -0.7710
vn -0.8328 0.5536 -0.0018
vn -0.0016 0.9501 -0.3119
vn -0.0042 0.9704 -0.2413
vn 0.0016 0.9501 -0.3119
vn 0.0042 0.9704 -0.2413
vn 0.0001 0.9509 -0.3094
vn -0.0016 1.0000 0.0045
vn 0.0000 1.0000 0.0010
vn 0.0016 1.0000 0.0045
vn 0.6371 0.3107 0.7054
vn 0.0007 0.3716 0.9284
vn -0.6371 0.3107 0.7054
vn -0.0000 0.0121 0.9999
vn 1.0000 0.0000 0.0000
vn 0.8660 -0.4610 -0.1937
vn 0.5000 -0.7984 -0.3354
vn -0.0000 -0.9219 -0.3873
vn -0.5000 -0.7984 -0.3354
vn -0.8660 -0.4610 -0.1937
vn -1.0000 -0.0000 0.0000
vn -0.8660 0.4610 0.1937
vn -0.5000 0.7984 0.3354
vn -0.0000 0.9219 0.3873
vn 0.5000 0.7984 0.3354
vn 0.8660 0.4610 0.1937
vn -0.0000 0.3873 -0.9219
vn 0.8090 -0.5419 -0.2277
vn 0.3090 -0.8768 -0.3684
vn -0.3090 -0.8768 -0.3684
vn -0.8090 -0.5419 -0.2277
vn -0.8090 0.5419 0.2277
vn -0.3090 0.8768 0.3684
vn 0.3090 0.8768 0.3684
vn 0.8090 0.5419 0.2277
s 1
f 12/1/1 7/2/2 5/3/3
f 5/3/3 1/4/4 12/1/1
f 6/5/5 8/6/6 12/1/1
f 12/1/1 1/4/4 6/5/5
f 8/6/6 6/5/5 4/7/7
f 4/7/7 10/8/8 8/6/6
f 11/9/9 9/10/10 7/2/11
f 7/2/11 12/1/12 11/9/9
f 8/6/13 10/8/14 11/9/9
f 11/9/9 12/1/12 8/6/13
f 6/5/15 1/4/16 2/11/17
f 2/11/17 4/7/18 6/5/15
f 2/11/17 1/4/16 5/3/19
f 5/3/19 3/12/20 2/11/17
f 5/3/3 7/2/2 9/10/21
f 9/10/21 3/12/22 5/3/3
f 4/7/23 2/11/24 15/13/25
f 15/13/25 13/14/26 4/7/23
f 15/13/25 2/11/24 3/12/27
f 3/12/27 14/15/28 15/13/25
f 13/14/26 15/13/25 28/16/29
f 28/16/29 23/17/30 13/14/26
f 28/16/29 15/13/25 14/15/28
f 14/15/28 24/18/31 28/16/29
f 29/19/32 31/20/33 20/21/34
f 20/21/34 22/22/35 29/19/32
f 19/23/36 32/24/37 30/25/38
f 30/25/38 21/26/39 19/23/36
f 10/8/40 4/7/23 13/14/26
f 13/14/26 16/27/41 10/8/40
f 13/14/26 23/17/30 21/26/42
f 21/26/42 30/25/43 40/28/44
f 14/15/28 3/12/27 9/10/45
f 9/10/45 17/29/46 14/15/28
f 22/22/47 24/18/31 14/15/28
f 39/30/48 29/19/49 22/22/47
f 16/27/41 13/14/26 21/26/42
f 40/28/44 42/31/50 16/27/41
f 21/26/42 40/28/44 16/27/41
f 22/22/47 14/15/28 17/29/46
f 17/29/46 41/32/51 39/30/48
f 17/29/46 39/30/48 22/22/47
f 10/8/40 16/27/41 18/33/52
f 18/33/52 11/9/53 10/8/40
f 18/33/52 17/29/46 9/10/45
f 9/10/45 11/9/53 18/33/52
f 17/29/46 18/33/52 55/34/54
f 55/34/54 54/35/55 17/29/46
f 47/36/56 41/37/57 43/38/58
f 43/38/58 45/39/59 47/36/56
f 43/40/60 41/32/51 17/29/46
f 44/41/61 42/42/62 48/43/63
f 48/43/63 46/44/64 44/41/61
f 16/27/41 42/31/50 44/45/65
f 43/40/60 17/29/46 54/35/55
f 53/46/66 16/27/41 44/45/65
f 136/47/67 108/48/68 94/49/69
f 94/49/69 92/50/70 136/47/67
f 95/51/71 109/52/72 137/53/73
f 137/53/73 93/54/74 95/51/71
f 31/55/33 29/56/32 37/57/75
f 52/58/76 30/59/38 38/60/77
f 37/57/75 29/56/32 51/61/78
f 114/62/79 116/63/80 37/57/75
f 38/60/77 30/59/38 32/64/37
f 38/60/77 117/65/81 115/66/82
f 163/67/83 159/68/84 160/69/85
f 160/69/85 161/70/86 163/67/83
f 152/71/87 154/72/88 193/73/89
f 193/73/89 204/74/90 152/71/87
f 194/75/91 155/76/92 153/77/93
f 153/77/93 205/78/94 194/75/91
f 195/79/95 193/73/89 154/72/88
f 155/76/92 194/75/91 196/80/96
f 195/79/95 154/72/88 156/81/97
f 156/81/97 197/82/98 195/79/95
f 157/83/99 155/76/92 196/80/96
f 196/80/96 198/84/100 157/83/99
f 199/85/101 197/82/98 156/81/97
f 156/81/97 158/86/102 199/85/101
f 157/83/99 198/84/100 200/87/103
f 200/87/103 159/68/104 157/83/99
f 201/88/105 199/85/101 158/86/102
f 159/68/104 200/87/103 202/89/106
f 201/88/105 158/86/102 160/69/107
f 160/69/107 203/90/108 201/88/105
f 160/69/107 159/68/104 202/89/106
f 202/89/106 203/90/108 160/69/107
f 201/88/105 203/90/108 228/91/109
f 228/91/109 229/92/110 201/88/105
f 229/92/110 199/85/101 201/88/105
f 228/91/109 203/90/108 202/89/106
f 202/89/106 230/93/111 228/91/109
f 202/89/106 200/87/103 230/93/111
f 199/85/101 229/92/110 231/94/112
f 231/94/112 197/82/98 199/85/101
f 232/95/113 230/93/111 200/87/103
f 200/87/103 198/84/100 232/95/113
f 197/82/98 231/94/112 233/96/114
f 233/96/114 195/79/95 197/82/98
f 234/97/115 232/95/113 198/84/100
f 198/84/100 196/80/96 234/97/115
f 217/98/116 193/73/89 195/79/95
f 195/79/95 233/96/114 217/98/116
f 196/80/96 194/75/91 218/99/117
f 218/99/117 234/97/115 196/80/96
f 204/74/90 193/73/89 217/98/116
f 217/98/116 219/100/118 204/74/90
f 218/99/117 194/75/91 205/78/94
f 205/78/94 220/101/119 218/99/117
f 152/71/87 204/74/90 206/102/120
f 206/102/120 150/103/121 152/71/87
f 207/104/122 205/78/94 153/77/93
f 153/77/93 151/105/123 207/104/122
f 210/106/124 146/107/125 148/108/126
f 149/109/127 147/110/128 211/111/129
f 150/103/121 206/102/120 208/112/130
f 208/112/130 148/108/126 150/103/121
f 208/112/130 206/102/120 221/113/131
f 206/102/120 204/74/90 219/100/118
f 219/100/118 221/113/131 206/102/120
f 209/114/132 207/104/122 151/105/123
f 151/105/123 149/109/127 209/114/132
f 222/115/133 207/104/122 209/114/132
f 220/101/119 205/78/94 207/104/122
f 207/104/122 222/115/133 220/101/119
f 148/108/126 208/112/130 210/106/124
f 211/111/129 209/114/132 149/109/127
f 146/107/125 210/106/124 212/116/134
f 213/117/135 211/111/129 147/110/128
f 144/118/136 146/107/125 212/116/134
f 212/116/134 214/119/137 144/118/136
f 143/120/138 144/118/136 214/119/137
f 214/119/137 216/121/139 143/120/138
f 213/117/135 147/110/128 145/122/140
f 145/122/140 215/123/141 213/117/135
f 143/120/138 216/121/139 215/123/141
f 215/123/141 145/122/140 143/120/138
f 216/121/139 214/119/137 227/124/142
f 214/119/137 212/116/134 225/125/143
f 225/125/143 227/124/142 214/119/137
f 226/126/144 213/117/135 215/123/141
f 215/123/141 227/124/142 226/126/144
f 215/123/141 216/121/139 227/124/142
f 208/112/130 221/113/131 223/127/145
f 223/127/145 210/106/124 208/112/130
f 223/127/145 225/125/143 212/116/134
f 212/116/134 210/106/124 223/127/145
f 224/128/146 222/115/133 209/114/132
f 209/114/132 211/111/129 224/128/146
f 213/117/135 226/126/144 224/128/146
f 224/128/146 211/111/129 213/117/135
f 244/129/147 246/130/148 227/124/142
f 227/124/142 225/125/143 244/129/147
f 227/124/142 246/130/148 245/131/149
f 245/131/149 226/126/144 227/124/142
f 242/132/150 244/129/147 225/125/143
f 225/125/143 223/127/145 242/132/150
f 223/127/145 221/113/131 242/132/150
f 226/126/144 245/131/149 243/133/151
f 243/133/151 224/128/146 226/126/144
f 243/133/151 222/115/133 224/128/146
f 240/134/152 242/132/150 221/113/131
f 221/113/131 219/100/118 240/134/152
f 219/100/118 217/98/116 240/134/152
f 222/115/133 243/133/151 241/135/153
f 241/135/153 220/101/119 222/115/133
f 241/135/153 218/99/117 220/101/119
f 248/136/154 242/132/150 240/134/152
f 240/134/152 250/137/155 248/136/154
f 241/135/153 243/133/151 249/138/156
f 249/138/156 251/139/157 241/135/153
f 240/134/152 217/98/116 233/96/114
f 233/96/114 238/140/158 240/134/152
f 233/96/114 231/94/112 238/140/158
f 218/99/117 241/135/153 239/141/159
f 239/141/159 234/97/115 218/99/117
f 239/141/159 232/95/113 234/97/115
f 236/142/160 238/140/158 231/94/112
f 252/143/161 238/140/158 236/142/160
f 231/94/112 229/92/110 236/142/160
f 232/95/113 239/141/159 237/144/162
f 237/144/162 239/141/159 253/145/163
f 237/144/162 230/93/111 232/95/113
f 235/146/164 236/142/160 229/92/110
f 229/92/110 228/91/109 235/146/164
f 254/147/165 252/143/161 236/142/160
f 236/142/160 235/146/164 254/147/165
f 230/93/111 237/144/162 235/146/164
f 235/146/164 228/91/109 230/93/111
f 237/144/162 253/145/163 254/147/165
f 254/147/165 235/146/164 237/144/162
f 238/140/158 252/143/161 250/137/155
f 250/137/155 240/134/152 238/140/158
f 251/139/157 253/145/163 239/141/159
f 239/141/159 241/135/153 251/139/157
f 247/148/166 246/130/148 244/129/147
f 245/131/149 246/130/148 247/148/166
f 248/136/154 250/137/155 255/149/167
f 255/149/167 247/148/166 248/136/154
f 244/129/147 242/132/150 248/136/154
f 248/136/154 247/148/166 244/129/147
f 255/149/167 251/139/157 249/138/156
f 249/138/156 247/148/166 255/149/167
f 249/138/156 243/133/151 245/131/149
f 245/131/149 247/148/166 249/138/156
f 252/143/161 254/147/165 255/149/167
f 255/149/167 250/137/155 252/143/161
f 255/149/167 254/147/165 253/145/163
f 253/145/163 251/139/157 255/149/167
f 144/118/168 190/150/169 188/151/170
f 186/152/171 188/151/172 139/153/173
f 144/118/168 188/151/170 186/152/174
f 186/152/174 146/107/175 144/118/168
f 140/154/176 189/155/177 187/156/178
f 187/156/179 189/155/180 145/122/181
f 145/122/181 147/110/182 187/156/179
f 184/157/183 186/152/171 139/153/173
f 146/107/175 186/152/174 184/157/184
f 140/154/176 187/156/178 185/158/185
f 185/158/186 187/156/179 147/110/182
f 182/159/187 180/160/188 148/108/189
f 146/107/175 184/157/184 182/159/187
f 182/159/187 148/108/189 146/107/175
f 149/109/190 181/161/191 183/162/192
f 183/162/192 185/158/186 147/110/182
f 147/110/182 149/109/190 183/162/192
f 134/163/193 136/47/67 92/50/70
f 92/50/70 141/164/194 134/163/193
f 93/54/74 137/53/73 135/165/195
f 135/165/195 142/166/196 93/54/74
f 141/164/194 139/153/197 132/167/198
f 132/167/198 134/163/193 141/164/194
f 182/159/199 184/157/183 139/153/173
f 139/153/173 141/164/200 182/159/199
f 141/164/200 92/50/201 90/168/202
f 141/164/200 178/169/203 180/160/204
f 180/160/204 182/159/199 141/164/200
f 141/164/200 90/168/202 178/169/203
f 150/103/205 148/108/189 180/160/188
f 180/160/188 178/169/206 150/103/205
f 133/170/207 140/154/208 142/166/196
f 142/166/196 135/165/195 133/170/207
f 140/154/176 185/158/185 183/162/209
f 183/162/209 142/166/210 140/154/176
f 91/171/211 93/54/212 142/166/210
f 181/161/213 179/172/214 142/166/210
f 142/166/210 183/162/209 181/161/213
f 179/172/214 91/171/211 142/166/210
f 181/161/191 149/109/190 151/105/215
f 151/105/215 179/172/216 181/161/191
f 178/169/203 90/168/202 88/173/217
f 88/173/217 176/174/218 178/169/203
f 176/174/219 174/175/220 152/71/221
f 152/71/221 150/103/205 176/174/219
f 150/103/205 178/169/206 176/174/219
f 89/176/222 91/171/211 179/172/214
f 179/172/214 177/177/223 89/176/222
f 153/77/224 175/178/225 177/177/226
f 177/177/226 151/105/215 153/77/224
f 177/177/226 179/172/216 151/105/215
f 162/179/227 161/70/86 160/69/85
f 160/69/85 158/86/228 162/179/227
f 75/180/229 161/70/230 162/179/231
f 163/67/232 161/70/230 75/180/229
f 75/180/229 162/179/231 164/181/233
f 164/181/233 76/182/234 75/180/229
f 164/181/233 166/183/235 76/182/234
f 164/181/236 162/179/227 158/86/228
f 158/86/228 156/81/237 164/181/236
f 156/81/237 166/183/238 164/181/236
f 165/184/239 163/67/232 75/180/229
f 75/180/229 77/185/240 165/184/239
f 77/185/240 167/186/241 165/184/239
f 159/68/84 163/67/83 165/184/242
f 165/184/242 157/83/243 159/68/84
f 165/184/242 167/186/244 157/83/243
f 168/187/245 166/183/238 156/81/237
f 156/81/237 154/72/246 168/187/245
f 157/83/243 167/186/244 169/188/247
f 169/188/247 155/76/248 157/83/243
f 86/189/249 84/190/250 76/182/234
f 76/182/234 168/187/251 86/189/249
f 76/182/234 166/183/235 168/187/251
f 77/185/240 85/191/252 87/192/253
f 87/192/253 169/188/254 77/185/240
f 169/188/254 167/186/241 77/185/240
f 82/193/255 84/190/250 86/189/249
f 86/189/249 100/194/256 82/193/255
f 86/189/249 168/187/251 170/195/257
f 170/195/258 168/187/245 154/72/246
f 85/191/252 83/196/259 101/197/260
f 101/197/260 87/192/253 85/191/252
f 171/198/261 169/188/254 87/192/253
f 155/76/248 169/188/247 171/198/262
f 86/189/249 170/195/257 172/199/263
f 172/199/263 88/173/217 86/189/249
f 88/173/217 172/199/263 174/175/264
f 174/175/264 176/174/218 88/173/217
f 172/199/265 170/195/258 154/72/246
f 154/72/246 152/71/221 172/199/265
f 152/71/221 174/175/220 172/199/265
f 173/200/266 171/198/261 87/192/253
f 87/192/253 89/176/222 173/200/266
f 175/178/267 173/200/266 89/176/222
f 89/176/222 177/177/223 175/178/267
f 155/76/248 171/198/262 173/200/268
f 173/200/268 153/77/224 155/76/248
f 173/200/268 175/178/225 153/77/224
f 140/154/208 133/170/207 131/201/269
f 131/201/269 138/202/270 140/154/208
f 138/202/271 192/203/272 191/204/273
f 145/122/181 189/155/180 191/204/274
f 191/204/274 192/203/275 143/120/276
f 143/120/276 145/122/181 191/204/274
f 131/201/269 132/167/198 139/153/197
f 139/153/197 138/202/270 131/201/269
f 139/153/173 188/151/172 190/150/277
f 190/150/277 138/202/271 139/153/173
f 191/204/273 189/155/177 140/154/176
f 140/154/176 138/202/271 191/204/273
f 190/150/277 192/203/272 138/202/271
f 143/120/276 192/203/275 190/150/169
f 190/150/169 144/118/168 143/120/276
f 92/50/201 94/49/278 96/205/279
f 96/205/279 90/168/202 92/50/201
f 97/206/280 95/51/281 93/54/212
f 93/54/212 91/171/211 97/206/280
f 90/168/202 96/205/279 98/207/282
f 98/207/282 88/173/217 90/168/202
f 100/194/256 86/189/249 88/173/217
f 88/173/217 98/207/282 100/194/256
f 99/208/283 97/206/280 91/171/211
f 91/171/211 89/176/222 99/208/283
f 89/176/222 87/192/253 101/197/260
f 101/197/260 99/208/283 89/176/222
f 94/209/69 108/210/68 110/211/284
f 110/211/284 106/212/285 94/209/69
f 111/213/286 109/214/72 95/215/71
f 95/215/71 107/216/287 111/213/286
f 78/217/288 82/218/255 100/219/256
f 100/219/256 98/220/282 78/217/288
f 98/220/282 96/221/279 106/212/289
f 106/212/289 78/217/288 98/220/282
f 96/221/279 94/209/278 106/212/289
f 101/222/260 83/223/259 79/224/290
f 79/224/290 99/225/283 101/222/260
f 107/216/291 97/226/280 99/225/283
f 99/225/283 79/224/290 107/216/291
f 107/216/291 95/215/281 97/226/280
f 51/61/292 29/56/293 39/227/294
f 39/227/294 49/228/295 51/61/292
f 114/62/79 37/57/75 51/61/78
f 51/61/78 102/229/296 114/62/79
f 40/230/297 30/59/298 52/58/299
f 52/58/299 50/231/300 40/230/297
f 52/58/76 38/60/77 115/66/82
f 115/66/82 103/232/301 52/58/76
f 41/37/57 47/36/56 49/228/295
f 49/228/295 39/227/294 41/37/57
f 102/229/302 51/61/292 49/228/295
f 50/231/300 48/43/63 42/42/62
f 42/42/62 40/230/297 50/231/300
f 50/231/300 52/58/299 103/232/303
f 80/233/304 78/217/288 106/212/289
f 47/36/56 45/39/59 80/233/304
f 80/233/304 49/228/295 47/36/56
f 80/233/304 106/212/289 104/234/305
f 104/234/305 102/229/302 49/228/295
f 49/228/295 80/233/304 104/234/305
f 114/62/79 102/229/296 104/234/306
f 104/234/306 112/235/307 114/62/79
f 106/212/285 110/211/284 112/235/307
f 112/235/307 104/234/306 106/212/285
f 107/216/291 79/224/290 81/236/308
f 81/236/308 46/44/64 48/43/63
f 48/43/63 50/231/300 81/236/308
f 105/237/309 107/216/291 81/236/308
f 50/231/300 103/232/303 105/237/309
f 105/237/309 81/236/308 50/231/300
f 105/237/310 103/232/301 115/66/82
f 115/66/82 113/238/311 105/237/310
f 113/238/311 111/213/286 107/216/287
f 107/216/287 105/237/310 113/238/311
f 16/27/41 53/46/66 55/34/54
f 55/34/54 18/33/52 16/27/41
f 55/239/312 53/240/313 57/241/314
f 57/241/314 280/242/315 55/239/312
f 54/243/316 55/239/312 280/242/315
f 280/242/315 56/244/317 54/243/316
f 43/245/318 54/243/316 56/244/317
f 56/244/317 58/246/319 43/245/318
f 57/241/314 53/240/313 44/247/320
f 44/247/320 59/248/321 57/241/314
f 43/249/318 58/250/319 60/251/322
f 60/251/322 45/252/323 43/249/318
f 61/253/324 59/254/321 44/255/320
f 44/255/320 46/256/325 61/253/324
f 80/257/326 45/252/323 60/251/322
f 60/251/322 62/258/327 80/257/326
f 61/253/324 46/256/325 81/259/328
f 81/259/328 63/260/329 61/253/324
f 80/257/326 62/258/327 64/261/330
f 64/261/330 78/262/331 80/257/326
f 63/260/329 81/259/328 79/263/332
f 79/263/332 65/264/333 63/260/329
f 82/265/334 78/262/331 64/261/330
f 64/261/330 66/266/335 82/265/334
f 65/264/333 79/263/332 83/267/336
f 83/267/336 67/268/337 65/264/333
f 84/269/338 82/265/334 66/266/335
f 66/266/335 68/270/339 84/269/338
f 67/268/337 83/267/336 85/271/340
f 85/271/340 69/272/341 67/268/337
f 84/273/338 68/274/339 70/275/342
f 71/276/343 69/277/341 85/278/340
f 76/279/344 84/273/338 70/275/342
f 70/275/342 72/280/345 76/279/344
f 71/276/343 85/278/340 77/281/346
f 77/281/346 73/282/347 71/276/343
f 76/279/344 72/280/345 74/283/348
f 74/283/348 75/284/349 76/279/344
f 73/282/347 77/281/346 75/284/349
f 75/284/349 74/283/348 73/282/347
f 293/285/350 348/286/351 287/287/352
f 286/288/353 349/289/354 292/290/355
f 313/291/356 330/292/357 307/293/358
f 306/294/359 331/295/360 312/296/361
f 65/264/333 268/297/362 270/298/363
f 270/298/363 63/260/329 65/264/333
f 268/297/362 301/299/364 299/300/365
f 299/300/365 270/298/363 268/297/362
f 267/301/366 64/261/330 62/258/327
f 62/258/327 269/302/367 267/301/366
f 300/303/368 267/301/366 269/302/367
f 269/302/367 298/304/369 300/303/368
f 268/297/362 65/264/333 67/268/337
f 67/268/337 266/305/370 268/297/362
f 303/306/371 301/299/364 268/297/362
f 268/297/362 266/305/370 303/306/371
f 64/261/330 267/301/366 265/307/372
f 265/307/372 66/266/335 64/261/330
f 267/301/366 300/303/368 302/308/373
f 302/308/373 265/307/372 267/301/366
f 266/305/370 67/268/337 69/272/341
f 69/272/341 264/309/374 266/305/370
f 309/310/375 303/306/371 266/305/370
f 266/305/370 264/309/374 309/310/375
f 309/310/375 307/311/376 305/312/377
f 305/312/377 303/306/371 309/310/375
f 68/270/339 66/266/335 265/307/372
f 265/307/372 263/313/378 68/270/339
f 265/307/372 302/308/373 308/314/379
f 308/314/379 263/313/378 265/307/372
f 304/315/380 306/294/381 308/314/379
f 308/314/379 302/308/373 304/315/380
f 71/276/343 260/316/382 262/317/383
f 262/317/383 69/277/341 71/276/343
f 262/317/384 260/316/385 311/318/386
f 262/317/383 264/319/374 69/277/341
f 309/320/387 264/319/388 262/317/384
f 262/317/384 311/318/386 309/320/387
f 307/293/389 309/320/387 311/318/386
f 311/318/386 313/291/390 307/293/389
f 261/321/391 259/322/392 70/275/342
f 70/275/342 68/274/339 261/321/391
f 310/323/393 259/322/394 261/321/395
f 68/274/339 263/324/378 261/321/391
f 261/321/395 263/324/396 308/325/397
f 308/325/397 310/323/393 261/321/395
f 310/323/393 308/325/397 306/326/398
f 306/326/398 312/327/399 310/323/393
f 260/316/382 71/276/343 73/282/347
f 73/282/347 258/328/400 260/316/382
f 315/329/401 313/291/390 311/318/386
f 311/318/386 317/330/402 315/329/401
f 70/275/342 259/322/392 257/331/403
f 257/331/403 72/280/345 70/275/342
f 310/323/393 312/327/399 314/332/404
f 314/332/404 316/333/405 310/323/393
f 317/330/402 311/318/386 260/316/385
f 260/316/385 258/328/406 317/330/402
f 319/334/407 317/330/402 258/328/406
f 259/322/394 310/323/393 316/333/405
f 316/333/405 257/331/408 259/322/394
f 257/331/408 316/333/405 318/335/409
f 72/280/345 257/331/403 256/336/410
f 256/336/410 74/283/348 72/280/345
f 257/331/408 318/335/409 320/337/411
f 320/337/411 256/336/411 257/331/408
f 258/328/400 73/282/347 74/283/348
f 74/283/348 256/336/410 258/328/400
f 319/334/407 258/328/406 256/336/411
f 256/336/411 320/337/411 319/334/407
f 63/260/329 270/298/363 272/338/412
f 272/338/412 61/253/324 63/260/329
f 269/302/367 62/258/327 60/251/322
f 60/251/322 271/339/413 269/302/367
f 295/340/414 293/341/415 291/342/416
f 291/342/416 297/343/417 295/340/414
f 270/298/363 299/300/365 297/343/417
f 297/343/417 272/338/412 270/298/363
f 290/344/418 292/345/419 294/346/420
f 294/346/420 296/347/421 290/344/418
f 296/347/421 298/304/369 269/302/367
f 269/302/367 271/339/413 296/347/421
f 61/253/324 272/338/412 274/348/422
f 274/348/422 59/254/321 61/253/324
f 272/338/412 297/343/417 291/342/416
f 291/342/416 274/348/422 272/338/412
f 273/349/423 271/339/413 60/251/322
f 60/251/322 58/250/319 273/349/423
f 290/344/418 296/347/421 271/339/413
f 271/339/413 273/349/423 290/344/418
f 59/248/321 274/350/422 276/351/424
f 275/352/425 273/349/423 58/250/319
f 289/353/426 287/287/427 285/354/428
f 285/354/428 283/355/429 289/353/426
f 291/342/416 293/341/415 287/356/427
f 287/356/427 289/357/426 291/342/416
f 274/348/422 291/342/416 289/357/426
f 289/357/426 276/358/424 274/348/422
f 286/359/430 292/360/419 290/361/418
f 290/361/418 288/362/431 286/359/430
f 288/362/431 290/361/418 273/363/423
f 273/363/423 275/364/425 288/362/431
f 57/241/314 59/248/321 276/351/424
f 276/351/424 278/365/432 57/241/314
f 278/365/432 276/351/424 289/353/426
f 289/353/426 283/355/429 278/365/432
f 275/364/425 58/246/319 56/244/317
f 56/244/317 277/366/433 275/364/425
f 288/362/431 275/364/425 277/366/433
f 277/366/433 282/367/434 288/362/431
f 284/368/435 286/359/430 288/362/431
f 288/362/431 282/367/434 284/368/435
f 277/366/433 56/244/317 280/242/315
f 280/242/315 279/369/436 277/366/433
f 282/367/434 277/366/433 279/369/436
f 279/369/436 281/370/437 282/367/434
f 57/241/314 278/365/432 279/369/436
f 279/369/436 280/242/315 57/241/314
f 279/369/436 278/365/432 283/355/429
f 283/355/429 281/370/437 279/369/436
f 328/371/438 330/292/357 313/291/356
f 313/291/356 315/329/439 328/371/438
f 312/296/361 331/295/360 329/372/440
f 329/372/440 314/373/441 312/296/361
f 326/374/442 328/371/438 315/329/439
f 314/373/441 329/372/440 327/375/443
f 305/312/444 307/311/358 330/376/357
f 330/376/357 332/377/445 305/312/444
f 331/295/360 306/294/359 304/315/446
f 304/315/446 333/378/447 331/295/360
f 305/312/444 332/377/445 334/379/448
f 334/380/448 332/381/445 363/382/449
f 363/382/449 328/371/438 326/374/442
f 330/292/357 328/371/438 363/382/449
f 363/382/449 332/381/445 330/292/357
f 335/383/450 333/378/447 304/315/446
f 364/384/451 333/378/447 335/383/450
f 327/375/443 329/372/440 364/384/451
f 364/384/451 329/372/440 331/295/360
f 331/295/360 333/378/447 364/384/451
f 305/312/444 334/379/448 336/385/452
f 336/385/452 303/306/453 305/312/444
f 335/383/450 304/315/446 302/308/454
f 302/308/454 337/386/455 335/383/450
f 326/374/442 315/329/439 317/330/456
f 317/330/456 324/387/457 326/374/442
f 314/332/441 327/388/443 325/389/458
f 325/389/458 316/333/459 314/332/441
f 297/343/460 342/390/461 344/391/462
f 344/391/462 295/340/463 297/343/460
f 343/392/464 296/347/465 294/346/466
f 294/346/466 345/393/467 343/392/464
f 285/354/468 287/287/352 348/286/351
f 348/286/351 350/394/469 285/354/468
f 349/395/354 286/359/353 284/368/470
f 284/368/470 351/396/471 349/395/354
f 295/340/463 344/391/462 346/397/472
f 350/394/469 348/286/351 346/398/472
f 346/398/472 359/399/473 350/394/469
f 346/397/472 348/400/351 293/341/350
f 293/341/350 295/340/463 346/397/472
f 347/401/474 345/402/467 294/403/466
f 347/401/474 349/395/354 351/396/471
f 351/396/471 360/404/475 347/401/474
f 292/360/355 349/395/354 347/401/474
f 347/401/474 294/403/466 292/360/355
f 285/354/468 350/394/469 352/405/476
f 352/405/476 350/394/469 359/399/473
f 346/398/472 344/406/462 359/399/473
f 353/407/477 351/396/471 284/368/470
f 360/404/475 351/396/471 353/407/477
f 360/404/475 345/402/467 347/401/474
f 283/355/478 285/354/468 352/405/476
f 352/405/476 354/408/479 283/355/478
f 353/407/477 284/368/470 282/367/480
f 282/367/480 355/409/481 353/407/477
f 320/337/482 321/410/483 322/411/484
f 322/411/484 319/334/485 320/337/482
f 324/387/457 317/330/456 319/334/485
f 319/334/485 322/411/484 324/387/457
f 363/412/449 326/413/442 324/414/457
f 324/414/457 361/415/486 363/412/449
f 321/410/483 320/337/482 318/335/487
f 318/335/487 323/416/488 321/410/483
f 318/335/487 316/333/459 325/389/458
f 325/389/458 323/416/488 318/335/487
f 364/417/451 335/418/450 337/419/455
f 337/419/455 362/420/489 364/417/451
f 325/421/458 327/422/443 364/417/451
f 364/417/451 362/420/489 325/421/458
f 323/423/488 325/421/458 362/420/489
f 369/424/490 321/425/483 323/423/488
f 323/423/488 362/420/489 369/424/490
f 336/426/452 334/427/448 363/412/449
f 363/412/449 361/415/486 336/426/452
f 361/415/486 324/414/457 322/428/484
f 322/428/484 321/425/483 369/424/490
f 369/424/490 361/415/486 322/428/484
f 337/386/455 302/308/454 300/303/491
f 300/303/491 339/429/492 337/386/455
f 303/306/453 336/385/452 338/430/493
f 338/430/493 301/299/494 303/306/453
f 341/431/495 339/429/492 300/303/491
f 300/303/491 298/304/496 341/431/495
f 298/304/496 296/347/497 343/392/498
f 343/392/498 341/431/495 298/304/496
f 362/420/489 337/419/455 339/432/492
f 339/432/492 366/433/499 362/420/489
f 301/299/494 338/430/493 340/434/500
f 340/434/500 299/300/501 301/299/494
f 342/390/502 297/343/503 299/300/501
f 299/300/501 340/434/500 342/390/502
f 338/435/493 336/426/452 361/415/486
f 361/415/486 365/436/504 338/435/493
f 360/437/475 353/438/477 355/439/481
f 355/439/481 358/440/505 360/437/475
f 366/433/499 367/441/506 369/424/490
f 369/424/490 362/420/489 366/433/499
f 366/433/499 339/432/492 341/442/495
f 354/443/479 352/444/476 359/445/473
f 359/445/473 357/446/507 354/443/479
f 369/424/490 367/441/506 365/436/504
f 365/436/504 361/415/486 369/424/490
f 340/447/500 338/435/493 365/436/504
f 343/448/464 345/449/467 360/437/475
f 360/437/475 358/440/505 343/448/464
f 341/442/495 343/448/498 358/440/508
f 358/440/508 366/433/499 341/442/495
f 359/445/473 344/450/462 342/451/461
f 342/451/461 357/446/507 359/445/473
f 357/446/509 342/451/502 340/447/500
f 340/447/500 365/436/504 357/446/509
f 368/452/510 367/441/506 366/433/499
f 366/433/499 358/440/508 368/452/510
f 281/370/511 283/355/478 354/408/479
f 354/408/479 356/453/512 281/370/511
f 354/443/513 357/446/509 368/452/510
f 368/452/510 356/454/514 354/443/513
f 355/409/481 282/367/480 281/370/511
f 281/370/511 356/453/512 355/409/481
f 368/452/510 358/440/508 355/439/515
f 355/439/515 356/454/514 368/452/510
f 365/436/504 367/441/506 368/452/510
f 368/452/510 357/446/509 365/436/504
f 121/455/516 119/456/517 376/457/518
f 376/457/518 374/458/519 121/455/516
f 377/459/520 118/460/521 120/461/522
f 120/461/522 375/462/523 377/459/520
f 111/213/286 121/455/516 123/463/524
f 123/463/524 109/214/72 111/213/286
f 121/455/516 374/458/519 372/464/525
f 372/464/525 123/463/524 121/455/516
f 120/461/522 110/211/284 108/210/68
f 108/210/68 122/465/526 120/461/522
f 375/462/523 120/461/522 122/465/526
f 122/465/526 373/466/527 375/462/523
f 137/53/73 109/52/72 123/467/524
f 123/467/524 125/468/528 137/53/73
f 125/468/528 123/467/524 372/469/525
f 372/469/525 370/470/529 125/468/528
f 122/471/526 108/48/68 136/47/67
f 136/47/67 124/472/530 122/471/526
f 373/473/527 122/471/526 124/472/530
f 124/472/530 371/474/531 373/473/527
f 137/53/73 125/468/528 127/475/532
f 127/475/532 135/165/195 137/53/73
f 125/468/528 370/470/529 416/476/533
f 416/476/533 127/475/532 125/468/528
f 124/472/530 136/47/67 134/163/193
f 134/163/193 126/477/534 124/472/530
f 417/478/535 371/474/531 124/472/530
f 124/472/530 126/477/534 417/478/535
f 133/170/207 135/165/195 127/475/532
f 127/475/532 129/479/536 133/170/207
f 126/477/534 134/163/193 132/167/198
f 132/167/198 128/480/537 126/477/534
f 128/480/537 132/167/198 131/201/269
f 131/201/269 130/481/538 128/480/537
f 133/170/207 129/479/536 130/481/538
f 130/481/538 131/201/269 133/170/207
f 413/482/539 130/481/538 129/479/536
f 129/479/536 414/483/540 413/482/539
f 127/475/532 416/476/533 414/483/540
f 414/483/540 129/479/536 127/475/532
f 128/480/537 130/481/538 413/482/539
f 413/482/539 415/484/541 128/480/537
f 415/484/541 417/478/535 126/477/534
f 126/477/534 128/480/537 415/484/541
f 113/238/311 115/66/82 117/65/81
f 117/65/81 119/456/517 113/238/311
f 121/455/516 111/213/286 113/238/311
f 113/238/311 119/456/517 121/455/516
f 116/63/80 114/62/79 112/235/307
f 112/235/307 118/460/521 116/63/80
f 110/211/284 120/461/522 118/460/521
f 118/460/521 112/235/307 110/211/284
f 117/65/81 38/60/77 36/485/542
f 36/485/542 119/456/517 117/65/81
f 35/486/543 37/57/75 116/63/80
f 116/63/80 118/460/521 35/486/543
f 38/60/77 32/64/37 34/487/544
f 34/487/544 36/485/542 38/60/77
f 33/488/545 31/55/33 37/57/75
f 37/57/75 35/486/543 33/488/545
f 378/489/546 376/457/518 119/456/517
f 119/456/517 36/485/542 388/490/547
f 388/490/547 378/489/546 119/456/517
f 118/460/521 377/459/520 379/491/548
f 35/486/543 118/460/521 379/491/548
f 379/491/548 389/492/549 35/486/543
f 380/493/550 378/489/546 388/490/547
f 388/490/547 386/494/551 380/493/550
f 386/494/551 384/495/552 382/496/553
f 382/496/553 380/493/550 386/494/551
f 389/492/549 379/491/548 381/497/554
f 381/497/554 387/498/555 389/492/549
f 383/499/556 385/500/557 387/498/555
f 387/498/555 381/497/554 383/499/556
f 400/501/558 378/489/546 380/493/550
f 380/493/550 398/502/559 400/501/558
f 381/497/554 379/491/548 401/503/560
f 401/503/560 399/504/561 381/497/554
f 382/496/553 396/505/562 398/502/559
f 398/502/559 380/493/550 382/496/553
f 396/506/562 424/507/563 422/508/564
f 422/508/564 398/509/559 396/506/562
f 420/510/565 400/511/558 398/509/559
f 398/509/559 422/508/564 420/510/565
f 399/504/561 397/512/566 383/499/556
f 383/499/556 381/497/554 399/504/561
f 423/513/567 425/514/568 397/515/566
f 397/515/566 399/516/561 423/513/567
f 399/516/561 401/517/560 421/518/569
f 421/518/569 423/513/567 399/516/561
f 384/495/552 386/494/551 392/519/570
f 392/519/570 394/520/571 384/495/552
f 394/521/571 392/522/570 428/523/572
f 428/523/572 426/524/573 394/521/571
f 396/505/562 382/496/553 384/495/552
f 384/495/552 394/520/571 396/505/562
f 426/524/573 424/507/563 396/506/562
f 396/506/562 394/521/571 426/524/573
f 393/525/574 387/498/555 385/500/557
f 385/500/557 395/526/575 393/525/574
f 429/527/576 393/528/574 395/529/575
f 395/529/575 427/530/577 429/527/576
f 385/500/557 383/499/556 397/512/566
f 397/512/566 395/526/575 385/500/557
f 397/515/566 425/514/568 427/530/577
f 427/530/577 395/529/575 397/515/566
f 386/494/551 388/490/547 390/531/578
f 390/531/578 392/519/570 386/494/551
f 388/490/547 36/485/542 34/487/544
f 34/487/544 390/531/578 388/490/547
f 391/532/579 389/492/549 387/498/555
f 387/498/555 393/525/574 391/532/579
f 35/486/543 389/492/549 391/532/579
f 391/532/579 33/488/545 35/486/543
f 430/533/580 428/523/572 392/522/570
f 392/522/570 390/534/578 430/533/580
f 393/528/574 429/527/576 431/535/581
f 431/535/581 391/536/579 393/528/574
f 34/537/544 32/24/37 19/23/36
f 19/23/36 25/538/582 34/537/544
f 440/539/583 430/533/580 432/540/584
f 20/21/34 31/20/33 33/541/545
f 33/541/545 26/542/585 20/21/34
f 433/543/586 431/535/581 441/544/587
f 19/23/588 21/26/589 23/17/590
f 23/17/590 25/538/591 19/23/588
f 23/17/592 28/16/593 27/545/594
f 27/545/594 25/538/595 23/17/592
f 27/545/596 436/546/597 434/547/598
f 434/547/598 25/538/582 27/545/596
f 390/534/578 34/537/544 25/538/582
f 25/538/582 430/533/580 390/534/578
f 432/540/584 430/533/580 25/538/582
f 434/547/598 432/540/584 25/538/582
f 438/548/599 440/539/583 432/540/584
f 432/540/584 434/547/598 438/548/599
f 24/18/600 22/22/601 20/21/602
f 20/21/602 26/542/603 24/18/600
f 27/545/594 28/16/593 24/18/604
f 24/18/604 26/542/605 27/545/594
f 435/549/606 436/546/597 27/545/596
f 27/545/596 26/542/585 435/549/606
f 26/542/585 33/541/545 391/536/579
f 391/536/579 431/535/581 26/542/585
f 26/542/585 431/535/581 433/543/586
f 26/542/585 433/543/586 435/549/606
f 433/543/586 441/544/587 439/550/607
f 439/550/607 435/549/606 433/543/586
f 469/551/608 480/552/609 475/553/610
f 480/552/609 478/554/611 477/555/612
f 477/555/612 475/553/610 480/552/609
f 474/556/613 480/552/609 468/557/608
f 476/558/614 478/554/611 480/552/609
f 480/552/609 474/556/613 476/558/614
f 469/551/608 467/559/615 480/552/609
f 469/551/608 475/553/610 471/560/608
f 473/561/608 471/560/608 475/553/610
f 480/552/609 467/559/615 468/557/608
f 468/557/608 470/562/608 474/556/613
f 472/563/608 474/556/613 470/562/608
f 414/483/540 410/564/616 412/565/617
f 412/565/617 413/482/539 414/483/540
f 410/564/616 464/566/618 466/567/619
f 466/567/619 412/565/617 410/564/616
f 411/568/620 415/484/541 413/482/539
f 413/482/539 412/565/617 411/568/620
f 465/569/621 411/568/620 412/565/617
f 412/565/617 466/567/619 465/569/621
f 464/566/618 468/557/622 467/559/623
f 467/559/623 466/567/619 464/566/618
f 467/559/623 469/551/624 465/569/621
f 465/569/621 466/567/619 467/559/623
f 411/568/620 465/569/621 463/570/625
f 463/570/625 409/571/626 411/568/620
f 463/570/625 465/569/621 469/551/624
f 469/551/624 471/560/627 463/570/625
f 462/572/628 464/566/618 410/564/616
f 410/564/616 408/573/629 462/572/628
f 468/557/622 464/566/618 462/572/628
f 462/572/628 470/562/630 468/557/622
f 373/473/527 371/474/531 407/574/631
f 406/575/632 370/470/529 372/469/525
f 407/574/631 371/474/531 417/478/535
f 417/478/535 409/571/626 407/574/631
f 407/574/631 409/571/626 461/576/633
f 461/576/633 459/577/634 407/574/631
f 415/484/541 411/568/620 409/571/626
f 409/571/626 417/478/535 415/484/541
f 409/571/626 463/570/625 461/576/633
f 473/561/635 459/577/634 461/576/633
f 461/576/633 463/570/625 471/560/627
f 471/560/627 473/561/635 461/576/633
f 370/470/529 406/575/632 408/573/629
f 408/573/629 416/476/533 370/470/529
f 460/578/636 408/573/629 406/575/632
f 406/575/632 458/579/637 460/578/636
f 410/564/616 414/483/540 416/476/533
f 416/476/533 408/573/629 410/564/616
f 460/578/636 462/572/628 408/573/629
f 460/578/636 458/579/637 472/563/638
f 470/562/630 462/572/628 460/578/636
f 460/578/636 472/563/638 470/562/630
f 375/462/523 373/466/527 407/580/631
f 407/580/631 405/581/639 375/462/523
f 405/582/639 407/574/631 459/577/634
f 459/577/634 457/583/640 405/582/639
f 459/577/634 473/561/635 475/553/641
f 475/553/641 457/583/640 459/577/634
f 406/584/632 372/464/525 374/458/519
f 374/458/519 404/585/642 406/584/632
f 458/579/637 406/575/632 404/586/642
f 404/586/642 456/587/643 458/579/637
f 472/563/638 458/579/637 456/587/643
f 456/587/643 474/556/644 472/563/638
f 402/588/645 400/511/558 420/510/565
f 420/510/565 418/589/646 402/588/645
f 421/518/569 401/517/560 403/590/647
f 403/590/647 419/591/648 421/518/569
f 484/592/649 455/593/650 453/594/651
f 478/554/652 476/558/653 452/595/654
f 452/595/654 479/596/655 478/554/652
f 453/594/656 477/555/657 478/554/652
f 478/554/652 479/596/655 453/594/656
f 482/597/658 484/592/649 453/594/651
f 452/595/659 483/598/660 481/599/661
f 447/600/662 423/513/567 421/518/569
f 421/518/569 449/601/663 447/600/662
f 482/597/664 486/602/665 447/600/666
f 447/600/666 449/601/667 482/597/664
f 421/518/569 419/591/648 451/603/668
f 451/603/668 449/601/663 421/518/569
f 449/601/667 451/603/669 482/597/664
f 451/603/668 419/591/648 484/592/649
f 484/592/649 482/597/658 451/603/668
f 450/604/670 418/589/646 420/510/565
f 420/510/565 448/605/671 450/604/670
f 481/599/672 450/604/673 448/605/674
f 483/598/660 418/589/646 450/604/670
f 450/604/670 481/599/661 483/598/660
f 485/606/675 479/596/675 452/595/659
f 452/595/659 481/599/661 485/606/675
f 453/594/651 479/596/675 485/606/675
f 485/606/675 482/597/658 453/594/651
f 486/602/665 482/597/664 485/606/676
f 485/606/676 491/607/677 486/602/665
f 424/507/563 444/608/678 446/609/679
f 446/609/679 422/508/564 424/507/563
f 448/605/671 420/510/565 422/508/564
f 422/508/564 446/609/679 448/605/671
f 481/599/672 448/605/674 446/609/680
f 446/609/680 487/610/681 481/599/672
f 487/610/681 491/607/677 485/606/676
f 485/606/676 481/599/672 487/610/681
f 425/514/568 423/513/567 447/600/662
f 447/600/662 445/611/682 425/514/568
f 376/457/518 378/489/546 400/501/558
f 400/501/558 402/612/645 376/457/518
f 402/612/645 404/585/642 374/458/519
f 374/458/519 376/457/518 402/612/645
f 456/587/643 404/586/642 402/588/645
f 402/588/645 454/613/683 456/587/643
f 402/588/645 418/589/646 483/598/660
f 402/588/645 483/598/660 454/613/683
f 454/613/684 452/595/654 476/558/653
f 483/598/660 452/595/659 454/613/683
f 476/558/685 474/556/644 456/587/643
f 456/587/643 454/613/683 476/558/685
f 401/503/560 379/491/548 377/459/520
f 377/459/520 403/614/647 401/503/560
f 375/462/523 405/581/639 403/614/647
f 403/614/647 377/459/520 375/462/523
f 403/590/647 405/582/639 457/583/640
f 457/583/640 455/593/650 403/590/647
f 484/592/649 419/591/648 403/590/647
f 455/593/650 484/592/649 403/590/647
f 477/555/657 453/594/656 455/593/686
f 457/583/640 475/553/641 477/555/687
f 477/555/687 455/593/650 457/583/640
f 489/615/688 487/610/681 446/609/680
f 446/609/680 444/608/689 489/615/688
f 447/600/666 486/602/665 488/616/690
f 488/616/690 445/611/691 447/600/666
f 491/607/677 487/610/681 489/615/688
f 489/615/688 490/617/692 491/607/677
f 486/602/665 491/607/677 490/617/692
f 490/617/692 488/616/690 486/602/665
f 489/615/688 444/608/689 442/618/693
f 488/616/690 490/617/692 492/619/694
f 443/620/695 445/611/691 488/616/690
f 443/620/695 488/616/690 492/619/694
f 492/619/694 490/617/692 489/615/688
f 442/618/696 440/539/583 438/548/599
f 438/548/599 437/621/697 442/618/696
f 430/533/580 440/539/583 442/618/696
f 442/618/696 428/523/572 430/533/580
f 424/507/563 426/524/573 444/608/678
f 442/618/696 444/608/678 426/524/573
f 442/618/696 426/524/573 428/523/572
f 492/619/694 489/615/688 442/618/693
f 434/547/598 436/546/597 437/621/697
f 437/621/697 438/548/599 434/547/598
f 436/546/597 435/549/606 439/550/607
f 439/550/607 437/621/697 436/546/597
f 439/550/607 441/544/587 443/620/698
f 443/620/698 437/621/697 439/550/607
f 437/621/697 492/619/699 442/618/696
f 443/620/698 492/619/699 437/621/697
f 443/620/698 441/544/587 431/535/581
f 431/535/581 429/527/576 443/620/698
f 425/514/568 445/611/682 427/530/577
f 443/620/698 427/530/577 445/611/682
f 429/527/576 427/530/577 443/620/698
f 493/622/700 494/623/701 506/624/701
f 506/624/701 505/625/700 493/622/700
f 494/623/701 495/626/702 507/627/702
f 507/627/702 506/624/701 494/623/701
f 495/626/702 496/628/703 508/629/703
f 508/629/703 507/627/702 495/626/702
f 496/630/703 497/631/704 509/632/704
f 509/632/704 508/633/703 496/630/703
f 497/631/704 498/634/705 510/635/705
f 510/635/705 509/632/704 497/631/704
f 498/634/705 499/636/706 511/637/706
f 511/637/706 510/635/705 498/634/705
f 499/636/706 500/638/707 512/639/707
f 512/639/707 511/637/706 499/636/706
f 500/638/707 501/640/708 513/641/708
f 513/641/708 512/639/707 500/638/707
f 501/640/708 502/642/709 514/643/709
f 514/643/709 513/641/708 501/640/708
f 502/642/709 503/644/710 515/645/710
f 515/645/710 514/643/709 502/642/709
f 503/644/710 504/646/711 516/647/711
f 516/647/711 515/645/710 503/644/710
f 504/646/711 493/622/700 505/625/700
f 505/625/700 516/647/711 504/646/711
f 506/648/712 507/649/712 508/650/712
f 508/650/712 509/651/712 510/652/712
f 510/652/712 511/653/712 512/654/712
f 508/650/712 510/652/712 512/654/712
f 512/654/712 513/655/712 514/656/712
f 514/656/712 515/657/712 516/658/712
f 512/654/712 514/656/712 516/658/712
f 508/650/712 512/654/712 516/658/712
f 506/648/712 508/650/712 516/658/712
f 505/659/712 506/648/712 516/658/712
f 517/660/700 518/661/713 528/662/713
f 528/662/713 527/663/700 517/660/700
f 518/661/713 519/664/714 529/665/714
f 529/665/714 528/662/713 518/661/713
f 519/664/714 520/666/715 530/667/715
f 530/667/715 529/665/714 519/664/714
f 520/666/715 521/668/716 531/669/716
f 531/669/716 530/667/715 520/666/715
f 521/668/716 522/670/706 532/671/706
f 532/671/706 531/669/716 521/668/716
f 522/670/706 523/672/717 533/673/717
f 533/673/717 532/671/706 522/670/706
f 523/672/717 524/674/718 534/675/718
f 534/675/718 533/673/717 523/672/717
f 524/674/718 525/676/719 535/677/719
f 535/677/719 534/675/718 524/674/718
f 525/676/719 526/678/720 536/679/720
f 536/679/720 535/677/719 525/676/719
f 526/680/720 517/660/700 527/663/700
f 527/663/700 536/681/720 526/680/720
f 528/682/712 529/683/712 530/684/712
f 530/684/712 531/685/712 532/686/712
f 532/686/712 533/687/712 534/688/712
f 534/688/712 535/689/712 536/690/712
f 532/686/712 534/688/712 536/690/712
f 530/684/712 532/686/712 536/690/712
f 528/682/712 530/684/712 536/690/712
f 527/691/712 528/682/712 536/690/712
f 537/692/700 538/693/713 548/694/713
f 548/694/713 547/695/700 537/692/700
f 538/693/713 539/696/714 549/697/714
f 549/697/714 548/694/713 538/693/713
f 539/696/714 540/698/715 550/699/715
f 550/699/715 549/697/714 539/696/714
f 540/698/715 541/700/716 551/701/716
f 551/701/716 550/699/715 540/698/715
f 541/700/716 542/702/706 552/703/706
f 552/703/706 551/701/716 541/700/716
f 542/702/706 543/704/717 553/705/717
f 553/705/717 552/703/706 542/702/706
f 543/706/717 544/707/718 554/708/718
f 554/708/718 553/709/717 543/706/717
f 544/707/718 545/710/719 555/711/719
f 555/711/719 554/708/718 544/707/718
f 545/710/719 546/712/720 556/713/720
f 556/713/720 555/711/719 545/710/719
f 546/712/720 537/692/700 547/695/700
f 547/695/700 556/713/720 546/712/720
f 548/714/712 549/715/712 550/716/712
f 550/716/712 551/717/712 552/718/712
f 552/718/712 553/719/712 554/720/712
f 554/720/712 555/721/712 556/722/712
f 552/718/712 554/720/712 556/722/712
f 550/716/712 552/718/712 556/722/712
f 548/714/712 550/716/712 556/722/712
f 547/723/712 548/714/712 556/722/712
